0
SECTION
2
ENTITIES
0
ARC
8
0
10
14.100000
20
3.099963
30
0.0
40
0.500000
50
180.000000
51
229.297716
0
LINE
8
0
10
13.773936
20
2.720909
30
0.0
11
15.211090
21
1.484662
31
0.0
0
ARC
8
0
10
15.537154
20
1.863716
30
0.0
40
0.500000
50
229.297716
51
300.000000
0
LINE
8
0
10
15.787154
20
1.430703
30
0.0
11
17.500000
21
2.419615
31
0.0
0
ARC
8
0
10
17.800000
20
1.900000
30
0.0
40
0.600000
50
300.000000
51
120.000000
0
LINE
8
0
10
18.100000
20
1.380385
30
0.0
11
15.933077
21
0.129311
31
0.0
0
LINE
8
0
10
15.933077
20
0.129311
30
0.0
11
15.895359
21
0.109103
31
0.0
0
ARC
8
0
10
15.441154
20
1.000000
30
0.0
40
1.000000
50
240.000000
51
297.013787
0
LINE
8
0
10
14.941154
20
0.133975
30
0.0
11
13.095743
21
1.721407
31
0.0
0
ARC
8
0
10
14.400000
20
3.237624
30
0.0
40
2.000000
50
180.000000
51
229.297716
0
LINE
8
0
10
12.400000
20
3.237624
30
0.0
11
12.400000
21
3.500000
31
0.0
0
ARC
8
0
10
12.100000
20
3.500000
30
0.0
40
0.300000
50
360.000000
51
90.000000
0
LINE
8
0
10
12.100000
20
3.800000
30
0.0
11
5.100000
21
3.800000
31
0.0
0
ARC
8
0
10
5.100000
20
3.300000
30
0.0
40
0.500000
50
90.000000
51
180.000000
0
LINE
8
0
10
4.600000
20
3.300000
30
0.0
11
4.600000
21
1.000000
31
0.0
0
ARC
8
0
10
4.100000
20
1.000000
30
0.0
40
0.500000
50
270.000000
51
360.000000
0
LINE
8
0
10
4.100000
20
0.500000
30
0.0
11
4.051838
21
0.500000
31
0.0
0
ARC
8
0
10
4.051838
20
1.100000
30
0.0
40
0.600000
50
210.018367
51
270.000000
0
LINE
8
0
10
3.532318
20
0.799833
30
0.0
11
2.600000
21
2.500000
31
0.0
0
LINE
8
0
10
2.600000
20
2.500000
30
0.0
11
3.400000
21
3.000000
31
0.0
0
LINE
8
0
10
3.400000
20
3.000000
30
0.0
11
3.400000
21
6.000000
31
0.0
0
LINE
8
0
10
3.400000
20
6.000000
30
0.0
11
1.900000
21
6.000000
31
0.0
0
LINE
8
0
10
1.900000
20
6.000000
30
0.0
11
1.900000
21
5.200000
31
0.0
0
ARC
8
0
10
1.700000
20
5.200000
30
0.0
40
0.200000
50
270.000000
51
360.000000
0
LINE
8
0
10
1.700000
20
5.000000
30
0.0
11
1.100000
21
5.000000
31
0.0
0
ARC
8
0
10
1.100000
20
5.200000
30
0.0
40
0.200000
50
180.000000
51
270.000000
0
LINE
8
0
10
0.900000
20
5.200000
30
0.0
11
0.900000
21
6.000000
31
0.0
0
LINE
8
0
10
0.900000
20
6.000000
30
0.0
11
0.000000
21
6.000000
31
0.0
0
LINE
8
0
10
0.000000
20
6.000000
30
0.0
11
0.000000
21
27.000000
31
0.0
0
LINE
8
0
10
0.000000
20
27.000000
30
0.0
11
12.000000
21
27.000000
31
0.0
0
LINE
8
0
10
12.000000
20
27.000000
30
0.0
11
12.000000
21
25.242820
31
0.0
0
LINE
8
0
10
12.000000
20
25.242820
30
0.0
11
10.800000
21
24.550000
31
0.0
0
LINE
8
0
10
10.800000
20
24.550000
30
0.0
11
10.800000
21
25.800000
31
0.0
0
LINE
8
0
10
10.800000
20
25.800000
30
0.0
11
8.300000
21
25.800000
31
0.0
0
LINE
8
0
10
8.300000
20
25.800000
30
0.0
11
8.300000
21
19.300000
31
0.0
0
LINE
8
0
10
8.300000
20
19.300000
30
0.0
11
10.800000
21
19.300000
31
0.0
0
LINE
8
0
10
10.800000
20
19.300000
30
0.0
11
10.800000
21
20.550000
31
0.0
0
LINE
8
0
10
10.800000
20
20.550000
30
0.0
11
12.000000
21
19.857180
31
0.0
0
LINE
8
0
10
12.000000
20
19.857180
30
0.0
11
12.000000
21
19.100000
31
0.0
0
ARC
8
0
10
11.000000
20
19.100000
30
0.0
40
1.000000
50
270.000000
51
360.000000
0
LINE
8
0
10
11.000000
20
18.100000
30
0.0
11
8.100000
21
18.100000
31
0.0
0
ARC
8
0
10
8.100000
20
19.100000
30
0.0
40
1.000000
50
180.000000
51
270.000000
0
LINE
8
0
10
7.100000
20
19.100000
30
0.0
11
7.100000
21
25.300000
31
0.0
0
ARC
8
0
10
6.600000
20
25.300000
30
0.0
40
0.500000
50
360.000000
51
90.000000
0
LINE
8
0
10
6.600000
20
25.800000
30
0.0
11
1.700000
21
25.800000
31
0.0
0
ARC
8
0
10
1.700000
20
25.300000
30
0.0
40
0.500000
50
90.000000
51
180.000000
0
LINE
8
0
10
1.200000
20
25.300000
30
0.0
11
1.200000
21
7.700000
31
0.0
0
ARC
8
0
10
1.700000
20
7.700000
30
0.0
40
0.500000
50
180.000000
51
270.000000
0
LINE
8
0
10
1.700000
20
7.200000
30
0.0
11
4.600000
21
7.200000
31
0.0
0
LINE
8
0
10
4.600000
20
7.200000
30
0.0
11
4.600000
21
5.000000
31
0.0
0
LINE
8
0
10
4.600000
20
5.000000
30
0.0
11
12.100000
21
5.000000
31
0.0
0
ARC
8
0
10
12.100000
20
3.500000
30
0.0
40
1.500000
50
360.000000
51
90.000000
0
LINE
8
0
10
13.600000
20
3.500000
30
0.0
11
13.600000
21
3.099963
31
0.0
0
ATTDEF
8
0
10
0.000000
20
27.000000
30
0.0
40
3.5
1

3

2
VC_START
70
0
0
ATTDEF
8
0
10
1.100000
20
5.000000
30
0.0
40
3.5
1

3

2
VC_END
70
0
0
ATTDEF
8
0
10
0.000000
20
0.000000
30
0.0
40
3.5
1

3

2
DESC:Contravidrio recto de 12 mm
70
0
0
ATTDEF
8
0
10
0.000000
20
0.000000
30
0.0
40
3.5
1

3

2
DENS:0.232
70
0
0
ATTDEF
8
0
10
0.000000
20
0.000000
30
0.0
40
3.5
1

3

2
TDEV:0
70
0
0
ATTDEF
8
0
10
0.000000
20
0.000000
30
0.0
40
3.5
1

3

2
TDEV2:0
70
0
0
ATTDEF
8
0
10
0.000000
20
0.000000
30
0.0
40
3.5
1

3

2
TDEV3:0
70
0
0
ATTDEF
8
0
10
0.000000
20
0.000000
30
0.0
40
3.5
1

3

2
TDEV4:0
70
0
0
ATTDEF
8
0
10
0.000000
20
0.000000
30
0.0
40
3.5
1

3

2
TDEV5:0
70
0
0
ATTDEF
8
0
10
0.000000
20
0.000000
30
0.0
40
3.5
1

3

2
MIN_VETRO:0
70
0
0
ATTDEF
8
0
10
0.000000
20
0.000000
30
0.0
40
3.5
1

3

2
MAX_VETRO:0
70
0
0
ATTDEF
8
0
10
0.000000
20
0.000000
30
0.0
40
3.5
1

3

2
JX:0
70
0
0
ATTDEF
8
0
10
0.000000
20
0.000000
30
0.0
40
3.5
1

3

2
WX:0
70
0
0
ATTDEF
8
0
10
0.000000
20
0.000000
30
0.0
40
3.5
1

3

2
JY:0
70
0
0
ATTDEF
8
0
10
0.000000
20
0.000000
30
0.0
40
3.5
1

3

2
WY:0
70
0
0
ATTDEF
8
0
10
0.000000
20
5.000000
30
0.0
40
3.5
1

3

2
PTO_ANTA
70
0
0
ATTDEF
8
0
10
18.400000
20
0.000000
30
0.0
40
3.5
1

3

2
FP_LCS_ORIG
70
0
0
ATTDEF
8
0
10
8.400000
20
0.000000
30
0.0
40
3.5
1

3

2
FP_LCS_HOT
70
0
0
ATTDEF
8
0
10
18.400000
20
10.000000
30
0.0
40
3.5
1

3

2
FP_LCS_INTERN
70
0
0
ATTDEF
8
0
10
0.000000
20
0.000000
30
0.0
40
3.5
1

3

2
PANE_WIDTH:48.000000
70
0
0
ENDSEC
0
EOF
