0
SECTION
2
ENTITIES
0
LINE
8
0
10
48.250000
20
54.600000
30
0.0
11
49.450000
21
54.600000
31
0.0
0
LINE
8
0
10
49.450000
20
54.600000
30
0.0
11
49.450000
21
53.900000
31
0.0
0
ARC
8
0
10
49.950000
20
53.900000
30
0.0
40
0.500000
50
180.000000
51
270.000000
0
LINE
8
0
10
49.950000
20
53.400000
30
0.0
11
57.500000
21
53.400000
31
0.0
0
ARC
8
0
10
57.500000
20
53.900000
30
0.0
40
0.500000
50
270.000000
51
360.000000
0
LINE
8
0
10
58.000000
20
53.900000
30
0.0
11
58.000000
21
67.400000
31
0.0
0
ARC
8
0
10
57.500000
20
67.400000
30
0.0
40
0.500000
50
360.000000
51
90.000000
0
LINE
8
0
10
57.500000
20
67.900000
30
0.0
11
49.950000
21
67.900000
31
0.0
0
ARC
8
0
10
49.950000
20
67.400000
30
0.0
40
0.500000
50
90.000000
51
180.000000
0
LINE
8
0
10
49.450000
20
67.400000
30
0.0
11
49.450000
21
66.700000
31
0.0
0
LINE
8
0
10
49.450000
20
66.700000
30
0.0
11
48.250000
21
66.700000
31
0.0
0
LINE
8
0
10
48.250000
20
66.700000
30
0.0
11
48.250000
21
67.900000
31
0.0
0
LINE
8
0
10
48.250000
20
67.900000
30
0.0
11
11.750000
21
67.900000
31
0.0
0
LINE
8
0
10
11.750000
20
67.900000
30
0.0
11
11.750000
21
66.700000
31
0.0
0
LINE
8
0
10
11.750000
20
66.700000
30
0.0
11
10.550000
21
66.700000
31
0.0
0
LINE
8
0
10
10.550000
20
66.700000
30
0.0
11
10.550000
21
67.400000
31
0.0
0
ARC
8
0
10
10.050000
20
67.400000
30
0.0
40
0.500000
50
360.000000
51
90.000000
0
LINE
8
0
10
10.050000
20
67.900000
30
0.0
11
2.500000
21
67.900000
31
0.0
0
ARC
8
0
10
2.500000
20
67.400000
30
0.0
40
0.500000
50
90.000000
51
180.000000
0
LINE
8
0
10
2.000000
20
67.400000
30
0.0
11
2.000000
21
53.900000
31
0.0
0
ARC
8
0
10
2.500000
20
53.900000
30
0.0
40
0.500000
50
180.000000
51
270.000000
0
LINE
8
0
10
2.500000
20
53.400000
30
0.0
11
10.050000
21
53.400000
31
0.0
0
ARC
8
0
10
10.050000
20
53.900000
30
0.0
40
0.500000
50
270.000000
51
360.000000
0
LINE
8
0
10
10.550000
20
53.900000
30
0.0
11
10.550000
21
54.600000
31
0.0
0
LINE
8
0
10
10.550000
20
54.600000
30
0.0
11
11.750000
21
54.600000
31
0.0
0
LINE
8
0
10
11.750000
20
54.600000
30
0.0
11
11.750000
21
53.400000
31
0.0
0
LINE
8
0
10
11.750000
20
53.400000
30
0.0
11
24.019844
21
53.400000
31
0.0
0
LINE
8
0
10
24.019844
20
53.400000
30
0.0
11
48.250000
21
53.400000
31
0.0
0
LINE
8
0
10
48.250000
20
53.400000
30
0.0
11
48.250000
21
54.600000
31
0.0
0
LINE
8
0
10
2.500000
20
74.900000
30
0.0
11
0.000000
21
74.900000
31
0.0
0
LINE
8
0
10
0.000000
20
74.900000
30
0.0
11
0.000000
21
3.900000
31
0.0
0
LINE
8
0
10
0.000000
20
3.900000
30
0.0
11
6.000000
21
3.900000
31
0.0
0
LINE
8
0
10
6.000000
20
3.900000
30
0.0
11
6.000000
21
5.600000
31
0.0
0
ARC
8
0
10
5.500000
20
5.600000
30
0.0
40
0.500000
50
360.000000
51
90.000000
0
LINE
8
0
10
5.500000
20
6.100000
30
0.0
11
4.400000
21
6.100000
31
0.0
0
LINE
8
0
10
4.400000
20
6.100000
30
0.0
11
4.400000
21
5.300000
31
0.0
0
LINE
8
0
10
4.400000
20
5.300000
30
0.0
11
2.000000
21
5.300000
31
0.0
0
LINE
8
0
10
2.000000
20
5.300000
30
0.0
11
2.000000
21
10.700000
31
0.0
0
LINE
8
0
10
2.000000
20
10.700000
30
0.0
11
4.400000
21
10.700000
31
0.0
0
LINE
8
0
10
4.400000
20
10.700000
30
0.0
11
4.400000
21
9.900000
31
0.0
0
LINE
8
0
10
4.400000
20
9.900000
30
0.0
11
5.500000
21
9.900000
31
0.0
0
ARC
8
0
10
5.500000
20
10.400000
30
0.0
40
0.500000
50
270.000000
51
360.000000
0
LINE
8
0
10
6.000000
20
10.400000
30
0.0
11
6.000000
21
12.300000
31
0.0
0
LINE
8
0
10
6.000000
20
12.300000
30
0.0
11
6.000000
21
13.600000
31
0.0
0
LINE
8
0
10
6.000000
20
13.600000
30
0.0
11
5.100000
21
13.600000
31
0.0
0
ARC
8
0
10
5.100000
20
13.100000
30
0.0
40
0.500000
50
90.000000
51
180.000000
0
LINE
8
0
10
4.600000
20
13.100000
30
0.0
11
4.600000
21
12.600000
31
0.0
0
ARC
8
0
10
4.100000
20
12.600000
30
0.0
40
0.500000
50
270.000000
51
360.000000
0
LINE
8
0
10
4.100000
20
12.100000
30
0.0
11
2.500000
21
12.100000
31
0.0
0
ARC
8
0
10
2.500000
20
12.600000
30
0.0
40
0.500000
50
180.000000
51
270.000000
0
LINE
8
0
10
2.000000
20
12.600000
30
0.0
11
2.000000
21
49.400000
31
0.0
0
ARC
8
0
10
4.000000
20
49.400000
30
0.0
40
2.000000
50
90.000000
51
180.000000
0
LINE
8
0
10
4.000000
20
51.400000
30
0.0
11
56.000000
21
51.400000
31
0.0
0
ARC
8
0
10
56.000000
20
49.400000
30
0.0
40
2.000000
50
360.000000
51
90.000000
0
LINE
8
0
10
58.000000
20
49.400000
30
0.0
11
58.000000
21
12.600000
31
0.0
0
ARC
8
0
10
57.500000
20
12.600000
30
0.0
40
0.500000
50
270.000000
51
360.000000
0
LINE
8
0
10
57.500000
20
12.100000
30
0.0
11
55.900000
21
12.100000
31
0.0
0
ARC
8
0
10
55.900000
20
12.600000
30
0.0
40
0.500000
50
180.000000
51
270.000000
0
LINE
8
0
10
55.400000
20
12.600000
30
0.0
11
55.400000
21
13.100000
31
0.0
0
ARC
8
0
10
54.900000
20
13.100000
30
0.0
40
0.500000
50
360.000000
51
90.000000
0
LINE
8
0
10
54.900000
20
13.600000
30
0.0
11
54.000000
21
13.600000
31
0.0
0
LINE
8
0
10
54.000000
20
13.600000
30
0.0
11
54.000000
21
12.300000
31
0.0
0
LINE
8
0
10
54.000000
20
12.300000
30
0.0
11
54.000000
21
10.400000
31
0.0
0
ARC
8
0
10
54.500000
20
10.400000
30
0.0
40
0.500000
50
180.000000
51
270.000000
0
LINE
8
0
10
54.500000
20
9.900000
30
0.0
11
55.600000
21
9.900000
31
0.0
0
LINE
8
0
10
55.600000
20
9.900000
30
0.0
11
55.600000
21
10.700000
31
0.0
0
LINE
8
0
10
55.600000
20
10.700000
30
0.0
11
58.000000
21
10.700000
31
0.0
0
LINE
8
0
10
58.000000
20
10.700000
30
0.0
11
58.000000
21
5.300000
31
0.0
0
LINE
8
0
10
58.000000
20
5.300000
30
0.0
11
55.600000
21
5.300000
31
0.0
0
LINE
8
0
10
55.600000
20
5.300000
30
0.0
11
55.600000
21
6.100000
31
0.0
0
LINE
8
0
10
55.600000
20
6.100000
30
0.0
11
54.500000
21
6.100000
31
0.0
0
ARC
8
0
10
54.500000
20
5.600000
30
0.0
40
0.500000
50
90.000000
51
180.000000
0
LINE
8
0
10
54.000000
20
5.600000
30
0.0
11
54.000000
21
3.900000
31
0.0
0
LINE
8
0
10
54.000000
20
3.900000
30
0.0
11
60.000000
21
3.900000
31
0.0
0
LINE
8
0
10
60.000000
20
3.900000
30
0.0
11
60.000000
21
74.900000
31
0.0
0
LINE
8
0
10
60.000000
20
74.900000
30
0.0
11
57.500000
21
74.900000
31
0.0
0
LINE
8
0
10
57.500000
20
74.900000
30
0.0
11
56.500000
21
73.900000
31
0.0
0
LINE
8
0
10
56.500000
20
73.900000
30
0.0
11
56.500000
21
72.900000
31
0.0
0
LINE
8
0
10
56.500000
20
72.900000
30
0.0
11
58.500000
21
72.900000
31
0.0
0
LINE
8
0
10
58.500000
20
72.900000
30
0.0
11
58.500000
21
69.900000
31
0.0
0
LINE
8
0
10
58.500000
20
69.900000
30
0.0
11
40.500000
21
69.900000
31
0.0
0
LINE
8
0
10
40.500000
20
69.900000
30
0.0
11
40.500000
21
72.900000
31
0.0
0
LINE
8
0
10
40.500000
20
72.900000
30
0.0
11
42.500000
21
72.900000
31
0.0
0
LINE
8
0
10
42.500000
20
72.900000
30
0.0
11
42.500000
21
73.900000
31
0.0
0
LINE
8
0
10
42.500000
20
73.900000
30
0.0
11
41.500000
21
74.900000
31
0.0
0
LINE
8
0
10
41.500000
20
74.900000
30
0.0
11
39.000000
21
74.900000
31
0.0
0
LINE
8
0
10
39.000000
20
74.900000
30
0.0
11
39.000000
21
70.400000
31
0.0
0
ARC
8
0
10
38.500000
20
70.400000
30
0.0
40
0.500000
50
270.000000
51
360.000000
0
LINE
8
0
10
38.500000
20
69.900000
30
0.0
11
21.500000
21
69.900000
31
0.0
0
ARC
8
0
10
21.500000
20
70.400000
30
0.0
40
0.500000
50
180.000000
51
270.000000
0
LINE
8
0
10
21.000000
20
70.400000
30
0.0
11
21.000000
21
74.900000
31
0.0
0
LINE
8
0
10
21.000000
20
74.900000
30
0.0
11
18.500000
21
74.900000
31
0.0
0
LINE
8
0
10
18.500000
20
74.900000
30
0.0
11
17.500000
21
73.900000
31
0.0
0
LINE
8
0
10
17.500000
20
73.900000
30
0.0
11
17.500000
21
72.900000
31
0.0
0
LINE
8
0
10
17.500000
20
72.900000
30
0.0
11
19.500000
21
72.900000
31
0.0
0
LINE
8
0
10
19.500000
20
72.900000
30
0.0
11
19.500000
21
69.900000
31
0.0
0
LINE
8
0
10
19.500000
20
69.900000
30
0.0
11
1.500000
21
69.900000
31
0.0
0
LINE
8
0
10
1.500000
20
69.900000
30
0.0
11
1.500000
21
72.900000
31
0.0
0
LINE
8
0
10
1.500000
20
72.900000
30
0.0
11
3.500000
21
72.900000
31
0.0
0
LINE
8
0
10
3.500000
20
72.900000
30
0.0
11
3.500000
21
73.900000
31
0.0
0
LINE
8
0
10
3.500000
20
73.900000
30
0.0
11
2.500000
21
74.900000
31
0.0
0
ATTDEF
8
0
10
0.000000
20
74.900000
30
0.0
40
3.5
1

3

2
HW_START
70
0
0
ATTDEF
8
0
10
60.000000
20
74.900000
30
0.0
40
3.5
1

3

2
HW_END
70
0
0
ATTDEF
8
0
10
0.000000
20
74.900000
30
0.0
40
3.5
1

3

2
VC_START
70
0
0
ATTDEF
8
0
10
0.000000
20
3.900000
30
0.0
40
3.5
1

3

2
VC_END
70
0
0
LINE
8
0
10
53.600000
20
3.900000
30
0.0
11
53.600000
21
14.498716
31
0.0
0
LINE
8
0
10
53.600000
20
14.498716
30
0.0
11
53.929410
21
14.586981
31
0.0
0
ARC
8
0
10
53.800000
20
15.069944
30
0.0
40
0.500000
50
285.000000
51
25.000000
0
LINE
8
0
10
54.253154
20
15.281253
30
0.0
11
53.353154
21
17.211309
31
0.0
0
ARC
8
0
10
52.900000
20
17.000000
30
0.0
40
0.500000
50
25.000000
51
180.000000
0
LINE
8
0
10
52.400000
20
17.000000
30
0.0
11
52.400000
21
7.400000
31
0.0
0
ARC
8
0
10
51.900000
20
7.400000
30
0.0
40
0.500000
50
270.000000
51
360.000000
0
LINE
8
0
10
51.900000
20
6.900000
30
0.0
11
8.100000
21
6.900000
31
0.0
0
ARC
8
0
10
8.100000
20
7.400000
30
0.0
40
0.500000
50
180.000000
51
270.000000
0
LINE
8
0
10
7.600000
20
7.400000
30
0.0
11
7.600000
21
17.000000
31
0.0
0
ARC
8
0
10
7.100000
20
17.000000
30
0.0
40
0.500000
50
360.000000
51
155.000000
0
LINE
8
0
10
6.646846
20
17.211309
30
0.0
11
5.746846
21
15.281253
31
0.0
0
ARC
8
0
10
6.200000
20
15.069944
30
0.0
40
0.500000
50
155.000000
51
255.000000
0
LINE
8
0
10
6.070590
20
14.586981
30
0.0
11
6.400000
21
14.498716
31
0.0
0
LINE
8
0
10
6.400000
20
14.498716
30
0.0
11
6.400000
21
3.900000
31
0.0
0
LINE
8
0
10
6.400000
20
3.900000
30
0.0
11
0.000000
21
3.900000
31
0.0
0
LINE
8
0
10
0.000000
20
3.900000
30
0.0
11
0.000000
21
0.000000
31
0.0
0
LINE
8
0
10
0.000000
20
0.000000
30
0.0
11
1.600000
21
0.000000
31
0.0
0
ARC
8
0
10
1.600000
20
0.600000
30
0.0
40
0.600000
50
270.000000
51
90.000000
0
LINE
8
0
10
1.600000
20
1.200000
30
0.0
11
1.200000
21
1.200000
31
0.0
0
LINE
8
0
10
1.200000
20
1.200000
30
0.0
11
1.200000
21
2.400000
31
0.0
0
LINE
8
0
10
1.200000
20
2.400000
30
0.0
11
6.700000
21
2.400000
31
0.0
0
LINE
8
0
10
6.700000
20
2.400000
30
0.0
11
6.700000
21
1.200000
31
0.0
0
LINE
8
0
10
6.700000
20
1.200000
30
0.0
11
6.300000
21
1.200000
31
0.0
0
ARC
8
0
10
6.300000
20
0.600000
30
0.0
40
0.600000
50
90.000000
51
270.000000
0
LINE
8
0
10
6.300000
20
0.000000
30
0.0
11
8.700000
21
0.000000
31
0.0
0
LINE
8
0
10
8.700000
20
0.000000
30
0.0
11
8.700000
21
3.400000
31
0.0
0
ARC
8
0
10
9.200000
20
3.400000
30
0.0
40
0.500000
50
90.000000
51
180.000000
0
LINE
8
0
10
9.200000
20
3.900000
30
0.0
11
29.500000
21
3.900000
31
0.0
0
LINE
8
0
10
29.500000
20
3.900000
30
0.0
11
30.000000
21
4.400000
31
0.0
0
LINE
8
0
10
30.000000
20
4.400000
30
0.0
11
30.500000
21
3.900000
31
0.0
0
LINE
8
0
10
30.500000
20
3.900000
30
0.0
11
50.800000
21
3.900000
31
0.0
0
ARC
8
0
10
50.800000
20
3.400000
30
0.0
40
0.500000
50
360.000000
51
90.000000
0
LINE
8
0
10
51.300000
20
3.400000
30
0.0
11
51.300000
21
0.000000
31
0.0
0
LINE
8
0
10
51.300000
20
0.000000
30
0.0
11
53.700000
21
0.000000
31
0.0
0
ARC
8
0
10
53.700000
20
0.600000
30
0.0
40
0.600000
50
270.000000
51
90.000000
0
LINE
8
0
10
53.700000
20
1.200000
30
0.0
11
53.300000
21
1.200000
31
0.0
0
LINE
8
0
10
53.300000
20
1.200000
30
0.0
11
53.300000
21
2.400000
31
0.0
0
LINE
8
0
10
53.300000
20
2.400000
30
0.0
11
58.800000
21
2.400000
31
0.0
0
LINE
8
0
10
58.800000
20
2.400000
30
0.0
11
58.800000
21
1.200000
31
0.0
0
LINE
8
0
10
58.800000
20
1.200000
30
0.0
11
58.400000
21
1.200000
31
0.0
0
ARC
8
0
10
58.400000
20
0.600000
30
0.0
40
0.600000
50
90.000000
51
270.000000
0
LINE
8
0
10
58.400000
20
0.000000
30
0.0
11
60.000000
21
0.000000
31
0.0
0
LINE
8
0
10
60.000000
20
0.000000
30
0.0
11
60.000000
21
3.900000
31
0.0
0
LINE
8
0
10
60.000000
20
3.900000
30
0.0
11
53.600000
21
3.900000
31
0.0
0
ATTDEF
8
0
10
0.000000
20
0.000000
30
0.0
40
3.5
1

3

2
HW_START
70
0
0
ATTDEF
8
0
10
60.000000
20
0.000000
30
0.0
40
3.5
1

3

2
HW_END
70
0
0
ATTDEF
8
0
10
0.000000
20
0.000000
30
0.0
40
3.5
1

3

2
DENS:0.000000
70
0
0
ATTDEF
8
0
10
0.000000
20
0.000000
30
0.0
40
3.5
1

3

2
GLASS_MIN:0.000000
70
0
0
ATTDEF
8
0
10
0.000000
20
0.000000
30
0.0
40
3.5
1

3

2
GLASS_MAX:0.000000
70
0
0
ATTDEF
8
0
10
0.000000
20
0.000000
30
0.0
40
3.5
1

3

2
DESC:6075 - 6077
70
0
0
ATTDEF
8
0
10
0.000000
20
0.000000
30
0.0
40
3.5
1

3

2
BL01:6500.000000,,1
70
0
0
ENDSEC
0
EOF
