0
SECTION
2
ENTITIES
0
LINE
8
PERFIL
10
6.950000
20
10.300000
30
0.0
11
5.800000
21
10.300000
31
0.0
0
LINE
8
PERFIL
10
5.800000
20
10.300000
30
0.0
11
5.800000
21
10.800000
31
0.0
0
ARC
8
PERFIL
10
6.950000
20
9.300000
30
0.0
40
1.000000
50
0.000000
51
90.000000
0
ARC
8
PERFIL
10
5.300000
20
10.800000
30
0.0
40
0.500000
50
0.000000
51
180.000000
0
LINE
8
PERFIL
10
7.950000
20
8.200000
30
0.0
11
7.950000
21
9.300000
31
0.0
0
LINE
8
PERFIL
10
4.800000
20
10.800000
30
0.0
11
4.800000
21
10.300000
31
0.0
0
ARC
8
PERFIL
10
7.350000
20
8.200000
30
0.0
40
0.600000
50
180.000000
51
0.000000
0
LINE
8
PERFIL
10
4.800000
20
10.300000
30
0.0
11
2.400000
21
10.300000
31
0.0
0
LINE
8
PERFIL
10
6.750000
20
8.400000
30
0.0
11
6.750000
21
8.200000
31
0.0
0
ARC
8
PERFIL
10
2.400000
20
11.300000
30
0.0
40
1.000000
50
180.000000
51
270.000000
0
ARC
8
PERFIL
10
6.250000
20
8.400000
30
0.0
40
0.500000
50
0.000000
51
90.000000
0
LINE
8
PERFIL
10
1.400000
20
11.300000
30
0.0
11
1.400000
21
31.800000
31
0.0
0
LINE
8
PERFIL
10
5.750000
20
8.900000
30
0.0
11
6.250000
21
8.900000
31
0.0
0
ARC
8
PERFIL
10
1.900000
20
31.800000
30
0.0
40
0.500000
50
90.000000
51
180.000000
0
ARC
8
PERFIL
10
5.750000
20
8.400000
30
0.0
40
0.500000
50
90.000000
51
180.000000
0
LINE
8
PERFIL
10
1.900000
20
32.300000
30
0.0
11
5.300000
21
32.300000
31
0.0
0
LINE
8
PERFIL
10
5.250000
20
7.451996
30
0.0
11
5.250000
21
8.400000
31
0.0
0
LINE
8
PERFIL
10
5.300000
20
32.300000
30
0.0
11
5.300000
21
31.800000
31
0.0
0
ARC
8
PERFIL
10
4.750000
20
7.451996
30
0.0
40
0.500000
50
264.878272
51
0.000000
0
ARC
8
PERFIL
10
5.800000
20
31.800000
30
0.0
40
0.500000
50
180.000000
51
0.000000
0
ARC
8
PERFIL
10
4.794636
20
7.950000
30
0.0
40
1.000000
50
204.396165
51
264.878272
0
LINE
8
PERFIL
10
6.300000
20
31.800000
30
0.0
11
6.300000
21
32.300000
31
0.0
0
ARC
8
PERFIL
10
2.700000
20
7.000000
30
0.0
40
1.300000
50
24.396165
51
180.000000
0
LINE
8
PERFIL
10
6.300000
20
32.300000
30
0.0
11
21.800000
21
32.300000
31
0.0
0
LINE
8
PERFIL
10
1.400000
20
3.300000
30
0.0
11
1.400000
21
7.000000
31
0.0
0
LINE
8
PERFIL
10
21.800000
20
32.300000
30
0.0
11
21.800000
21
31.800000
31
0.0
0
ARC
8
PERFIL
10
2.700000
20
3.300000
30
0.0
40
1.300000
50
180.000000
51
338.311194
0
ARC
8
PERFIL
10
22.300000
20
31.800000
30
0.0
40
0.500000
50
180.000000
51
0.000000
0
ARC
8
PERFIL
10
4.837171
20
2.450000
30
0.0
40
1.000000
50
100.040372
51
158.311194
0
LINE
8
PERFIL
10
22.800000
20
31.800000
30
0.0
11
22.800000
21
32.300000
31
0.0
0
ARC
8
PERFIL
10
4.750000
20
2.942343
30
0.0
40
0.500000
50
0.000000
51
100.040372
0
LINE
8
PERFIL
10
22.800000
20
32.300000
30
0.0
11
26.200000
21
32.300000
31
0.0
0
LINE
8
PERFIL
10
5.250000
20
1.900000
30
0.0
11
5.250000
21
2.942343
31
0.0
0
ARC
8
PERFIL
10
26.200000
20
31.800000
30
0.0
40
0.500000
50
0.000000
51
90.000000
0
ARC
8
PERFIL
10
5.750000
20
1.900000
30
0.0
40
0.500000
50
180.000000
51
270.000000
0
LINE
8
PERFIL
10
26.700000
20
31.800000
30
0.0
11
26.700000
21
11.300000
31
0.0
0
LINE
8
PERFIL
10
6.250000
20
1.400000
30
0.0
11
5.750000
21
1.400000
31
0.0
0
ARC
8
PERFIL
10
25.700000
20
11.300000
30
0.0
40
1.000000
50
270.000000
51
0.000000
0
ARC
8
PERFIL
10
6.250000
20
1.900000
30
0.0
40
0.500000
50
270.000000
51
0.000000
0
LINE
8
PERFIL
10
25.700000
20
10.300000
30
0.0
11
23.300000
21
10.300000
31
0.0
0
LINE
8
PERFIL
10
6.750000
20
2.100000
30
0.0
11
6.750000
21
1.900000
31
0.0
0
LINE
8
PERFIL
10
23.300000
20
10.300000
30
0.0
11
23.300000
21
10.800000
31
0.0
0
ARC
8
PERFIL
10
7.350000
20
2.100000
30
0.0
40
0.600000
50
0.000000
51
180.000000
0
ARC
8
PERFIL
10
22.800000
20
10.800000
30
0.0
40
0.500000
50
0.000000
51
180.000000
0
LINE
8
PERFIL
10
7.950000
20
1.000000
30
0.0
11
7.950000
21
2.100000
31
0.0
0
LINE
8
PERFIL
10
22.300000
20
10.800000
30
0.0
11
22.300000
21
10.300000
31
0.0
0
ARC
8
PERFIL
10
6.950000
20
1.000000
30
0.0
40
1.000000
50
270.000000
51
0.000000
0
LINE
8
PERFIL
10
22.300000
20
10.300000
30
0.0
11
21.150000
21
10.300000
31
0.0
0
LINE
8
PERFIL
10
3.000000
20
0.000000
30
0.0
11
6.950000
21
0.000000
31
0.0
0
ARC
8
PERFIL
10
21.150000
20
9.300000
30
0.0
40
1.000000
50
90.000000
51
180.000000
0
ARC
8
PERFIL
10
3.000000
20
3.000000
30
0.0
40
3.000000
50
180.000000
51
270.000000
0
LINE
8
PERFIL
10
20.150000
20
9.300000
30
0.0
11
20.150000
21
8.200000
31
0.0
0
LINE
8
PERFIL
10
0.000000
20
60.700000
30
0.0
11
0.000000
21
3.000000
31
0.0
0
ARC
8
PERFIL
10
20.750000
20
8.200000
30
0.0
40
0.600000
50
180.000000
51
0.000000
0
ARC
8
PERFIL
10
0.500000
20
60.700000
30
0.0
40
0.500000
50
90.000000
51
180.000000
0
LINE
8
PERFIL
10
21.350000
20
8.200000
30
0.0
11
21.350000
21
8.400000
31
0.0
0
LINE
8
PERFIL
10
1.400000
20
61.200000
30
0.0
11
0.500000
21
61.200000
31
0.0
0
ARC
8
PERFIL
10
21.850000
20
8.400000
30
0.0
40
0.500000
50
90.000000
51
180.000000
0
ARC
8
PERFIL
10
1.400000
20
60.700000
30
0.0
40
0.500000
50
0.000000
51
90.000000
0
LINE
8
PERFIL
10
21.850000
20
8.900000
30
0.0
11
22.350000
21
8.900000
31
0.0
0
LINE
8
PERFIL
10
1.900000
20
59.800000
30
0.0
11
1.900000
21
60.700000
31
0.0
0
ARC
8
PERFIL
10
22.350000
20
8.400000
30
0.0
40
0.500000
50
0.000000
51
90.000000
0
LINE
8
PERFIL
10
1.400000
20
59.800000
30
0.0
11
1.900000
21
59.800000
31
0.0
0
LINE
8
PERFIL
10
22.850000
20
8.400000
30
0.0
11
22.850000
21
7.451996
31
0.0
0
LINE
8
PERFIL
10
1.400000
20
47.100000
30
0.0
11
1.400000
21
59.800000
31
0.0
0
ARC
8
PERFIL
10
23.350000
20
7.451996
30
0.0
40
0.500000
50
180.000000
51
275.121728
0
ARC
8
PERFIL
10
2.400000
20
47.100000
30
0.0
40
1.000000
50
180.000000
51
270.000000
0
ARC
8
PERFIL
10
23.305364
20
7.950000
30
0.0
40
1.000000
50
275.121728
51
335.603835
0
LINE
8
PERFIL
10
12.635786
20
46.100000
30
0.0
11
2.400000
21
46.100000
31
0.0
0
ARC
8
PERFIL
10
25.400000
20
7.000000
30
0.0
40
1.300000
50
0.000000
51
155.603835
0
ARC
8
PERFIL
10
12.635786
20
46.350000
30
0.0
40
0.250000
50
270.000000
51
51.057559
0
LINE
8
PERFIL
10
26.700000
20
7.000000
30
0.0
11
26.700000
21
3.300000
31
0.0
0
ARC
8
PERFIL
10
14.050000
20
48.100000
30
0.0
40
2.000000
50
180.000000
51
231.057559
0
ARC
8
PERFIL
10
25.400000
20
3.300000
30
0.0
40
1.300000
50
201.688806
51
0.000000
0
ARC
8
PERFIL
10
12.550000
20
48.100000
30
0.0
40
0.500000
50
0.000000
51
180.000000
0
ARC
8
PERFIL
10
23.262829
20
2.450000
30
0.0
40
1.000000
50
21.688806
51
79.959628
0
ARC
8
PERFIL
10
14.050000
20
48.100000
30
0.0
40
1.000000
50
180.000000
51
0.000000
0
ARC
8
PERFIL
10
23.350000
20
2.942343
30
0.0
40
0.500000
50
79.959628
51
180.000000
0
ARC
8
PERFIL
10
15.550000
20
48.100000
30
0.0
40
0.500000
50
0.000000
51
180.000000
0
LINE
8
PERFIL
10
22.850000
20
2.942343
30
0.0
11
22.850000
21
1.900000
31
0.0
0
ARC
8
PERFIL
10
14.050000
20
48.100000
30
0.0
40
2.000000
50
308.942441
51
0.000000
0
ARC
8
PERFIL
10
22.350000
20
1.900000
30
0.0
40
0.500000
50
270.000000
51
0.000000
0
ARC
8
PERFIL
10
15.464214
20
46.350000
30
0.0
40
0.250000
50
128.942441
51
270.000000
0
LINE
8
PERFIL
10
22.350000
20
1.400000
30
0.0
11
21.850000
21
1.400000
31
0.0
0
LINE
8
PERFIL
10
25.700000
20
46.100000
30
0.0
11
15.464214
21
46.100000
31
0.0
0
ARC
8
PERFIL
10
21.850000
20
1.900000
30
0.0
40
0.500000
50
180.000000
51
270.000000
0
ARC
8
PERFIL
10
25.700000
20
47.100000
30
0.0
40
1.000000
50
270.000000
51
0.000000
0
LINE
8
PERFIL
10
21.350000
20
1.900000
30
0.0
11
21.350000
21
2.100000
31
0.0
0
LINE
8
PERFIL
10
26.700000
20
59.800000
30
0.0
11
26.700000
21
47.100000
31
0.0
0
ARC
8
PERFIL
10
20.750000
20
2.100000
30
0.0
40
0.600000
50
0.000000
51
180.000000
0
LINE
8
PERFIL
10
26.200000
20
59.800000
30
0.0
11
26.700000
21
59.800000
31
0.0
0
LINE
8
PERFIL
10
20.150000
20
2.100000
30
0.0
11
20.150000
21
1.000000
31
0.0
0
LINE
8
PERFIL
10
26.200000
20
60.700000
30
0.0
11
26.200000
21
59.800000
31
0.0
0
ARC
8
PERFIL
10
21.150000
20
1.000000
30
0.0
40
1.000000
50
180.000000
51
270.000000
0
ARC
8
PERFIL
10
26.700000
20
60.700000
30
0.0
40
0.500000
50
90.000000
51
180.000000
0
LINE
8
PERFIL
10
21.150000
20
0.000000
30
0.0
11
25.100000
21
0.000000
31
0.0
0
LINE
8
PERFIL
10
27.600000
20
61.200000
30
0.0
11
26.700000
21
61.200000
31
0.0
0
ARC
8
PERFIL
10
25.100000
20
3.000000
30
0.0
40
3.000000
50
270.000000
51
0.000000
0
ARC
8
PERFIL
10
27.600000
20
60.700000
30
0.0
40
0.500000
50
0.000000
51
90.000000
0
LINE
8
PERFIL
10
28.100000
20
3.000000
30
0.0
11
28.100000
21
60.700000
31
0.0
0
LINE
8
PERFIL
10
26.700000
20
44.700000
30
0.0
11
26.700000
21
39.689898
31
0.0
0
ARC
8
PERFIL
10
26.800000
20
39.200000
30
0.0
40
0.500000
50
101.536959
51
258.463041
0
LINE
8
PERFIL
10
1.400000
20
44.700000
30
0.0
11
26.700000
21
44.700000
31
0.0
0
LINE
8
PERFIL
10
26.700000
20
38.710102
30
0.0
11
26.700000
21
33.700000
31
0.0
0
LINE
8
PERFIL
10
1.400000
20
39.689898
30
0.0
11
1.400000
21
44.700000
31
0.0
0
LINE
8
PERFIL
10
26.700000
20
33.700000
30
0.0
11
1.400000
21
33.700000
31
0.0
0
ARC
8
PERFIL
10
1.300000
20
39.200000
30
0.0
40
0.500000
50
281.536959
51
78.463041
0
LINE
8
PERFIL
10
1.400000
20
33.700000
30
0.0
11
1.400000
21
38.710102
31
0.0
0
ATTDEF
8
0
10
0.000000
20
0.000000
30
0.0
40
3.5
1

3

2
DESC:
70
0
0
ATTDEF
8
0
10
0.000000
20
0.000000
30
0.0
40
3.5
1

3

2
DENS:0
70
0
0
ATTDEF
8
0
10
0.000000
20
0.000000
30
0.0
40
3.5
1

3

2
TDEV:0
70
0
0
ATTDEF
8
0
10
0.000000
20
0.000000
30
0.0
40
3.5
1

3

2
TDEV2:0
70
0
0
ATTDEF
8
0
10
0.000000
20
0.000000
30
0.0
40
3.5
1

3

2
TDEV3:0
70
0
0
ATTDEF
8
0
10
0.000000
20
0.000000
30
0.0
40
3.5
1

3

2
TDEV4:0
70
0
0
ATTDEF
8
0
10
0.000000
20
0.000000
30
0.0
40
3.5
1

3

2
TDEV5:0
70
0
0
ATTDEF
8
0
10
0.000000
20
0.000000
30
0.0
40
3.5
1

3

2
PANE_WIDTH:0
70
0
0
ATTDEF
8
0
10
0.000000
20
0.000000
30
0.0
40
3.5
1

3

2
MIN_VETRO:0
70
0
0
ATTDEF
8
0
10
0.000000
20
0.000000
30
0.0
40
3.5
1

3

2
MAX_VETRO:0
70
0
0
ATTDEF
8
0
10
0.000000
20
0.000000
30
0.0
40
3.5
1

3

2
JX:0
70
0
0
ATTDEF
8
0
10
0.000000
20
0.000000
30
0.0
40
3.5
1

3

2
WX:0
70
0
0
ATTDEF
8
0
10
0.000000
20
0.000000
30
0.0
40
3.5
1

3

2
JY:0
70
0
0
ATTDEF
8
0
10
0.000000
20
0.000000
30
0.0
40
3.5
1

3

2
WY:0
70
0
0
ENDSEC
0
EOF
