  0
SECTION
  2
HEADER
  9
$ACADVER
  1
AC1015
  9
$ACADMAINTVER
 70
     6
  9
$DWGCODEPAGE
  3
ANSI_1252
  9
$INSBASE
 10
0.0
 20
0.0
 30
0.0
  9
$EXTMIN
 10
0.0
 20
0.0
 30
0.0
  9
$EXTMAX
 10
47.0
 20
12.50000000016648
 30
0.0
  9
$LIMMIN
 10
0.0
 20
0.0
  9
$LIMMAX
 10
12.0
 20
9.0
  9
$ORTHOMODE
 70
     0
  9
$REGENMODE
 70
     1
  9
$FILLMODE
 70
     1
  9
$QTEXTMODE
 70
     0
  9
$MIRRTEXT
 70
     0
  9
$LTSCALE
 40
1.0
  9
$ATTMODE
 70
     1
  9
$TEXTSIZE
 40
0.2
  9
$TRACEWID
 40
0.05
  9
$TEXTSTYLE
  7
Standard
  9
$CLAYER
  8
0
  9
$CELTYPE
  6
ByLayer
  9
$CECOLOR
 62
   256
  9
$CELTSCALE
 40
1.0
  9
$DISPSILH
 70
     0
  9
$DIMSCALE
 40
1.0
  9
$DIMASZ
 40
0.18
  9
$DIMEXO
 40
0.0625
  9
$DIMDLI
 40
0.38
  9
$DIMRND
 40
0.0
  9
$DIMDLE
 40
0.0
  9
$DIMEXE
 40
0.18
  9
$DIMTP
 40
0.0
  9
$DIMTM
 40
0.0
  9
$DIMTXT
 40
0.18
  9
$DIMCEN
 40
0.09
  9
$DIMTSZ
 40
0.0
  9
$DIMTOL
 70
     0
  9
$DIMLIM
 70
     0
  9
$DIMTIH
 70
     1
  9
$DIMTOH
 70
     1
  9
$DIMSE1
 70
     0
  9
$DIMSE2
 70
     0
  9
$DIMTAD
 70
     0
  9
$DIMZIN
 70
     0
  9
$DIMBLK
  1

  9
$DIMASO
 70
     1
  9
$DIMSHO
 70
     1
  9
$DIMPOST
  1

  9
$DIMAPOST
  1

  9
$DIMALT
 70
     0
  9
$DIMALTD
 70
     2
  9
$DIMALTF
 40
25.4
  9
$DIMLFAC
 40
1.0
  9
$DIMTOFL
 70
     0
  9
$DIMTVP
 40
0.0
  9
$DIMTIX
 70
     0
  9
$DIMSOXD
 70
     0
  9
$DIMSAH
 70
     0
  9
$DIMBLK1
  1

  9
$DIMBLK2
  1

  9
$DIMSTYLE
  2
Standard
  9
$DIMCLRD
 70
     0
  9
$DIMCLRE
 70
     0
  9
$DIMCLRT
 70
     0
  9
$DIMTFAC
 40
1.0
  9
$DIMGAP
 40
0.09
  9
$DIMJUST
 70
     0
  9
$DIMSD1
 70
     0
  9
$DIMSD2
 70
     0
  9
$DIMTOLJ
 70
     1
  9
$DIMTZIN
 70
     0
  9
$DIMALTZ
 70
     0
  9
$DIMALTTZ
 70
     0
  9
$DIMUPT
 70
     0
  9
$DIMDEC
 70
     4
  9
$DIMTDEC
 70
     4
  9
$DIMALTU
 70
     2
  9
$DIMALTTD
 70
     2
  9
$DIMTXSTY
  7
Standard
  9
$DIMAUNIT
 70
     0
  9
$DIMADEC
 70
     0
  9
$DIMALTRND
 40
0.0
  9
$DIMAZIN
 70
     0
  9
$DIMDSEP
 70
    46
  9
$DIMATFIT
 70
     3
  9
$DIMFRAC
 70
     0
  9
$DIMLDRBLK
  1

  9
$DIMLUNIT
 70
     2
  9
$DIMLWD
 70
    -2
  9
$DIMLWE
 70
    -2
  9
$DIMTMOVE
 70
     0
  9
$LUNITS
 70
     2
  9
$LUPREC
 70
     4
  9
$SKETCHINC
 40
0.1
  9
$FILLETRAD
 40
0.0
  9
$AUNITS
 70
     0
  9
$AUPREC
 70
     0
  9
$MENU
  1
.
  9
$ELEVATION
 40
0.0
  9
$PELEVATION
 40
0.0
  9
$THICKNESS
 40
0.0
  9
$LIMCHECK
 70
     0
  9
$CHAMFERA
 40
0.0
  9
$CHAMFERB
 40
0.0
  9
$CHAMFERC
 40
0.0
  9
$CHAMFERD
 40
0.0
  9
$SKPOLY
 70
     0
  9
$TDCREATE
 40
2452642.855050937
  9
$TDUCREATE
 40
2452643.063384271
  9
$TDUPDATE
 40
2458669.685523923
  9
$TDUUPDATE
 40
2458669.893857257
  9
$TDINDWG
 40
0.0002167014
  9
$TDUSRTIMER
 40
0.0002167014
  9
$USRTIMER
 70
     1
  9
$ANGBASE
 50
0.0
  9
$ANGDIR
 70
     0
  9
$PDMODE
 70
     0
  9
$PDSIZE
 40
0.0
  9
$PLINEWID
 40
0.0
  9
$SPLFRAME
 70
     0
  9
$SPLINETYPE
 70
     6
  9
$SPLINESEGS
 70
     8
  9
$HANDSEED
  5
1B5
  9
$SURFTAB1
 70
     6
  9
$SURFTAB2
 70
     6
  9
$SURFTYPE
 70
     6
  9
$SURFU
 70
     6
  9
$SURFV
 70
     6
  9
$UCSBASE
  2

  9
$UCSNAME
  2

  9
$UCSORG
 10
0.0
 20
0.0
 30
0.0
  9
$UCSXDIR
 10
1.0
 20
0.0
 30
0.0
  9
$UCSYDIR
 10
0.0
 20
1.0
 30
0.0
  9
$UCSORTHOREF
  2

  9
$UCSORTHOVIEW
 70
     0
  9
$UCSORGTOP
 10
0.0
 20
0.0
 30
0.0
  9
$UCSORGBOTTOM
 10
0.0
 20
0.0
 30
0.0
  9
$UCSORGLEFT
 10
0.0
 20
0.0
 30
0.0
  9
$UCSORGRIGHT
 10
0.0
 20
0.0
 30
0.0
  9
$UCSORGFRONT
 10
0.0
 20
0.0
 30
0.0
  9
$UCSORGBACK
 10
0.0
 20
0.0
 30
0.0
  9
$PUCSBASE
  2

  9
$PUCSNAME
  2

  9
$PUCSORG
 10
0.0
 20
0.0
 30
0.0
  9
$PUCSXDIR
 10
1.0
 20
0.0
 30
0.0
  9
$PUCSYDIR
 10
0.0
 20
1.0
 30
0.0
  9
$PUCSORTHOREF
  2

  9
$PUCSORTHOVIEW
 70
     0
  9
$PUCSORGTOP
 10
0.0
 20
0.0
 30
0.0
  9
$PUCSORGBOTTOM
 10
0.0
 20
0.0
 30
0.0
  9
$PUCSORGLEFT
 10
0.0
 20
0.0
 30
0.0
  9
$PUCSORGRIGHT
 10
0.0
 20
0.0
 30
0.0
  9
$PUCSORGFRONT
 10
0.0
 20
0.0
 30
0.0
  9
$PUCSORGBACK
 10
0.0
 20
0.0
 30
0.0
  9
$USERI1
 70
     0
  9
$USERI2
 70
     0
  9
$USERI3
 70
     0
  9
$USERI4
 70
     0
  9
$USERI5
 70
     0
  9
$USERR1
 40
0.0
  9
$USERR2
 40
0.0
  9
$USERR3
 40
0.0
  9
$USERR4
 40
0.0
  9
$USERR5
 40
0.0
  9
$WORLDVIEW
 70
     1
  9
$SHADEDGE
 70
     3
  9
$SHADEDIF
 70
    70
  9
$TILEMODE
 70
     1
  9
$MAXACTVP
 70
    64
  9
$PINSBASE
 10
0.0
 20
0.0
 30
0.0
  9
$PLIMCHECK
 70
     0
  9
$PEXTMIN
 10
0.0
 20
0.0
 30
0.0
  9
$PEXTMAX
 10
0.0
 20
0.0
 30
0.0
  9
$PLIMMIN
 10
0.0
 20
0.0
  9
$PLIMMAX
 10
0.0
 20
0.0
  9
$UNITMODE
 70
     0
  9
$VISRETAIN
 70
     1
  9
$PLINEGEN
 70
     0
  9
$PSLTSCALE
 70
     1
  9
$TREEDEPTH
 70
  3020
  9
$CMLSTYLE
  2
Standard
  9
$CMLJUST
 70
     0
  9
$CMLSCALE
 40
1.0
  9
$PROXYGRAPHICS
 70
     1
  9
$MEASUREMENT
 70
     0
  9
$CELWEIGHT
370
    -1
  9
$ENDCAPS
280
     0
  9
$JOINSTYLE
280
     0
  9
$LWDISPLAY
290
     0
  9
$INSUNITS
 70
     1
  9
$HYPERLINKBASE
  1

  9
$STYLESHEET
  1

  9
$XEDIT
290
     1
  9
$CEPSNTYPE
380
     0
  9
$PSTYLEMODE
290
     1
  9
$FINGERPRINTGUID
  2
{FDEAD576-A652-11D2-9A35-0060089B3A3F}
  9
$VERSIONGUID
  2
{FBC2AE19-5C5C-49EC-81BC-71B1A3362A02}
  9
$EXTNAMES
290
     1
  9
$PSVPSCALE
 40
0.0
  9
$OLESTARTUP
290
     0
  0
ENDSEC
  0
SECTION
  2
CLASSES
  0
CLASS
  1
ACDBDICTIONARYWDFLT
  2
AcDbDictionaryWithDefault
  3
ObjectDBX Classes
 90
        0
280
     0
281
     0
  0
CLASS
  1
ACDBPLACEHOLDER
  2
AcDbPlaceHolder
  3
ObjectDBX Classes
 90
        0
280
     0
281
     0
  0
CLASS
  1
LAYOUT
  2
AcDbLayout
  3
ObjectDBX Classes
 90
        0
280
     0
281
     0
  0
CLASS
  1
DICTIONARYVAR
  2
AcDbDictionaryVar
  3
ObjectDBX Classes
 90
        0
280
     0
281
     0
  0
CLASS
  1
TABLESTYLE
  2
AcDbTableStyle
  3
ObjectDBX Classes
 90
     4095
280
     0
281
     0
  0
CLASS
  1
MATERIAL
  2
AcDbMaterial
  3
ObjectDBX Classes
 90
     1153
280
     0
281
     0
  0
CLASS
  1
VISUALSTYLE
  2
AcDbVisualStyle
  3
ObjectDBX Classes
 90
     4095
280
     0
281
     0
  0
CLASS
  1
SCALE
  2
AcDbScale
  3
ObjectDBX Classes
 90
     1153
280
     0
281
     0
  0
CLASS
  1
CELLSTYLEMAP
  2
AcDbCellStyleMap
  3
ObjectDBX Classes
 90
     1152
280
     0
281
     0
  0
CLASS
  1
RASTERVARIABLES
  2
AcDbRasterVariables
  3
ISM
 90
        0
280
     0
281
     0
  0
CLASS
  1
SUN
  2
AcDbSun
  3
SCENEOE
 90
     1153
280
     0
281
     0
  0
CLASS
  1
MLEADERSTYLE
  2
AcDbMLeaderStyle
  3
ACDB_MLEADERSTYLE_CLASS
 90
     4095
280
     0
281
     0
  0
CLASS
  1
SORTENTSTABLE
  2
AcDbSortentsTable
  3
ObjectDBX Classes
 90
        0
280
     0
281
     0
  0
ENDSEC
  0
SECTION
  2
TABLES
  0
TABLE
  2
VPORT
  5
8
330
0
100
AcDbSymbolTable
 70
     1
  0
VPORT
  5
94
330
8
100
AcDbSymbolTableRecord
100
AcDbViewportTableRecord
  2
*Active
 70
     0
 10
0.0
 20
0.0
 11
1.0
 21
1.0
 12
51.16959356597982
 22
25.78814037052498
 13
0.0
 23
0.0
 14
0.5
 24
0.5
 15
0.5
 25
0.5
 16
0.0
 26
0.0
 36
1.0
 17
-27.66959356597982
 27
-19.53870295786203
 37
0.0
 40
17.95253125
 41
2.670375521557719
 42
50.0
 43
0.0
 44
0.0
 50
0.0
 51
0.0
 71
    16
 72
  1000
 73
     1
 74
     3
 75
     0
 76
     0
 77
     0
 78
     0
281
     0
 65
     1
110
0.0
120
0.0
130
0.0
111
1.0
121
0.0
131
0.0
112
0.0
122
1.0
132
0.0
 79
     0
146
0.0
  0
ENDTAB
  0
TABLE
  2
LTYPE
  5
5
330
0
100
AcDbSymbolTable
 70
     1
  0
LTYPE
  5
14
330
5
100
AcDbSymbolTableRecord
100
AcDbLinetypeTableRecord
  2
ByBlock
 70
     0
  3

 72
    65
 73
     0
 40
0.0
  0
LTYPE
  5
15
330
5
100
AcDbSymbolTableRecord
100
AcDbLinetypeTableRecord
  2
ByLayer
 70
     0
  3

 72
    65
 73
     0
 40
0.0
  0
LTYPE
  5
16
330
5
100
AcDbSymbolTableRecord
100
AcDbLinetypeTableRecord
  2
Continuous
 70
     0
  3
Solid line
 72
    65
 73
     0
 40
0.0
  0
ENDTAB
  0
TABLE
  2
LAYER
  5
2
102
{ACAD_XDICTIONARY
360
140
102
}
330
0
100
AcDbSymbolTable
 70
     2
  0
LAYER
  5
10
330
2
100
AcDbSymbolTableRecord
100
AcDbLayerTableRecord
  2
0
 70
     0
 62
     7
  6
Continuous
370
    -3
390
F
  0
LAYER
  5
12B
102
{ACAD_XDICTIONARY
360
12C
102
}
330
2
100
AcDbSymbolTableRecord
100
AcDbLayerTableRecord
  2
PERFIL
 70
     0
 62
     7
  6
Continuous
370
     5
390
F
  0
ENDTAB
  0
TABLE
  2
STYLE
  5
3
330
0
100
AcDbSymbolTable
 70
     3
  0
STYLE
  5
11
330
3
100
AcDbSymbolTableRecord
100
AcDbTextStyleTableRecord
  2
Standard
 70
     0
 40
0.0
 41
1.0
 50
0.0
 71
     0
 42
0.2
  3
arial.ttf
  4

1001
ACAD
1000
Arial
1071
        0
  0
STYLE
  5
125
330
3
100
AcDbSymbolTableRecord
100
AcDbTextStyleTableRecord
  2
Annotative
 70
     0
 40
0.0
 41
1.0
 50
0.0
 71
     0
 42
0.2
  3
arial.ttf
  4

1001
ACAD
1000
Arial
1071
        0
1001
AcadAnnotative
1000
AnnotativeData
1002
{
1070
     1
1070
     1
1002
}
  0
STYLE
  5
135
330
3
100
AcDbSymbolTableRecord
100
AcDbTextStyleTableRecord
  2
ARIAL
 70
     0
 40
0.0
 41
0.8
 50
0.0
 71
     0
 42
0.2
  3
arial.ttf
  4

1001
ACAD
1000
Arial
1071
       34
  0
ENDTAB
  0
TABLE
  2
VIEW
  5
6
330
0
100
AcDbSymbolTable
 70
     0
  0
ENDTAB
  0
TABLE
  2
UCS
  5
7
330
0
100
AcDbSymbolTable
 70
     0
  0
ENDTAB
  0
TABLE
  2
APPID
  5
9
330
0
100
AcDbSymbolTable
 70
     5
  0
APPID
  5
12
330
9
100
AcDbSymbolTableRecord
100
AcDbRegAppTableRecord
  2
ACAD
 70
     0
  0
APPID
  5
126
330
9
100
AcDbSymbolTableRecord
100
AcDbRegAppTableRecord
  2
AcadAnnotative
 70
     0
  0
APPID
  5
132
330
9
100
AcDbSymbolTableRecord
100
AcDbRegAppTableRecord
  2
ACAD_DSTYLE_DIMJAG
 70
     0
  0
APPID
  5
133
330
9
100
AcDbSymbolTableRecord
100
AcDbRegAppTableRecord
  2
ACAD_DSTYLE_DIMTALN
 70
     0
  0
APPID
  5
134
330
9
100
AcDbSymbolTableRecord
100
AcDbRegAppTableRecord
  2
ACAD_PSEXT
 70
     0
  0
ENDTAB
  0
TABLE
  2
DIMSTYLE
  5
A
330
0
100
AcDbSymbolTable
 70
     3
100
AcDbDimStyleTable
  0
DIMSTYLE
105
27
330
A
100
AcDbSymbolTableRecord
100
AcDbDimStyleTableRecord
  2
Standard
 70
     0
178
     0
340
11
  0
DIMSTYLE
105
127
330
A
100
AcDbSymbolTableRecord
100
AcDbDimStyleTableRecord
  2
Annotative
 70
     0
 40
0.0
178
     0
340
11
1001
AcadAnnotative
1000
AnnotativeData
1002
{
1070
     1
1070
     1
1002
}
  0
DIMSTYLE
105
131
330
A
100
AcDbSymbolTableRecord
100
AcDbDimStyleTableRecord
  2
1EN1
 70
     0
 41
2.5
 42
0.0
 43
0.8
 44
1.25
 73
     0
 74
     0
 77
     1
 78
     8
140
2.5
141
0.0
143
0.0394
147
1.0
171
     4
271
     2
178
     7
271
     2
272
     2
273
     8
274
     4
275
     1
340
11
1001
ACAD_DSTYLE_DIMJAG
1070
   388
1040
1.5
1001
ACAD_DSTYLE_DIMTALN
1070
   392
1070
     0
  0
ENDTAB
  0
TABLE
  2
BLOCK_RECORD
  5
1
330
0
100
AcDbSymbolTable
 70
     2
  0
BLOCK_RECORD
  5
1F
330
1
100
AcDbSymbolTableRecord
100
AcDbBlockTableRecord
  2
*Model_Space
340
22
  0
BLOCK_RECORD
  5
58
330
1
100
AcDbSymbolTableRecord
100
AcDbBlockTableRecord
  2
*Paper_Space
340
59
  0
BLOCK_RECORD
  5
5D
330
1
100
AcDbSymbolTableRecord
100
AcDbBlockTableRecord
  2
*Paper_Space0
340
5E
  0
ENDTAB
  0
ENDSEC
  0
SECTION
  2
BLOCKS
  0
BLOCK
  5
20
330
1F
100
AcDbEntity
  8
0
100
AcDbBlockBegin
  2
*Model_Space
 70
     0
 10
0.0
 20
0.0
 30
0.0
  3
*Model_Space
  1

  0
ENDBLK
  5
21
330
1F
100
AcDbEntity
  8
0
100
AcDbBlockEnd
  0
BLOCK
  5
5A
330
58
100
AcDbEntity
 67
     1
  8
0
100
AcDbBlockBegin
  2
*Paper_Space
 70
     0
 10
0.0
 20
0.0
 30
0.0
  3
*Paper_Space
  1

  0
ENDBLK
  5
5B
330
58
100
AcDbEntity
 67
     1
  8
0
100
AcDbBlockEnd
  0
BLOCK
  5
5F
330
5D
100
AcDbEntity
  8
0
100
AcDbBlockBegin
  2
*Paper_Space0
 70
     0
 10
0.0
 20
0.0
 30
0.0
  3
*Paper_Space0
  1

  0
ENDBLK
  5
60
330
5D
100
AcDbEntity
  8
0
100
AcDbBlockEnd
  0
ENDSEC
  0
SECTION
  2
ENTITIES
  0
ARC
  5
146
330
1F
100
AcDbEntity
  8
PERFIL
100
AcDbCircle
 10
25.52656988656955
 20
8.999605716197825
 30
0.0
 40
0.9999999999998823
100
AcDbArc
 50
335.9155439822279
 51
89.83663599265957
  0
ARC
  5
147
330
1F
100
AcDbEntity
  8
PERFIL
100
AcDbCircle
 10
30.00000000000089
 20
6.999999999994716
 30
0.0
 40
3.900000000002823
100
AcDbArc
 50
155.9155439822287
 51
223.8603223668883
  0
ARC
  5
148
330
1F
100
AcDbEntity
  8
PERFIL
100
AcDbCircle
 10
27.90900974232999
 20
4.990582237969685
 30
0.0
 40
1.00000000000001
100
AcDbArc
 50
223.860322366958
 51
359.9999999999979
  0
LINE
  5
149
330
1F
100
AcDbEntity
  8
PERFIL
100
AcDbLine
 10
28.90900974233
 20
4.990582237969647
 30
0.0
 11
28.90900974233
 21
5.409009742330454
 31
0.0
  0
ARC
  5
14A
330
1F
100
AcDbEntity
  8
PERFIL
100
AcDbCircle
 10
28.40900974232999
 20
5.409009742330447
 30
0.0
 40
0.5000000000000071
100
AcDbArc
 50
0.0000000000008142
 51
89.99999999999919
  0
LINE
  5
14B
330
1F
100
AcDbEntity
  8
PERFIL
100
AcDbLine
 10
28.40900974233
 20
5.909009742330454
 30
0.0
 11
28.08931150750823
 21
5.909009742330454
 31
0.0
  0
ARC
  5
14C
330
1F
100
AcDbEntity
  8
PERFIL
100
AcDbCircle
 10
28.08931150750828
 20
6.409009742330444
 30
0.0
 40
0.4999999999999902
100
AcDbArc
 50
197.1872298312005
 51
269.9999999999938
  0
ARC
  5
14D
330
1F
100
AcDbEntity
  8
PERFIL
100
AcDbCircle
 10
29.99999999999979
 20
7.000000000000114
 30
0.0
 40
2.499999999999973
100
AcDbArc
 50
162.8127701687957
 51
197.1872298312042
  0
ARC
  5
14E
330
1F
100
AcDbEntity
  8
PERFIL
100
AcDbCircle
 10
28.08931150750828
 20
7.590990257669782
 30
0.0
 40
0.4999999999999913
100
AcDbArc
 50
90.00000000000631
 51
162.8127701687994
  0
LINE
  5
14F
330
1F
100
AcDbEntity
  8
PERFIL
100
AcDbLine
 10
28.08931150750823
 20
8.090990257669773
 30
0.0
 11
28.40900974233
 21
8.090990257669773
 31
0.0
  0
ARC
  5
150
330
1F
100
AcDbEntity
  8
PERFIL
100
AcDbCircle
 10
28.40900974233
 20
8.590990257669773
 30
0.0
 40
0.5
100
AcDbArc
 50
270.0
 51
0.0
  0
LINE
  5
151
330
1F
100
AcDbEntity
  8
PERFIL
100
AcDbLine
 10
28.90900974233
 20
8.590990257669773
 30
0.0
 11
28.90900974233
 21
8.910688492491545
 31
0.0
  0
ARC
  5
152
330
1F
100
AcDbEntity
  8
PERFIL
100
AcDbCircle
 10
29.40900974233009
 20
8.910688492491643
 30
0.0
 40
0.5000000000000933
100
AcDbArc
 50
107.1872298312092
 51
180.0000000000111
  0
ARC
  5
153
330
1F
100
AcDbEntity
  8
PERFIL
100
AcDbCircle
 10
29.99999999999941
 20
7.000000000000062
 30
0.0
 40
2.500000000000039
100
AcDbArc
 50
72.81277016878468
 51
107.1872298311977
  0
ARC
  5
154
330
1F
100
AcDbEntity
  8
PERFIL
100
AcDbCircle
 10
30.59099025766951
 20
8.91068849249146
 30
0.0
 40
0.5000000000000311
100
AcDbArc
 50
0.0000000000096943
 51
72.81277016879605
  0
LINE
  5
155
330
1F
100
AcDbEntity
  8
PERFIL
100
AcDbLine
 10
31.09099025766955
 20
8.910688492491545
 30
0.0
 11
31.09099025766909
 21
8.590990257669773
 31
0.0
  0
ARC
  5
156
330
1F
100
AcDbEntity
  8
PERFIL
100
AcDbCircle
 10
31.59099025766933
 20
8.590990257670008
 30
0.0
 40
0.5000000000002345
100
AcDbArc
 50
180.0000000000269
 51
270.0000000000252
  0
LINE
  5
157
330
1F
100
AcDbEntity
  8
PERFIL
100
AcDbLine
 10
31.59099025766955
 20
8.090990257669773
 30
0.0
 11
31.91068849249132
 21
8.090990257669773
 31
0.0
  0
ARC
  5
158
330
1F
100
AcDbEntity
  8
PERFIL
100
AcDbCircle
 10
31.91068849249126
 20
7.590990257669783
 30
0.0
 40
0.4999999999999899
100
AcDbArc
 50
17.18722983120047
 51
89.9999999999938
  0
ARC
  5
159
330
1F
100
AcDbEntity
  8
PERFIL
100
AcDbCircle
 10
29.9999999999995
 20
7.0
 30
0.0
 40
2.500000000000252
100
AcDbArc
 50
342.812770168795
 51
17.187229831205
  0
ARC
  5
15A
330
1F
100
AcDbEntity
  8
PERFIL
100
AcDbCircle
 10
31.91068849249141
 20
6.409009742330338
 30
0.0
 40
0.4999999999998835
100
AcDbArc
 50
269.9999999999891
 51
342.8127701687812
  0
LINE
  5
15B
330
1F
100
AcDbEntity
  8
PERFIL
100
AcDbLine
 10
31.91068849249132
 20
5.909009742330454
 30
0.0
 11
31.59099025766955
 21
5.909009742330227
 31
0.0
  0
ARC
  5
15C
330
1F
100
AcDbEntity
  8
PERFIL
100
AcDbCircle
 10
31.59099025766943
 20
5.40900974233034
 30
0.0
 40
0.4999999999998863
100
AcDbArc
 50
89.99999999998697
 51
179.999999999987
  0
LINE
  5
15D
330
1F
100
AcDbEntity
  8
PERFIL
100
AcDbLine
 10
31.09099025766955
 20
5.409009742330454
 30
0.0
 11
31.09099025766909
 21
4.990582237969647
 31
0.0
  0
ARC
  5
15E
330
1F
100
AcDbEntity
  8
PERFIL
100
AcDbCircle
 10
32.09099025766628
 20
4.99058223797079
 30
0.0
 40
0.9999999999971845
100
AcDbArc
 50
180.0000000000655
 51
316.1396776331056
  0
ARC
  5
15F
330
1F
100
AcDbEntity
  8
PERFIL
100
AcDbCircle
 10
29.99999999999978
 20
7.000000000001185
 30
0.0
 40
3.900000000000534
100
AcDbArc
 50
316.1396776330263
 51
24.08950611389272
  0
ARC
  5
160
330
1F
100
AcDbEntity
  8
PERFIL
100
AcDbCircle
 10
34.47325384919543
 20
9.000000000166475
 30
0.0
 40
0.9999999999999625
100
AcDbArc
 50
90.0000000000067
 51
204.0895061139044
  0
LINE
  5
161
330
1F
100
AcDbEntity
  8
PERFIL
100
AcDbLine
 10
34.47325384919532
 20
10.00000000016644
 30
0.0
 11
44.0
 21
10.00000000016644
 31
0.0
  0
ARC
  5
162
330
1F
100
AcDbEntity
  8
PERFIL
100
AcDbCircle
 10
44.0
 20
9.000000000166438
 30
0.0
 40
1.0
100
AcDbArc
 50
0.0
 51
90.0
  0
LINE
  5
163
330
1F
100
AcDbEntity
  8
PERFIL
100
AcDbLine
 10
45.0
 20
9.000000000166438
 30
0.0
 11
45.0
 21
2.0
 31
0.0
  0
ARC
  5
164
330
1F
100
AcDbEntity
  8
PERFIL
100
AcDbCircle
 10
44.5
 20
2.0
 30
0.0
 40
0.5
100
AcDbArc
 50
270.0
 51
0.0
  0
LINE
  5
165
330
1F
100
AcDbEntity
  8
PERFIL
100
AcDbLine
 10
44.5
 20
1.5
 30
0.0
 11
44.0
 21
1.5
 31
0.0
  0
ARC
  5
166
330
1F
100
AcDbEntity
  8
PERFIL
100
AcDbCircle
 10
44.0
 20
1.0
 30
0.0
 40
0.5
100
AcDbArc
 50
90.0
 51
180.0
  0
LINE
  5
167
330
1F
100
AcDbEntity
  8
PERFIL
100
AcDbLine
 10
43.5
 20
1.0
 30
0.0
 11
43.5
 21
0.5
 31
0.0
  0
ARC
  5
168
330
1F
100
AcDbEntity
  8
PERFIL
100
AcDbCircle
 10
44.0
 20
0.5
 30
0.0
 40
0.5
100
AcDbArc
 50
180.0
 51
270.0
  0
LINE
  5
169
330
1F
100
AcDbEntity
  8
PERFIL
100
AcDbLine
 10
44.0
 20
0.0
 30
0.0
 11
46.5
 21
0.0
 31
0.0
  0
ARC
  5
16A
330
1F
100
AcDbEntity
  8
PERFIL
100
AcDbCircle
 10
46.50000000000001
 20
0.4999999999999929
 30
0.0
 40
0.4999999999999929
100
AcDbArc
 50
269.9999999999992
 51
0.0000000000008142
  0
LINE
  5
16B
330
1F
100
AcDbEntity
  8
PERFIL
100
AcDbLine
 10
47.0
 20
0.5
 30
0.0
 11
47.0
 21
10.00000000016644
 31
0.0
  0
ARC
  5
16C
330
1F
100
AcDbEntity
  8
PERFIL
100
AcDbCircle
 10
44.99999999999998
 20
10.00000000016641
 30
0.0
 40
2.000000000000023
100
AcDbArc
 50
0.0000000000006616
 51
89.99999999999935
  0
LINE
  5
16D
330
1F
100
AcDbEntity
  8
PERFIL
100
AcDbLine
 10
45.0
 20
12.00000000016644
 30
0.0
 11
44.30004144115537
 21
12.00000000016644
 31
0.0
  0
ARC
  5
16E
330
1F
100
AcDbEntity
  8
PERFIL
100
AcDbCircle
 10
43.80004144115537
 20
12.00000000016644
 30
0.0
 40
0.5
100
AcDbArc
 50
0.0000000000000095
 51
180.0
  0
LINE
  5
16F
330
1F
100
AcDbEntity
  8
PERFIL
100
AcDbLine
 10
43.30004144115537
 20
12.00000000016644
 30
0.0
 11
42.30004144115537
 21
12.00000000016644
 31
0.0
  0
ARC
  5
170
330
1F
100
AcDbEntity
  8
PERFIL
100
AcDbCircle
 10
41.80004144115537
 20
12.00000000016644
 30
0.0
 40
0.5
100
AcDbArc
 50
0.0000000000000095
 51
180.0
  0
LINE
  5
171
330
1F
100
AcDbEntity
  8
PERFIL
100
AcDbLine
 10
41.30004144115537
 20
12.00000000016644
 30
0.0
 11
40.30004144115537
 21
12.00000000016644
 31
0.0
  0
ARC
  5
172
330
1F
100
AcDbEntity
  8
PERFIL
100
AcDbCircle
 10
39.80004144115537
 20
12.00000000016644
 30
0.0
 40
0.5
100
AcDbArc
 50
0.0000000000000095
 51
180.0
  0
LINE
  5
173
330
1F
100
AcDbEntity
  8
PERFIL
100
AcDbLine
 10
39.30004144115537
 20
12.00000000016644
 30
0.0
 11
38.30004144115537
 21
12.00000000016644
 31
0.0
  0
ARC
  5
174
330
1F
100
AcDbEntity
  8
PERFIL
100
AcDbCircle
 10
37.80004144115537
 20
12.00000000016644
 30
0.0
 40
0.5
100
AcDbArc
 50
0.0000000000000095
 51
180.0
  0
LINE
  5
175
330
1F
100
AcDbEntity
  8
PERFIL
100
AcDbLine
 10
37.30004144115537
 20
12.00000000016644
 30
0.0
 11
36.30004144115537
 21
12.00000000016644
 31
0.0
  0
ARC
  5
176
330
1F
100
AcDbEntity
  8
PERFIL
100
AcDbCircle
 10
35.80004144115537
 20
12.00000000016644
 30
0.0
 40
0.5
100
AcDbArc
 50
0.0000000000000095
 51
180.0
  0
LINE
  5
177
330
1F
100
AcDbEntity
  8
PERFIL
100
AcDbLine
 10
35.30004144115537
 20
12.00000000016644
 30
0.0
 11
34.30004144115537
 21
12.00000000016644
 31
0.0
  0
ARC
  5
178
330
1F
100
AcDbEntity
  8
PERFIL
100
AcDbCircle
 10
33.80004144115537
 20
12.00000000016644
 30
0.0
 40
0.5
100
AcDbArc
 50
0.0000000000000095
 51
180.0
  0
LINE
  5
179
330
1F
100
AcDbEntity
  8
PERFIL
100
AcDbLine
 10
33.30004144115537
 20
12.00000000016644
 30
0.0
 11
32.30004144115537
 21
12.00000000016644
 31
0.0
  0
ARC
  5
17A
330
1F
100
AcDbEntity
  8
PERFIL
100
AcDbCircle
 10
31.80004144115537
 20
12.00000000016644
 30
0.0
 40
0.5
100
AcDbArc
 50
0.0000000000000095
 51
180.0
  0
LINE
  5
17B
330
1F
100
AcDbEntity
  8
PERFIL
100
AcDbLine
 10
31.30004144115537
 20
12.00000000016644
 30
0.0
 11
30.30004144115537
 21
12.00000000016644
 31
0.0
  0
ARC
  5
17C
330
1F
100
AcDbEntity
  8
PERFIL
100
AcDbCircle
 10
29.80004144115537
 20
12.00000000016644
 30
0.0
 40
0.5
100
AcDbArc
 50
0.0000000000000095
 51
180.0
  0
LINE
  5
17D
330
1F
100
AcDbEntity
  8
PERFIL
100
AcDbLine
 10
29.30004144115537
 20
12.00000000016644
 30
0.0
 11
28.30004144115537
 21
12.00000000016644
 31
0.0
  0
ARC
  5
17E
330
1F
100
AcDbEntity
  8
PERFIL
100
AcDbCircle
 10
27.80004144115537
 20
12.00000000016644
 30
0.0
 40
0.5
100
AcDbArc
 50
0.0000000000000095
 51
180.0
  0
LINE
  5
17F
330
1F
100
AcDbEntity
  8
PERFIL
100
AcDbLine
 10
27.30004144115537
 20
12.00000000016644
 30
0.0
 11
26.30004144115537
 21
12.00000000016644
 31
0.0
  0
ARC
  5
180
330
1F
100
AcDbEntity
  8
PERFIL
100
AcDbCircle
 10
25.80004144115537
 20
12.00000000016644
 30
0.0
 40
0.5
100
AcDbArc
 50
0.0000000000000095
 51
180.0
  0
LINE
  5
181
330
1F
100
AcDbEntity
  8
PERFIL
100
AcDbLine
 10
25.30004144115537
 20
12.00000000016644
 30
0.0
 11
24.30004144115537
 21
12.00000000016644
 31
0.0
  0
ARC
  5
182
330
1F
100
AcDbEntity
  8
PERFIL
100
AcDbCircle
 10
23.80004144115537
 20
12.00000000016644
 30
0.0
 40
0.5
100
AcDbArc
 50
0.0000000000000095
 51
180.0
  0
LINE
  5
183
330
1F
100
AcDbEntity
  8
PERFIL
100
AcDbLine
 10
23.30004144115537
 20
12.00000000016644
 30
0.0
 11
22.29999999998745
 21
12.00000000016644
 31
0.0
  0
ARC
  5
184
330
1F
100
AcDbEntity
  8
PERFIL
100
AcDbCircle
 10
21.7999999999874
 20
12.00000000016643
 30
0.0
 40
0.5000000000000467
100
AcDbArc
 50
0.0000000000007981
 51
180.1432395979932
  0
ARC
  5
185
330
1F
100
AcDbEntity
  8
PERFIL
100
AcDbCircle
 10
21.79999999998461
 20
-87.99999999984699
 30
0.0
 40
100.0000000000134
100
AcDbArc
 50
90.28647919598015
 51
90.96352080401668
  0
ARC
  5
186
330
1F
100
AcDbEntity
  8
PERFIL
100
AcDbCircle
 10
19.61851149653108
 20
11.97620270815739
 30
0.0
 40
0.499999999999895
100
AcDbArc
 50
1.106760402004181
 51
181.3932395979854
  0
ARC
  5
187
330
1F
100
AcDbEntity
  8
PERFIL
100
AcDbCircle
 10
21.79999999998706
 20
-87.99999999981632
 30
0.0
 40
99.99999999998288
100
AcDbArc
 50
91.53647919598191
 51
92.21352080401834
  0
ARC
  5
188
330
1F
100
AcDbEntity
  8
PERFIL
100
AcDbCircle
 10
17.43806126345384
 20
11.90482215835227
 30
0.0
 40
0.5000000000001068
100
AcDbArc
 50
2.356760402014353
 51
182.6432395980008
  0
ARC
  5
189
330
1F
100
AcDbEntity
  8
PERFIL
100
AcDbCircle
 10
21.79999999998211
 20
-87.9999999998355
 30
0.0
 40
100.0000000000016
100
AcDbArc
 50
92.78647919597873
 51
93.4635208040152
  0
ARC
  5
18A
330
1F
100
AcDbEntity
  8
PERFIL
100
AcDbCircle
 10
15.25968707697293
 20
11.78589232402678
 30
0.0
 40
0.5000000000000593
100
AcDbArc
 50
3.606760402012762
 51
183.893239597993
  0
ARC
  5
18B
330
1F
100
AcDbEntity
  8
PERFIL
100
AcDbCircle
 10
21.79999999997153
 20
-87.99999999980405
 30
0.0
 40
99.99999999996942
100
AcDbArc
 50
94.03647919597402
 51
94.71352080401054
  0
ARC
  5
18C
330
1F
100
AcDbEntity
  8
PERFIL
100
AcDbCircle
 10
13.08442572522156
 20
11.6194698093411
 30
0.0
 40
0.500000000000044
100
AcDbArc
 50
4.856760402012863
 51
185.1432395979932
  0
ARC
  5
18D
330
1F
100
AcDbEntity
  8
PERFIL
100
AcDbCircle
 10
21.79999999998424
 20
-87.99999999986566
 30
0.0
 40
100.0000000000318
100
AcDbArc
 50
95.28647919597832
 51
95.96352080401475
  0
ARC
  5
18E
330
1F
100
AcDbEntity
  8
PERFIL
100
AcDbCircle
 10
10.91331251479053
 20
11.40563382239853
 30
0.0
 40
0.5000000000000131
100
AcDbArc
 50
6.106760402007811
 51
186.3932395979865
  0
ARC
  5
18F
330
1F
100
AcDbEntity
  8
PERFIL
100
AcDbCircle
 10
21.79999999999508
 20
-87.99999999979816
 30
0.0
 40
99.99999999996592
100
AcDbArc
 50
96.53647919598868
 51
97.21352080402515
  0
ARC
  5
190
330
1F
100
AcDbEntity
  8
PERFIL
100
AcDbCircle
 10
8.747380777982157
 20
11.14448613754756
 30
0.0
 40
0.5000000000000719
100
AcDbArc
 50
7.356760402007488
 51
187.6432395979914
  0
ARC
  5
191
330
1F
100
AcDbEntity
  8
PERFIL
100
AcDbCircle
 10
21.79999999998943
 20
-87.99999999983591
 30
0.0
 40
100.0000000000027
100
AcDbArc
 50
97.78647919598282
 51
98.46352080401925
  0
ARC
  5
192
330
1F
100
AcDbEntity
  8
PERFIL
100
AcDbCircle
 10
6.587661380995573
 20
10.83615104694253
 30
0.0
 40
0.5000000000000245
100
AcDbArc
 50
8.606760402012252
 51
188.8932395979942
  0
ARC
  5
193
330
1F
100
AcDbEntity
  8
PERFIL
100
AcDbCircle
 10
21.7999999999873
 20
-87.99999999983613
 30
0.0
 40
100.0000000000025
100
AcDbArc
 50
99.03647919598158
 51
99.71352080401806
  0
ARC
  5
194
330
1F
100
AcDbEntity
  8
PERFIL
100
AcDbCircle
 10
4.435182233294102
 20
10.48077530138728
 30
0.0
 40
0.5000000000000272
100
AcDbArc
 50
9.856760402002578
 51
190.1432395979831
  0
ARC
  5
195
330
1F
100
AcDbEntity
  8
PERFIL
100
AcDbCircle
 10
21.79999999998683
 20
-87.9999999998313
 30
0.0
 40
99.99999999999783
100
AcDbArc
 50
100.2864791959818
 51
101.6563258472882
  0
ARC
  5
196
330
1F
100
AcDbEntity
  8
PERFIL
100
AcDbCircle
 10
2.000000000000007
 20
7.978956026998315
 30
0.0
 40
2.000000000000007
100
AcDbArc
 50
101.6563258472892
 51
180.0000000000012
  0
LINE
  5
197
330
1F
100
AcDbEntity
  8
PERFIL
100
AcDbLine
 10
0.0
 20
7.978956026998276
 30
0.0
 11
0.0
 21
0.5
 31
0.0
  0
ARC
  5
198
330
1F
100
AcDbEntity
  8
PERFIL
100
AcDbCircle
 10
0.4999999999999996
 20
0.4999999999999996
 30
0.0
 40
0.4999999999999996
100
AcDbArc
 50
179.9999999999999
 51
270.0000000000001
  0
LINE
  5
199
330
1F
100
AcDbEntity
  8
PERFIL
100
AcDbLine
 10
0.5
 20
0.0
 30
0.0
 11
1.5
 21
0.0
 31
0.0
  0
ARC
  5
19A
330
1F
100
AcDbEntity
  8
PERFIL
100
AcDbCircle
 10
1.499999999999972
 20
0.5000000000000284
 30
0.0
 40
0.5000000000000284
100
AcDbArc
 50
270.0000000000032
 51
359.9999999999968
  0
LINE
  5
19B
330
1F
100
AcDbEntity
  8
PERFIL
100
AcDbLine
 10
2.0
 20
0.5
 30
0.0
 11
2.0
 21
2.5
 31
0.0
  0
ARC
  5
19C
330
1F
100
AcDbEntity
  8
PERFIL
100
AcDbCircle
 10
2.500000000000028
 20
2.499999999999972
 30
0.0
 40
0.5000000000000284
100
AcDbArc
 50
90.00000000000325
 51
179.9999999999967
  0
LINE
  5
19D
330
1F
100
AcDbEntity
  8
PERFIL
100
AcDbLine
 10
2.5
 20
3.0
 30
0.0
 11
5.5
 21
3.0
 31
0.0
  0
ARC
  5
19E
330
1F
100
AcDbEntity
  8
PERFIL
100
AcDbCircle
 10
5.5
 20
2.5
 30
0.0
 40
0.5
100
AcDbArc
 50
0.0
 51
90.0
  0
LINE
  5
19F
330
1F
100
AcDbEntity
  8
PERFIL
100
AcDbLine
 10
6.0
 20
2.5
 30
0.0
 11
6.0
 21
0.5
 31
0.0
  0
ARC
  5
1A0
330
1F
100
AcDbEntity
  8
PERFIL
100
AcDbCircle
 10
6.5
 20
0.5
 30
0.0
 40
0.5
100
AcDbArc
 50
180.0
 51
270.0
  0
LINE
  5
1A1
330
1F
100
AcDbEntity
  8
PERFIL
100
AcDbLine
 10
6.5
 20
0.0
 30
0.0
 11
7.0
 21
0.0
 31
0.0
  0
ARC
  5
1A2
330
1F
100
AcDbEntity
  8
PERFIL
100
AcDbCircle
 10
7.0
 20
0.5
 30
0.0
 40
0.5
100
AcDbArc
 50
270.0
 51
0.0
  0
LINE
  5
1A3
330
1F
100
AcDbEntity
  8
PERFIL
100
AcDbLine
 10
7.5
 20
0.5
 30
0.0
 11
7.5
 21
3.5
 31
0.0
  0
ARC
  5
1A4
330
1F
100
AcDbEntity
  8
PERFIL
100
AcDbCircle
 10
6.5
 20
3.5
 30
0.0
 40
1.0
100
AcDbArc
 50
0.0
 51
90.0
  0
LINE
  5
1A5
330
1F
100
AcDbEntity
  8
PERFIL
100
AcDbLine
 10
6.5
 20
4.5
 30
0.0
 11
2.5
 21
4.5
 31
0.0
  0
ARC
  5
1A6
330
1F
100
AcDbEntity
  8
PERFIL
100
AcDbCircle
 10
2.499999999999979
 20
4.999999999999979
 30
0.0
 40
0.4999999999999787
100
AcDbArc
 50
179.9999999999976
 51
270.0000000000024
  0
LINE
  5
1A7
330
1F
100
AcDbEntity
  8
PERFIL
100
AcDbLine
 10
2.0
 20
5.0
 30
0.0
 11
2.0
 21
7.160706176615577
 31
0.0
  0
ARC
  5
1A8
330
1F
100
AcDbEntity
  8
PERFIL
100
AcDbCircle
 10
2.999999999999909
 20
7.160706176615571
 30
0.0
 40
0.999999999999909
100
AcDbArc
 50
101.1754743900558
 51
179.9999999999997
  0
ARC
  5
1A9
330
1F
100
AcDbEntity
  8
PERFIL
100
AcDbCircle
 10
21.79999999998885
 20
-87.99999999983766
 30
0.0
 40
98.00000000000426
100
AcDbArc
 50
94.52103627526995
 51
101.1754743900517
  0
ARC
  5
1AA
330
1F
100
AcDbEntity
  8
PERFIL
100
AcDbCircle
 10
14.09484541055342
 20
9.445846975565837
 30
0.0
 40
0.2499999999999207
100
AcDbArc
 50
309.5395100783834
 51
94.52103627522584
  0
ARC
  5
1AB
330
1F
100
AcDbEntity
  8
PERFIL
100
AcDbCircle
 10
15.52721828544648
 20
7.710678987366604
 30
0.0
 40
2.00000000000025
100
AcDbArc
 50
129.5395100784285
 51
183.7500000000047
  0
ARC
  5
1AC
330
1F
100
AcDbEntity
  8
PERFIL
100
AcDbCircle
 10
14.03042990058839
 20
7.612574293521106
 30
0.0
 40
0.5000000000000461
100
AcDbArc
 50
183.7499999999877
 51
3.749999999987706
  0
ARC
  5
1AD
330
1F
100
AcDbEntity
  8
PERFIL
100
AcDbCircle
 10
15.52721828544622
 20
7.710678987366236
 30
0.0
 40
0.99999999999988
100
AcDbArc
 50
3.750000000001548
 51
183.7500000000015
  0
ARC
  5
1AE
330
1F
100
AcDbEntity
  8
PERFIL
100
AcDbCircle
 10
17.02400667030406
 20
7.80878368121148
 30
0.0
 40
0.5000000000000535
100
AcDbArc
 50
183.7500000000007
 51
3.750000000000734
  0
ARC
  5
1AF
330
1F
100
AcDbEntity
  8
PERFIL
100
AcDbCircle
 10
15.52721828544602
 20
7.710678987366285
 30
0.0
 40
2.000000000000188
100
AcDbArc
 50
3.749999999999347
 51
57.95998014104962
  0
ARC
  5
1B0
330
1F
100
AcDbEntity
  8
PERFIL
100
AcDbCircle
 10
16.72086911120561
 20
9.61795392983376
 30
0.0
 40
0.2500000000000021
100
AcDbArc
 50
92.97845394419227
 51
237.9599801410476
  0
ARC
  5
1B1
330
1F
100
AcDbEntity
  8
PERFIL
100
AcDbCircle
 10
21.79999999998579
 20
-87.99999999984298
 30
0.0
 40
98.00000000000948
100
AcDbArc
 50
89.8366359599418
 51
92.97845394419102
  0
LINE
  5
1B2
330
1F
100
AcDbEntity
  8
PERFIL
100
AcDbLine
 10
22.07942117847051
 20
9.99960165142329
 30
0.0
 11
25.25
 21
10.00000000016644
 31
0.0
  0
LINE
  5
1B3
330
1F
100
AcDbEntity
  8
PERFIL
100
AcDbLine
 10
25.25
 20
10.00000000016644
 30
0.0
 11
25.52674615080468
 21
10.00000000016644
 31
0.0
  0
ENDSEC
  0
SECTION
  2
OBJECTS
  0
DICTIONARY
  5
C
330
0
100
AcDbDictionary
281
     1
  3
ACAD_DETAILVIEWSTYLE
350
122
  3
ACAD_GROUP
350
D
  3
ACAD_IMAGE_VARS
350
DC
  3
ACAD_LAYOUT
350
1A
  3
ACAD_MLINESTYLE
350
17
  3
ACAD_PLOTSETTINGS
350
19
  3
ACAD_PLOTSTYLENAME
350
E
  3
ACAD_SCALELIST
350
B6
  3
ACAD_SECTIONVIEWSTYLE
350
123
  3
AcDbVariableDictionary
350
66
  3
APPDATA
350
E1
  3
DWGPROPS
350
1B4
  0
DICTIONARY
  5
140
330
2
100
AcDbDictionary
280
     1
281
     1
  3
ACAD_LAYERSTATES
360
141
  0
DICTIONARY
  5
12C
330
12B
100
AcDbDictionary
280
     1
281
     1
  3
ADSK_XREC_LAYER_RECONCILED
360
12D
  0
DICTIONARY
  5
122
102
{ACAD_REACTORS
330
C
102
}
330
C
100
AcDbDictionary
281
     1
  0
DICTIONARY
  5
D
102
{ACAD_REACTORS
330
C
102
}
330
C
100
AcDbDictionary
281
     1
  0
RASTERVARIABLES
  5
DC
102
{ACAD_REACTORS
330
C
102
}
330
C
100
AcDbRasterVariables
 90
        0
 70
     1
 71
     1
 72
     5
  0
DICTIONARY
  5
1A
102
{ACAD_REACTORS
330
C
102
}
330
C
100
AcDbDictionary
281
     1
  3
Model
350
22
  3
Sheet1
350
59
  3
Sheet2
350
5E
  0
DICTIONARY
  5
17
102
{ACAD_REACTORS
330
C
102
}
330
C
100
AcDbDictionary
281
     1
  3
Standard
350
18
  0
DICTIONARY
  5
19
102
{ACAD_REACTORS
330
C
102
}
330
C
100
AcDbDictionary
281
     1
  0
ACDBDICTIONARYWDFLT
  5
E
102
{ACAD_REACTORS
330
C
102
}
330
C
100
AcDbDictionary
281
     1
  3
Normal
350
F
100
AcDbDictionaryWithDefault
340
F
  0
DICTIONARY
  5
B6
102
{ACAD_REACTORS
330
C
102
}
330
C
100
AcDbDictionary
281
     1
  3
A0
350
B7
  3
A1
350
B8
  3
A2
350
B9
  3
A3
350
BA
  3
A4
350
BB
  3
A5
350
BC
  3
A6
350
BD
  3
A7
350
BE
  3
A8
350
BF
  3
A9
350
C0
  3
B0
350
C1
  3
B1
350
C2
  3
B2
350
C3
  3
B3
350
C4
  3
B4
350
C5
  3
B5
350
C6
  3
B6
350
C7
  3
B7
350
C8
  3
B8
350
C9
  3
B9
350
CA
  3
C0
350
CB
  3
C1
350
CC
  3
C2
350
CD
  3
C3
350
CE
  3
C4
350
CF
  3
C5
350
D0
  3
C6
350
D1
  3
C7
350
D2
  3
C8
350
D3
  3
C9
350
D4
  3
D0
350
D5
  3
D1
350
D6
  3
D2
350
D7
  0
DICTIONARY
  5
123
102
{ACAD_REACTORS
330
C
102
}
330
C
100
AcDbDictionary
281
     1
  0
DICTIONARY
  5
66
102
{ACAD_REACTORS
330
C
102
}
330
C
100
AcDbDictionary
281
     1
  3
DIMASSOC
350
67
  3
HIDETEXT
350
6B
  0
DICTIONARY
  5
E1
102
{ACAD_REACTORS
330
C
102
}
330
C
100
AcDbDictionary
281
     1
  0
XRECORD
  5
1B4
102
{ACAD_REACTORS
330
C
102
}
330
C
100
AcDbXrecord
280
     1
  1
DWGPROPS COOKIE
  2

  3

  4

  6

  7

  8
perez
  9

300
=
301
=
302
=
303
=
304
=
305
=
306
=
307
=
308
=
309
=
 40
0.0
 41
2452643.063384271
 42
2458669.893857257
  1

 90
        0
  0
DICTIONARY
  5
141
102
{ACAD_REACTORS
330
140
102
}
330
140
100
AcDbDictionary
281
     1
  0
XRECORD
  5
12D
102
{ACAD_REACTORS
330
12C
102
}
330
12C
100
AcDbXrecord
280
     1
290
     1
  0
LAYOUT
  5
22
102
{ACAD_REACTORS
330
1A
102
}
330
1A
100
AcDbPlotSettings
  1

  2
none_device
  4
ANSI_A_(8.50_x_11.00_Inches)
  6

 40
6.35
 41
19.05
 42
6.35
 43
19.05
 44
215.9
 45
279.4
 46
11.11250000000003
 47
0.0000000000000142
 48
0.0
 49
0.0
140
0.0
141
0.0
142
1.0
143
1.263157894736842
 70
 11444
 72
     0
 73
     1
 74
     1
  7
monochrome.ctb
 75
     0
147
0.7916666666666665
148
-702.8076765758875
149
-496.2830551296954
100
AcDbLayout
  1
Model
 70
     1
 71
     0
 10
0.0
 20
0.0
 11
12.0
 21
9.0
 12
0.0
 22
0.0
 32
0.0
 14
0.0
 24
0.0
 34
0.0
 15
47.0
 25
12.50000000016648
 35
0.0
146
0.0
 13
0.0
 23
0.0
 33
0.0
 16
1.0
 26
0.0
 36
0.0
 17
0.0
 27
1.0
 37
0.0
 76
     0
330
1F
331
94
  0
LAYOUT
  5
59
102
{ACAD_REACTORS
330
1A
102
}
330
1A
100
AcDbPlotSettings
  1

  2
None
  4

  6

 40
0.0
 41
0.0
 42
0.0
 43
0.0
 44
0.0
 45
0.0
 46
0.0
 47
0.0
 48
0.0
 49
0.0
140
0.0
141
0.0
142
1.0
143
1.0
 70
   688
 72
     0
 73
     0
 74
     5
  7

 75
    16
147
1.0
148
0.0
149
0.0
100
AcDbLayout
  1
Sheet1
 70
     1
 71
     1
 10
0.0
 20
0.0
 11
12.0
 21
9.0
 12
0.0
 22
0.0
 32
0.0
 14
0.0
 24
0.0
 34
0.0
 15
0.0
 25
0.0
 35
0.0
146
0.0
 13
0.0
 23
0.0
 33
0.0
 16
1.0
 26
0.0
 36
0.0
 17
0.0
 27
1.0
 37
0.0
 76
     0
330
58
  0
LAYOUT
  5
5E
102
{ACAD_REACTORS
330
1A
102
}
330
1A
100
AcDbPlotSettings
  1

  2
None
  4

  6

 40
0.0
 41
0.0
 42
0.0
 43
0.0
 44
0.0
 45
0.0
 46
0.0
 47
0.0
 48
0.0
 49
0.0
140
0.0
141
0.0
142
1.0
143
1.0
 70
   688
 72
     0
 73
     0
 74
     5
  7

 75
    16
147
1.0
148
0.0
149
0.0
100
AcDbLayout
  1
Sheet2
 70
     1
 71
     2
 10
0.0
 20
0.0
 11
12.0
 21
9.0
 12
0.0
 22
0.0
 32
0.0
 14
0.0
 24
0.0
 34
0.0
 15
0.0
 25
0.0
 35
0.0
146
0.0
 13
0.0
 23
0.0
 33
0.0
 16
1.0
 26
0.0
 36
0.0
 17
0.0
 27
1.0
 37
0.0
 76
     0
330
5D
  0
MLINESTYLE
  5
18
102
{ACAD_REACTORS
330
17
102
}
330
17
100
AcDbMlineStyle
  2
STANDARD
 70
     0
  3

 62
   256
 51
90.0
 52
90.0
 71
     2
 49
0.5
 62
   256
  6
BYLAYER
 49
-0.5
 62
   256
  6
BYLAYER
  0
ACDBPLACEHOLDER
  5
F
102
{ACAD_REACTORS
330
E
102
}
330
E
  0
SCALE
  5
B7
102
{ACAD_REACTORS
330
B6
102
}
330
B6
100
AcDbScale
 70
     0
300
1:1
140
1.0
141
1.0
290
     1
  0
SCALE
  5
B8
102
{ACAD_REACTORS
330
B6
102
}
330
B6
100
AcDbScale
 70
     0
300
1:2
140
1.0
141
2.0
290
     0
  0
SCALE
  5
B9
102
{ACAD_REACTORS
330
B6
102
}
330
B6
100
AcDbScale
 70
     0
300
1:4
140
1.0
141
4.0
290
     0
  0
SCALE
  5
BA
102
{ACAD_REACTORS
330
B6
102
}
330
B6
100
AcDbScale
 70
     0
300
1:5
140
1.0
141
5.0
290
     0
  0
SCALE
  5
BB
102
{ACAD_REACTORS
330
B6
102
}
330
B6
100
AcDbScale
 70
     0
300
1:8
140
1.0
141
8.0
290
     0
  0
SCALE
  5
BC
102
{ACAD_REACTORS
330
B6
102
}
330
B6
100
AcDbScale
 70
     0
300
1:10
140
1.0
141
10.0
290
     0
  0
SCALE
  5
BD
102
{ACAD_REACTORS
330
B6
102
}
330
B6
100
AcDbScale
 70
     0
300
1:16
140
1.0
141
16.0
290
     0
  0
SCALE
  5
BE
102
{ACAD_REACTORS
330
B6
102
}
330
B6
100
AcDbScale
 70
     0
300
1:20
140
1.0
141
20.0
290
     0
  0
SCALE
  5
BF
102
{ACAD_REACTORS
330
B6
102
}
330
B6
100
AcDbScale
 70
     0
300
1:30
140
1.0
141
30.0
290
     0
  0
SCALE
  5
C0
102
{ACAD_REACTORS
330
B6
102
}
330
B6
100
AcDbScale
 70
     0
300
1:40
140
1.0
141
40.0
290
     0
  0
SCALE
  5
C1
102
{ACAD_REACTORS
330
B6
102
}
330
B6
100
AcDbScale
 70
     0
300
1:50
140
1.0
141
50.0
290
     0
  0
SCALE
  5
C2
102
{ACAD_REACTORS
330
B6
102
}
330
B6
100
AcDbScale
 70
     0
300
1:100
140
1.0
141
100.0
290
     0
  0
SCALE
  5
C3
102
{ACAD_REACTORS
330
B6
102
}
330
B6
100
AcDbScale
 70
     0
300
2:1
140
2.0
141
1.0
290
     0
  0
SCALE
  5
C4
102
{ACAD_REACTORS
330
B6
102
}
330
B6
100
AcDbScale
 70
     0
300
4:1
140
4.0
141
1.0
290
     0
  0
SCALE
  5
C5
102
{ACAD_REACTORS
330
B6
102
}
330
B6
100
AcDbScale
 70
     0
300
8:1
140
8.0
141
1.0
290
     0
  0
SCALE
  5
C6
102
{ACAD_REACTORS
330
B6
102
}
330
B6
100
AcDbScale
 70
     0
300
10:1
140
10.0
141
1.0
290
     0
  0
SCALE
  5
C7
102
{ACAD_REACTORS
330
B6
102
}
330
B6
100
AcDbScale
 70
     0
300
100:1
140
100.0
141
1.0
290
     0
  0
SCALE
  5
C8
102
{ACAD_REACTORS
330
B6
102
}
330
B6
100
AcDbScale
 70
     0
300
1/128" = 1'-0"
140
0.0078125
141
12.0
290
     0
  0
SCALE
  5
C9
102
{ACAD_REACTORS
330
B6
102
}
330
B6
100
AcDbScale
 70
     0
300
1/64" = 1'-0"
140
0.015625
141
12.0
290
     0
  0
SCALE
  5
CA
102
{ACAD_REACTORS
330
B6
102
}
330
B6
100
AcDbScale
 70
     0
300
1/32" = 1'-0"
140
0.03125
141
12.0
290
     0
  0
SCALE
  5
CB
102
{ACAD_REACTORS
330
B6
102
}
330
B6
100
AcDbScale
 70
     0
300
1/16" = 1'-0"
140
0.0625
141
12.0
290
     0
  0
SCALE
  5
CC
102
{ACAD_REACTORS
330
B6
102
}
330
B6
100
AcDbScale
 70
     0
300
3/32" = 1'-0"
140
0.09375
141
12.0
290
     0
  0
SCALE
  5
CD
102
{ACAD_REACTORS
330
B6
102
}
330
B6
100
AcDbScale
 70
     0
300
1/8" = 1'-0"
140
0.125
141
12.0
290
     0
  0
SCALE
  5
CE
102
{ACAD_REACTORS
330
B6
102
}
330
B6
100
AcDbScale
 70
     0
300
3/16" = 1'-0"
140
0.1875
141
12.0
290
     0
  0
SCALE
  5
CF
102
{ACAD_REACTORS
330
B6
102
}
330
B6
100
AcDbScale
 70
     0
300
1/4" = 1'-0"
140
0.25
141
12.0
290
     0
  0
SCALE
  5
D0
102
{ACAD_REACTORS
330
B6
102
}
330
B6
100
AcDbScale
 70
     0
300
3/8" = 1'-0"
140
0.375
141
12.0
290
     0
  0
SCALE
  5
D1
102
{ACAD_REACTORS
330
B6
102
}
330
B6
100
AcDbScale
 70
     0
300
1/2" = 1'-0"
140
0.5
141
12.0
290
     0
  0
SCALE
  5
D2
102
{ACAD_REACTORS
330
B6
102
}
330
B6
100
AcDbScale
 70
     0
300
3/4" = 1'-0"
140
0.75
141
12.0
290
     0
  0
SCALE
  5
D3
102
{ACAD_REACTORS
330
B6
102
}
330
B6
100
AcDbScale
 70
     0
300
1" = 1'-0"
140
1.0
141
12.0
290
     0
  0
SCALE
  5
D4
102
{ACAD_REACTORS
330
B6
102
}
330
B6
100
AcDbScale
 70
     0
300
1-1/2" = 1'-0"
140
1.5
141
12.0
290
     0
  0
SCALE
  5
D5
102
{ACAD_REACTORS
330
B6
102
}
330
B6
100
AcDbScale
 70
     0
300
3" = 1'-0"
140
3.0
141
12.0
290
     0
  0
SCALE
  5
D6
102
{ACAD_REACTORS
330
B6
102
}
330
B6
100
AcDbScale
 70
     0
300
6" = 1'-0"
140
6.0
141
12.0
290
     0
  0
SCALE
  5
D7
102
{ACAD_REACTORS
330
B6
102
}
330
B6
100
AcDbScale
 70
     0
300
1'-0" = 1'-0"
140
12.0
141
12.0
290
     0
  0
DICTIONARYVAR
  5
67
102
{ACAD_REACTORS
330
66
102
}
330
66
100
DictionaryVariables
280
     0
  1
2
  0
DICTIONARYVAR
  5
6B
102
{ACAD_REACTORS
330
66
102
}
330
66
100
DictionaryVariables
280
     0
  1
1
  0
ENDSEC
  0
EOF
