0
SECTION
2
ENTITIES
0
ARC
8
0
10
2188.157372
20
-588.960255
30
0.0
40
0.500000
50
270.000000
51
360.000000
0
LINE
8
0
10
2188.657372
20
-588.960255
30
0.0
11
2188.657372
21
-587.260255
31
0.0
0
ARC
8
0
10
2189.157372
20
-587.260255
30
0.0
40
0.500000
50
90.000000
51
180.000000
0
LINE
8
0
10
2189.157372
20
-586.760255
30
0.0
11
2240.157372
21
-586.760255
31
0.0
0
ARC
8
0
10
2240.157372
20
-587.260255
30
0.0
40
0.500000
50
360.000000
51
90.000000
0
LINE
8
0
10
2240.657372
20
-588.960255
30
0.0
11
2240.657372
21
-587.260255
31
0.0
0
ARC
8
0
10
2241.157372
20
-588.960255
30
0.0
40
0.500000
50
180.000000
51
270.000000
0
LINE
8
0
10
2241.657372
20
-589.460255
30
0.0
11
2241.157372
21
-589.460255
31
0.0
0
ARC
8
0
10
2241.657372
20
-588.960255
30
0.0
40
0.500000
50
270.000000
51
360.000000
0
LINE
8
0
10
2242.157372
20
-587.260255
30
0.0
11
2242.157372
21
-588.960255
31
0.0
0
ARC
8
0
10
2242.657372
20
-587.260255
30
0.0
40
0.500000
50
90.000000
51
180.000000
0
LINE
8
0
10
2242.657372
20
-586.760255
30
0.0
11
2244.157372
21
-586.760255
31
0.0
0
ARC
8
0
10
2244.157372
20
-586.260255
30
0.0
40
0.500000
50
270.000000
51
360.000000
0
LINE
8
0
10
2244.657372
20
-586.260255
30
0.0
11
2244.657372
21
-585.760255
31
0.0
0
ARC
8
0
10
2243.657372
20
-585.760255
30
0.0
40
1.000000
50
360.000000
51
90.000000
0
LINE
8
0
10
2243.657372
20
-584.760255
30
0.0
11
2214.407372
21
-584.760255
31
0.0
0
ARC
8
0
10
2214.407372
20
-584.260255
30
0.0
40
0.500000
50
180.000000
51
270.000000
0
LINE
8
0
10
2213.907372
20
-584.260255
30
0.0
11
2213.907372
21
-583.360255
31
0.0
0
ARC
8
0
10
2212.907372
20
-583.360255
30
0.0
40
1.000000
50
360.000000
51
90.000000
0
LINE
8
0
10
2212.907372
20
-582.360255
30
0.0
11
2211.757457
21
-582.360255
31
0.0
0
ARC
8
0
10
2211.757457
20
-582.960255
30
0.0
40
0.600000
50
90.000000
51
270.000000
0
LINE
8
0
10
2211.757457
20
-583.560255
30
0.0
11
2211.907372
21
-583.560255
31
0.0
0
ARC
8
0
10
2211.907372
20
-584.060255
30
0.0
40
0.500000
50
360.000000
51
90.000000
0
LINE
8
0
10
2212.407372
20
-584.060255
30
0.0
11
2212.407372
21
-584.260255
31
0.0
0
ARC
8
0
10
2211.907372
20
-584.260255
30
0.0
40
0.500000
50
270.000000
51
360.000000
0
LINE
8
0
10
2211.907372
20
-584.760255
30
0.0
11
2205.407372
21
-584.760255
31
0.0
0
ARC
8
0
10
2205.407372
20
-584.260255
30
0.0
40
0.500000
50
180.000000
51
270.000000
0
LINE
8
0
10
2204.907372
20
-584.260255
30
0.0
11
2204.907372
21
-584.060255
31
0.0
0
ARC
8
0
10
2205.407372
20
-584.060255
30
0.0
40
0.500000
50
90.000000
51
180.000000
0
LINE
8
0
10
2205.407372
20
-583.560255
30
0.0
11
2205.557287
21
-583.560255
31
0.0
0
ARC
8
0
10
2205.557287
20
-582.960255
30
0.0
40
0.600000
50
270.000000
51
90.000000
0
LINE
8
0
10
2205.557287
20
-582.360255
30
0.0
11
2204.407372
21
-582.360255
31
0.0
0
ARC
8
0
10
2204.407372
20
-583.360255
30
0.0
40
1.000000
50
90.000000
51
180.000000
0
LINE
8
0
10
2203.407372
20
-583.360255
30
0.0
11
2203.407372
21
-584.260255
31
0.0
0
ARC
8
0
10
2202.907372
20
-584.260255
30
0.0
40
0.500000
50
270.000000
51
360.000000
0
LINE
8
0
10
2202.907372
20
-584.760255
30
0.0
11
2187.157372
21
-584.760255
31
0.0
0
ARC
8
0
10
2187.157372
20
-584.260255
30
0.0
40
0.500000
50
180.000000
51
270.000000
0
LINE
8
0
10
2186.657372
20
-584.260255
30
0.0
11
2186.657372
21
-580.360255
31
0.0
0
ARC
8
0
10
2187.157372
20
-580.360255
30
0.0
40
0.500000
50
90.000000
51
180.000000
0
LINE
8
0
10
2187.157372
20
-579.860255
30
0.0
11
2187.657372
21
-579.860255
31
0.0
0
ARC
8
0
10
2187.657372
20
-579.360255
30
0.0
40
0.500000
50
270.000000
51
360.000000
0
LINE
8
0
10
2188.157372
20
-579.360255
30
0.0
11
2188.157372
21
-577.860255
31
0.0
0
ARC
8
0
10
2187.657372
20
-577.860255
30
0.0
40
0.500000
50
360.000000
51
180.000000
0
ARC
8
0
10
2186.657372
20
-577.860255
30
0.0
40
0.500000
50
270.000000
51
360.000000
0
LINE
8
0
10
2186.657372
20
-578.360255
30
0.0
11
2186.357372
21
-578.360255
31
0.0
0
ARC
8
0
10
2186.357372
20
-577.860255
30
0.0
40
0.500000
50
180.000000
51
270.000000
0
LINE
8
0
10
2185.857372
20
-577.860255
30
0.0
11
2185.857372
21
-573.860255
31
0.0
0
ARC
8
0
10
2186.357372
20
-573.860255
30
0.0
40
0.500000
50
90.000000
51
180.000000
0
LINE
8
0
10
2186.357372
20
-573.360255
30
0.0
11
2186.657372
21
-573.360255
31
0.0
0
ARC
8
0
10
2186.657372
20
-573.860255
30
0.0
40
0.500000
50
360.000000
51
90.000000
0
ARC
8
0
10
2187.657372
20
-573.860255
30
0.0
40
0.500000
50
180.000000
51
360.000000
0
LINE
8
0
10
2188.157372
20
-573.860255
30
0.0
11
2188.157372
21
-572.360255
31
0.0
0
ARC
8
0
10
2187.657372
20
-572.360255
30
0.0
40
0.500000
50
360.000000
51
90.000000
0
LINE
8
0
10
2187.657372
20
-571.860255
30
0.0
11
2186.657372
21
-571.860255
31
0.0
0
ARC
8
0
10
2186.657372
20
-573.860255
30
0.0
40
2.000000
50
90.000000
51
180.000000
0
LINE
8
0
10
2184.657372
20
-573.860255
30
0.0
11
2184.657372
21
-586.260255
31
0.0
0
ARC
8
0
10
2185.157372
20
-586.260255
30
0.0
40
0.500000
50
180.000000
51
270.000000
0
LINE
8
0
10
2185.157372
20
-586.760255
30
0.0
11
2186.657372
21
-586.760255
31
0.0
0
ARC
8
0
10
2186.657372
20
-587.260255
30
0.0
40
0.500000
50
360.000000
51
90.000000
0
LINE
8
0
10
2187.157372
20
-587.260255
30
0.0
11
2187.157372
21
-588.960255
31
0.0
0
ARC
8
0
10
2187.657372
20
-588.960255
30
0.0
40
0.500000
50
180.000000
51
270.000000
0
LINE
8
0
10
2187.657372
20
-589.460255
30
0.0
11
2188.157372
21
-589.460255
31
0.0
0
ATTDEF
8
0
10
2204.982330
20
-582.360255
30
0.0
40
3.5
1

3

2
VC_START
70
0
0
ATTDEF
8
0
10
2189.157372
20
-586.760255
30
0.0
40
3.5
1

3

2
VC_END
70
0
0
ATTDEF
8
0
10
2184.657372
20
-589.460255
30
0.0
40
3.5
1

3

2
DESC:Suplemento inferior hoja puerta de rebatir
70
0
0
ATTDEF
8
0
10
2184.657372
20
-589.460255
30
0.0
40
3.5
1

3

2
DENS:0.446000
70
0
0
ATTDEF
8
0
10
2184.657372
20
-589.460255
30
0.0
40
3.5
1

3

2
TDEV:0.000000
70
0
0
ATTDEF
8
0
10
2184.657372
20
-589.460255
30
0.0
40
3.5
1

3

2
TDEV2:0.000000
70
0
0
ATTDEF
8
0
10
2184.657372
20
-589.460255
30
0.0
40
3.5
1

3

2
TDEV3:0.000000
70
0
0
ATTDEF
8
0
10
2184.657372
20
-589.460255
30
0.0
40
3.5
1

3

2
TDEV4:0.000000
70
0
0
ATTDEF
8
0
10
2184.657372
20
-589.460255
30
0.0
40
3.5
1

3

2
TDEV5:0.000000
70
0
0
ATTDEF
8
0
10
2184.657372
20
-589.460255
30
0.0
40
3.5
1

3

2
FRONT_VIEW
70
0
0
ATTDEF
8
0
10
2184.657372
20
-589.460255
30
0.0
40
3.5
1

3

2
BL01:6500.000000,,1
70
0
0
ATTDEF
8
0
10
2184.657372
20
-589.460255
30
0.0
40
3.5
1

3

2
OPTI:500.000000,1,0,3000.000000,6500.000000,500.000000,0,0.000000,0
70
0
0
ATTDEF
8
0
10
2184.657372
20
-589.460255
30
0.0
40
3.5
1

3

2
PANE_WIDTH:0.000000
70
0
0
ATTDEF
8
0
10
2184.657372
20
-589.460255
30
0.0
40
3.5
1

3

2
GLASS_MIN:0.000000
70
0
0
ATTDEF
8
0
10
2184.657372
20
-589.460255
30
0.0
40
3.5
1

3

2
GLASS_MAX:0.000000
70
0
0
ATTDEF
8
0
10
2184.657372
20
-589.460255
30
0.0
40
3.5
1

3

2
JX:0.000000
70
0
0
ATTDEF
8
0
10
2184.657372
20
-589.460255
30
0.0
40
3.5
1

3

2
WX:0.000000
70
0
0
ATTDEF
8
0
10
2184.657372
20
-589.460255
30
0.0
40
3.5
1

3

2
JY:0.000000
70
0
0
ATTDEF
8
0
10
2184.657372
20
-589.460255
30
0.0
40
3.5
1

3

2
WY:0.000000
70
0
0
ATTDEF
8
0
10
2184.657372
20
-589.460255
30
0.0
40
3.5
1

3

2
FP_LCS_ORIG
70
0
0
ATTDEF
8
0
10
2194.657372
20
-589.460255
30
0.0
40
3.5
1

3

2
FP_LCS_HOT
70
0
0
ATTDEF
8
0
10
2184.657372
20
-579.460255
30
0.0
40
3.5
1

3

2
FP_LCS_INTERN
70
0
0
ENDSEC
0
EOF
