0
SECTION
2
ENTITIES
0
LINE
8
0
10
0.000000
20
0.000000
30
0.0
11
0.000000
21
50.000000
31
0.0
0
LINE
8
0
10
1.000000
20
0.000000
30
0.0
11
1.000000
21
50.000000
31
0.0
0
LINE
8
0
10
2.000000
20
0.000000
30
0.0
11
2.000000
21
50.000000
31
0.0
0
LINE
8
0
10
3.000000
20
0.000000
30
0.0
11
3.000000
21
50.000000
31
0.0
0
LINE
8
0
10
4.000000
20
0.000000
30
0.0
11
4.000000
21
50.000000
31
0.0
0
LINE
8
0
10
0.000000
20
0.000000
30
0.0
11
4.000000
21
0.000000
31
0.0
0
LINE
8
0
10
4.000000
20
0.000000
30
0.0
11
13.000000
21
0.000000
31
0.0
0
LINE
8
0
10
13.000000
20
0.000000
30
0.0
11
13.000000
21
10.000000
31
0.0
0
LINE
8
0
10
13.000000
20
10.000000
30
0.0
11
4.000000
21
10.000000
31
0.0
0
LINE
8
0
10
4.000000
20
10.000000
30
0.0
11
4.000000
21
0.000000
31
0.0
0
LINE
8
0
10
4.000000
20
0.000000
30
0.0
11
13.000000
21
10.000000
31
0.0
0
LINE
8
0
10
4.000000
20
10.000000
30
0.0
11
13.000000
21
0.000000
31
0.0
0
LINE
8
0
10
13.000000
20
0.000000
30
0.0
11
13.000000
21
50.000000
31
0.0
0
LINE
8
0
10
14.000000
20
0.000000
30
0.0
11
14.000000
21
50.000000
31
0.0
0
LINE
8
0
10
15.000000
20
0.000000
30
0.0
11
15.000000
21
50.000000
31
0.0
0
LINE
8
0
10
16.000000
20
0.000000
30
0.0
11
16.000000
21
50.000000
31
0.0
0
LINE
8
0
10
17.000000
20
0.000000
30
0.0
11
17.000000
21
50.000000
31
0.0
0
LINE
8
0
10
13.000000
20
0.000000
30
0.0
11
17.000000
21
0.000000
31
0.0
0
ATTDEF
8
0
10
0.000000
20
0.000000
30
0.0
40
3.5
1

3

2
DENS:20.000000
70
0
0
ENDSEC
0
EOF
