0
SECTION
2
ENTITIES
0
LINE
8
0
10
0.000000
20
0.000000
30
0.0
11
0.000000
21
50.000000
31
0.0
0
LINE
8
0
10
1.000000
20
0.000000
30
0.0
11
1.000000
21
50.000000
31
0.0
0
LINE
8
0
10
2.000000
20
0.000000
30
0.0
11
2.000000
21
50.000000
31
0.0
0
LINE
8
0
10
3.000000
20
0.000000
30
0.0
11
3.000000
21
50.000000
31
0.0
0
LINE
8
0
10
4.000000
20
0.000000
30
0.0
11
4.000000
21
50.000000
31
0.0
0
LINE
8
0
10
5.000000
20
0.000000
30
0.0
11
5.000000
21
50.000000
31
0.0
0
LINE
8
0
10
0.000000
20
0.000000
30
0.0
11
5.000000
21
0.000000
31
0.0
0
LINE
8
0
10
5.000000
20
0.000000
30
0.0
11
17.000000
21
0.000000
31
0.0
0
LINE
8
0
10
17.000000
20
0.000000
30
0.0
11
17.000000
21
10.000000
31
0.0
0
LINE
8
0
10
17.000000
20
10.000000
30
0.0
11
5.000000
21
10.000000
31
0.0
0
LINE
8
0
10
5.000000
20
10.000000
30
0.0
11
5.000000
21
0.000000
31
0.0
0
LINE
8
0
10
5.000000
20
0.000000
30
0.0
11
17.000000
21
10.000000
31
0.0
0
LINE
8
0
10
5.000000
20
10.000000
30
0.0
11
17.000000
21
0.000000
31
0.0
0
LINE
8
0
10
17.000000
20
0.000000
30
0.0
11
17.000000
21
50.000000
31
0.0
0
LINE
8
0
10
18.000000
20
0.000000
30
0.0
11
18.000000
21
50.000000
31
0.0
0
LINE
8
0
10
19.000000
20
0.000000
30
0.0
11
19.000000
21
50.000000
31
0.0
0
LINE
8
0
10
20.000000
20
0.000000
30
0.0
11
20.000000
21
50.000000
31
0.0
0
LINE
8
0
10
21.000000
20
0.000000
30
0.0
11
21.000000
21
50.000000
31
0.0
0
LINE
8
0
10
22.000000
20
0.000000
30
0.0
11
22.000000
21
50.000000
31
0.0
0
LINE
8
0
10
23.000000
20
0.000000
30
0.0
11
23.000000
21
50.000000
31
0.0
0
LINE
8
0
10
17.000000
20
0.000000
30
0.0
11
23.000000
21
0.000000
31
0.0
0
ATTDEF
8
0
10
0.000000
20
0.000000
30
0.0
40
3.5
1

3

2
FRONT_VIEW
70
0
0
ATTDEF
8
0
10
0.000000
20
0.000000
30
0.0
40
3.5
1

3

2
BL01:6500.000000,,1
70
0
0
ATTDEF
8
0
10
0.000000
20
0.000000
30
0.0
40
3.5
1

3

2
OPTI:500.000000,1,0,3000.000000,6500.000000,500.000000,0,0.000000,0
70
0
0
ATTDEF
8
0
10
0.000000
20
0.000000
30
0.0
40
3.5
1

3

2
GLASS_MIN:0.000000
70
0
0
ATTDEF
8
0
10
0.000000
20
0.000000
30
0.0
40
3.5
1

3

2
GLASS_MAX:0.000000
70
0
0
ATTDEF
8
0
10
0.000000
20
0.000000
30
0.0
40
3.5
1

3

2
JX:0.000000
70
0
0
ATTDEF
8
0
10
0.000000
20
0.000000
30
0.0
40
3.5
1

3

2
WX:0.000000
70
0
0
ATTDEF
8
0
10
0.000000
20
0.000000
30
0.0
40
3.5
1

3

2
JY:0.000000
70
0
0
ATTDEF
8
0
10
0.000000
20
0.000000
30
0.0
40
3.5
1

3

2
WY:0.000000
70
0
0
ATTDEF
8
0
10
0.000000
20
0.000000
30
0.0
40
3.5
1

3

2
FP_LCS_ORIG
70
0
0
ATTDEF
8
0
10
10.000000
20
0.000000
30
0.0
40
3.5
1

3

2
FP_LCS_HOT
70
0
0
ATTDEF
8
0
10
0.000000
20
10.000000
30
0.0
40
3.5
1

3

2
FP_LCS_INTERN
70
0
0
ATTDEF
8
0
10
0.000000
20
0.000000
30
0.0
40
3.5
1

3

2
DESC:Vidrio DVH (5 mm./12 mm./6 mm.)
70
0
0
ATTDEF
8
0
10
0.000000
20
0.000000
30
0.0
40
3.5
1

3

2
DENS:27.5
70
0
0
ATTDEF
8
0
10
0.000000
20
0.000000
30
0.0
40
3.5
1

3

2
TDEV:0
70
0
0
ATTDEF
8
0
10
0.000000
20
0.000000
30
0.0
40
3.5
1

3

2
TDEV2:0
70
0
0
ATTDEF
8
0
10
0.000000
20
0.000000
30
0.0
40
3.5
1

3

2
TDEV3:0
70
0
0
ATTDEF
8
0
10
0.000000
20
0.000000
30
0.0
40
3.5
1

3

2
TDEV4:0
70
0
0
ATTDEF
8
0
10
0.000000
20
0.000000
30
0.0
40
3.5
1

3

2
TDEV5:0
70
0
0
ATTDEF
8
0
10
0.000000
20
0.000000
30
0.0
40
3.5
1

3

2
PANE_WIDTH:0
70
0
0
ATTDEF
8
0
10
0.000000
20
0.000000
30
0.0
40
3.5
1

3

2
MIN_VETRO:0
70
0
0
ATTDEF
8
0
10
0.000000
20
0.000000
30
0.0
40
3.5
1

3

2
MAX_VETRO:0
70
0
0
ATTDEF
8
0
10
0.000000
20
0.000000
30
0.0
40
3.5
1

3

2
JX:0
70
0
0
ATTDEF
8
0
10
0.000000
20
0.000000
30
0.0
40
3.5
1

3

2
WX:0
70
0
0
ATTDEF
8
0
10
0.000000
20
0.000000
30
0.0
40
3.5
1

3

2
JY:0
70
0
0
ATTDEF
8
0
10
0.000000
20
0.000000
30
0.0
40
3.5
1

3

2
WY:0
70
0
0
ENDSEC
0
EOF
