0
SECTION
2
ENTITIES
0
LINE
8
0
10
87.699997
20
25.100000
30
0.0
11
121.399862
21
25.100000
31
0.0
0
ARC
8
0
10
121.399862
20
24.600000
30
0.0
40
0.500000
50
360.000000
51
90.000000
0
LINE
8
0
10
121.899862
20
24.600000
30
0.0
11
121.899862
21
21.400000
31
0.0
0
ARC
8
0
10
121.399862
20
21.400000
30
0.0
40
0.500000
50
270.000000
51
360.000000
0
LINE
8
0
10
121.399862
20
20.900000
30
0.0
11
119.699727
21
20.900000
31
0.0
0
ARC
8
0
10
119.699727
20
20.400000
30
0.0
40
0.500000
50
90.000000
51
180.000000
0
LINE
8
0
10
119.199727
20
20.400000
30
0.0
11
119.199727
21
19.800000
31
0.0
0
ARC
8
0
10
119.699727
20
19.800000
30
0.0
40
0.500000
50
180.000000
51
270.000000
0
LINE
8
0
10
119.699727
20
19.300000
30
0.0
11
121.399862
21
19.300000
31
0.0
0
ARC
8
0
10
121.399862
20
18.800000
30
0.0
40
0.500000
50
360.000000
51
90.000000
0
LINE
8
0
10
121.899862
20
18.800000
30
0.0
11
121.899862
21
8.800000
31
0.0
0
ARC
8
0
10
121.399862
20
8.800000
30
0.0
40
0.500000
50
270.000000
51
360.000000
0
LINE
8
0
10
121.399862
20
8.300000
30
0.0
11
84.999997
21
8.300000
31
0.0
0
ARC
8
0
10
84.999997
20
8.800000
30
0.0
40
0.500000
50
180.000000
51
270.000000
0
LINE
8
0
10
84.499997
20
8.800000
30
0.0
11
84.499997
21
13.200000
31
0.0
0
ARC
8
0
10
84.999997
20
13.200000
30
0.0
40
0.500000
50
90.000000
51
180.000000
0
LINE
8
0
10
84.999997
20
13.700000
30
0.0
11
85.299862
21
13.700000
31
0.0
0
ARC
8
0
10
85.299862
20
14.200000
30
0.0
40
0.500000
50
270.000000
51
360.000000
0
LINE
8
0
10
85.799862
20
14.200000
30
0.0
11
85.799862
21
14.800000
31
0.0
0
ARC
8
0
10
85.299862
20
14.800000
30
0.0
40
0.500000
50
360.000000
51
90.000000
0
LINE
8
0
10
85.299862
20
15.300000
30
0.0
11
84.999997
21
15.300000
31
0.0
0
ARC
8
0
10
84.999997
20
15.800000
30
0.0
40
0.500000
50
180.000000
51
270.000000
0
LINE
8
0
10
84.499997
20
15.800000
30
0.0
11
84.499997
21
18.800000
31
0.0
0
ARC
8
0
10
84.999997
20
18.800000
30
0.0
40
0.500000
50
90.000000
51
180.000000
0
LINE
8
0
10
84.999997
20
19.300000
30
0.0
11
88.699997
21
19.300000
31
0.0
0
ARC
8
0
10
88.699997
20
19.800000
30
0.0
40
0.500000
50
270.000000
51
360.000000
0
LINE
8
0
10
89.199997
20
19.800000
30
0.0
11
89.199997
21
20.400000
31
0.0
0
ARC
8
0
10
88.699997
20
20.400000
30
0.0
40
0.500000
50
360.000000
51
90.000000
0
LINE
8
0
10
88.699997
20
20.900000
30
0.0
11
87.699997
21
20.900000
31
0.0
0
ARC
8
0
10
87.699997
20
21.400000
30
0.0
40
0.500000
50
180.000000
51
270.000000
0
LINE
8
0
10
87.199997
20
21.400000
30
0.0
11
87.199997
21
24.600000
31
0.0
0
ARC
8
0
10
87.699997
20
24.600000
30
0.0
40
0.500000
50
90.000000
51
180.000000
0
LINE
8
0
10
86.299997
20
27.200000
30
0.0
11
86.299997
21
35.274614
31
0.0
0
ARC
8
0
10
87.799997
20
35.274614
30
0.0
40
1.500000
50
150.000000
51
180.000000
0
LINE
8
0
10
86.500959
20
36.024614
30
0.0
11
86.678227
21
36.331651
31
0.0
0
ARC
8
0
10
87.111240
20
36.081651
30
0.0
40
0.500000
50
45.000000
51
150.000000
0
LINE
8
0
10
87.464793
20
36.435204
30
0.0
11
89.007104
21
34.892893
31
0.0
0
ARC
8
0
10
89.714211
20
35.600000
30
0.0
40
1.000000
50
225.000000
51
270.000000
0
LINE
8
0
10
89.714211
20
34.600000
30
0.0
11
99.285784
21
34.600000
31
0.0
0
ARC
8
0
10
99.285784
20
35.600000
30
0.0
40
1.000000
50
270.000000
51
315.000000
0
LINE
8
0
10
99.992890
20
34.892893
30
0.0
11
103.773468
21
38.673471
31
0.0
0
ARC
8
0
10
104.127021
20
38.319917
30
0.0
40
0.500000
50
30.000000
51
135.000000
0
LINE
8
0
10
104.560034
20
38.569917
30
0.0
11
105.433010
21
37.057878
31
0.0
0
ARC
8
0
10
104.999997
20
36.807878
30
0.0
40
0.500000
50
360.000000
51
30.000000
0
LINE
8
0
10
105.499997
20
36.807878
30
0.0
11
105.499997
21
27.200000
31
0.0
0
ARC
8
0
10
104.999997
20
27.200000
30
0.0
40
0.500000
50
270.000000
51
360.000000
0
LINE
8
0
10
104.999997
20
26.700000
30
0.0
11
86.799997
21
26.700000
31
0.0
0
ARC
8
0
10
86.799997
20
27.200000
30
0.0
40
0.500000
50
180.000000
51
270.000000
0
ARC
8
0
10
84.949997
20
25.350000
30
0.0
40
0.250000
50
180.000000
51
270.000000
0
LINE
8
0
10
84.949997
20
25.100000
30
0.0
11
85.349997
21
25.100000
31
0.0
0
ARC
8
0
10
85.349997
20
24.850000
30
0.0
40
0.250000
50
360.000000
51
90.000000
0
LINE
8
0
10
85.599997
20
24.850000
30
0.0
11
85.599997
21
21.950000
31
0.0
0
ARC
8
0
10
85.349997
20
21.950000
30
0.0
40
0.250000
50
270.000000
51
360.000000
0
LINE
8
0
10
85.349997
20
21.700000
30
0.0
11
81.249394
21
21.700000
31
0.0
0
ARC
8
0
10
81.249394
20
21.950000
30
0.0
40
0.250000
50
182.814089
51
270.000000
0
ARC
8
0
10
80.749997
20
21.925453
30
0.0
40
0.250000
50
2.814089
51
70.000000
0
LINE
8
0
10
80.835502
20
22.160376
30
0.0
11
79.402603
21
22.681908
31
0.0
0
ARC
8
0
10
79.299997
20
22.400001
30
0.0
40
0.300000
50
70.000000
51
185.000000
0
LINE
8
0
10
79.001139
20
22.373854
30
0.0
11
79.209526
21
19.991975
31
0.0
0
ARC
8
0
10
79.458575
20
20.013764
30
0.0
40
0.250000
50
185.000000
51
225.000000
0
LINE
8
0
10
79.281798
20
19.836987
30
0.0
11
79.658576
21
19.460210
31
0.0
0
ARC
8
0
10
79.799997
20
19.601631
30
0.0
40
0.200000
50
225.000000
51
345.000000
0
LINE
8
0
10
79.993182
20
19.549867
30
0.0
11
80.038011
21
19.717170
31
0.0
0
ARC
8
0
10
80.231196
20
19.665407
30
0.0
40
0.200000
50
105.000000
51
165.000000
0
LINE
8
0
10
80.179433
20
19.858592
30
0.0
11
82.199997
21
20.400001
31
0.0
0
LINE
8
0
10
82.199997
20
20.400001
30
0.0
11
82.399997
21
20.400001
31
0.0
0
ARC
8
0
10
82.399997
20
20.100001
30
0.0
40
0.300000
50
311.810315
51
90.000000
0
ARC
8
0
10
82.799997
20
19.652787
30
0.0
40
0.300000
50
131.810315
51
180.000000
0
LINE
8
0
10
82.499997
20
19.652787
30
0.0
11
82.499997
21
15.700001
31
0.0
0
ARC
8
0
10
82.199997
20
15.700001
30
0.0
40
0.300000
50
270.000000
51
360.000000
0
LINE
8
0
10
82.199997
20
15.400001
30
0.0
11
81.970269
21
15.400001
31
0.0
0
ARC
8
0
10
81.970269
20
15.650001
30
0.0
40
0.250000
50
238.600000
51
270.000000
0
LINE
8
0
10
81.840017
20
15.436613
30
0.0
11
80.304199
21
16.374080
31
0.0
0
ARC
8
0
10
80.199997
20
16.203370
30
0.0
40
0.200000
50
58.600000
51
180.000000
0
LINE
8
0
10
79.999997
20
16.203370
30
0.0
11
79.999997
21
15.200145
31
0.0
0
ARC
8
0
10
80.499997
20
15.200145
30
0.0
40
0.500000
50
180.000000
51
238.600000
0
LINE
8
0
10
80.239492
20
14.773370
30
0.0
11
80.829238
21
14.413388
31
0.0
0
ARC
8
0
10
80.698985
20
14.200000
30
0.0
40
0.250000
50
301.400000
51
58.600000
0
LINE
8
0
10
80.829238
20
13.986613
30
0.0
11
80.239492
21
13.626631
31
0.0
0
ARC
8
0
10
80.499997
20
13.199855
30
0.0
40
0.500000
50
121.400000
51
180.000000
0
LINE
8
0
10
79.999997
20
13.199855
30
0.0
11
79.999997
21
12.196631
31
0.0
0
ARC
8
0
10
80.199997
20
12.196631
30
0.0
40
0.200000
50
180.000000
51
301.400000
0
LINE
8
0
10
80.304199
20
12.025921
30
0.0
11
81.840017
21
12.963388
31
0.0
0
ARC
8
0
10
81.970269
20
12.750000
30
0.0
40
0.250000
50
90.000000
51
121.400000
0
LINE
8
0
10
81.970269
20
13.000000
30
0.0
11
82.199997
21
13.000000
31
0.0
0
ARC
8
0
10
82.199997
20
12.700000
30
0.0
40
0.300000
50
360.000000
51
90.000000
0
LINE
8
0
10
82.499997
20
12.700000
30
0.0
11
82.499997
21
8.747214
31
0.0
0
ARC
8
0
10
82.799997
20
8.747214
30
0.0
40
0.300000
50
180.000000
51
228.189685
0
ARC
8
0
10
82.399997
20
8.300000
30
0.0
40
0.300000
50
270.000000
51
48.189685
0
LINE
8
0
10
82.399997
20
8.000000
30
0.0
11
82.199997
21
8.000000
31
0.0
0
LINE
8
0
10
82.199997
20
8.000000
30
0.0
11
80.179433
21
8.541409
31
0.0
0
ARC
8
0
10
80.231196
20
8.734594
30
0.0
40
0.200000
50
195.000000
51
255.000000
0
LINE
8
0
10
80.038011
20
8.682830
30
0.0
11
79.993182
21
8.850133
31
0.0
0
ARC
8
0
10
79.799997
20
8.798369
30
0.0
40
0.200000
50
15.000000
51
135.000000
0
LINE
8
0
10
79.658576
20
8.939791
30
0.0
11
79.281798
21
8.563013
31
0.0
0
ARC
8
0
10
79.458575
20
8.386236
30
0.0
40
0.250000
50
135.000000
51
175.000000
0
LINE
8
0
10
79.209526
20
8.408025
30
0.0
11
79.001139
21
6.026147
31
0.0
0
ARC
8
0
10
79.299997
20
6.000000
30
0.0
40
0.300000
50
175.000000
51
290.000000
0
LINE
8
0
10
79.402603
20
5.718092
30
0.0
11
80.835502
21
6.239625
31
0.0
0
ARC
8
0
10
80.749997
20
6.474548
30
0.0
40
0.250000
50
290.000000
51
357.185881
0
ARC
8
0
10
81.249394
20
6.450000
30
0.0
40
0.250000
50
90.000000
51
177.185881
0
LINE
8
0
10
81.249394
20
6.700000
30
0.0
11
117.066275
21
6.700000
31
0.0
0
ARC
8
0
10
117.066275
20
6.200000
30
0.0
40
0.500000
50
360.000000
51
90.000000
0
LINE
8
0
10
117.566275
20
6.200000
30
0.0
11
117.566275
21
2.200000
31
0.0
0
ARC
8
0
10
116.566275
20
2.200000
30
0.0
40
1.000000
50
270.000000
51
360.000000
0
LINE
8
0
10
116.566275
20
1.200000
30
0.0
11
113.066275
21
1.200000
31
0.0
0
ARC
8
0
10
113.066275
20
0.600000
30
0.0
40
0.600000
50
90.000000
51
270.000000
0
LINE
8
0
10
113.066275
20
0.000000
30
0.0
11
118.966275
21
0.000000
31
0.0
0
ARC
8
0
10
118.966275
20
0.500000
30
0.0
40
0.500000
50
270.000000
51
72.542397
0
ARC
8
0
10
119.266275
20
1.453939
30
0.0
40
0.500000
50
180.000000
51
252.542397
0
LINE
8
0
10
118.766275
20
1.453939
30
0.0
11
118.766275
21
4.950000
31
0.0
0
ARC
8
0
10
120.516275
20
4.950000
30
0.0
40
1.750000
50
360.000000
51
180.000000
0
LINE
8
0
10
122.266275
20
4.950000
30
0.0
11
122.266275
21
2.385641
31
0.0
0
ARC
8
0
10
122.066275
20
2.385641
30
0.0
40
0.200000
50
300.000000
51
360.000000
0
LINE
8
0
10
122.166275
20
2.212436
30
0.0
11
121.716275
21
1.952628
31
0.0
0
ARC
8
0
10
121.966275
20
1.519615
30
0.0
40
0.500000
50
120.000000
51
210.000000
0
LINE
8
0
10
121.533262
20
1.269615
30
0.0
11
122.121937
21
0.250000
31
0.0
0
ARC
8
0
10
122.554950
20
0.500000
30
0.0
40
0.500000
50
210.000000
51
270.000000
0
LINE
8
0
10
122.554950
20
0.000000
30
0.0
11
122.999995
21
0.000000
31
0.0
0
ARC
8
0
10
122.999995
20
0.500000
30
0.0
40
0.500000
50
270.000000
51
360.000000
0
LINE
8
0
10
123.499995
20
0.500000
30
0.0
11
123.499995
21
26.450000
31
0.0
0
ARC
8
0
10
123.249995
20
26.450000
30
0.0
40
0.250000
50
360.000000
51
90.000000
0
LINE
8
0
10
123.249995
20
26.700000
30
0.0
11
107.599997
21
26.700000
31
0.0
0
ARC
8
0
10
107.599997
20
27.200000
30
0.0
40
0.500000
50
180.000000
51
270.000000
0
LINE
8
0
10
107.099997
20
27.200000
30
0.0
11
107.099997
21
36.968648
31
0.0
0
ARC
8
0
10
105.599997
20
36.968648
30
0.0
40
1.500000
50
360.000000
51
30.000000
0
LINE
8
0
10
106.899035
20
37.718648
30
0.0
11
105.500959
21
40.140187
31
0.0
0
ARC
8
0
10
106.799997
20
40.890187
30
0.0
40
1.500000
50
180.000000
51
210.000000
0
LINE
8
0
10
105.299997
20
40.890187
30
0.0
11
105.299997
21
44.178680
31
0.0
0
ARC
8
0
10
106.799997
20
44.178680
30
0.0
40
1.500000
50
135.000000
51
180.000000
0
LINE
8
0
10
105.739337
20
45.239340
30
0.0
11
106.660657
21
46.160660
31
0.0
0
ARC
8
0
10
105.599997
20
47.221321
30
0.0
40
1.500000
50
315.000000
51
360.000000
0
LINE
8
0
10
107.099997
20
47.221321
30
0.0
11
107.099997
21
50.700000
31
0.0
0
ARC
8
0
10
105.599997
20
50.700000
30
0.0
40
1.500000
50
360.000000
51
90.000000
0
LINE
8
0
10
105.599997
20
52.200000
30
0.0
11
102.049997
21
52.200000
31
0.0
0
ARC
8
0
10
102.049997
20
51.950000
30
0.0
40
0.250000
50
90.000000
51
180.000000
0
LINE
8
0
10
101.799997
20
51.950000
30
0.0
11
101.799997
21
49.450000
31
0.0
0
ARC
8
0
10
102.049997
20
49.450000
30
0.0
40
0.250000
50
180.000000
51
285.000000
0
LINE
8
0
10
102.114702
20
49.208519
30
0.0
11
103.014702
21
49.449673
31
0.0
0
ARC
8
0
10
102.949997
20
49.691154
30
0.0
40
0.250000
50
285.000000
51
360.000000
0
LINE
8
0
10
103.199997
20
49.691154
30
0.0
11
103.199997
21
50.200000
31
0.0
0
ARC
8
0
10
103.699997
20
50.200000
30
0.0
40
0.500000
50
90.000000
51
180.000000
0
LINE
8
0
10
103.699997
20
50.700000
30
0.0
11
104.999997
21
50.700000
31
0.0
0
ARC
8
0
10
104.999997
20
50.200000
30
0.0
40
0.500000
50
360.000000
51
90.000000
0
LINE
8
0
10
105.499997
20
50.200000
30
0.0
11
105.499997
21
47.676955
31
0.0
0
ARC
8
0
10
104.499997
20
47.676955
30
0.0
40
1.000000
50
315.000000
51
360.000000
0
LINE
8
0
10
105.207104
20
46.969849
30
0.0
11
104.607966
21
46.370711
31
0.0
0
ARC
8
0
10
106.799997
20
44.178680
30
0.0
40
3.100000
50
135.000000
51
180.000000
0
LINE
8
0
10
103.699997
20
44.178680
30
0.0
11
103.699997
21
41.224874
31
0.0
0
ARC
8
0
10
103.199997
20
41.224874
30
0.0
40
0.500000
50
225.000000
51
360.000000
0
LINE
8
0
10
102.846444
20
40.871321
30
0.0
11
102.333881
21
41.383884
31
0.0
0
ARC
8
0
10
102.157104
20
41.207107
30
0.0
40
0.250000
50
45.000000
51
135.000000
0
LINE
8
0
10
101.980327
20
41.383884
30
0.0
11
101.273221
21
40.676777
31
0.0
0
ARC
8
0
10
101.449997
20
40.500000
30
0.0
40
0.250000
50
135.000000
51
225.000000
0
LINE
8
0
10
101.273221
20
40.323223
30
0.0
11
102.040073
21
39.556371
31
0.0
0
ARC
8
0
10
101.863296
20
39.379594
30
0.0
40
0.250000
50
315.000000
51
45.000000
0
LINE
8
0
10
102.040073
20
39.202818
30
0.0
11
101.410479
21
38.573223
31
0.0
0
ARC
8
0
10
101.233702
20
38.750000
30
0.0
40
0.250000
50
270.000000
51
315.000000
0
LINE
8
0
10
101.233702
20
38.500000
30
0.0
11
100.149997
21
38.500000
31
0.0
0
ARC
8
0
10
100.149997
20
38.250000
30
0.0
40
0.250000
50
90.000000
51
180.000000
0
LINE
8
0
10
99.899997
20
38.250000
30
0.0
11
99.899997
21
37.166295
31
0.0
0
ARC
8
0
10
99.649997
20
37.166295
30
0.0
40
0.250000
50
315.000000
51
360.000000
0
LINE
8
0
10
99.826774
20
36.989519
30
0.0
11
99.110479
21
36.273223
31
0.0
0
ARC
8
0
10
98.933702
20
36.450000
30
0.0
40
0.250000
50
270.000000
51
315.000000
0
LINE
8
0
10
98.933702
20
36.200000
30
0.0
11
90.066292
21
36.200000
31
0.0
0
ARC
8
0
10
90.066292
20
36.450000
30
0.0
40
0.250000
50
225.000000
51
270.000000
0
LINE
8
0
10
89.889516
20
36.273223
30
0.0
11
89.173221
21
36.989519
31
0.0
0
ARC
8
0
10
89.349997
20
37.166295
30
0.0
40
0.250000
50
180.000000
51
225.000000
0
LINE
8
0
10
89.099997
20
37.166295
30
0.0
11
89.099997
21
38.250000
31
0.0
0
ARC
8
0
10
88.849997
20
38.250000
30
0.0
40
0.250000
50
360.000000
51
90.000000
0
LINE
8
0
10
88.849997
20
38.500000
30
0.0
11
87.766292
21
38.500000
31
0.0
0
ARC
8
0
10
87.766292
20
38.750000
30
0.0
40
0.250000
50
225.000000
51
270.000000
0
LINE
8
0
10
87.589516
20
38.573223
30
0.0
11
87.273221
21
38.889519
31
0.0
0
ARC
8
0
10
87.449997
20
39.066295
30
0.0
40
0.250000
50
180.000000
51
225.000000
0
LINE
8
0
10
87.199997
20
39.066295
30
0.0
11
87.199997
21
39.692893
31
0.0
0
ARC
8
0
10
87.449997
20
39.692893
30
0.0
40
0.250000
50
135.000000
51
180.000000
0
LINE
8
0
10
87.273221
20
39.869670
30
0.0
11
87.726774
21
40.323223
31
0.0
0
ARC
8
0
10
87.549997
20
40.500000
30
0.0
40
0.250000
50
315.000000
51
45.000000
0
LINE
8
0
10
87.726774
20
40.676777
30
0.0
11
87.073221
21
41.330330
31
0.0
0
ARC
8
0
10
87.249997
20
41.507107
30
0.0
40
0.250000
50
180.000000
51
225.000000
0
LINE
8
0
10
86.999997
20
41.507107
30
0.0
11
86.999997
21
46.107180
31
0.0
0
ARC
8
0
10
85.299997
20
46.107180
30
0.0
40
1.700000
50
360.000000
51
60.844635
0
ARC
8
0
10
86.249997
20
47.810118
30
0.0
40
0.250000
50
180.000000
51
240.844635
0
LINE
8
0
10
85.999997
20
47.810118
30
0.0
11
85.999997
21
49.119927
31
0.0
0
ARC
8
0
10
86.249997
20
49.119927
30
0.0
40
0.250000
50
75.000000
51
180.000000
0
LINE
8
0
10
86.314702
20
49.361408
30
0.0
11
86.885293
21
49.208519
31
0.0
0
ARC
8
0
10
86.949997
20
49.450000
30
0.0
40
0.250000
50
255.000000
51
360.000000
0
LINE
8
0
10
87.199997
20
49.450000
30
0.0
11
87.199997
21
50.450000
31
0.0
0
ARC
8
0
10
86.949997
20
50.450000
30
0.0
40
0.250000
50
360.000000
51
90.000000
0
LINE
8
0
10
86.949997
20
50.700000
30
0.0
11
86.132910
21
50.700000
31
0.0
0
LINE
8
0
10
86.132910
20
50.700000
30
0.0
11
86.068206
21
50.691482
31
0.0
0
LINE
8
0
10
86.068206
20
50.691482
30
0.0
11
84.885293
21
50.374521
31
0.0
0
ARC
8
0
10
84.949997
20
50.133040
30
0.0
40
0.250000
50
105.000000
51
180.000000
0
LINE
8
0
10
84.699997
20
50.133040
30
0.0
11
84.699997
21
47.073205
31
0.0
0
ARC
8
0
10
84.999997
20
47.073205
30
0.0
40
0.300000
50
180.000000
51
240.000000
0
LINE
8
0
10
84.849997
20
46.813398
30
0.0
11
85.474997
21
46.452554
31
0.0
0
ARC
8
0
10
85.349997
20
46.236047
30
0.0
40
0.250000
50
360.000000
51
60.000000
0
LINE
8
0
10
85.599997
20
46.236047
30
0.0
11
85.599997
21
38.066026
31
0.0
0
ARC
8
0
10
84.099997
20
38.066026
30
0.0
40
1.500000
50
330.000000
51
360.000000
0
LINE
8
0
10
85.399035
20
37.316026
30
0.0
11
84.900959
21
36.453332
31
0.0
0
ARC
8
0
10
86.199997
20
35.703332
30
0.0
40
1.500000
50
150.000000
51
180.000000
0
LINE
8
0
10
84.699997
20
35.703332
30
0.0
11
84.699997
21
25.350000
31
0.0
0
LINE
8
0
10
46.699997
20
27.200000
30
0.0
11
46.699997
21
35.274614
31
0.0
0
ARC
8
0
10
46.199997
20
27.200000
30
0.0
40
0.500000
50
270.000000
51
360.000000
0
LINE
8
0
10
27.999997
20
26.700000
30
0.0
11
46.199997
21
26.700000
31
0.0
0
ARC
8
0
10
27.999997
20
27.200000
30
0.0
40
0.500000
50
180.000000
51
270.000000
0
LINE
8
0
10
27.499997
20
36.807878
30
0.0
11
27.499997
21
27.200000
31
0.0
0
ARC
8
0
10
27.999997
20
36.807878
30
0.0
40
0.500000
50
150.000000
51
180.000000
0
LINE
8
0
10
28.439961
20
38.569917
30
0.0
11
27.566985
21
37.057878
31
0.0
0
ARC
8
0
10
28.872973
20
38.319917
30
0.0
40
0.500000
50
45.000000
51
150.000000
0
LINE
8
0
10
33.007104
20
34.892893
30
0.0
11
29.226527
21
38.673471
31
0.0
0
ARC
8
0
10
33.714211
20
35.600000
30
0.0
40
1.000000
50
225.000000
51
270.000000
0
LINE
8
0
10
43.285784
20
34.600000
30
0.0
11
33.714211
21
34.600000
31
0.0
0
ARC
8
0
10
43.285784
20
35.600000
30
0.0
40
1.000000
50
270.000000
51
315.000000
0
LINE
8
0
10
45.535201
20
36.435204
30
0.0
11
43.992891
21
34.892893
31
0.0
0
ARC
8
0
10
45.888755
20
36.081651
30
0.0
40
0.500000
50
30.000000
51
135.000000
0
LINE
8
0
10
46.499035
20
36.024614
30
0.0
11
46.321767
21
36.331651
31
0.0
0
ARC
8
0
10
45.199997
20
35.274614
30
0.0
40
1.500000
50
360.000000
51
30.000000
0
ARC
8
0
10
49.300133
20
19.400000
30
0.0
40
0.500000
50
90.000000
51
180.000000
0
LINE
8
0
10
59.999997
20
19.900000
30
0.0
11
49.300133
21
19.900000
31
0.0
0
ARC
8
0
10
59.999997
20
19.400000
30
0.0
40
0.500000
50
360.000000
51
90.000000
0
LINE
8
0
10
60.499997
20
8.800000
30
0.0
11
60.499997
21
19.400000
31
0.0
0
ARC
8
0
10
59.999997
20
8.800000
30
0.0
40
0.500000
50
270.000000
51
360.000000
0
LINE
8
0
10
11.600133
20
8.300000
30
0.0
11
59.999997
21
8.300000
31
0.0
0
ARC
8
0
10
11.600133
20
8.800000
30
0.0
40
0.500000
50
180.000000
51
270.000000
0
LINE
8
0
10
11.100133
20
18.800000
30
0.0
11
11.100133
21
8.800000
31
0.0
0
ARC
8
0
10
11.600133
20
18.800000
30
0.0
40
0.500000
50
90.000000
51
180.000000
0
LINE
8
0
10
12.600133
20
19.300000
30
0.0
11
11.600133
21
19.300000
31
0.0
0
ARC
8
0
10
12.600133
20
19.800000
30
0.0
40
0.500000
50
270.000000
51
360.000000
0
LINE
8
0
10
13.100133
20
20.400000
30
0.0
11
13.100133
21
19.800000
31
0.0
0
ARC
8
0
10
12.600133
20
20.400000
30
0.0
40
0.500000
50
360.000000
51
90.000000
0
LINE
8
0
10
11.600133
20
20.900000
30
0.0
11
12.600133
21
20.900000
31
0.0
0
ARC
8
0
10
11.600133
20
21.400000
30
0.0
40
0.500000
50
180.000000
51
270.000000
0
LINE
8
0
10
11.100133
20
24.600000
30
0.0
11
11.100133
21
21.400000
31
0.0
0
ARC
8
0
10
11.600133
20
24.600000
30
0.0
40
0.500000
50
90.000000
51
180.000000
0
LINE
8
0
10
45.299997
20
25.100000
30
0.0
11
11.600133
21
25.100000
31
0.0
0
ARC
8
0
10
45.299997
20
24.600000
30
0.0
40
0.500000
50
360.000000
51
90.000000
0
LINE
8
0
10
45.799997
20
21.400000
30
0.0
11
45.799997
21
24.600000
31
0.0
0
ARC
8
0
10
45.299997
20
21.400000
30
0.0
40
0.500000
50
270.000000
51
360.000000
0
LINE
8
0
10
44.299997
20
20.900000
30
0.0
11
45.299997
21
20.900000
31
0.0
0
ARC
8
0
10
44.299997
20
20.400000
30
0.0
40
0.500000
50
90.000000
51
180.000000
0
LINE
8
0
10
43.799997
20
19.800000
30
0.0
11
43.799997
21
20.400000
31
0.0
0
ARC
8
0
10
44.299997
20
19.800000
30
0.0
40
0.500000
50
180.000000
51
270.000000
0
LINE
8
0
10
46.700133
20
19.300000
30
0.0
11
44.299997
21
19.300000
31
0.0
0
ARC
8
0
10
46.700133
20
18.800000
30
0.0
40
0.500000
50
360.000000
51
90.000000
0
LINE
8
0
10
47.200133
20
17.800000
30
0.0
11
47.200133
21
18.800000
31
0.0
0
ARC
8
0
10
47.700133
20
17.800000
30
0.0
40
0.500000
50
180.000000
51
270.000000
0
LINE
8
0
10
48.300133
20
17.300000
30
0.0
11
47.700133
21
17.300000
31
0.0
0
ARC
8
0
10
48.300133
20
17.800000
30
0.0
40
0.500000
50
270.000000
51
360.000000
0
LINE
8
0
10
48.800133
20
19.400000
30
0.0
11
48.800133
21
17.800000
31
0.0
0
ARC
8
0
10
65.541420
20
20.013764
30
0.0
40
0.250000
50
315.000000
51
355.000000
0
LINE
8
0
10
65.998856
20
22.373854
30
0.0
11
65.790468
21
19.991975
31
0.0
0
ARC
8
0
10
65.699997
20
22.400001
30
0.0
40
0.300000
50
355.000000
51
110.000000
0
LINE
8
0
10
64.164492
20
22.160376
30
0.0
11
65.597391
21
22.681908
31
0.0
0
ARC
8
0
10
64.249997
20
21.925453
30
0.0
40
0.250000
50
110.000000
51
177.185911
0
ARC
8
0
10
63.750600
20
21.950000
30
0.0
40
0.250000
50
270.000000
51
357.185911
0
LINE
8
0
10
47.649997
20
21.700000
30
0.0
11
63.750600
21
21.700000
31
0.0
0
ARC
8
0
10
47.649997
20
21.950000
30
0.0
40
0.250000
50
180.000000
51
270.000000
0
LINE
8
0
10
47.399997
20
24.850000
30
0.0
11
47.399997
21
21.950000
31
0.0
0
ARC
8
0
10
47.649997
20
24.850000
30
0.0
40
0.250000
50
90.000000
51
180.000000
0
LINE
8
0
10
48.049997
20
25.100000
30
0.0
11
47.649997
21
25.100000
31
0.0
0
ARC
8
0
10
48.049997
20
25.350000
30
0.0
40
0.250000
50
270.000000
51
360.000000
0
LINE
8
0
10
48.299997
20
35.703332
30
0.0
11
48.299997
21
25.350000
31
0.0
0
ARC
8
0
10
46.799997
20
35.703332
30
0.0
40
1.500000
50
360.000000
51
30.000000
0
LINE
8
0
10
47.600959
20
37.316026
30
0.0
11
48.099035
21
36.453332
31
0.0
0
ARC
8
0
10
48.899997
20
38.066026
30
0.0
40
1.500000
50
180.000000
51
210.000000
0
LINE
8
0
10
47.399997
20
46.236047
30
0.0
11
47.399997
21
38.066026
31
0.0
0
ARC
8
0
10
47.649997
20
46.236047
30
0.0
40
0.250000
50
120.000000
51
180.000000
0
LINE
8
0
10
48.149997
20
46.813398
30
0.0
11
47.524997
21
46.452554
31
0.0
0
ARC
8
0
10
47.999997
20
47.073205
30
0.0
40
0.300000
50
300.000000
51
360.000000
0
LINE
8
0
10
48.299997
20
50.133040
30
0.0
11
48.299997
21
47.073205
31
0.0
0
ARC
8
0
10
48.049997
20
50.133040
30
0.0
40
0.250000
50
360.000000
51
75.000000
0
LINE
8
0
10
46.931789
20
50.691482
30
0.0
11
48.114702
21
50.374521
31
0.0
0
LINE
8
0
10
46.931789
20
50.691482
30
0.0
11
46.867084
21
50.700000
31
0.0
0
LINE
8
0
10
46.049997
20
50.700000
30
0.0
11
46.867084
21
50.700000
31
0.0
0
ARC
8
0
10
46.049997
20
50.450000
30
0.0
40
0.250000
50
90.000000
51
180.000000
0
LINE
8
0
10
45.799997
20
49.450000
30
0.0
11
45.799997
21
50.450000
31
0.0
0
ARC
8
0
10
46.049997
20
49.450000
30
0.0
40
0.250000
50
180.000000
51
285.000000
0
LINE
8
0
10
46.685293
20
49.361408
30
0.0
11
46.114702
21
49.208519
31
0.0
0
ARC
8
0
10
46.749997
20
49.119927
30
0.0
40
0.250000
50
360.000000
51
105.000000
0
LINE
8
0
10
46.999997
20
47.810118
30
0.0
11
46.999997
21
49.119927
31
0.0
0
ARC
8
0
10
46.749997
20
47.810118
30
0.0
40
0.250000
50
299.155365
51
360.000000
0
ARC
8
0
10
47.699997
20
46.107180
30
0.0
40
1.700000
50
119.155365
51
180.000000
0
LINE
8
0
10
45.999997
20
41.507107
30
0.0
11
45.999997
21
46.107180
31
0.0
0
ARC
8
0
10
45.749997
20
41.507107
30
0.0
40
0.250000
50
315.000000
51
360.000000
0
LINE
8
0
10
45.273221
20
40.676777
30
0.0
11
45.926774
21
41.330330
31
0.0
0
ARC
8
0
10
45.449997
20
40.500000
30
0.0
40
0.250000
50
135.000000
51
225.000000
0
LINE
8
0
10
45.726774
20
39.869670
30
0.0
11
45.273221
21
40.323223
31
0.0
0
ARC
8
0
10
45.549997
20
39.692893
30
0.0
40
0.250000
50
360.000000
51
45.000000
0
LINE
8
0
10
45.799997
20
39.066295
30
0.0
11
45.799997
21
39.692893
31
0.0
0
ARC
8
0
10
45.549997
20
39.066295
30
0.0
40
0.250000
50
315.000000
51
360.000000
0
LINE
8
0
10
45.410479
20
38.573223
30
0.0
11
45.726774
21
38.889519
31
0.0
0
ARC
8
0
10
45.233702
20
38.750000
30
0.0
40
0.250000
50
270.000000
51
315.000000
0
LINE
8
0
10
44.149997
20
38.500000
30
0.0
11
45.233702
21
38.500000
31
0.0
0
ARC
8
0
10
44.149997
20
38.250000
30
0.0
40
0.250000
50
90.000000
51
180.000000
0
LINE
8
0
10
43.899997
20
37.166295
30
0.0
11
43.899997
21
38.250000
31
0.0
0
ARC
8
0
10
43.649997
20
37.166295
30
0.0
40
0.250000
50
315.000000
51
360.000000
0
LINE
8
0
10
43.110479
20
36.273223
30
0.0
11
43.826774
21
36.989519
31
0.0
0
ARC
8
0
10
42.933702
20
36.450000
30
0.0
40
0.250000
50
270.000000
51
315.000000
0
LINE
8
0
10
34.066292
20
36.200000
30
0.0
11
42.933702
21
36.200000
31
0.0
0
ARC
8
0
10
34.066292
20
36.450000
30
0.0
40
0.250000
50
225.000000
51
270.000000
0
LINE
8
0
10
33.173221
20
36.989519
30
0.0
11
33.889516
21
36.273223
31
0.0
0
ARC
8
0
10
33.349997
20
37.166295
30
0.0
40
0.250000
50
180.000000
51
225.000000
0
LINE
8
0
10
33.099997
20
38.250000
30
0.0
11
33.099997
21
37.166295
31
0.0
0
ARC
8
0
10
32.849997
20
38.250000
30
0.0
40
0.250000
50
360.000000
51
90.000000
0
LINE
8
0
10
31.766292
20
38.500000
30
0.0
11
32.849997
21
38.500000
31
0.0
0
ARC
8
0
10
31.766292
20
38.750000
30
0.0
40
0.250000
50
225.000000
51
270.000000
0
LINE
8
0
10
30.959922
20
39.202818
30
0.0
11
31.589516
21
38.573223
31
0.0
0
ARC
8
0
10
31.136698
20
39.379594
30
0.0
40
0.250000
50
135.000000
51
225.000000
0
LINE
8
0
10
31.726774
20
40.323223
30
0.0
11
30.959922
21
39.556371
31
0.0
0
ARC
8
0
10
31.549997
20
40.500000
30
0.0
40
0.250000
50
315.000000
51
45.000000
0
LINE
8
0
10
31.019667
20
41.383884
30
0.0
11
31.726774
21
40.676777
31
0.0
0
ARC
8
0
10
30.842891
20
41.207107
30
0.0
40
0.250000
50
45.000000
51
135.000000
0
LINE
8
0
10
30.153551
20
40.871321
30
0.0
11
30.666114
21
41.383884
31
0.0
0
ARC
8
0
10
29.799997
20
41.224874
30
0.0
40
0.500000
50
180.000000
51
315.000000
0
LINE
8
0
10
29.299997
20
44.178680
30
0.0
11
29.299997
21
41.224874
31
0.0
0
ARC
8
0
10
26.199997
20
44.178680
30
0.0
40
3.100000
50
360.000000
51
45.000000
0
LINE
8
0
10
27.792891
20
46.969849
30
0.0
11
28.392028
21
46.370711
31
0.0
0
ARC
8
0
10
28.499997
20
47.676955
30
0.0
40
1.000000
50
180.000000
51
225.000000
0
LINE
8
0
10
27.499997
20
50.200000
30
0.0
11
27.499997
21
47.676955
31
0.0
0
ARC
8
0
10
27.999997
20
50.200000
30
0.0
40
0.500000
50
90.000000
51
180.000000
0
LINE
8
0
10
29.299997
20
50.700000
30
0.0
11
27.999997
21
50.700000
31
0.0
0
ARC
8
0
10
29.299997
20
50.200000
30
0.0
40
0.500000
50
360.000000
51
90.000000
0
LINE
8
0
10
29.799997
20
49.691154
30
0.0
11
29.799997
21
50.200000
31
0.0
0
ARC
8
0
10
30.049997
20
49.691154
30
0.0
40
0.250000
50
180.000000
51
255.000000
0
LINE
8
0
10
30.885293
20
49.208519
30
0.0
11
29.985293
21
49.449673
31
0.0
0
ARC
8
0
10
30.949997
20
49.450000
30
0.0
40
0.250000
50
255.000000
51
360.000000
0
LINE
8
0
10
31.199997
20
51.950000
30
0.0
11
31.199997
21
49.450000
31
0.0
0
ARC
8
0
10
30.949997
20
51.950000
30
0.0
40
0.250000
50
360.000000
51
90.000000
0
LINE
8
0
10
27.399997
20
52.200000
30
0.0
11
30.949997
21
52.200000
31
0.0
0
ARC
8
0
10
27.399997
20
50.700000
30
0.0
40
1.500000
50
90.000000
51
180.000000
0
LINE
8
0
10
25.899997
20
47.221321
30
0.0
11
25.899997
21
50.700000
31
0.0
0
ARC
8
0
10
27.399997
20
47.221321
30
0.0
40
1.500000
50
180.000000
51
225.000000
0
LINE
8
0
10
27.260657
20
45.239340
30
0.0
11
26.339337
21
46.160660
31
0.0
0
ARC
8
0
10
26.199997
20
44.178680
30
0.0
40
1.500000
50
360.000000
51
45.000000
0
LINE
8
0
10
27.699997
20
40.890187
30
0.0
11
27.699997
21
44.178680
31
0.0
0
ARC
8
0
10
26.199997
20
40.890187
30
0.0
40
1.500000
50
330.000000
51
360.000000
0
LINE
8
0
10
26.100959
20
37.718648
30
0.0
11
27.499035
21
40.140187
31
0.0
0
ARC
8
0
10
27.399997
20
36.968648
30
0.0
40
1.500000
50
150.000000
51
180.000000
0
LINE
8
0
10
25.899997
20
27.200000
30
0.0
11
25.899997
21
36.968648
31
0.0
0
ARC
8
0
10
25.399997
20
27.200000
30
0.0
40
0.500000
50
270.000000
51
360.000000
0
LINE
8
0
10
9.750000
20
26.700000
30
0.0
11
25.399997
21
26.700000
31
0.0
0
ARC
8
0
10
9.750000
20
26.450000
30
0.0
40
0.250000
50
90.000000
51
180.000000
0
LINE
8
0
10
9.500000
20
0.500000
30
0.0
11
9.500000
21
26.450000
31
0.0
0
ARC
8
0
10
10.000000
20
0.500000
30
0.0
40
0.500000
50
180.000000
51
270.000000
0
LINE
8
0
10
10.445045
20
0.000000
30
0.0
11
10.000000
21
0.000000
31
0.0
0
ARC
8
0
10
10.445045
20
0.500000
30
0.0
40
0.500000
50
270.000000
51
330.000000
0
LINE
8
0
10
11.466733
20
1.269615
30
0.0
11
10.878057
21
0.250000
31
0.0
0
ARC
8
0
10
11.033720
20
1.519615
30
0.0
40
0.500000
50
330.000000
51
60.000000
0
LINE
8
0
10
10.833720
20
2.212436
30
0.0
11
11.283720
21
1.952628
31
0.0
0
ARC
8
0
10
10.933720
20
2.385641
30
0.0
40
0.200000
50
180.000000
51
240.000000
0
LINE
8
0
10
10.733720
20
4.950000
30
0.0
11
10.733720
21
2.385641
31
0.0
0
ARC
8
0
10
12.483720
20
4.950000
30
0.0
40
1.750000
50
360.000000
51
180.000000
0
LINE
8
0
10
14.233720
20
1.453939
30
0.0
11
14.233720
21
4.950000
31
0.0
0
ARC
8
0
10
13.733720
20
1.453939
30
0.0
40
0.500000
50
287.457603
51
360.000000
0
ARC
8
0
10
14.033720
20
0.500000
30
0.0
40
0.500000
50
107.457603
51
270.000000
0
LINE
8
0
10
19.933720
20
0.000000
30
0.0
11
14.033720
21
0.000000
31
0.0
0
ARC
8
0
10
19.933720
20
0.600000
30
0.0
40
0.600000
50
270.000000
51
90.000000
0
LINE
8
0
10
16.433720
20
1.200000
30
0.0
11
19.933720
21
1.200000
31
0.0
0
ARC
8
0
10
16.433720
20
2.200000
30
0.0
40
1.000000
50
180.000000
51
270.000000
0
LINE
8
0
10
15.433720
20
6.200000
30
0.0
11
15.433720
21
2.200000
31
0.0
0
ARC
8
0
10
15.933720
20
6.200000
30
0.0
40
0.500000
50
90.000000
51
180.000000
0
LINE
8
0
10
63.750600
20
6.700000
30
0.0
11
15.933720
21
6.700000
31
0.0
0
ARC
8
0
10
63.750600
20
6.450000
30
0.0
40
0.250000
50
2.814119
51
90.000000
0
ARC
8
0
10
64.249997
20
6.474548
30
0.0
40
0.250000
50
182.814119
51
250.000000
0
LINE
8
0
10
65.597391
20
5.718092
30
0.0
11
64.164492
21
6.239625
31
0.0
0
ARC
8
0
10
65.699997
20
6.000000
30
0.0
40
0.300000
50
250.000000
51
5.000000
0
LINE
8
0
10
65.790468
20
8.408025
30
0.0
11
65.998856
21
6.026147
31
0.0
0
ARC
8
0
10
65.541420
20
8.386236
30
0.0
40
0.250000
50
5.000000
51
45.000000
0
LINE
8
0
10
65.341419
20
8.939791
30
0.0
11
65.718196
21
8.563013
31
0.0
0
ARC
8
0
10
65.199997
20
8.798369
30
0.0
40
0.200000
50
45.000000
51
165.000000
0
LINE
8
0
10
64.961983
20
8.682830
30
0.0
11
65.006812
21
8.850133
31
0.0
0
ARC
8
0
10
64.768798
20
8.734594
30
0.0
40
0.200000
50
285.000000
51
345.000000
0
LINE
8
0
10
62.799997
20
8.000000
30
0.0
11
64.820562
21
8.541409
31
0.0
0
LINE
8
0
10
62.599997
20
8.000000
30
0.0
11
62.799997
21
8.000000
31
0.0
0
ARC
8
0
10
62.599997
20
8.300000
30
0.0
40
0.300000
50
131.810315
51
270.000000
0
ARC
8
0
10
62.199997
20
8.747214
30
0.0
40
0.300000
50
311.810315
51
360.000000
0
LINE
8
0
10
62.499997
20
12.700000
30
0.0
11
62.499997
21
8.747214
31
0.0
0
ARC
8
0
10
62.799997
20
12.700000
30
0.0
40
0.300000
50
90.000000
51
180.000000
0
LINE
8
0
10
63.099997
20
13.000000
30
0.0
11
62.799997
21
13.000000
31
0.0
0
LINE
8
0
10
64.695795
20
12.025921
30
0.0
11
63.099997
21
13.000000
31
0.0
0
ARC
8
0
10
64.799997
20
12.196631
30
0.0
40
0.200000
50
238.600000
51
360.000000
0
LINE
8
0
10
64.999997
20
13.199855
30
0.0
11
64.999997
21
12.196631
31
0.0
0
ARC
8
0
10
64.499997
20
13.199855
30
0.0
40
0.500000
50
360.000000
51
58.600000
0
LINE
8
0
10
64.170757
20
13.986613
30
0.0
11
64.760502
21
13.626631
31
0.0
0
ARC
8
0
10
64.301009
20
14.200000
30
0.0
40
0.250000
50
121.400000
51
238.600000
0
LINE
8
0
10
64.760502
20
14.773370
30
0.0
11
64.170757
21
14.413388
31
0.0
0
ARC
8
0
10
64.499997
20
15.200145
30
0.0
40
0.500000
50
301.400000
51
360.000000
0
LINE
8
0
10
64.999997
20
16.203370
30
0.0
11
64.999997
21
15.200145
31
0.0
0
ARC
8
0
10
64.799997
20
16.203370
30
0.0
40
0.200000
50
360.000000
51
121.400000
0
LINE
8
0
10
63.099997
20
15.400001
30
0.0
11
64.695795
21
16.374080
31
0.0
0
LINE
8
0
10
62.799997
20
15.400001
30
0.0
11
63.099997
21
15.400001
31
0.0
0
ARC
8
0
10
62.799997
20
15.700001
30
0.0
40
0.300000
50
180.000000
51
270.000000
0
LINE
8
0
10
62.499997
20
19.652787
30
0.0
11
62.499997
21
15.700001
31
0.0
0
ARC
8
0
10
62.199997
20
19.652787
30
0.0
40
0.300000
50
360.000000
51
48.189685
0
ARC
8
0
10
62.599997
20
20.100001
30
0.0
40
0.300000
50
90.000000
51
228.189685
0
LINE
8
0
10
62.799997
20
20.400001
30
0.0
11
62.599997
21
20.400001
31
0.0
0
LINE
8
0
10
64.820562
20
19.858592
30
0.0
11
62.799997
21
20.400001
31
0.0
0
ARC
8
0
10
64.768798
20
19.665407
30
0.0
40
0.200000
50
15.000000
51
75.000000
0
LINE
8
0
10
65.006812
20
19.549867
30
0.0
11
64.961983
21
19.717170
31
0.0
0
ARC
8
0
10
65.199997
20
19.601631
30
0.0
40
0.200000
50
195.000000
51
315.000000
0
LINE
8
0
10
65.718196
20
19.836987
30
0.0
11
65.341419
21
19.460210
31
0.0
0
LINE
8
0
10
75.824148
20
19.700000
30
0.0
11
69.175847
21
19.700000
31
0.0
0
ARC
8
0
10
69.175847
20
19.500000
30
0.0
40
0.200000
50
90.000000
51
145.000000
0
LINE
8
0
10
69.012017
20
19.614716
30
0.0
11
67.130707
21
16.927927
31
0.0
0
ARC
8
0
10
66.884962
20
17.100000
30
0.0
40
0.300000
50
270.000000
51
325.000000
0
LINE
8
0
10
66.884962
20
16.800000
30
0.0
11
65.494742
21
16.800000
31
0.0
0
ARC
8
0
10
65.494742
20
15.600000
30
0.0
40
1.200000
50
90.000000
51
120.000000
0
LINE
8
0
10
64.894742
20
16.639231
30
0.0
11
63.316678
21
15.728135
31
0.0
0
ARC
8
0
10
63.211678
20
15.910000
30
0.0
40
0.210000
50
270.000000
51
300.000000
0
LINE
8
0
10
63.211678
20
15.700000
30
0.0
11
62.899998
21
15.700000
31
0.0
0
ARC
8
0
10
62.899998
20
16.100000
30
0.0
40
0.400000
50
180.000000
51
270.000000
0
LINE
8
0
10
62.499998
20
16.100000
30
0.0
11
62.499998
21
19.500000
31
0.0
0
ARC
8
0
10
62.899998
20
19.500000
30
0.0
40
0.400000
50
90.000000
51
180.000000
0
LINE
8
0
10
62.899998
20
19.900000
30
0.0
11
63.211678
21
19.900000
31
0.0
0
ARC
8
0
10
63.211678
20
19.690000
30
0.0
40
0.210000
50
60.000000
51
90.000000
0
LINE
8
0
10
63.316678
20
19.871866
30
0.0
11
64.894742
21
18.960770
31
0.0
0
ARC
8
0
10
65.494742
20
20.000000
30
0.0
40
1.200000
50
240.000000
51
270.000000
0
LINE
8
0
10
65.494742
20
18.800000
30
0.0
11
65.843828
21
18.800000
31
0.0
0
ARC
8
0
10
65.843828
20
19.100000
30
0.0
40
0.300000
50
270.000000
51
301.370296
0
ARC
8
0
10
65.843828
20
19.100000
30
0.0
40
0.300000
50
301.370296
51
325.000000
0
LINE
8
0
10
66.089573
20
18.927927
30
0.0
11
67.941024
21
21.572073
31
0.0
0
ARC
8
0
10
68.186770
20
21.400000
30
0.0
40
0.300000
50
90.000000
51
145.000000
0
LINE
8
0
10
68.186770
20
21.700000
30
0.0
11
73.230054
21
21.700000
31
0.0
0
LINE
8
0
10
73.230054
20
21.700000
30
0.0
11
75.404134
21
21.700000
31
0.0
0
LINE
8
0
10
75.404134
20
21.700000
30
0.0
11
76.813226
21
21.700000
31
0.0
0
ARC
8
0
10
76.813226
20
21.400000
30
0.0
40
0.300000
50
35.000000
51
90.000000
0
LINE
8
0
10
77.058971
20
21.572073
30
0.0
11
78.910422
21
18.927927
31
0.0
0
ARC
8
0
10
79.156168
20
19.100000
30
0.0
40
0.300000
50
215.000000
51
270.000000
0
LINE
8
0
10
79.156168
20
18.800000
30
0.0
11
79.505254
21
18.800000
31
0.0
0
ARC
8
0
10
79.505254
20
20.000000
30
0.0
40
1.200000
50
270.000000
51
300.000000
0
LINE
8
0
10
80.105254
20
18.960770
30
0.0
11
80.699998
21
19.304145
31
0.0
0
LINE
8
0
10
80.699998
20
19.304145
30
0.0
11
81.683318
21
19.871866
31
0.0
0
ARC
8
0
10
81.788318
20
19.690000
30
0.0
40
0.210000
50
90.000000
51
120.000000
0
LINE
8
0
10
81.788318
20
19.900000
30
0.0
11
82.099998
21
19.900000
31
0.0
0
ARC
8
0
10
82.099998
20
19.500000
30
0.0
40
0.400000
50
360.000000
51
90.000000
0
LINE
8
0
10
82.499998
20
19.500000
30
0.0
11
82.499998
21
16.100000
31
0.0
0
ARC
8
0
10
82.099998
20
16.100000
30
0.0
40
0.400000
50
270.000000
51
360.000000
0
LINE
8
0
10
82.099998
20
15.700000
30
0.0
11
81.788318
21
15.700000
31
0.0
0
ARC
8
0
10
81.788318
20
15.910000
30
0.0
40
0.210000
50
240.000000
51
270.000000
0
LINE
8
0
10
81.683318
20
15.728135
30
0.0
11
80.699998
21
16.295855
31
0.0
0
LINE
8
0
10
80.699998
20
16.295855
30
0.0
11
80.105254
21
16.639231
31
0.0
0
ARC
8
0
10
79.505254
20
15.600000
30
0.0
40
1.200000
50
60.000000
51
90.000000
0
LINE
8
0
10
79.505254
20
16.800000
30
0.0
11
78.115034
21
16.800000
31
0.0
0
ARC
8
0
10
78.115034
20
17.100000
30
0.0
40
0.300000
50
215.000000
51
270.000000
0
LINE
8
0
10
77.869288
20
16.927927
30
0.0
11
75.987979
21
19.614716
31
0.0
0
ARC
8
0
10
75.824148
20
19.500000
30
0.0
40
0.200000
50
35.000000
51
90.000000
0
LINE
8
0
10
75.824148
20
8.700000
30
0.0
11
69.175847
21
8.700000
31
0.0
0
ARC
8
0
10
69.175847
20
8.900000
30
0.0
40
0.200000
50
215.000000
51
270.000000
0
LINE
8
0
10
69.012017
20
8.785285
30
0.0
11
67.130707
21
11.472073
31
0.0
0
ARC
8
0
10
66.884962
20
11.300000
30
0.0
40
0.300000
50
35.000000
51
90.000000
0
LINE
8
0
10
66.884962
20
11.600000
30
0.0
11
65.494742
21
11.600000
31
0.0
0
ARC
8
0
10
65.494742
20
12.800000
30
0.0
40
1.200000
50
240.000000
51
270.000000
0
LINE
8
0
10
64.894742
20
11.760770
30
0.0
11
63.316678
21
12.671866
31
0.0
0
ARC
8
0
10
63.211678
20
12.490000
30
0.0
40
0.210000
50
60.000000
51
90.000000
0
LINE
8
0
10
63.211678
20
12.700000
30
0.0
11
62.899998
21
12.700000
31
0.0
0
ARC
8
0
10
62.899998
20
12.300000
30
0.0
40
0.400000
50
90.000000
51
180.000000
0
LINE
8
0
10
62.499998
20
12.300000
30
0.0
11
62.499998
21
8.900000
31
0.0
0
ARC
8
0
10
62.899998
20
8.900000
30
0.0
40
0.400000
50
180.000000
51
270.000000
0
LINE
8
0
10
62.899998
20
8.500000
30
0.0
11
63.211678
21
8.500000
31
0.0
0
ARC
8
0
10
63.211678
20
8.710000
30
0.0
40
0.210000
50
270.000000
51
300.000000
0
LINE
8
0
10
63.316678
20
8.528135
30
0.0
11
64.894742
21
9.439231
31
0.0
0
ARC
8
0
10
65.494742
20
8.400000
30
0.0
40
1.200000
50
90.000000
51
120.000000
0
LINE
8
0
10
65.494742
20
9.600000
30
0.0
11
65.843828
21
9.600000
31
0.0
0
ARC
8
0
10
65.843828
20
9.300000
30
0.0
40
0.300000
50
58.629704
51
90.000000
0
ARC
8
0
10
65.843828
20
9.300000
30
0.0
40
0.300000
50
35.000000
51
58.629704
0
LINE
8
0
10
66.089573
20
9.472073
30
0.0
11
67.941024
21
6.827927
31
0.0
0
ARC
8
0
10
68.186770
20
7.000000
30
0.0
40
0.300000
50
215.000000
51
270.000000
0
LINE
8
0
10
68.186770
20
6.700000
30
0.0
11
73.230054
21
6.700000
31
0.0
0
LINE
8
0
10
73.230054
20
6.700000
30
0.0
11
75.404134
21
6.700000
31
0.0
0
LINE
8
0
10
75.404134
20
6.700000
30
0.0
11
76.813226
21
6.700000
31
0.0
0
ARC
8
0
10
76.813226
20
7.000000
30
0.0
40
0.300000
50
270.000000
51
325.000000
0
LINE
8
0
10
77.058971
20
6.827927
30
0.0
11
78.910422
21
9.472073
31
0.0
0
ARC
8
0
10
79.156168
20
9.300000
30
0.0
40
0.300000
50
90.000000
51
145.000000
0
LINE
8
0
10
79.156168
20
9.600000
30
0.0
11
79.505254
21
9.600000
31
0.0
0
ARC
8
0
10
79.505254
20
8.400000
30
0.0
40
1.200000
50
60.000000
51
90.000000
0
LINE
8
0
10
80.105254
20
9.439231
30
0.0
11
80.699998
21
9.095855
31
0.0
0
LINE
8
0
10
80.699998
20
9.095855
30
0.0
11
81.683318
21
8.528135
31
0.0
0
ARC
8
0
10
81.788318
20
8.710000
30
0.0
40
0.210000
50
240.000000
51
270.000000
0
LINE
8
0
10
81.788318
20
8.500000
30
0.0
11
82.099998
21
8.500000
31
0.0
0
ARC
8
0
10
82.099998
20
8.900000
30
0.0
40
0.400000
50
270.000000
51
360.000000
0
LINE
8
0
10
82.499998
20
8.900000
30
0.0
11
82.499998
21
12.300000
31
0.0
0
ARC
8
0
10
82.099998
20
12.300000
30
0.0
40
0.400000
50
360.000000
51
90.000000
0
LINE
8
0
10
82.099998
20
12.700000
30
0.0
11
81.788318
21
12.700000
31
0.0
0
ARC
8
0
10
81.788318
20
12.490000
30
0.0
40
0.210000
50
90.000000
51
120.000000
0
LINE
8
0
10
81.683318
20
12.671866
30
0.0
11
80.699998
21
12.104145
31
0.0
0
LINE
8
0
10
80.699998
20
12.104145
30
0.0
11
80.105254
21
11.760770
31
0.0
0
ARC
8
0
10
79.505254
20
12.800000
30
0.0
40
1.200000
50
270.000000
51
300.000000
0
LINE
8
0
10
79.505254
20
11.600000
30
0.0
11
78.115034
21
11.600000
31
0.0
0
ARC
8
0
10
78.115034
20
11.300000
30
0.0
40
0.300000
50
90.000000
51
145.000000
0
LINE
8
0
10
77.869288
20
11.472073
30
0.0
11
75.987979
21
8.785285
31
0.0
0
ARC
8
0
10
75.824148
20
8.900000
30
0.0
40
0.200000
50
270.000000
51
325.000000
0
ATTDEF
8
0
10
9.500000
20
52.200000
30
0.0
40
3.5
1

3

2
HW_START
70
0
0
ATTDEF
8
0
10
123.499995
20
52.200000
30
0.0
40
3.5
1

3

2
HW_END
70
0
0
ATTDEF
8
0
10
29.174997
20
52.200000
30
0.0
40
3.5
1

3

2
VC_START
70
0
0
ATTDEF
8
0
10
16.983720
20
0.000000
30
0.0
40
3.5
1

3

2
VC_END
70
0
0
ARC
8
0
10
101.289013
20
51.503553
30
0.0
40
0.250000
50
315.000000
51
360.000000
0
LINE
8
0
10
101.539013
20
51.503553
30
0.0
11
101.539013
21
51.950000
31
0.0
0
ARC
8
0
10
101.289013
20
51.950000
30
0.0
40
0.250000
50
360.000000
51
90.000000
0
LINE
8
0
10
101.289013
20
52.200000
30
0.0
11
87.889013
21
52.200000
31
0.0
0
ARC
8
0
10
87.889013
20
51.950000
30
0.0
40
0.250000
50
90.000000
51
180.000000
0
LINE
8
0
10
87.639013
20
51.950000
30
0.0
11
87.639013
21
51.503553
31
0.0
0
ARC
8
0
10
87.889013
20
51.503553
30
0.0
40
0.250000
50
180.000000
51
225.000000
0
LINE
8
0
10
87.712236
20
51.326777
30
0.0
11
87.865790
21
51.173223
31
0.0
0
ARC
8
0
10
87.689013
20
50.996447
30
0.0
40
0.250000
50
360.000000
51
45.000000
0
LINE
8
0
10
87.939013
20
50.996447
30
0.0
11
87.939013
21
50.803553
31
0.0
0
ARC
8
0
10
87.689013
20
50.803553
30
0.0
40
0.250000
50
315.000000
51
360.000000
0
LINE
8
0
10
87.865790
20
50.626777
30
0.0
11
87.712236
21
50.473223
31
0.0
0
ARC
8
0
10
87.889013
20
50.296447
30
0.0
40
0.250000
50
135.000000
51
180.000000
0
LINE
8
0
10
87.639013
20
50.296447
30
0.0
11
87.639013
21
49.703553
31
0.0
0
ARC
8
0
10
87.889013
20
49.703553
30
0.0
40
0.250000
50
180.000000
51
225.000000
0
LINE
8
0
10
87.712236
20
49.526777
30
0.0
11
88.165790
21
49.073223
31
0.0
0
ARC
8
0
10
87.989013
20
48.896447
30
0.0
40
0.250000
50
360.000000
51
45.000000
0
LINE
8
0
10
88.239013
20
48.896447
30
0.0
11
88.239013
21
40.207107
31
0.0
0
ARC
8
0
10
87.989013
20
40.207107
30
0.0
40
0.250000
50
315.000000
51
360.000000
0
LINE
8
0
10
88.165790
20
40.030330
30
0.0
11
87.612236
21
39.476777
31
0.0
0
ARC
8
0
10
87.789013
20
39.300000
30
0.0
40
0.250000
50
135.000000
51
225.000000
0
LINE
8
0
10
87.612236
20
39.123223
30
0.0
11
88.062236
21
38.673223
31
0.0
0
ARC
8
0
10
88.239013
20
38.850000
30
0.0
40
0.250000
50
225.000000
51
270.000000
0
LINE
8
0
10
88.239013
20
38.600000
30
0.0
11
88.939013
21
38.600000
31
0.0
0
ARC
8
0
10
88.939013
20
39.100000
30
0.0
40
0.500000
50
270.000000
51
360.000000
0
LINE
8
0
10
89.439013
20
39.100000
30
0.0
11
89.439013
21
50.150000
31
0.0
0
ARC
8
0
10
89.689013
20
50.150000
30
0.0
40
0.250000
50
90.000000
51
180.000000
0
LINE
8
0
10
89.689013
20
50.400000
30
0.0
11
99.489013
21
50.400000
31
0.0
0
ARC
8
0
10
99.489013
20
50.150000
30
0.0
40
0.250000
50
360.000000
51
90.000000
0
LINE
8
0
10
99.739013
20
50.150000
30
0.0
11
99.739013
21
39.100000
31
0.0
0
ARC
8
0
10
100.239013
20
39.100000
30
0.0
40
0.500000
50
180.000000
51
270.000000
0
LINE
8
0
10
100.239013
20
38.600000
30
0.0
11
100.939013
21
38.600000
31
0.0
0
ARC
8
0
10
100.939013
20
38.850000
30
0.0
40
0.250000
50
270.000000
51
315.000000
0
LINE
8
0
10
101.115790
20
38.673223
30
0.0
11
101.565790
21
39.123223
31
0.0
0
ARC
8
0
10
101.389013
20
39.300000
30
0.0
40
0.250000
50
315.000000
51
45.000000
0
LINE
8
0
10
101.565790
20
39.476777
30
0.0
11
101.012236
21
40.030330
31
0.0
0
ARC
8
0
10
101.189013
20
40.207107
30
0.0
40
0.250000
50
180.000000
51
225.000000
0
LINE
8
0
10
100.939013
20
40.207107
30
0.0
11
100.939013
21
48.896447
31
0.0
0
ARC
8
0
10
101.189013
20
48.896447
30
0.0
40
0.250000
50
135.000000
51
180.000000
0
LINE
8
0
10
101.012236
20
49.073223
30
0.0
11
101.465790
21
49.526777
31
0.0
0
ARC
8
0
10
101.289013
20
49.703553
30
0.0
40
0.250000
50
315.000000
51
360.000000
0
LINE
8
0
10
101.539013
20
49.703553
30
0.0
11
101.539013
21
50.296447
31
0.0
0
ARC
8
0
10
101.289013
20
50.296447
30
0.0
40
0.250000
50
360.000000
51
45.000000
0
LINE
8
0
10
101.465790
20
50.473223
30
0.0
11
101.312236
21
50.626777
31
0.0
0
ARC
8
0
10
101.489013
20
50.803553
30
0.0
40
0.250000
50
180.000000
51
225.000000
0
LINE
8
0
10
101.239013
20
50.803553
30
0.0
11
101.239013
21
50.996447
31
0.0
0
ARC
8
0
10
101.489013
20
50.996447
30
0.0
40
0.250000
50
135.000000
51
180.000000
0
LINE
8
0
10
101.312236
20
51.173223
30
0.0
11
101.465790
21
51.326777
31
0.0
0
ATTDEF
8
0
10
87.539013
20
52.200000
30
0.0
40
3.5
1

3

2
HW_START
70
0
0
ATTDEF
8
0
10
101.639013
20
52.200000
30
0.0
40
3.5
1

3

2
HW_END
70
0
0
ARC
8
0
10
45.289013
20
51.503553
30
0.0
40
0.250000
50
315.000000
51
360.000000
0
LINE
8
0
10
45.539013
20
51.503553
30
0.0
11
45.539013
21
51.950000
31
0.0
0
ARC
8
0
10
45.289013
20
51.950000
30
0.0
40
0.250000
50
360.000000
51
90.000000
0
LINE
8
0
10
45.289013
20
52.200000
30
0.0
11
31.889013
21
52.200000
31
0.0
0
ARC
8
0
10
31.889013
20
51.950000
30
0.0
40
0.250000
50
90.000000
51
180.000000
0
LINE
8
0
10
31.639013
20
51.950000
30
0.0
11
31.639013
21
51.503553
31
0.0
0
ARC
8
0
10
31.889013
20
51.503553
30
0.0
40
0.250000
50
180.000000
51
225.000000
0
LINE
8
0
10
31.712236
20
51.326777
30
0.0
11
31.865790
21
51.173223
31
0.0
0
ARC
8
0
10
31.689013
20
50.996447
30
0.0
40
0.250000
50
360.000000
51
45.000000
0
LINE
8
0
10
31.939013
20
50.996447
30
0.0
11
31.939013
21
50.803553
31
0.0
0
ARC
8
0
10
31.689013
20
50.803553
30
0.0
40
0.250000
50
315.000000
51
360.000000
0
LINE
8
0
10
31.865790
20
50.626777
30
0.0
11
31.712236
21
50.473223
31
0.0
0
ARC
8
0
10
31.889013
20
50.296447
30
0.0
40
0.250000
50
135.000000
51
180.000000
0
LINE
8
0
10
31.639013
20
50.296447
30
0.0
11
31.639013
21
49.703553
31
0.0
0
ARC
8
0
10
31.889013
20
49.703553
30
0.0
40
0.250000
50
180.000000
51
225.000000
0
LINE
8
0
10
31.712236
20
49.526777
30
0.0
11
32.165790
21
49.073223
31
0.0
0
ARC
8
0
10
31.989013
20
48.896447
30
0.0
40
0.250000
50
360.000000
51
45.000000
0
LINE
8
0
10
32.239013
20
48.896447
30
0.0
11
32.239013
21
40.207107
31
0.0
0
ARC
8
0
10
31.989013
20
40.207107
30
0.0
40
0.250000
50
315.000000
51
360.000000
0
LINE
8
0
10
32.165790
20
40.030330
30
0.0
11
31.612236
21
39.476777
31
0.0
0
ARC
8
0
10
31.789013
20
39.300000
30
0.0
40
0.250000
50
135.000000
51
225.000000
0
LINE
8
0
10
31.612236
20
39.123223
30
0.0
11
32.062236
21
38.673223
31
0.0
0
ARC
8
0
10
32.239013
20
38.850000
30
0.0
40
0.250000
50
225.000000
51
270.000000
0
LINE
8
0
10
32.239013
20
38.600000
30
0.0
11
32.939013
21
38.600000
31
0.0
0
ARC
8
0
10
32.939013
20
39.100000
30
0.0
40
0.500000
50
270.000000
51
360.000000
0
LINE
8
0
10
33.439013
20
39.100000
30
0.0
11
33.439013
21
50.150000
31
0.0
0
ARC
8
0
10
33.689013
20
50.150000
30
0.0
40
0.250000
50
90.000000
51
180.000000
0
LINE
8
0
10
33.689013
20
50.400000
30
0.0
11
43.489013
21
50.400000
31
0.0
0
ARC
8
0
10
43.489013
20
50.150000
30
0.0
40
0.250000
50
360.000000
51
90.000000
0
LINE
8
0
10
43.739013
20
50.150000
30
0.0
11
43.739013
21
39.100000
31
0.0
0
ARC
8
0
10
44.239013
20
39.100000
30
0.0
40
0.500000
50
180.000000
51
270.000000
0
LINE
8
0
10
44.239013
20
38.600000
30
0.0
11
44.939013
21
38.600000
31
0.0
0
ARC
8
0
10
44.939013
20
38.850000
30
0.0
40
0.250000
50
270.000000
51
315.000000
0
LINE
8
0
10
45.115790
20
38.673223
30
0.0
11
45.565790
21
39.123223
31
0.0
0
ARC
8
0
10
45.389013
20
39.300000
30
0.0
40
0.250000
50
315.000000
51
45.000000
0
LINE
8
0
10
45.565790
20
39.476777
30
0.0
11
45.012236
21
40.030330
31
0.0
0
ARC
8
0
10
45.189013
20
40.207107
30
0.0
40
0.250000
50
180.000000
51
225.000000
0
LINE
8
0
10
44.939013
20
40.207107
30
0.0
11
44.939013
21
48.896447
31
0.0
0
ARC
8
0
10
45.189013
20
48.896447
30
0.0
40
0.250000
50
135.000000
51
180.000000
0
LINE
8
0
10
45.012236
20
49.073223
30
0.0
11
45.465790
21
49.526777
31
0.0
0
ARC
8
0
10
45.289013
20
49.703553
30
0.0
40
0.250000
50
315.000000
51
360.000000
0
LINE
8
0
10
45.539013
20
49.703553
30
0.0
11
45.539013
21
50.296447
31
0.0
0
ARC
8
0
10
45.289013
20
50.296447
30
0.0
40
0.250000
50
360.000000
51
45.000000
0
LINE
8
0
10
45.465790
20
50.473223
30
0.0
11
45.312236
21
50.626777
31
0.0
0
ARC
8
0
10
45.489013
20
50.803553
30
0.0
40
0.250000
50
180.000000
51
225.000000
0
LINE
8
0
10
45.239013
20
50.803553
30
0.0
11
45.239013
21
50.996447
31
0.0
0
ARC
8
0
10
45.489013
20
50.996447
30
0.0
40
0.250000
50
135.000000
51
180.000000
0
LINE
8
0
10
45.312236
20
51.173223
30
0.0
11
45.465790
21
51.326777
31
0.0
0
ATTDEF
8
0
10
31.539013
20
52.200000
30
0.0
40
3.5
1

3

2
HW_START
70
0
0
ATTDEF
8
0
10
45.639013
20
52.200000
30
0.0
40
3.5
1

3

2
HW_END
70
0
0
ARC
8
0
10
13.792893
20
28.750000
30
0.0
40
0.250000
50
19.471221
51
90.000000
0
ARC
8
0
10
14.500000
20
29.000000
30
0.0
40
0.500000
50
199.471221
51
340.528779
0
ARC
8
0
10
15.207107
20
28.750000
30
0.0
40
0.250000
50
90.000000
51
160.528779
0
LINE
8
0
10
19.750000
20
29.000000
30
0.0
11
15.207107
21
29.000000
31
0.0
0
ARC
8
0
10
19.750000
20
28.750000
30
0.0
40
0.250000
50
360.000000
51
90.000000
0
LINE
8
0
10
20.000000
20
28.000000
30
0.0
11
20.000000
21
28.750000
31
0.0
0
ARC
8
0
10
19.000000
20
28.000000
30
0.0
40
1.000000
50
237.140120
51
360.000000
0
ARC
8
0
10
18.321767
20
26.950000
30
0.0
40
0.250000
50
57.140120
51
90.000000
0
LINE
8
0
10
12.916515
20
27.200000
30
0.0
11
18.321767
21
27.200000
31
0.0
0
ARC
8
0
10
12.916515
20
26.950000
30
0.0
40
0.250000
50
90.000000
51
137.156357
0
ARC
8
0
10
12.000000
20
27.800000
30
0.0
40
1.000000
50
222.843643
51
317.156357
0
ARC
8
0
10
11.083485
20
26.950000
30
0.0
40
0.250000
50
42.843643
51
90.000000
0
LINE
8
0
10
9.550000
20
27.200000
30
0.0
11
11.083485
21
27.200000
31
0.0
0
ARC
8
0
10
9.550000
20
26.950000
30
0.0
40
0.250000
50
90.000000
51
180.000000
0
LINE
8
0
10
9.300000
20
4.950000
30
0.0
11
9.300000
21
26.950000
31
0.0
0
ARC
8
0
10
9.050000
20
4.950000
30
0.0
40
0.250000
50
270.000000
51
360.000000
0
LINE
8
0
10
8.800000
20
4.700000
30
0.0
11
9.050000
21
4.700000
31
0.0
0
ARC
8
0
10
8.800000
20
5.700000
30
0.0
40
1.000000
50
180.000000
51
270.000000
0
LINE
8
0
10
7.800000
20
26.287302
30
0.0
11
7.800000
21
5.700000
31
0.0
0
ARC
8
0
10
5.800000
20
26.287302
30
0.0
40
2.000000
50
360.000000
51
45.000000
0
LINE
8
0
10
5.857864
20
29.057864
30
0.0
11
7.214214
21
27.701515
31
0.0
0
ARC
8
0
10
20.000000
20
43.200000
30
0.0
40
20.000000
50
180.000000
51
225.000000
0
LINE
8
0
10
0.000000
20
53.700000
30
0.0
11
0.000000
21
43.200000
31
0.0
0
ARC
8
0
10
1.400000
20
53.700000
30
0.0
40
1.400000
50
360.000000
51
180.000000
0
LINE
8
0
10
2.800000
20
49.814214
30
0.0
11
2.800000
21
53.700000
31
0.0
0
ARC
8
0
10
1.800000
20
49.814214
30
0.0
40
1.000000
50
315.000000
51
360.000000
0
LINE
8
0
10
1.792893
20
48.392893
30
0.0
11
2.507107
21
49.107107
31
0.0
0
ARC
8
0
10
2.500000
20
47.685786
30
0.0
40
1.000000
50
135.000000
51
180.000000
0
LINE
8
0
10
1.500000
20
43.200000
30
0.0
11
1.500000
21
47.685786
31
0.0
0
ARC
8
0
10
20.000000
20
43.200000
30
0.0
40
18.500000
50
180.000000
51
225.000000
0
LINE
8
0
10
7.963826
20
29.073223
30
0.0
11
6.918525
21
30.118525
31
0.0
0
ARC
8
0
10
8.140602
20
29.250000
30
0.0
40
0.250000
50
225.000000
51
270.000000
0
LINE
8
0
10
13.792893
20
29.000000
30
0.0
11
8.140602
21
29.000000
31
0.0
0
ATTDEF
8
0
10
20.000000
20
55.100000
30
0.0
40
3.5
1

3

2
HW_START
70
0
0
ATTDEF
8
0
10
0.000000
20
55.100000
30
0.0
40
3.5
1

3

2
HW_END
70
0
0
ATTDEF
8
0
10
0.000000
20
0.000000
30
0.0
40
3.5
1

3

2
DENS:0.000000
70
0
0
ATTDEF
8
0
10
0.000000
20
0.000000
30
0.0
40
3.5
1

3

2
GLASS_MIN:0.000000
70
0
0
ATTDEF
8
0
10
0.000000
20
0.000000
30
0.0
40
3.5
1

3

2
GLASS_MAX:0.000000
70
0
0
ATTDEF
8
0
10
0.000000
20
0.000000
30
0.0
40
3.5
1

3

2
DESC:RPT-014 - 8188 - 8188 - 8189
70
0
0
ATTDEF
8
0
10
0.000000
20
0.000000
30
0.0
40
3.5
1

3

2
BL01:6500.000000,,1
70
0
0
ENDSEC
0
EOF
