0
SECTION
2
ENTITIES
0
LINE
8
0
10
78.199997
20
25.100000
30
0.0
11
111.899862
21
25.100000
31
0.0
0
ARC
8
0
10
111.899862
20
24.600000
30
0.0
40
0.500000
50
360.000000
51
90.000000
0
LINE
8
0
10
112.399862
20
24.600000
30
0.0
11
112.399862
21
21.400000
31
0.0
0
ARC
8
0
10
111.899862
20
21.400000
30
0.0
40
0.500000
50
270.000000
51
360.000000
0
LINE
8
0
10
111.899862
20
20.900000
30
0.0
11
110.199727
21
20.900000
31
0.0
0
ARC
8
0
10
110.199727
20
20.400000
30
0.0
40
0.500000
50
90.000000
51
180.000000
0
LINE
8
0
10
109.699727
20
20.400000
30
0.0
11
109.699727
21
19.800000
31
0.0
0
ARC
8
0
10
110.199727
20
19.800000
30
0.0
40
0.500000
50
180.000000
51
270.000000
0
LINE
8
0
10
110.199727
20
19.300000
30
0.0
11
111.899862
21
19.300000
31
0.0
0
ARC
8
0
10
111.899862
20
18.800000
30
0.0
40
0.500000
50
360.000000
51
90.000000
0
LINE
8
0
10
112.399862
20
18.800000
30
0.0
11
112.399862
21
8.800000
31
0.0
0
ARC
8
0
10
111.899862
20
8.800000
30
0.0
40
0.500000
50
270.000000
51
360.000000
0
LINE
8
0
10
111.899862
20
8.300000
30
0.0
11
75.499997
21
8.300000
31
0.0
0
ARC
8
0
10
75.499997
20
8.800000
30
0.0
40
0.500000
50
180.000000
51
270.000000
0
LINE
8
0
10
74.999997
20
8.800000
30
0.0
11
74.999997
21
13.200000
31
0.0
0
ARC
8
0
10
75.499997
20
13.200000
30
0.0
40
0.500000
50
90.000000
51
180.000000
0
LINE
8
0
10
75.499997
20
13.700000
30
0.0
11
75.799862
21
13.700000
31
0.0
0
ARC
8
0
10
75.799862
20
14.200000
30
0.0
40
0.500000
50
270.000000
51
360.000000
0
LINE
8
0
10
76.299862
20
14.200000
30
0.0
11
76.299862
21
14.800000
31
0.0
0
ARC
8
0
10
75.799862
20
14.800000
30
0.0
40
0.500000
50
360.000000
51
90.000000
0
LINE
8
0
10
75.799862
20
15.300000
30
0.0
11
75.499997
21
15.300000
31
0.0
0
ARC
8
0
10
75.499997
20
15.800000
30
0.0
40
0.500000
50
180.000000
51
270.000000
0
LINE
8
0
10
74.999997
20
15.800000
30
0.0
11
74.999997
21
18.800000
31
0.0
0
ARC
8
0
10
75.499997
20
18.800000
30
0.0
40
0.500000
50
90.000000
51
180.000000
0
LINE
8
0
10
75.499997
20
19.300000
30
0.0
11
79.199997
21
19.300000
31
0.0
0
ARC
8
0
10
79.199997
20
19.800000
30
0.0
40
0.500000
50
270.000000
51
360.000000
0
LINE
8
0
10
79.699997
20
19.800000
30
0.0
11
79.699997
21
20.400000
31
0.0
0
ARC
8
0
10
79.199997
20
20.400000
30
0.0
40
0.500000
50
360.000000
51
90.000000
0
LINE
8
0
10
79.199997
20
20.900000
30
0.0
11
78.199997
21
20.900000
31
0.0
0
ARC
8
0
10
78.199997
20
21.400000
30
0.0
40
0.500000
50
180.000000
51
270.000000
0
LINE
8
0
10
77.699997
20
21.400000
30
0.0
11
77.699997
21
24.600000
31
0.0
0
ARC
8
0
10
78.199997
20
24.600000
30
0.0
40
0.500000
50
90.000000
51
180.000000
0
LINE
8
0
10
76.799997
20
27.200000
30
0.0
11
76.799997
21
35.274614
31
0.0
0
ARC
8
0
10
78.299997
20
35.274614
30
0.0
40
1.500000
50
150.000000
51
180.000000
0
LINE
8
0
10
77.000959
20
36.024614
30
0.0
11
77.178227
21
36.331651
31
0.0
0
ARC
8
0
10
77.611240
20
36.081651
30
0.0
40
0.500000
50
45.000000
51
150.000000
0
LINE
8
0
10
77.964793
20
36.435204
30
0.0
11
79.507104
21
34.892893
31
0.0
0
ARC
8
0
10
80.214211
20
35.600000
30
0.0
40
1.000000
50
225.000000
51
270.000000
0
LINE
8
0
10
80.214211
20
34.600000
30
0.0
11
89.785784
21
34.600000
31
0.0
0
ARC
8
0
10
89.785784
20
35.600000
30
0.0
40
1.000000
50
270.000000
51
315.000000
0
LINE
8
0
10
90.492890
20
34.892893
30
0.0
11
94.273468
21
38.673471
31
0.0
0
ARC
8
0
10
94.627021
20
38.319917
30
0.0
40
0.500000
50
30.000000
51
135.000000
0
LINE
8
0
10
95.060034
20
38.569917
30
0.0
11
95.933010
21
37.057878
31
0.0
0
ARC
8
0
10
95.499997
20
36.807878
30
0.0
40
0.500000
50
360.000000
51
30.000000
0
LINE
8
0
10
95.999997
20
36.807878
30
0.0
11
95.999997
21
27.200000
31
0.0
0
ARC
8
0
10
95.499997
20
27.200000
30
0.0
40
0.500000
50
270.000000
51
360.000000
0
LINE
8
0
10
95.499997
20
26.700000
30
0.0
11
77.299997
21
26.700000
31
0.0
0
ARC
8
0
10
77.299997
20
27.200000
30
0.0
40
0.500000
50
180.000000
51
270.000000
0
ARC
8
0
10
75.449997
20
25.350000
30
0.0
40
0.250000
50
180.000000
51
270.000000
0
LINE
8
0
10
75.449997
20
25.100000
30
0.0
11
75.849997
21
25.100000
31
0.0
0
ARC
8
0
10
75.849997
20
24.850000
30
0.0
40
0.250000
50
360.000000
51
90.000000
0
LINE
8
0
10
76.099997
20
24.850000
30
0.0
11
76.099997
21
21.950000
31
0.0
0
ARC
8
0
10
75.849997
20
21.950000
30
0.0
40
0.250000
50
270.000000
51
360.000000
0
LINE
8
0
10
75.849997
20
21.700000
30
0.0
11
71.749394
21
21.700000
31
0.0
0
ARC
8
0
10
71.749394
20
21.950000
30
0.0
40
0.250000
50
182.814089
51
270.000000
0
ARC
8
0
10
71.249997
20
21.925453
30
0.0
40
0.250000
50
2.814089
51
70.000000
0
LINE
8
0
10
71.335502
20
22.160376
30
0.0
11
69.902603
21
22.681908
31
0.0
0
ARC
8
0
10
69.799997
20
22.400001
30
0.0
40
0.300000
50
70.000000
51
185.000000
0
LINE
8
0
10
69.501139
20
22.373854
30
0.0
11
69.709526
21
19.991975
31
0.0
0
ARC
8
0
10
69.958575
20
20.013764
30
0.0
40
0.250000
50
185.000000
51
225.000000
0
LINE
8
0
10
69.781798
20
19.836987
30
0.0
11
70.158576
21
19.460210
31
0.0
0
ARC
8
0
10
70.299997
20
19.601631
30
0.0
40
0.200000
50
225.000000
51
345.000000
0
LINE
8
0
10
70.493182
20
19.549867
30
0.0
11
70.538011
21
19.717170
31
0.0
0
ARC
8
0
10
70.731196
20
19.665407
30
0.0
40
0.200000
50
105.000000
51
165.000000
0
LINE
8
0
10
70.679433
20
19.858592
30
0.0
11
72.699997
21
20.400001
31
0.0
0
LINE
8
0
10
72.699997
20
20.400001
30
0.0
11
72.899997
21
20.400001
31
0.0
0
ARC
8
0
10
72.899997
20
20.100001
30
0.0
40
0.300000
50
311.810315
51
90.000000
0
ARC
8
0
10
73.299997
20
19.652787
30
0.0
40
0.300000
50
131.810315
51
180.000000
0
LINE
8
0
10
72.999997
20
19.652787
30
0.0
11
72.999997
21
15.700001
31
0.0
0
ARC
8
0
10
72.699997
20
15.700001
30
0.0
40
0.300000
50
270.000000
51
360.000000
0
LINE
8
0
10
72.699997
20
15.400001
30
0.0
11
72.470269
21
15.400001
31
0.0
0
ARC
8
0
10
72.470269
20
15.650001
30
0.0
40
0.250000
50
238.600000
51
270.000000
0
LINE
8
0
10
72.340017
20
15.436613
30
0.0
11
70.804199
21
16.374080
31
0.0
0
ARC
8
0
10
70.699997
20
16.203370
30
0.0
40
0.200000
50
58.600000
51
180.000000
0
LINE
8
0
10
70.499997
20
16.203370
30
0.0
11
70.499997
21
15.200145
31
0.0
0
ARC
8
0
10
70.999997
20
15.200145
30
0.0
40
0.500000
50
180.000000
51
238.600000
0
LINE
8
0
10
70.739492
20
14.773370
30
0.0
11
71.329238
21
14.413388
31
0.0
0
ARC
8
0
10
71.198985
20
14.200000
30
0.0
40
0.250000
50
301.400000
51
58.600000
0
LINE
8
0
10
71.329238
20
13.986613
30
0.0
11
70.739492
21
13.626631
31
0.0
0
ARC
8
0
10
70.999997
20
13.199855
30
0.0
40
0.500000
50
121.400000
51
180.000000
0
LINE
8
0
10
70.499997
20
13.199855
30
0.0
11
70.499997
21
12.196631
31
0.0
0
ARC
8
0
10
70.699997
20
12.196631
30
0.0
40
0.200000
50
180.000000
51
301.400000
0
LINE
8
0
10
70.804199
20
12.025921
30
0.0
11
72.340017
21
12.963388
31
0.0
0
ARC
8
0
10
72.470269
20
12.750000
30
0.0
40
0.250000
50
90.000000
51
121.400000
0
LINE
8
0
10
72.470269
20
13.000000
30
0.0
11
72.699997
21
13.000000
31
0.0
0
ARC
8
0
10
72.699997
20
12.700000
30
0.0
40
0.300000
50
360.000000
51
90.000000
0
LINE
8
0
10
72.999997
20
12.700000
30
0.0
11
72.999997
21
8.747214
31
0.0
0
ARC
8
0
10
73.299997
20
8.747214
30
0.0
40
0.300000
50
180.000000
51
228.189685
0
ARC
8
0
10
72.899997
20
8.300000
30
0.0
40
0.300000
50
270.000000
51
48.189685
0
LINE
8
0
10
72.899997
20
8.000000
30
0.0
11
72.699997
21
8.000000
31
0.0
0
LINE
8
0
10
72.699997
20
8.000000
30
0.0
11
70.679433
21
8.541409
31
0.0
0
ARC
8
0
10
70.731196
20
8.734594
30
0.0
40
0.200000
50
195.000000
51
255.000000
0
LINE
8
0
10
70.538011
20
8.682830
30
0.0
11
70.493182
21
8.850133
31
0.0
0
ARC
8
0
10
70.299997
20
8.798369
30
0.0
40
0.200000
50
15.000000
51
135.000000
0
LINE
8
0
10
70.158576
20
8.939791
30
0.0
11
69.781798
21
8.563013
31
0.0
0
ARC
8
0
10
69.958575
20
8.386236
30
0.0
40
0.250000
50
135.000000
51
175.000000
0
LINE
8
0
10
69.709526
20
8.408025
30
0.0
11
69.501139
21
6.026147
31
0.0
0
ARC
8
0
10
69.799997
20
6.000000
30
0.0
40
0.300000
50
175.000000
51
290.000000
0
LINE
8
0
10
69.902603
20
5.718092
30
0.0
11
71.335502
21
6.239625
31
0.0
0
ARC
8
0
10
71.249997
20
6.474548
30
0.0
40
0.250000
50
290.000000
51
357.185881
0
ARC
8
0
10
71.749394
20
6.450000
30
0.0
40
0.250000
50
90.000000
51
177.185881
0
LINE
8
0
10
71.749394
20
6.700000
30
0.0
11
107.566275
21
6.700000
31
0.0
0
ARC
8
0
10
107.566275
20
6.200000
30
0.0
40
0.500000
50
360.000000
51
90.000000
0
LINE
8
0
10
108.066275
20
6.200000
30
0.0
11
108.066275
21
2.200000
31
0.0
0
ARC
8
0
10
107.066275
20
2.200000
30
0.0
40
1.000000
50
270.000000
51
360.000000
0
LINE
8
0
10
107.066275
20
1.200000
30
0.0
11
103.566275
21
1.200000
31
0.0
0
ARC
8
0
10
103.566275
20
0.600000
30
0.0
40
0.600000
50
90.000000
51
270.000000
0
LINE
8
0
10
103.566275
20
0.000000
30
0.0
11
109.466275
21
0.000000
31
0.0
0
ARC
8
0
10
109.466275
20
0.500000
30
0.0
40
0.500000
50
270.000000
51
72.542397
0
ARC
8
0
10
109.766275
20
1.453939
30
0.0
40
0.500000
50
180.000000
51
252.542397
0
LINE
8
0
10
109.266275
20
1.453939
30
0.0
11
109.266275
21
4.950000
31
0.0
0
ARC
8
0
10
111.016275
20
4.950000
30
0.0
40
1.750000
50
360.000000
51
180.000000
0
LINE
8
0
10
112.766275
20
4.950000
30
0.0
11
112.766275
21
2.385641
31
0.0
0
ARC
8
0
10
112.566275
20
2.385641
30
0.0
40
0.200000
50
300.000000
51
360.000000
0
LINE
8
0
10
112.666275
20
2.212436
30
0.0
11
112.216275
21
1.952628
31
0.0
0
ARC
8
0
10
112.466275
20
1.519615
30
0.0
40
0.500000
50
120.000000
51
210.000000
0
LINE
8
0
10
112.033262
20
1.269615
30
0.0
11
112.621937
21
0.250000
31
0.0
0
ARC
8
0
10
113.054950
20
0.500000
30
0.0
40
0.500000
50
210.000000
51
270.000000
0
LINE
8
0
10
113.054950
20
0.000000
30
0.0
11
113.499995
21
0.000000
31
0.0
0
ARC
8
0
10
113.499995
20
0.500000
30
0.0
40
0.500000
50
270.000000
51
360.000000
0
LINE
8
0
10
113.999995
20
0.500000
30
0.0
11
113.999995
21
26.450000
31
0.0
0
ARC
8
0
10
113.749995
20
26.450000
30
0.0
40
0.250000
50
360.000000
51
90.000000
0
LINE
8
0
10
113.749995
20
26.700000
30
0.0
11
98.099997
21
26.700000
31
0.0
0
ARC
8
0
10
98.099997
20
27.200000
30
0.0
40
0.500000
50
180.000000
51
270.000000
0
LINE
8
0
10
97.599997
20
27.200000
30
0.0
11
97.599997
21
36.968648
31
0.0
0
ARC
8
0
10
96.099997
20
36.968648
30
0.0
40
1.500000
50
360.000000
51
30.000000
0
LINE
8
0
10
97.399035
20
37.718648
30
0.0
11
96.000959
21
40.140187
31
0.0
0
ARC
8
0
10
97.299997
20
40.890187
30
0.0
40
1.500000
50
180.000000
51
210.000000
0
LINE
8
0
10
95.799997
20
40.890187
30
0.0
11
95.799997
21
44.178680
31
0.0
0
ARC
8
0
10
97.299997
20
44.178680
30
0.0
40
1.500000
50
135.000000
51
180.000000
0
LINE
8
0
10
96.239337
20
45.239340
30
0.0
11
97.160657
21
46.160660
31
0.0
0
ARC
8
0
10
96.099997
20
47.221321
30
0.0
40
1.500000
50
315.000000
51
360.000000
0
LINE
8
0
10
97.599997
20
47.221321
30
0.0
11
97.599997
21
50.700000
31
0.0
0
ARC
8
0
10
96.099997
20
50.700000
30
0.0
40
1.500000
50
360.000000
51
90.000000
0
LINE
8
0
10
96.099997
20
52.200000
30
0.0
11
92.549997
21
52.200000
31
0.0
0
ARC
8
0
10
92.549997
20
51.950000
30
0.0
40
0.250000
50
90.000000
51
180.000000
0
LINE
8
0
10
92.299997
20
51.950000
30
0.0
11
92.299997
21
49.450000
31
0.0
0
ARC
8
0
10
92.549997
20
49.450000
30
0.0
40
0.250000
50
180.000000
51
285.000000
0
LINE
8
0
10
92.614702
20
49.208519
30
0.0
11
93.514702
21
49.449673
31
0.0
0
ARC
8
0
10
93.449997
20
49.691154
30
0.0
40
0.250000
50
285.000000
51
360.000000
0
LINE
8
0
10
93.699997
20
49.691154
30
0.0
11
93.699997
21
50.200000
31
0.0
0
ARC
8
0
10
94.199997
20
50.200000
30
0.0
40
0.500000
50
90.000000
51
180.000000
0
LINE
8
0
10
94.199997
20
50.700000
30
0.0
11
95.499997
21
50.700000
31
0.0
0
ARC
8
0
10
95.499997
20
50.200000
30
0.0
40
0.500000
50
360.000000
51
90.000000
0
LINE
8
0
10
95.999997
20
50.200000
30
0.0
11
95.999997
21
47.676955
31
0.0
0
ARC
8
0
10
94.999997
20
47.676955
30
0.0
40
1.000000
50
315.000000
51
360.000000
0
LINE
8
0
10
95.707104
20
46.969849
30
0.0
11
95.107966
21
46.370711
31
0.0
0
ARC
8
0
10
97.299997
20
44.178680
30
0.0
40
3.100000
50
135.000000
51
180.000000
0
LINE
8
0
10
94.199997
20
44.178680
30
0.0
11
94.199997
21
41.224874
31
0.0
0
ARC
8
0
10
93.699997
20
41.224874
30
0.0
40
0.500000
50
225.000000
51
360.000000
0
LINE
8
0
10
93.346444
20
40.871321
30
0.0
11
92.833881
21
41.383884
31
0.0
0
ARC
8
0
10
92.657104
20
41.207107
30
0.0
40
0.250000
50
45.000000
51
135.000000
0
LINE
8
0
10
92.480327
20
41.383884
30
0.0
11
91.773221
21
40.676777
31
0.0
0
ARC
8
0
10
91.949997
20
40.500000
30
0.0
40
0.250000
50
135.000000
51
225.000000
0
LINE
8
0
10
91.773221
20
40.323223
30
0.0
11
92.540073
21
39.556371
31
0.0
0
ARC
8
0
10
92.363296
20
39.379594
30
0.0
40
0.250000
50
315.000000
51
45.000000
0
LINE
8
0
10
92.540073
20
39.202818
30
0.0
11
91.910479
21
38.573223
31
0.0
0
ARC
8
0
10
91.733702
20
38.750000
30
0.0
40
0.250000
50
270.000000
51
315.000000
0
LINE
8
0
10
91.733702
20
38.500000
30
0.0
11
90.649997
21
38.500000
31
0.0
0
ARC
8
0
10
90.649997
20
38.250000
30
0.0
40
0.250000
50
90.000000
51
180.000000
0
LINE
8
0
10
90.399997
20
38.250000
30
0.0
11
90.399997
21
37.166295
31
0.0
0
ARC
8
0
10
90.149997
20
37.166295
30
0.0
40
0.250000
50
315.000000
51
360.000000
0
LINE
8
0
10
90.326774
20
36.989519
30
0.0
11
89.610479
21
36.273223
31
0.0
0
ARC
8
0
10
89.433702
20
36.450000
30
0.0
40
0.250000
50
270.000000
51
315.000000
0
LINE
8
0
10
89.433702
20
36.200000
30
0.0
11
80.566292
21
36.200000
31
0.0
0
ARC
8
0
10
80.566292
20
36.450000
30
0.0
40
0.250000
50
225.000000
51
270.000000
0
LINE
8
0
10
80.389516
20
36.273223
30
0.0
11
79.673221
21
36.989519
31
0.0
0
ARC
8
0
10
79.849997
20
37.166295
30
0.0
40
0.250000
50
180.000000
51
225.000000
0
LINE
8
0
10
79.599997
20
37.166295
30
0.0
11
79.599997
21
38.250000
31
0.0
0
ARC
8
0
10
79.349997
20
38.250000
30
0.0
40
0.250000
50
360.000000
51
90.000000
0
LINE
8
0
10
79.349997
20
38.500000
30
0.0
11
78.266292
21
38.500000
31
0.0
0
ARC
8
0
10
78.266292
20
38.750000
30
0.0
40
0.250000
50
225.000000
51
270.000000
0
LINE
8
0
10
78.089516
20
38.573223
30
0.0
11
77.773221
21
38.889519
31
0.0
0
ARC
8
0
10
77.949997
20
39.066295
30
0.0
40
0.250000
50
180.000000
51
225.000000
0
LINE
8
0
10
77.699997
20
39.066295
30
0.0
11
77.699997
21
39.692893
31
0.0
0
ARC
8
0
10
77.949997
20
39.692893
30
0.0
40
0.250000
50
135.000000
51
180.000000
0
LINE
8
0
10
77.773221
20
39.869670
30
0.0
11
78.226774
21
40.323223
31
0.0
0
ARC
8
0
10
78.049997
20
40.500000
30
0.0
40
0.250000
50
315.000000
51
45.000000
0
LINE
8
0
10
78.226774
20
40.676777
30
0.0
11
77.573221
21
41.330330
31
0.0
0
ARC
8
0
10
77.749997
20
41.507107
30
0.0
40
0.250000
50
180.000000
51
225.000000
0
LINE
8
0
10
77.499997
20
41.507107
30
0.0
11
77.499997
21
46.107180
31
0.0
0
ARC
8
0
10
75.799997
20
46.107180
30
0.0
40
1.700000
50
360.000000
51
60.844635
0
ARC
8
0
10
76.749997
20
47.810118
30
0.0
40
0.250000
50
180.000000
51
240.844635
0
LINE
8
0
10
76.499997
20
47.810118
30
0.0
11
76.499997
21
49.119927
31
0.0
0
ARC
8
0
10
76.749997
20
49.119927
30
0.0
40
0.250000
50
75.000000
51
180.000000
0
LINE
8
0
10
76.814702
20
49.361408
30
0.0
11
77.385293
21
49.208519
31
0.0
0
ARC
8
0
10
77.449997
20
49.450000
30
0.0
40
0.250000
50
255.000000
51
360.000000
0
LINE
8
0
10
77.699997
20
49.450000
30
0.0
11
77.699997
21
50.450000
31
0.0
0
ARC
8
0
10
77.449997
20
50.450000
30
0.0
40
0.250000
50
360.000000
51
90.000000
0
LINE
8
0
10
77.449997
20
50.700000
30
0.0
11
76.632910
21
50.700000
31
0.0
0
LINE
8
0
10
76.632910
20
50.700000
30
0.0
11
76.568206
21
50.691482
31
0.0
0
LINE
8
0
10
76.568206
20
50.691482
30
0.0
11
75.385293
21
50.374521
31
0.0
0
ARC
8
0
10
75.449997
20
50.133040
30
0.0
40
0.250000
50
105.000000
51
180.000000
0
LINE
8
0
10
75.199997
20
50.133040
30
0.0
11
75.199997
21
47.073205
31
0.0
0
ARC
8
0
10
75.499997
20
47.073205
30
0.0
40
0.300000
50
180.000000
51
240.000000
0
LINE
8
0
10
75.349997
20
46.813398
30
0.0
11
75.974997
21
46.452554
31
0.0
0
ARC
8
0
10
75.849997
20
46.236047
30
0.0
40
0.250000
50
360.000000
51
60.000000
0
LINE
8
0
10
76.099997
20
46.236047
30
0.0
11
76.099997
21
38.066026
31
0.0
0
ARC
8
0
10
74.599997
20
38.066026
30
0.0
40
1.500000
50
330.000000
51
360.000000
0
LINE
8
0
10
75.899035
20
37.316026
30
0.0
11
75.400959
21
36.453332
31
0.0
0
ARC
8
0
10
76.699997
20
35.703332
30
0.0
40
1.500000
50
150.000000
51
180.000000
0
LINE
8
0
10
75.199997
20
35.703332
30
0.0
11
75.199997
21
25.350000
31
0.0
0
LINE
8
0
10
37.199997
20
27.200000
30
0.0
11
37.199997
21
35.274614
31
0.0
0
ARC
8
0
10
36.699997
20
27.200000
30
0.0
40
0.500000
50
270.000000
51
360.000000
0
LINE
8
0
10
18.499997
20
26.700000
30
0.0
11
36.699997
21
26.700000
31
0.0
0
ARC
8
0
10
18.499997
20
27.200000
30
0.0
40
0.500000
50
180.000000
51
270.000000
0
LINE
8
0
10
17.999997
20
36.807878
30
0.0
11
17.999997
21
27.200000
31
0.0
0
ARC
8
0
10
18.499997
20
36.807878
30
0.0
40
0.500000
50
150.000000
51
180.000000
0
LINE
8
0
10
18.939961
20
38.569917
30
0.0
11
18.066985
21
37.057878
31
0.0
0
ARC
8
0
10
19.372973
20
38.319917
30
0.0
40
0.500000
50
45.000000
51
150.000000
0
LINE
8
0
10
23.507104
20
34.892893
30
0.0
11
19.726527
21
38.673471
31
0.0
0
ARC
8
0
10
24.214211
20
35.600000
30
0.0
40
1.000000
50
225.000000
51
270.000000
0
LINE
8
0
10
33.785784
20
34.600000
30
0.0
11
24.214211
21
34.600000
31
0.0
0
ARC
8
0
10
33.785784
20
35.600000
30
0.0
40
1.000000
50
270.000000
51
315.000000
0
LINE
8
0
10
36.035201
20
36.435204
30
0.0
11
34.492891
21
34.892893
31
0.0
0
ARC
8
0
10
36.388755
20
36.081651
30
0.0
40
0.500000
50
30.000000
51
135.000000
0
LINE
8
0
10
36.999035
20
36.024614
30
0.0
11
36.821767
21
36.331651
31
0.0
0
ARC
8
0
10
35.699997
20
35.274614
30
0.0
40
1.500000
50
360.000000
51
30.000000
0
ARC
8
0
10
39.800133
20
19.400000
30
0.0
40
0.500000
50
90.000000
51
180.000000
0
LINE
8
0
10
50.499997
20
19.900000
30
0.0
11
39.800133
21
19.900000
31
0.0
0
ARC
8
0
10
50.499997
20
19.400000
30
0.0
40
0.500000
50
360.000000
51
90.000000
0
LINE
8
0
10
50.999997
20
8.800000
30
0.0
11
50.999997
21
19.400000
31
0.0
0
ARC
8
0
10
50.499997
20
8.800000
30
0.0
40
0.500000
50
270.000000
51
360.000000
0
LINE
8
0
10
2.100133
20
8.300000
30
0.0
11
50.499997
21
8.300000
31
0.0
0
ARC
8
0
10
2.100133
20
8.800000
30
0.0
40
0.500000
50
180.000000
51
270.000000
0
LINE
8
0
10
1.600133
20
18.800000
30
0.0
11
1.600133
21
8.800000
31
0.0
0
ARC
8
0
10
2.100133
20
18.800000
30
0.0
40
0.500000
50
90.000000
51
180.000000
0
LINE
8
0
10
3.100133
20
19.300000
30
0.0
11
2.100133
21
19.300000
31
0.0
0
ARC
8
0
10
3.100133
20
19.800000
30
0.0
40
0.500000
50
270.000000
51
360.000000
0
LINE
8
0
10
3.600133
20
20.400000
30
0.0
11
3.600133
21
19.800000
31
0.0
0
ARC
8
0
10
3.100133
20
20.400000
30
0.0
40
0.500000
50
360.000000
51
90.000000
0
LINE
8
0
10
2.100133
20
20.900000
30
0.0
11
3.100133
21
20.900000
31
0.0
0
ARC
8
0
10
2.100133
20
21.400000
30
0.0
40
0.500000
50
180.000000
51
270.000000
0
LINE
8
0
10
1.600133
20
24.600000
30
0.0
11
1.600133
21
21.400000
31
0.0
0
ARC
8
0
10
2.100133
20
24.600000
30
0.0
40
0.500000
50
90.000000
51
180.000000
0
LINE
8
0
10
35.799997
20
25.100000
30
0.0
11
2.100133
21
25.100000
31
0.0
0
ARC
8
0
10
35.799997
20
24.600000
30
0.0
40
0.500000
50
360.000000
51
90.000000
0
LINE
8
0
10
36.299997
20
21.400000
30
0.0
11
36.299997
21
24.600000
31
0.0
0
ARC
8
0
10
35.799997
20
21.400000
30
0.0
40
0.500000
50
270.000000
51
360.000000
0
LINE
8
0
10
34.799997
20
20.900000
30
0.0
11
35.799997
21
20.900000
31
0.0
0
ARC
8
0
10
34.799997
20
20.400000
30
0.0
40
0.500000
50
90.000000
51
180.000000
0
LINE
8
0
10
34.299997
20
19.800000
30
0.0
11
34.299997
21
20.400000
31
0.0
0
ARC
8
0
10
34.799997
20
19.800000
30
0.0
40
0.500000
50
180.000000
51
270.000000
0
LINE
8
0
10
37.200133
20
19.300000
30
0.0
11
34.799997
21
19.300000
31
0.0
0
ARC
8
0
10
37.200133
20
18.800000
30
0.0
40
0.500000
50
360.000000
51
90.000000
0
LINE
8
0
10
37.700133
20
17.800000
30
0.0
11
37.700133
21
18.800000
31
0.0
0
ARC
8
0
10
38.200133
20
17.800000
30
0.0
40
0.500000
50
180.000000
51
270.000000
0
LINE
8
0
10
38.800133
20
17.300000
30
0.0
11
38.200133
21
17.300000
31
0.0
0
ARC
8
0
10
38.800133
20
17.800000
30
0.0
40
0.500000
50
270.000000
51
360.000000
0
LINE
8
0
10
39.300133
20
19.400000
30
0.0
11
39.300133
21
17.800000
31
0.0
0
ARC
8
0
10
56.041420
20
20.013764
30
0.0
40
0.250000
50
315.000000
51
355.000000
0
LINE
8
0
10
56.498856
20
22.373854
30
0.0
11
56.290468
21
19.991975
31
0.0
0
ARC
8
0
10
56.199997
20
22.400001
30
0.0
40
0.300000
50
355.000000
51
110.000000
0
LINE
8
0
10
54.664492
20
22.160376
30
0.0
11
56.097391
21
22.681908
31
0.0
0
ARC
8
0
10
54.749997
20
21.925453
30
0.0
40
0.250000
50
110.000000
51
177.185911
0
ARC
8
0
10
54.250600
20
21.950000
30
0.0
40
0.250000
50
270.000000
51
357.185911
0
LINE
8
0
10
38.149997
20
21.700000
30
0.0
11
54.250600
21
21.700000
31
0.0
0
ARC
8
0
10
38.149997
20
21.950000
30
0.0
40
0.250000
50
180.000000
51
270.000000
0
LINE
8
0
10
37.899997
20
24.850000
30
0.0
11
37.899997
21
21.950000
31
0.0
0
ARC
8
0
10
38.149997
20
24.850000
30
0.0
40
0.250000
50
90.000000
51
180.000000
0
LINE
8
0
10
38.549997
20
25.100000
30
0.0
11
38.149997
21
25.100000
31
0.0
0
ARC
8
0
10
38.549997
20
25.350000
30
0.0
40
0.250000
50
270.000000
51
360.000000
0
LINE
8
0
10
38.799997
20
35.703332
30
0.0
11
38.799997
21
25.350000
31
0.0
0
ARC
8
0
10
37.299997
20
35.703332
30
0.0
40
1.500000
50
360.000000
51
30.000000
0
LINE
8
0
10
38.100959
20
37.316026
30
0.0
11
38.599035
21
36.453332
31
0.0
0
ARC
8
0
10
39.399997
20
38.066026
30
0.0
40
1.500000
50
180.000000
51
210.000000
0
LINE
8
0
10
37.899997
20
46.236047
30
0.0
11
37.899997
21
38.066026
31
0.0
0
ARC
8
0
10
38.149997
20
46.236047
30
0.0
40
0.250000
50
120.000000
51
180.000000
0
LINE
8
0
10
38.649997
20
46.813398
30
0.0
11
38.024997
21
46.452554
31
0.0
0
ARC
8
0
10
38.499997
20
47.073205
30
0.0
40
0.300000
50
300.000000
51
360.000000
0
LINE
8
0
10
38.799997
20
50.133040
30
0.0
11
38.799997
21
47.073205
31
0.0
0
ARC
8
0
10
38.549997
20
50.133040
30
0.0
40
0.250000
50
360.000000
51
75.000000
0
LINE
8
0
10
37.431789
20
50.691482
30
0.0
11
38.614702
21
50.374521
31
0.0
0
LINE
8
0
10
37.431789
20
50.691482
30
0.0
11
37.367084
21
50.700000
31
0.0
0
LINE
8
0
10
36.549997
20
50.700000
30
0.0
11
37.367084
21
50.700000
31
0.0
0
ARC
8
0
10
36.549997
20
50.450000
30
0.0
40
0.250000
50
90.000000
51
180.000000
0
LINE
8
0
10
36.299997
20
49.450000
30
0.0
11
36.299997
21
50.450000
31
0.0
0
ARC
8
0
10
36.549997
20
49.450000
30
0.0
40
0.250000
50
180.000000
51
285.000000
0
LINE
8
0
10
37.185293
20
49.361408
30
0.0
11
36.614702
21
49.208519
31
0.0
0
ARC
8
0
10
37.249997
20
49.119927
30
0.0
40
0.250000
50
360.000000
51
105.000000
0
LINE
8
0
10
37.499997
20
47.810118
30
0.0
11
37.499997
21
49.119927
31
0.0
0
ARC
8
0
10
37.249997
20
47.810118
30
0.0
40
0.250000
50
299.155365
51
360.000000
0
ARC
8
0
10
38.199997
20
46.107180
30
0.0
40
1.700000
50
119.155365
51
180.000000
0
LINE
8
0
10
36.499997
20
41.507107
30
0.0
11
36.499997
21
46.107180
31
0.0
0
ARC
8
0
10
36.249997
20
41.507107
30
0.0
40
0.250000
50
315.000000
51
360.000000
0
LINE
8
0
10
35.773221
20
40.676777
30
0.0
11
36.426774
21
41.330330
31
0.0
0
ARC
8
0
10
35.949997
20
40.500000
30
0.0
40
0.250000
50
135.000000
51
225.000000
0
LINE
8
0
10
36.226774
20
39.869670
30
0.0
11
35.773221
21
40.323223
31
0.0
0
ARC
8
0
10
36.049997
20
39.692893
30
0.0
40
0.250000
50
360.000000
51
45.000000
0
LINE
8
0
10
36.299997
20
39.066295
30
0.0
11
36.299997
21
39.692893
31
0.0
0
ARC
8
0
10
36.049997
20
39.066295
30
0.0
40
0.250000
50
315.000000
51
360.000000
0
LINE
8
0
10
35.910479
20
38.573223
30
0.0
11
36.226774
21
38.889519
31
0.0
0
ARC
8
0
10
35.733702
20
38.750000
30
0.0
40
0.250000
50
270.000000
51
315.000000
0
LINE
8
0
10
34.649997
20
38.500000
30
0.0
11
35.733702
21
38.500000
31
0.0
0
ARC
8
0
10
34.649997
20
38.250000
30
0.0
40
0.250000
50
90.000000
51
180.000000
0
LINE
8
0
10
34.399997
20
37.166295
30
0.0
11
34.399997
21
38.250000
31
0.0
0
ARC
8
0
10
34.149997
20
37.166295
30
0.0
40
0.250000
50
315.000000
51
360.000000
0
LINE
8
0
10
33.610479
20
36.273223
30
0.0
11
34.326774
21
36.989519
31
0.0
0
ARC
8
0
10
33.433702
20
36.450000
30
0.0
40
0.250000
50
270.000000
51
315.000000
0
LINE
8
0
10
24.566292
20
36.200000
30
0.0
11
33.433702
21
36.200000
31
0.0
0
ARC
8
0
10
24.566292
20
36.450000
30
0.0
40
0.250000
50
225.000000
51
270.000000
0
LINE
8
0
10
23.673221
20
36.989519
30
0.0
11
24.389516
21
36.273223
31
0.0
0
ARC
8
0
10
23.849997
20
37.166295
30
0.0
40
0.250000
50
180.000000
51
225.000000
0
LINE
8
0
10
23.599997
20
38.250000
30
0.0
11
23.599997
21
37.166295
31
0.0
0
ARC
8
0
10
23.349997
20
38.250000
30
0.0
40
0.250000
50
360.000000
51
90.000000
0
LINE
8
0
10
22.266292
20
38.500000
30
0.0
11
23.349997
21
38.500000
31
0.0
0
ARC
8
0
10
22.266292
20
38.750000
30
0.0
40
0.250000
50
225.000000
51
270.000000
0
LINE
8
0
10
21.459922
20
39.202818
30
0.0
11
22.089516
21
38.573223
31
0.0
0
ARC
8
0
10
21.636698
20
39.379594
30
0.0
40
0.250000
50
135.000000
51
225.000000
0
LINE
8
0
10
22.226774
20
40.323223
30
0.0
11
21.459922
21
39.556371
31
0.0
0
ARC
8
0
10
22.049997
20
40.500000
30
0.0
40
0.250000
50
315.000000
51
45.000000
0
LINE
8
0
10
21.519667
20
41.383884
30
0.0
11
22.226774
21
40.676777
31
0.0
0
ARC
8
0
10
21.342891
20
41.207107
30
0.0
40
0.250000
50
45.000000
51
135.000000
0
LINE
8
0
10
20.653551
20
40.871321
30
0.0
11
21.166114
21
41.383884
31
0.0
0
ARC
8
0
10
20.299997
20
41.224874
30
0.0
40
0.500000
50
180.000000
51
315.000000
0
LINE
8
0
10
19.799997
20
44.178680
30
0.0
11
19.799997
21
41.224874
31
0.0
0
ARC
8
0
10
16.699997
20
44.178680
30
0.0
40
3.100000
50
360.000000
51
45.000000
0
LINE
8
0
10
18.292891
20
46.969849
30
0.0
11
18.892028
21
46.370711
31
0.0
0
ARC
8
0
10
18.999997
20
47.676955
30
0.0
40
1.000000
50
180.000000
51
225.000000
0
LINE
8
0
10
17.999997
20
50.200000
30
0.0
11
17.999997
21
47.676955
31
0.0
0
ARC
8
0
10
18.499997
20
50.200000
30
0.0
40
0.500000
50
90.000000
51
180.000000
0
LINE
8
0
10
19.799997
20
50.700000
30
0.0
11
18.499997
21
50.700000
31
0.0
0
ARC
8
0
10
19.799997
20
50.200000
30
0.0
40
0.500000
50
360.000000
51
90.000000
0
LINE
8
0
10
20.299997
20
49.691154
30
0.0
11
20.299997
21
50.200000
31
0.0
0
ARC
8
0
10
20.549997
20
49.691154
30
0.0
40
0.250000
50
180.000000
51
255.000000
0
LINE
8
0
10
21.385293
20
49.208519
30
0.0
11
20.485293
21
49.449673
31
0.0
0
ARC
8
0
10
21.449997
20
49.450000
30
0.0
40
0.250000
50
255.000000
51
360.000000
0
LINE
8
0
10
21.699997
20
51.950000
30
0.0
11
21.699997
21
49.450000
31
0.0
0
ARC
8
0
10
21.449997
20
51.950000
30
0.0
40
0.250000
50
360.000000
51
90.000000
0
LINE
8
0
10
17.899997
20
52.200000
30
0.0
11
21.449997
21
52.200000
31
0.0
0
ARC
8
0
10
17.899997
20
50.700000
30
0.0
40
1.500000
50
90.000000
51
180.000000
0
LINE
8
0
10
16.399997
20
47.221321
30
0.0
11
16.399997
21
50.700000
31
0.0
0
ARC
8
0
10
17.899997
20
47.221321
30
0.0
40
1.500000
50
180.000000
51
225.000000
0
LINE
8
0
10
17.760657
20
45.239340
30
0.0
11
16.839337
21
46.160660
31
0.0
0
ARC
8
0
10
16.699997
20
44.178680
30
0.0
40
1.500000
50
360.000000
51
45.000000
0
LINE
8
0
10
18.199997
20
40.890187
30
0.0
11
18.199997
21
44.178680
31
0.0
0
ARC
8
0
10
16.699997
20
40.890187
30
0.0
40
1.500000
50
330.000000
51
360.000000
0
LINE
8
0
10
16.600959
20
37.718648
30
0.0
11
17.999035
21
40.140187
31
0.0
0
ARC
8
0
10
17.899997
20
36.968648
30
0.0
40
1.500000
50
150.000000
51
180.000000
0
LINE
8
0
10
16.399997
20
27.200000
30
0.0
11
16.399997
21
36.968648
31
0.0
0
ARC
8
0
10
15.899997
20
27.200000
30
0.0
40
0.500000
50
270.000000
51
360.000000
0
LINE
8
0
10
0.250000
20
26.700000
30
0.0
11
15.899997
21
26.700000
31
0.0
0
ARC
8
0
10
0.250000
20
26.450000
30
0.0
40
0.250000
50
90.000000
51
180.000000
0
LINE
8
0
10
0.000000
20
0.500000
30
0.0
11
0.000000
21
26.450000
31
0.0
0
ARC
8
0
10
0.500000
20
0.500000
30
0.0
40
0.500000
50
180.000000
51
270.000000
0
LINE
8
0
10
0.945045
20
0.000000
30
0.0
11
0.500000
21
0.000000
31
0.0
0
ARC
8
0
10
0.945045
20
0.500000
30
0.0
40
0.500000
50
270.000000
51
330.000000
0
LINE
8
0
10
1.966733
20
1.269615
30
0.0
11
1.378057
21
0.250000
31
0.0
0
ARC
8
0
10
1.533720
20
1.519615
30
0.0
40
0.500000
50
330.000000
51
60.000000
0
LINE
8
0
10
1.333720
20
2.212436
30
0.0
11
1.783720
21
1.952628
31
0.0
0
ARC
8
0
10
1.433720
20
2.385641
30
0.0
40
0.200000
50
180.000000
51
240.000000
0
LINE
8
0
10
1.233720
20
4.950000
30
0.0
11
1.233720
21
2.385641
31
0.0
0
ARC
8
0
10
2.983720
20
4.950000
30
0.0
40
1.750000
50
360.000000
51
180.000000
0
LINE
8
0
10
4.733720
20
1.453939
30
0.0
11
4.733720
21
4.950000
31
0.0
0
ARC
8
0
10
4.233720
20
1.453939
30
0.0
40
0.500000
50
287.457603
51
360.000000
0
ARC
8
0
10
4.533720
20
0.500000
30
0.0
40
0.500000
50
107.457603
51
270.000000
0
LINE
8
0
10
10.433720
20
0.000000
30
0.0
11
4.533720
21
0.000000
31
0.0
0
ARC
8
0
10
10.433720
20
0.600000
30
0.0
40
0.600000
50
270.000000
51
90.000000
0
LINE
8
0
10
6.933720
20
1.200000
30
0.0
11
10.433720
21
1.200000
31
0.0
0
ARC
8
0
10
6.933720
20
2.200000
30
0.0
40
1.000000
50
180.000000
51
270.000000
0
LINE
8
0
10
5.933720
20
6.200000
30
0.0
11
5.933720
21
2.200000
31
0.0
0
ARC
8
0
10
6.433720
20
6.200000
30
0.0
40
0.500000
50
90.000000
51
180.000000
0
LINE
8
0
10
54.250600
20
6.700000
30
0.0
11
6.433720
21
6.700000
31
0.0
0
ARC
8
0
10
54.250600
20
6.450000
30
0.0
40
0.250000
50
2.814119
51
90.000000
0
ARC
8
0
10
54.749997
20
6.474548
30
0.0
40
0.250000
50
182.814119
51
250.000000
0
LINE
8
0
10
56.097391
20
5.718092
30
0.0
11
54.664492
21
6.239625
31
0.0
0
ARC
8
0
10
56.199997
20
6.000000
30
0.0
40
0.300000
50
250.000000
51
5.000000
0
LINE
8
0
10
56.290468
20
8.408025
30
0.0
11
56.498856
21
6.026147
31
0.0
0
ARC
8
0
10
56.041420
20
8.386236
30
0.0
40
0.250000
50
5.000000
51
45.000000
0
LINE
8
0
10
55.841419
20
8.939791
30
0.0
11
56.218196
21
8.563013
31
0.0
0
ARC
8
0
10
55.699997
20
8.798369
30
0.0
40
0.200000
50
45.000000
51
165.000000
0
LINE
8
0
10
55.461983
20
8.682830
30
0.0
11
55.506812
21
8.850133
31
0.0
0
ARC
8
0
10
55.268798
20
8.734594
30
0.0
40
0.200000
50
285.000000
51
345.000000
0
LINE
8
0
10
53.299997
20
8.000000
30
0.0
11
55.320562
21
8.541409
31
0.0
0
LINE
8
0
10
53.099997
20
8.000000
30
0.0
11
53.299997
21
8.000000
31
0.0
0
ARC
8
0
10
53.099997
20
8.300000
30
0.0
40
0.300000
50
131.810315
51
270.000000
0
ARC
8
0
10
52.699997
20
8.747214
30
0.0
40
0.300000
50
311.810315
51
360.000000
0
LINE
8
0
10
52.999997
20
12.700000
30
0.0
11
52.999997
21
8.747214
31
0.0
0
ARC
8
0
10
53.299997
20
12.700000
30
0.0
40
0.300000
50
90.000000
51
180.000000
0
LINE
8
0
10
53.599997
20
13.000000
30
0.0
11
53.299997
21
13.000000
31
0.0
0
LINE
8
0
10
55.195795
20
12.025921
30
0.0
11
53.599997
21
13.000000
31
0.0
0
ARC
8
0
10
55.299997
20
12.196631
30
0.0
40
0.200000
50
238.600000
51
360.000000
0
LINE
8
0
10
55.499997
20
13.199855
30
0.0
11
55.499997
21
12.196631
31
0.0
0
ARC
8
0
10
54.999997
20
13.199855
30
0.0
40
0.500000
50
360.000000
51
58.600000
0
LINE
8
0
10
54.670757
20
13.986613
30
0.0
11
55.260502
21
13.626631
31
0.0
0
ARC
8
0
10
54.801009
20
14.200000
30
0.0
40
0.250000
50
121.400000
51
238.600000
0
LINE
8
0
10
55.260502
20
14.773370
30
0.0
11
54.670757
21
14.413388
31
0.0
0
ARC
8
0
10
54.999997
20
15.200145
30
0.0
40
0.500000
50
301.400000
51
360.000000
0
LINE
8
0
10
55.499997
20
16.203370
30
0.0
11
55.499997
21
15.200145
31
0.0
0
ARC
8
0
10
55.299997
20
16.203370
30
0.0
40
0.200000
50
360.000000
51
121.400000
0
LINE
8
0
10
53.599997
20
15.400001
30
0.0
11
55.195795
21
16.374080
31
0.0
0
LINE
8
0
10
53.299997
20
15.400001
30
0.0
11
53.599997
21
15.400001
31
0.0
0
ARC
8
0
10
53.299997
20
15.700001
30
0.0
40
0.300000
50
180.000000
51
270.000000
0
LINE
8
0
10
52.999997
20
19.652787
30
0.0
11
52.999997
21
15.700001
31
0.0
0
ARC
8
0
10
52.699997
20
19.652787
30
0.0
40
0.300000
50
360.000000
51
48.189685
0
ARC
8
0
10
53.099997
20
20.100001
30
0.0
40
0.300000
50
90.000000
51
228.189685
0
LINE
8
0
10
53.299997
20
20.400001
30
0.0
11
53.099997
21
20.400001
31
0.0
0
LINE
8
0
10
55.320562
20
19.858592
30
0.0
11
53.299997
21
20.400001
31
0.0
0
ARC
8
0
10
55.268798
20
19.665407
30
0.0
40
0.200000
50
15.000000
51
75.000000
0
LINE
8
0
10
55.506812
20
19.549867
30
0.0
11
55.461983
21
19.717170
31
0.0
0
ARC
8
0
10
55.699997
20
19.601631
30
0.0
40
0.200000
50
195.000000
51
315.000000
0
LINE
8
0
10
56.218196
20
19.836987
30
0.0
11
55.841419
21
19.460210
31
0.0
0
LINE
8
0
10
66.324148
20
19.700000
30
0.0
11
59.675847
21
19.700000
31
0.0
0
ARC
8
0
10
59.675847
20
19.500000
30
0.0
40
0.200000
50
90.000000
51
145.000000
0
LINE
8
0
10
59.512017
20
19.614716
30
0.0
11
57.630707
21
16.927927
31
0.0
0
ARC
8
0
10
57.384962
20
17.100000
30
0.0
40
0.300000
50
270.000000
51
325.000000
0
LINE
8
0
10
57.384962
20
16.800000
30
0.0
11
55.994742
21
16.800000
31
0.0
0
ARC
8
0
10
55.994742
20
15.600000
30
0.0
40
1.200000
50
90.000000
51
120.000000
0
LINE
8
0
10
55.394742
20
16.639231
30
0.0
11
53.816678
21
15.728135
31
0.0
0
ARC
8
0
10
53.711678
20
15.910000
30
0.0
40
0.210000
50
270.000000
51
300.000000
0
LINE
8
0
10
53.711678
20
15.700000
30
0.0
11
53.399998
21
15.700000
31
0.0
0
ARC
8
0
10
53.399998
20
16.100000
30
0.0
40
0.400000
50
180.000000
51
270.000000
0
LINE
8
0
10
52.999998
20
16.100000
30
0.0
11
52.999998
21
19.500000
31
0.0
0
ARC
8
0
10
53.399998
20
19.500000
30
0.0
40
0.400000
50
90.000000
51
180.000000
0
LINE
8
0
10
53.399998
20
19.900000
30
0.0
11
53.711678
21
19.900000
31
0.0
0
ARC
8
0
10
53.711678
20
19.690000
30
0.0
40
0.210000
50
60.000000
51
90.000000
0
LINE
8
0
10
53.816678
20
19.871866
30
0.0
11
55.394742
21
18.960770
31
0.0
0
ARC
8
0
10
55.994742
20
20.000000
30
0.0
40
1.200000
50
240.000000
51
270.000000
0
LINE
8
0
10
55.994742
20
18.800000
30
0.0
11
56.343828
21
18.800000
31
0.0
0
ARC
8
0
10
56.343828
20
19.100000
30
0.0
40
0.300000
50
270.000000
51
301.370296
0
ARC
8
0
10
56.343828
20
19.100000
30
0.0
40
0.300000
50
301.370296
51
325.000000
0
LINE
8
0
10
56.589573
20
18.927927
30
0.0
11
58.441024
21
21.572073
31
0.0
0
ARC
8
0
10
58.686770
20
21.400000
30
0.0
40
0.300000
50
90.000000
51
145.000000
0
LINE
8
0
10
58.686770
20
21.700000
30
0.0
11
63.730054
21
21.700000
31
0.0
0
LINE
8
0
10
63.730054
20
21.700000
30
0.0
11
65.904134
21
21.700000
31
0.0
0
LINE
8
0
10
65.904134
20
21.700000
30
0.0
11
67.313226
21
21.700000
31
0.0
0
ARC
8
0
10
67.313226
20
21.400000
30
0.0
40
0.300000
50
35.000000
51
90.000000
0
LINE
8
0
10
67.558971
20
21.572073
30
0.0
11
69.410422
21
18.927927
31
0.0
0
ARC
8
0
10
69.656168
20
19.100000
30
0.0
40
0.300000
50
215.000000
51
270.000000
0
LINE
8
0
10
69.656168
20
18.800000
30
0.0
11
70.005254
21
18.800000
31
0.0
0
ARC
8
0
10
70.005254
20
20.000000
30
0.0
40
1.200000
50
270.000000
51
300.000000
0
LINE
8
0
10
70.605254
20
18.960770
30
0.0
11
71.199998
21
19.304145
31
0.0
0
LINE
8
0
10
71.199998
20
19.304145
30
0.0
11
72.183318
21
19.871866
31
0.0
0
ARC
8
0
10
72.288318
20
19.690000
30
0.0
40
0.210000
50
90.000000
51
120.000000
0
LINE
8
0
10
72.288318
20
19.900000
30
0.0
11
72.599998
21
19.900000
31
0.0
0
ARC
8
0
10
72.599998
20
19.500000
30
0.0
40
0.400000
50
360.000000
51
90.000000
0
LINE
8
0
10
72.999998
20
19.500000
30
0.0
11
72.999998
21
16.100000
31
0.0
0
ARC
8
0
10
72.599998
20
16.100000
30
0.0
40
0.400000
50
270.000000
51
360.000000
0
LINE
8
0
10
72.599998
20
15.700000
30
0.0
11
72.288318
21
15.700000
31
0.0
0
ARC
8
0
10
72.288318
20
15.910000
30
0.0
40
0.210000
50
240.000000
51
270.000000
0
LINE
8
0
10
72.183318
20
15.728135
30
0.0
11
71.199998
21
16.295855
31
0.0
0
LINE
8
0
10
71.199998
20
16.295855
30
0.0
11
70.605254
21
16.639231
31
0.0
0
ARC
8
0
10
70.005254
20
15.600000
30
0.0
40
1.200000
50
60.000000
51
90.000000
0
LINE
8
0
10
70.005254
20
16.800000
30
0.0
11
68.615034
21
16.800000
31
0.0
0
ARC
8
0
10
68.615034
20
17.100000
30
0.0
40
0.300000
50
215.000000
51
270.000000
0
LINE
8
0
10
68.369288
20
16.927927
30
0.0
11
66.487979
21
19.614716
31
0.0
0
ARC
8
0
10
66.324148
20
19.500000
30
0.0
40
0.200000
50
35.000000
51
90.000000
0
LINE
8
0
10
66.324148
20
8.700000
30
0.0
11
59.675847
21
8.700000
31
0.0
0
ARC
8
0
10
59.675847
20
8.900000
30
0.0
40
0.200000
50
215.000000
51
270.000000
0
LINE
8
0
10
59.512017
20
8.785285
30
0.0
11
57.630707
21
11.472073
31
0.0
0
ARC
8
0
10
57.384962
20
11.300000
30
0.0
40
0.300000
50
35.000000
51
90.000000
0
LINE
8
0
10
57.384962
20
11.600000
30
0.0
11
55.994742
21
11.600000
31
0.0
0
ARC
8
0
10
55.994742
20
12.800000
30
0.0
40
1.200000
50
240.000000
51
270.000000
0
LINE
8
0
10
55.394742
20
11.760770
30
0.0
11
53.816678
21
12.671866
31
0.0
0
ARC
8
0
10
53.711678
20
12.490000
30
0.0
40
0.210000
50
60.000000
51
90.000000
0
LINE
8
0
10
53.711678
20
12.700000
30
0.0
11
53.399998
21
12.700000
31
0.0
0
ARC
8
0
10
53.399998
20
12.300000
30
0.0
40
0.400000
50
90.000000
51
180.000000
0
LINE
8
0
10
52.999998
20
12.300000
30
0.0
11
52.999998
21
8.900000
31
0.0
0
ARC
8
0
10
53.399998
20
8.900000
30
0.0
40
0.400000
50
180.000000
51
270.000000
0
LINE
8
0
10
53.399998
20
8.500000
30
0.0
11
53.711678
21
8.500000
31
0.0
0
ARC
8
0
10
53.711678
20
8.710000
30
0.0
40
0.210000
50
270.000000
51
300.000000
0
LINE
8
0
10
53.816678
20
8.528135
30
0.0
11
55.394742
21
9.439231
31
0.0
0
ARC
8
0
10
55.994742
20
8.400000
30
0.0
40
1.200000
50
90.000000
51
120.000000
0
LINE
8
0
10
55.994742
20
9.600000
30
0.0
11
56.343828
21
9.600000
31
0.0
0
ARC
8
0
10
56.343828
20
9.300000
30
0.0
40
0.300000
50
58.629704
51
90.000000
0
ARC
8
0
10
56.343828
20
9.300000
30
0.0
40
0.300000
50
35.000000
51
58.629704
0
LINE
8
0
10
56.589573
20
9.472073
30
0.0
11
58.441024
21
6.827927
31
0.0
0
ARC
8
0
10
58.686770
20
7.000000
30
0.0
40
0.300000
50
215.000000
51
270.000000
0
LINE
8
0
10
58.686770
20
6.700000
30
0.0
11
63.730054
21
6.700000
31
0.0
0
LINE
8
0
10
63.730054
20
6.700000
30
0.0
11
65.904134
21
6.700000
31
0.0
0
LINE
8
0
10
65.904134
20
6.700000
30
0.0
11
67.313226
21
6.700000
31
0.0
0
ARC
8
0
10
67.313226
20
7.000000
30
0.0
40
0.300000
50
270.000000
51
325.000000
0
LINE
8
0
10
67.558971
20
6.827927
30
0.0
11
69.410422
21
9.472073
31
0.0
0
ARC
8
0
10
69.656168
20
9.300000
30
0.0
40
0.300000
50
90.000000
51
145.000000
0
LINE
8
0
10
69.656168
20
9.600000
30
0.0
11
70.005254
21
9.600000
31
0.0
0
ARC
8
0
10
70.005254
20
8.400000
30
0.0
40
1.200000
50
60.000000
51
90.000000
0
LINE
8
0
10
70.605254
20
9.439231
30
0.0
11
71.199998
21
9.095855
31
0.0
0
LINE
8
0
10
71.199998
20
9.095855
30
0.0
11
72.183318
21
8.528135
31
0.0
0
ARC
8
0
10
72.288318
20
8.710000
30
0.0
40
0.210000
50
240.000000
51
270.000000
0
LINE
8
0
10
72.288318
20
8.500000
30
0.0
11
72.599998
21
8.500000
31
0.0
0
ARC
8
0
10
72.599998
20
8.900000
30
0.0
40
0.400000
50
270.000000
51
360.000000
0
LINE
8
0
10
72.999998
20
8.900000
30
0.0
11
72.999998
21
12.300000
31
0.0
0
ARC
8
0
10
72.599998
20
12.300000
30
0.0
40
0.400000
50
360.000000
51
90.000000
0
LINE
8
0
10
72.599998
20
12.700000
30
0.0
11
72.288318
21
12.700000
31
0.0
0
ARC
8
0
10
72.288318
20
12.490000
30
0.0
40
0.210000
50
90.000000
51
120.000000
0
LINE
8
0
10
72.183318
20
12.671866
30
0.0
11
71.199998
21
12.104145
31
0.0
0
LINE
8
0
10
71.199998
20
12.104145
30
0.0
11
70.605254
21
11.760770
31
0.0
0
ARC
8
0
10
70.005254
20
12.800000
30
0.0
40
1.200000
50
270.000000
51
300.000000
0
LINE
8
0
10
70.005254
20
11.600000
30
0.0
11
68.615034
21
11.600000
31
0.0
0
ARC
8
0
10
68.615034
20
11.300000
30
0.0
40
0.300000
50
90.000000
51
145.000000
0
LINE
8
0
10
68.369288
20
11.472073
30
0.0
11
66.487979
21
8.785285
31
0.0
0
ARC
8
0
10
66.324148
20
8.900000
30
0.0
40
0.200000
50
270.000000
51
325.000000
0
ATTDEF
8
0
10
0.000000
20
52.200000
30
0.0
40
3.5
1

3

2
HW_START
70
0
0
ATTDEF
8
0
10
113.999995
20
52.200000
30
0.0
40
3.5
1

3

2
HW_END
70
0
0
ATTDEF
8
0
10
19.674997
20
52.200000
30
0.0
40
3.5
1

3

2
VC_START
70
0
0
ATTDEF
8
0
10
7.483720
20
0.000000
30
0.0
40
3.5
1

3

2
VC_END
70
0
0
ARC
8
0
10
91.699997
20
51.503553
30
0.0
40
0.250000
50
315.000000
51
360.000000
0
LINE
8
0
10
91.949997
20
51.503553
30
0.0
11
91.949997
21
51.950000
31
0.0
0
ARC
8
0
10
91.699997
20
51.950000
30
0.0
40
0.250000
50
360.000000
51
90.000000
0
LINE
8
0
10
91.699997
20
52.200000
30
0.0
11
78.299997
21
52.200000
31
0.0
0
ARC
8
0
10
78.299997
20
51.950000
30
0.0
40
0.250000
50
90.000000
51
180.000000
0
LINE
8
0
10
78.049997
20
51.950000
30
0.0
11
78.049997
21
51.503553
31
0.0
0
ARC
8
0
10
78.299997
20
51.503553
30
0.0
40
0.250000
50
180.000000
51
225.000000
0
LINE
8
0
10
78.123220
20
51.326777
30
0.0
11
78.276774
21
51.173223
31
0.0
0
ARC
8
0
10
78.099997
20
50.996447
30
0.0
40
0.250000
50
360.000000
51
45.000000
0
LINE
8
0
10
78.349997
20
50.996447
30
0.0
11
78.349997
21
50.803553
31
0.0
0
ARC
8
0
10
78.099997
20
50.803553
30
0.0
40
0.250000
50
315.000000
51
360.000000
0
LINE
8
0
10
78.276774
20
50.626777
30
0.0
11
78.123220
21
50.473223
31
0.0
0
ARC
8
0
10
78.299997
20
50.296447
30
0.0
40
0.250000
50
135.000000
51
180.000000
0
LINE
8
0
10
78.049997
20
50.296447
30
0.0
11
78.049997
21
49.703553
31
0.0
0
ARC
8
0
10
78.299997
20
49.703553
30
0.0
40
0.250000
50
180.000000
51
225.000000
0
LINE
8
0
10
78.123220
20
49.526777
30
0.0
11
78.576774
21
49.073223
31
0.0
0
ARC
8
0
10
78.399997
20
48.896447
30
0.0
40
0.250000
50
360.000000
51
45.000000
0
LINE
8
0
10
78.649997
20
48.896447
30
0.0
11
78.649997
21
40.207107
31
0.0
0
ARC
8
0
10
78.399997
20
40.207107
30
0.0
40
0.250000
50
315.000000
51
360.000000
0
LINE
8
0
10
78.576774
20
40.030330
30
0.0
11
78.023220
21
39.476777
31
0.0
0
ARC
8
0
10
78.199997
20
39.300000
30
0.0
40
0.250000
50
135.000000
51
225.000000
0
LINE
8
0
10
78.023220
20
39.123223
30
0.0
11
78.473220
21
38.673223
31
0.0
0
ARC
8
0
10
78.649997
20
38.850000
30
0.0
40
0.250000
50
225.000000
51
270.000000
0
LINE
8
0
10
78.649997
20
38.600000
30
0.0
11
79.349997
21
38.600000
31
0.0
0
ARC
8
0
10
79.349997
20
39.100000
30
0.0
40
0.500000
50
270.000000
51
360.000000
0
LINE
8
0
10
79.849997
20
39.100000
30
0.0
11
79.849997
21
50.150000
31
0.0
0
ARC
8
0
10
80.099997
20
50.150000
30
0.0
40
0.250000
50
90.000000
51
180.000000
0
LINE
8
0
10
80.099997
20
50.400000
30
0.0
11
89.899997
21
50.400000
31
0.0
0
ARC
8
0
10
89.899997
20
50.150000
30
0.0
40
0.250000
50
360.000000
51
90.000000
0
LINE
8
0
10
90.149997
20
50.150000
30
0.0
11
90.149997
21
39.100000
31
0.0
0
ARC
8
0
10
90.649997
20
39.100000
30
0.0
40
0.500000
50
180.000000
51
270.000000
0
LINE
8
0
10
90.649997
20
38.600000
30
0.0
11
91.349997
21
38.600000
31
0.0
0
ARC
8
0
10
91.349997
20
38.850000
30
0.0
40
0.250000
50
270.000000
51
315.000000
0
LINE
8
0
10
91.526774
20
38.673223
30
0.0
11
91.976774
21
39.123223
31
0.0
0
ARC
8
0
10
91.799997
20
39.300000
30
0.0
40
0.250000
50
315.000000
51
45.000000
0
LINE
8
0
10
91.976774
20
39.476777
30
0.0
11
91.423220
21
40.030330
31
0.0
0
ARC
8
0
10
91.599997
20
40.207107
30
0.0
40
0.250000
50
180.000000
51
225.000000
0
LINE
8
0
10
91.349997
20
40.207107
30
0.0
11
91.349997
21
48.896447
31
0.0
0
ARC
8
0
10
91.599997
20
48.896447
30
0.0
40
0.250000
50
135.000000
51
180.000000
0
LINE
8
0
10
91.423220
20
49.073223
30
0.0
11
91.876774
21
49.526777
31
0.0
0
ARC
8
0
10
91.699997
20
49.703553
30
0.0
40
0.250000
50
315.000000
51
360.000000
0
LINE
8
0
10
91.949997
20
49.703553
30
0.0
11
91.949997
21
50.296447
31
0.0
0
ARC
8
0
10
91.699997
20
50.296447
30
0.0
40
0.250000
50
360.000000
51
45.000000
0
LINE
8
0
10
91.876774
20
50.473223
30
0.0
11
91.723220
21
50.626777
31
0.0
0
ARC
8
0
10
91.899997
20
50.803553
30
0.0
40
0.250000
50
180.000000
51
225.000000
0
LINE
8
0
10
91.649997
20
50.803553
30
0.0
11
91.649997
21
50.996447
31
0.0
0
ARC
8
0
10
91.899997
20
50.996447
30
0.0
40
0.250000
50
135.000000
51
180.000000
0
LINE
8
0
10
91.723220
20
51.173223
30
0.0
11
91.876774
21
51.326777
31
0.0
0
ATTDEF
8
0
10
77.949997
20
52.200000
30
0.0
40
3.5
1

3

2
HW_START
70
0
0
ATTDEF
8
0
10
92.049997
20
52.200000
30
0.0
40
3.5
1

3

2
HW_END
70
0
0
ARC
8
0
10
35.699997
20
51.503553
30
0.0
40
0.250000
50
315.000000
51
360.000000
0
LINE
8
0
10
35.949997
20
51.503553
30
0.0
11
35.949997
21
51.950000
31
0.0
0
ARC
8
0
10
35.699997
20
51.950000
30
0.0
40
0.250000
50
360.000000
51
90.000000
0
LINE
8
0
10
35.699997
20
52.200000
30
0.0
11
22.299997
21
52.200000
31
0.0
0
ARC
8
0
10
22.299997
20
51.950000
30
0.0
40
0.250000
50
90.000000
51
180.000000
0
LINE
8
0
10
22.049997
20
51.950000
30
0.0
11
22.049997
21
51.503553
31
0.0
0
ARC
8
0
10
22.299997
20
51.503553
30
0.0
40
0.250000
50
180.000000
51
225.000000
0
LINE
8
0
10
22.123220
20
51.326777
30
0.0
11
22.276774
21
51.173223
31
0.0
0
ARC
8
0
10
22.099997
20
50.996447
30
0.0
40
0.250000
50
360.000000
51
45.000000
0
LINE
8
0
10
22.349997
20
50.996447
30
0.0
11
22.349997
21
50.803553
31
0.0
0
ARC
8
0
10
22.099997
20
50.803553
30
0.0
40
0.250000
50
315.000000
51
360.000000
0
LINE
8
0
10
22.276774
20
50.626777
30
0.0
11
22.123220
21
50.473223
31
0.0
0
ARC
8
0
10
22.299997
20
50.296447
30
0.0
40
0.250000
50
135.000000
51
180.000000
0
LINE
8
0
10
22.049997
20
50.296447
30
0.0
11
22.049997
21
49.703553
31
0.0
0
ARC
8
0
10
22.299997
20
49.703553
30
0.0
40
0.250000
50
180.000000
51
225.000000
0
LINE
8
0
10
22.123220
20
49.526777
30
0.0
11
22.576774
21
49.073223
31
0.0
0
ARC
8
0
10
22.399997
20
48.896447
30
0.0
40
0.250000
50
360.000000
51
45.000000
0
LINE
8
0
10
22.649997
20
48.896447
30
0.0
11
22.649997
21
40.207107
31
0.0
0
ARC
8
0
10
22.399997
20
40.207107
30
0.0
40
0.250000
50
315.000000
51
360.000000
0
LINE
8
0
10
22.576774
20
40.030330
30
0.0
11
22.023220
21
39.476777
31
0.0
0
ARC
8
0
10
22.199997
20
39.300000
30
0.0
40
0.250000
50
135.000000
51
225.000000
0
LINE
8
0
10
22.023220
20
39.123223
30
0.0
11
22.473220
21
38.673223
31
0.0
0
ARC
8
0
10
22.649997
20
38.850000
30
0.0
40
0.250000
50
225.000000
51
270.000000
0
LINE
8
0
10
22.649997
20
38.600000
30
0.0
11
23.349997
21
38.600000
31
0.0
0
ARC
8
0
10
23.349997
20
39.100000
30
0.0
40
0.500000
50
270.000000
51
360.000000
0
LINE
8
0
10
23.849997
20
39.100000
30
0.0
11
23.849997
21
50.150000
31
0.0
0
ARC
8
0
10
24.099997
20
50.150000
30
0.0
40
0.250000
50
90.000000
51
180.000000
0
LINE
8
0
10
24.099997
20
50.400000
30
0.0
11
33.899997
21
50.400000
31
0.0
0
ARC
8
0
10
33.899997
20
50.150000
30
0.0
40
0.250000
50
360.000000
51
90.000000
0
LINE
8
0
10
34.149997
20
50.150000
30
0.0
11
34.149997
21
39.100000
31
0.0
0
ARC
8
0
10
34.649997
20
39.100000
30
0.0
40
0.500000
50
180.000000
51
270.000000
0
LINE
8
0
10
34.649997
20
38.600000
30
0.0
11
35.349997
21
38.600000
31
0.0
0
ARC
8
0
10
35.349997
20
38.850000
30
0.0
40
0.250000
50
270.000000
51
315.000000
0
LINE
8
0
10
35.526774
20
38.673223
30
0.0
11
35.976774
21
39.123223
31
0.0
0
ARC
8
0
10
35.799997
20
39.300000
30
0.0
40
0.250000
50
315.000000
51
45.000000
0
LINE
8
0
10
35.976774
20
39.476777
30
0.0
11
35.423220
21
40.030330
31
0.0
0
ARC
8
0
10
35.599997
20
40.207107
30
0.0
40
0.250000
50
180.000000
51
225.000000
0
LINE
8
0
10
35.349997
20
40.207107
30
0.0
11
35.349997
21
48.896447
31
0.0
0
ARC
8
0
10
35.599997
20
48.896447
30
0.0
40
0.250000
50
135.000000
51
180.000000
0
LINE
8
0
10
35.423220
20
49.073223
30
0.0
11
35.876774
21
49.526777
31
0.0
0
ARC
8
0
10
35.699997
20
49.703553
30
0.0
40
0.250000
50
315.000000
51
360.000000
0
LINE
8
0
10
35.949997
20
49.703553
30
0.0
11
35.949997
21
50.296447
31
0.0
0
ARC
8
0
10
35.699997
20
50.296447
30
0.0
40
0.250000
50
360.000000
51
45.000000
0
LINE
8
0
10
35.876774
20
50.473223
30
0.0
11
35.723220
21
50.626777
31
0.0
0
ARC
8
0
10
35.899997
20
50.803553
30
0.0
40
0.250000
50
180.000000
51
225.000000
0
LINE
8
0
10
35.649997
20
50.803553
30
0.0
11
35.649997
21
50.996447
31
0.0
0
ARC
8
0
10
35.899997
20
50.996447
30
0.0
40
0.250000
50
135.000000
51
180.000000
0
LINE
8
0
10
35.723220
20
51.173223
30
0.0
11
35.876774
21
51.326777
31
0.0
0
ATTDEF
8
0
10
21.949997
20
52.200000
30
0.0
40
3.5
1

3

2
HW_START
70
0
0
ATTDEF
8
0
10
36.049997
20
52.200000
30
0.0
40
3.5
1

3

2
HW_END
70
0
0
ATTDEF
8
0
10
0.000000
20
0.000000
30
0.0
40
3.5
1

3

2
DENS:0.000000
70
0
0
ATTDEF
8
0
10
0.000000
20
0.000000
30
0.0
40
3.5
1

3

2
GLASS_MIN:0.000000
70
0
0
ATTDEF
8
0
10
0.000000
20
0.000000
30
0.0
40
3.5
1

3

2
GLASS_MAX:0.000000
70
0
0
ATTDEF
8
0
10
0.000000
20
0.000000
30
0.0
40
3.5
1

3

2
DESC:RPT-014 - 8188 - 8188
70
0
0
ATTDEF
8
0
10
0.000000
20
0.000000
30
0.0
40
3.5
1

3

2
BL01:6500.000000,,1
70
0
0
ENDSEC
0
EOF
