0
SECTION
2
ENTITIES
0
ATTDEF
8
0
10
38.212487
20
19.690266
30
0.0
40
3.5
1

3

2
HC_END
70
0
0
ATTDEF
8
0
10
11.712487
20
19.690266
30
0.0
40
3.5
1

3

2
HC_START
70
0
0
LINE
8
0
10
17.384887
20
8.464666
30
0.0
11
17.384887
21
56.403866
31
0.0
0
LINE
8
0
10
32.453087
20
8.464666
30
0.0
11
17.384887
21
8.464666
31
0.0
0
LINE
8
0
10
32.453087
20
56.403866
30
0.0
11
32.453087
21
8.464666
31
0.0
0
LINE
8
0
10
17.384887
20
56.403866
30
0.0
11
32.453087
21
56.403866
31
0.0
0
LINE
8
0
10
-7.787513
20
11.891066
30
0.0
11
-7.787513
21
7.391066
31
0.0
0
LINE
8
0
10
-4.222513
20
11.891066
30
0.0
11
-7.787513
21
11.891066
31
0.0
0
LINE
8
0
10
-4.222513
20
10.881266
30
0.0
11
-4.222513
21
11.891066
31
0.0
0
LINE
8
0
10
-6.479613
20
10.881266
30
0.0
11
-4.222513
21
10.881266
31
0.0
0
LINE
8
0
10
-6.479613
20
8.776066
30
0.0
11
-6.479613
21
10.881266
31
0.0
0
LINE
8
0
10
1.919387
20
8.776066
30
0.0
11
-6.479613
21
8.776066
31
0.0
0
LINE
8
0
10
1.919387
20
10.881266
30
0.0
11
1.919387
21
8.776066
31
0.0
0
LINE
8
0
10
-0.250913
20
10.881266
30
0.0
11
1.919387
21
10.881266
31
0.0
0
LINE
8
0
10
-0.250913
20
11.891066
30
0.0
11
-0.250913
21
10.881266
31
0.0
0
LINE
8
0
10
3.212487
20
11.891066
30
0.0
11
-0.250913
21
11.891066
31
0.0
0
LINE
8
0
10
3.212487
20
8.776066
30
0.0
11
3.212487
21
11.891066
31
0.0
0
LINE
8
0
10
16.416987
20
8.776066
30
0.0
11
3.212487
21
8.776066
31
0.0
0
LINE
8
0
10
16.416987
20
12.550066
30
0.0
11
16.416987
21
8.776066
31
0.0
0
LINE
8
0
10
11.712487
20
12.550066
30
0.0
11
16.416987
21
12.550066
31
0.0
0
LINE
8
0
10
11.712487
20
15.067566
30
0.0
11
11.712487
21
12.550066
31
0.0
0
LINE
8
0
10
13.052987
20
15.067566
30
0.0
11
11.712487
21
15.067566
31
0.0
0
LINE
8
0
10
13.052987
20
13.396466
30
0.0
11
13.052987
21
15.067566
31
0.0
0
LINE
8
0
10
16.416987
20
13.396466
30
0.0
11
13.052987
21
13.396466
31
0.0
0
LINE
8
0
10
16.416987
20
21.318066
30
0.0
11
16.416987
21
13.396466
31
0.0
0
LINE
8
0
10
13.052987
20
21.318066
30
0.0
11
16.416987
21
21.318066
31
0.0
0
LINE
8
0
10
13.052987
20
19.690266
30
0.0
11
13.052987
21
21.318066
31
0.0
0
LINE
8
0
10
11.712487
20
19.690266
30
0.0
11
13.052987
21
19.690266
31
0.0
0
LINE
8
0
10
11.712487
20
24.660266
30
0.0
11
11.712487
21
19.690266
31
0.0
0
LINE
8
0
10
13.212487
20
24.660266
30
0.0
11
11.712487
21
24.660266
31
0.0
0
LINE
8
0
10
13.212487
20
22.555066
30
0.0
11
13.212487
21
24.660266
31
0.0
0
LINE
8
0
10
16.416987
20
22.555066
30
0.0
11
13.212487
21
22.555066
31
0.0
0
LINE
8
0
10
16.416987
20
42.247066
30
0.0
11
16.416987
21
22.555066
31
0.0
0
LINE
8
0
10
13.212487
20
42.247066
30
0.0
11
16.416987
21
42.247066
31
0.0
0
LINE
8
0
10
13.212487
20
40.219466
30
0.0
11
13.212487
21
42.247066
31
0.0
0
LINE
8
0
10
11.706387
20
40.219466
30
0.0
11
13.212487
21
40.219466
31
0.0
0
LINE
8
0
10
11.706387
20
45.884966
30
0.0
11
11.706387
21
40.219466
31
0.0
0
LINE
8
0
10
13.212487
20
45.884966
30
0.0
11
11.706387
21
45.884966
31
0.0
0
LINE
8
0
10
13.212487
20
43.350366
30
0.0
11
13.212487
21
45.884966
31
0.0
0
LINE
8
0
10
16.416987
20
43.350366
30
0.0
11
13.212487
21
43.350366
31
0.0
0
LINE
8
0
10
16.416987
20
56.157566
30
0.0
11
16.416987
21
43.350366
31
0.0
0
LINE
8
0
10
13.212487
20
56.157566
30
0.0
11
16.416987
21
56.157566
31
0.0
0
LINE
8
0
10
13.212487
20
54.278966
30
0.0
11
13.212487
21
56.157566
31
0.0
0
LINE
8
0
10
11.682487
20
54.278966
30
0.0
11
13.212487
21
54.278966
31
0.0
0
LINE
8
0
10
11.682487
20
57.391066
30
0.0
11
11.682487
21
54.278966
31
0.0
0
LINE
8
0
10
38.242487
20
57.391066
30
0.0
11
11.682487
21
57.391066
31
0.0
0
LINE
8
0
10
38.242487
20
54.278966
30
0.0
11
38.242487
21
57.391066
31
0.0
0
LINE
8
0
10
36.712487
20
54.278966
30
0.0
11
38.242487
21
54.278966
31
0.0
0
LINE
8
0
10
36.712487
20
56.157566
30
0.0
11
36.712487
21
54.278966
31
0.0
0
LINE
8
0
10
33.507987
20
56.157566
30
0.0
11
36.712487
21
56.157566
31
0.0
0
LINE
8
0
10
33.507987
20
43.350366
30
0.0
11
33.507987
21
56.157566
31
0.0
0
LINE
8
0
10
36.712487
20
43.350366
30
0.0
11
33.507987
21
43.350366
31
0.0
0
LINE
8
0
10
36.712487
20
45.884966
30
0.0
11
36.712487
21
43.350366
31
0.0
0
LINE
8
0
10
38.218487
20
45.884966
30
0.0
11
36.712487
21
45.884966
31
0.0
0
LINE
8
0
10
38.218487
20
40.219466
30
0.0
11
38.218487
21
45.884966
31
0.0
0
LINE
8
0
10
36.712487
20
40.219466
30
0.0
11
38.218487
21
40.219466
31
0.0
0
LINE
8
0
10
36.712487
20
42.247066
30
0.0
11
36.712487
21
40.219466
31
0.0
0
LINE
8
0
10
33.507987
20
42.247066
30
0.0
11
36.712487
21
42.247066
31
0.0
0
LINE
8
0
10
33.507987
20
22.555066
30
0.0
11
33.507987
21
42.247066
31
0.0
0
LINE
8
0
10
36.712487
20
22.555066
30
0.0
11
33.507987
21
22.555066
31
0.0
0
LINE
8
0
10
36.712487
20
24.660266
30
0.0
11
36.712487
21
22.555066
31
0.0
0
LINE
8
0
10
38.212487
20
24.660266
30
0.0
11
36.712487
21
24.660266
31
0.0
0
LINE
8
0
10
38.212487
20
19.690266
30
0.0
11
38.212487
21
24.660266
31
0.0
0
LINE
8
0
10
36.871887
20
19.690266
30
0.0
11
38.212487
21
19.690266
31
0.0
0
LINE
8
0
10
36.871887
20
21.318066
30
0.0
11
36.871887
21
19.690266
31
0.0
0
LINE
8
0
10
33.507987
20
21.318066
30
0.0
11
36.871887
21
21.318066
31
0.0
0
LINE
8
0
10
33.507987
20
13.396466
30
0.0
11
33.507987
21
21.318066
31
0.0
0
LINE
8
0
10
36.871887
20
13.396466
30
0.0
11
33.507987
21
13.396466
31
0.0
0
LINE
8
0
10
36.871887
20
15.067566
30
0.0
11
36.871887
21
13.396466
31
0.0
0
LINE
8
0
10
38.212487
20
15.067566
30
0.0
11
36.871887
21
15.067566
31
0.0
0
LINE
8
0
10
38.212487
20
12.550066
30
0.0
11
38.212487
21
15.067566
31
0.0
0
LINE
8
0
10
33.507987
20
12.550066
30
0.0
11
38.212487
21
12.550066
31
0.0
0
LINE
8
0
10
33.507987
20
8.776066
30
0.0
11
33.507987
21
12.550066
31
0.0
0
LINE
8
0
10
46.712487
20
8.776066
30
0.0
11
33.507987
21
8.776066
31
0.0
0
LINE
8
0
10
46.712487
20
11.891066
30
0.0
11
46.712487
21
8.776066
31
0.0
0
LINE
8
0
10
50.175787
20
11.891066
30
0.0
11
46.712487
21
11.891066
31
0.0
0
LINE
8
0
10
50.175787
20
10.881266
30
0.0
11
50.175787
21
11.891066
31
0.0
0
LINE
8
0
10
48.005487
20
10.881266
30
0.0
11
50.175787
21
10.881266
31
0.0
0
LINE
8
0
10
48.005487
20
8.776066
30
0.0
11
48.005487
21
10.881266
31
0.0
0
LINE
8
0
10
56.404587
20
8.776066
30
0.0
11
48.005487
21
8.776066
31
0.0
0
LINE
8
0
10
56.404587
20
10.881266
30
0.0
11
56.404587
21
8.776066
31
0.0
0
LINE
8
0
10
54.147487
20
10.881266
30
0.0
11
56.404587
21
10.881266
31
0.0
0
LINE
8
0
10
54.147487
20
11.891066
30
0.0
11
54.147487
21
10.881266
31
0.0
0
LINE
8
0
10
57.712487
20
11.891066
30
0.0
11
54.147487
21
11.891066
31
0.0
0
LINE
8
0
10
57.712487
20
7.391066
30
0.0
11
57.712487
21
11.891066
31
0.0
0
LINE
8
0
10
-7.787513
20
7.391066
30
0.0
11
57.712487
21
7.391066
31
0.0
0
ATTDEF
8
0
10
57.712487
20
7.391066
30
0.0
40
3.5
1

3

2
DESC:Frame T, Wing T, Mullion, Separating Rail
70
0
0
ATTDEF
8
0
10
57.712487
20
7.391066
30
0.0
40
3.5
1

3

2
DENS:0.975000
70
0
0
ATTDEF
8
0
10
57.712487
20
7.391066
30
0.0
40
3.5
1

3

2
TDEV:0.000000
70
0
0
ATTDEF
8
0
10
57.712487
20
7.391066
30
0.0
40
3.5
1

3

2
FRONT_VIEW
70
0
0
ATTDEF
8
0
10
57.712487
20
7.391066
30
0.0
40
3.5
1

3

2
BL01:6500.000000,,1
70
0
0
ATTDEF
8
0
10
57.712487
20
7.391066
30
0.0
40
3.5
1

3

2
OPTI:100.000000,1,0,3000.000000,6500.000000,500.000000,0,0.000000
70
0
0
ATTDEF
8
0
10
57.712487
20
7.391066
30
0.0
40
3.5
1

3

2
FP_LCS_ORIG
70
0
0
ATTDEF
8
0
10
57.712487
20
17.391066
30
0.0
40
3.5
1

3

2
FP_LCS_HOT
70
0
0
ATTDEF
8
0
10
47.712487
20
7.391066
30
0.0
40
3.5
1

3

2
FP_LCS_INTERN
70
0
0
ATTDEF
8
0
10
-7.787513
20
7.391066
30
0.0
40
3.5
1

3

2
PANE_WIDTH:45.500000
70
0
0
ENDSEC
0
EOF
