0
SECTION
2
ENTITIES
0
LINE
8
0
10
1.293500
20
36.798400
30
0.0
11
1.348200
21
36.798400
31
0.0
0
LINE
8
0
10
1.348200
20
36.798400
30
0.0
11
1.348200
21
21.622400
31
0.0
0
LINE
8
0
10
1.348200
20
21.622400
30
0.0
11
49.067800
21
21.622400
31
0.0
0
LINE
8
0
10
49.067800
20
21.622400
30
0.0
11
49.067800
21
36.798400
31
0.0
0
LINE
8
0
10
49.067800
20
36.798400
30
0.0
11
1.348200
21
36.798400
31
0.0
0
LINE
8
0
10
0.000000
20
60.991400
30
0.0
11
0.000000
21
62.000000
31
0.0
0
LINE
8
0
10
0.000000
20
62.000000
30
0.0
11
0.000000
21
20.500000
31
0.0
0
LINE
8
0
10
0.000000
20
20.500000
30
0.0
11
4.510900
21
20.500000
31
0.0
0
LINE
8
0
10
4.510900
20
20.500000
30
0.0
11
4.510900
21
14.046800
31
0.0
0
LINE
8
0
10
4.510900
20
14.046800
30
0.0
11
5.510900
21
14.046800
31
0.0
0
LINE
8
0
10
5.510900
20
14.046800
30
0.0
11
5.510900
21
20.500000
31
0.0
0
LINE
8
0
10
5.510900
20
20.500000
30
0.0
11
13.763600
21
20.500000
31
0.0
0
LINE
8
0
10
13.763600
20
20.500000
30
0.0
11
13.763600
21
9.736700
31
0.0
0
ARC
8
0
10
16.457926
20
10.196821
30
0.0
40
2.733332
50
189.691137
51
236.119611
0
ARC
8
0
10
15.351009
20
8.360160
30
0.0
40
0.600698
50
226.062348
51
49.804333
0
ARC
8
0
10
16.443950
20
10.063939
30
0.0
40
1.430822
50
182.000161
51
240.468730
0
LINE
8
0
10
15.014000
20
10.014000
30
0.0
11
15.014000
21
16.000000
31
0.0
0
LINE
8
0
10
15.014000
20
16.000000
30
0.0
11
17.621400
21
16.000000
31
0.0
0
LINE
8
0
10
17.621400
20
16.000000
30
0.0
11
17.621400
21
17.372400
31
0.0
0
LINE
8
0
10
17.621400
20
17.372400
30
0.0
11
14.827800
21
17.372400
31
0.0
0
LINE
8
0
10
14.827800
20
17.372400
30
0.0
11
14.827800
21
20.500000
31
0.0
0
LINE
8
0
10
14.827800
20
20.500000
30
0.0
11
14.827800
21
20.751300
31
0.0
0
LINE
8
0
10
14.827800
20
20.751300
30
0.0
11
35.227600
21
20.751300
31
0.0
0
LINE
8
0
10
35.227600
20
20.751300
30
0.0
11
35.227600
21
17.372400
31
0.0
0
LINE
8
0
10
35.227600
20
17.372400
30
0.0
11
32.360200
21
17.372400
31
0.0
0
LINE
8
0
10
32.360200
20
17.372400
30
0.0
11
32.360200
21
16.000000
31
0.0
0
LINE
8
0
10
32.360200
20
16.000000
30
0.0
11
37.500000
21
16.000000
31
0.0
0
LINE
8
0
10
37.500000
20
16.000000
30
0.0
11
37.500000
21
17.372400
31
0.0
0
LINE
8
0
10
37.500000
20
17.372400
30
0.0
11
36.102800
21
17.372400
31
0.0
0
LINE
8
0
10
36.102800
20
17.372400
30
0.0
11
36.102800
21
20.751300
31
0.0
0
LINE
8
0
10
36.102800
20
20.751300
30
0.0
11
48.824700
21
20.751300
31
0.0
0
LINE
8
0
10
48.824700
20
20.751300
30
0.0
11
48.824700
21
1.355700
31
0.0
0
LINE
8
0
10
48.824700
20
1.355700
30
0.0
11
47.105200
21
1.355700
31
0.0
0
LINE
8
0
10
47.105200
20
1.355700
30
0.0
11
47.105200
21
2.745700
31
0.0
0
LINE
8
0
10
47.105200
20
2.745700
30
0.0
11
46.000000
21
2.745700
31
0.0
0
LINE
8
0
10
46.000000
20
2.745700
30
0.0
11
46.000000
21
0.000000
31
0.0
0
LINE
8
0
10
46.000000
20
0.000000
30
0.0
11
50.000000
21
0.000000
31
0.0
0
LINE
8
0
10
50.000000
20
0.000000
30
0.0
11
50.000000
21
42.530000
31
0.0
0
LINE
8
0
10
0.000000
20
62.000000
30
0.0
11
4.500000
21
62.000000
31
0.0
0
LINE
8
0
10
4.500000
20
62.000000
30
0.0
11
4.500000
21
58.435000
31
0.0
0
LINE
8
0
10
4.500000
20
58.435000
30
0.0
11
3.490200
21
58.435000
31
0.0
0
LINE
8
0
10
3.490200
20
58.435000
30
0.0
11
3.490200
21
60.692200
31
0.0
0
LINE
8
0
10
3.490200
20
60.692200
30
0.0
11
1.385000
21
60.692200
31
0.0
0
LINE
8
0
10
1.385000
20
60.692200
30
0.0
11
1.385000
21
52.293100
31
0.0
0
LINE
8
0
10
1.385000
20
52.293100
30
0.0
11
3.490200
21
52.293100
31
0.0
0
LINE
8
0
10
3.490200
20
52.293100
30
0.0
11
3.490200
21
54.463400
31
0.0
0
LINE
8
0
10
3.490200
20
54.463400
30
0.0
11
4.500000
21
54.463400
31
0.0
0
LINE
8
0
10
4.500000
20
54.463400
30
0.0
11
4.500000
21
51.000000
31
0.0
0
LINE
8
0
10
4.500000
20
51.000000
30
0.0
11
1.385000
21
51.000000
31
0.0
0
LINE
8
0
10
1.385000
20
51.000000
30
0.0
11
1.385000
21
37.795500
31
0.0
0
LINE
8
0
10
1.385000
20
37.795500
30
0.0
11
5.159000
21
37.795500
31
0.0
0
LINE
8
0
10
5.159000
20
37.795500
30
0.0
11
5.159000
21
42.500000
31
0.0
0
LINE
8
0
10
5.159000
20
42.500000
30
0.0
11
7.676500
21
42.500000
31
0.0
0
LINE
8
0
10
7.676500
20
42.500000
30
0.0
11
7.676500
21
41.159500
31
0.0
0
LINE
8
0
10
7.676500
20
41.159500
30
0.0
11
6.005400
21
41.159500
31
0.0
0
LINE
8
0
10
6.005400
20
41.159500
30
0.0
11
6.005400
21
37.795500
31
0.0
0
LINE
8
0
10
6.005400
20
37.795500
30
0.0
11
13.926900
21
37.795500
31
0.0
0
LINE
8
0
10
13.926900
20
37.795500
30
0.0
11
13.926900
21
41.159500
31
0.0
0
LINE
8
0
10
13.926900
20
41.159500
30
0.0
11
12.299200
21
41.159500
31
0.0
0
LINE
8
0
10
12.299200
20
41.159500
30
0.0
11
12.299200
21
42.500000
31
0.0
0
LINE
8
0
10
12.299200
20
42.500000
30
0.0
11
17.269200
21
42.500000
31
0.0
0
LINE
8
0
10
17.269200
20
42.500000
30
0.0
11
17.269200
21
41.000000
31
0.0
0
LINE
8
0
10
17.269200
20
41.000000
30
0.0
11
15.164000
21
41.000000
31
0.0
0
LINE
8
0
10
15.164000
20
41.000000
30
0.0
11
15.164000
21
37.795500
31
0.0
0
LINE
8
0
10
15.164000
20
37.795500
30
0.0
11
34.856000
21
37.795500
31
0.0
0
LINE
8
0
10
34.856000
20
37.795500
30
0.0
11
34.856000
21
41.000000
31
0.0
0
LINE
8
0
10
34.856000
20
41.000000
30
0.0
11
32.828300
21
41.000000
31
0.0
0
LINE
8
0
10
32.828300
20
41.000000
30
0.0
11
32.828300
21
42.506100
31
0.0
0
LINE
8
0
10
32.828300
20
42.506100
30
0.0
11
38.493900
21
42.506100
31
0.0
0
LINE
8
0
10
38.493900
20
42.506100
30
0.0
11
38.493900
21
41.000000
31
0.0
0
LINE
8
0
10
38.493900
20
41.000000
30
0.0
11
35.959300
21
41.000000
31
0.0
0
LINE
8
0
10
35.959300
20
41.000000
30
0.0
11
35.959300
21
37.795500
31
0.0
0
LINE
8
0
10
35.959300
20
37.795500
30
0.0
11
48.766500
21
37.795500
31
0.0
0
LINE
8
0
10
48.766500
20
37.795500
30
0.0
11
48.766500
21
41.000000
31
0.0
0
LINE
8
0
10
48.766500
20
41.000000
30
0.0
11
46.887900
21
41.000000
31
0.0
0
LINE
8
0
10
46.887900
20
41.000000
30
0.0
11
46.887900
21
42.530000
31
0.0
0
LINE
8
0
10
46.887900
20
42.530000
30
0.0
11
50.000000
21
42.530000
31
0.0
0
ATTDEF
8
0
10
12.299200
20
42.500000
30
0.0
40
3.5
1

3

2
VC_START
70
0
0
ATTDEF
8
0
10
32.360200
20
16.000000
30
0.0
40
3.5
1

3

2
VC_END
70
0
0
ATTDEF
8
0
10
0.000000
20
0.000000
30
0.0
40
3.5
1

3

2
DESC:Coplanar Wing Z 
70
0
0
ATTDEF
8
0
10
0.000000
20
0.000000
30
0.0
40
3.5
1

3

2
DENS:0.940000
70
0
0
ATTDEF
8
0
10
0.000000
20
0.000000
30
0.0
40
3.5
1

3

2
TDEV:0.000000
70
0
0
ATTDEF
8
0
10
0.000000
20
0.000000
30
0.0
40
3.5
1

3

2
FRONT_VIEW
70
0
0
ATTDEF
8
0
10
0.000000
20
0.000000
30
0.0
40
3.5
1

3

2
BL01:6500.000000,,1
70
0
0
ATTDEF
8
0
10
0.000000
20
0.000000
30
0.0
40
3.5
1

3

2
OPTI:1500.000000,1,0,3000.000000,6500.000000,500.000000,0,0.000000
70
0
0
ATTDEF
8
0
10
0.000000
20
0.000000
30
0.0
40
3.5
1

3

2
FP_LCS_ORIG
70
0
0
ATTDEF
8
0
10
10.000000
20
0.000000
30
0.0
40
3.5
1

3

2
FP_LCS_HOT
70
0
0
ATTDEF
8
0
10
0.000000
20
10.000000
30
0.0
40
3.5
1

3

2
FP_LCS_INTERN
70
0
0
ATTDEF
8
0
10
0.000000
20
0.000000
30
0.0
40
3.5
1

3

2
PANE_WIDTH:45.500000
70
0
0
ENDSEC
0
EOF

