0
SECTION
2
ENTITIES
0
LINE
8
0
10
1.377700
20
21.874800
30
0.0
11
1.377700
21
55.154700
31
0.0
0
LINE
8
0
10
1.377700
20
55.154700
30
0.0
11
48.845400
21
55.154700
31
0.0
0
LINE
8
0
10
48.845400
20
55.154700
30
0.0
11
48.845400
21
21.874800
31
0.0
0
LINE
8
0
10
48.845400
20
21.874800
30
0.0
11
1.377700
21
21.874800
31
0.0
0
LINE
8
0
10
0.000000
20
20.500000
30
0.0
11
0.000000
21
80.500000
31
0.0
0
LINE
8
0
10
0.000000
20
80.500000
30
0.0
11
4.500000
21
80.500000
31
0.0
0
LINE
8
0
10
4.500000
20
80.500000
30
0.0
11
4.500000
21
76.935000
31
0.0
0
LINE
8
0
10
4.500000
20
76.935000
30
0.0
11
3.490100
21
76.935000
31
0.0
0
LINE
8
0
10
3.490100
20
76.935000
30
0.0
11
3.490100
21
79.192100
31
0.0
0
LINE
8
0
10
3.490100
20
79.192100
30
0.0
11
1.384900
21
79.192100
31
0.0
0
LINE
8
0
10
1.384900
20
79.192100
30
0.0
11
1.384900
21
70.793100
31
0.0
0
LINE
8
0
10
1.384900
20
70.793100
30
0.0
11
3.490100
21
70.793100
31
0.0
0
LINE
8
0
10
3.490100
20
70.793100
30
0.0
11
3.490100
21
72.963400
31
0.0
0
LINE
8
0
10
3.490100
20
72.963400
30
0.0
11
4.500000
21
72.963400
31
0.0
0
LINE
8
0
10
4.500000
20
72.963400
30
0.0
11
4.500000
21
69.500000
31
0.0
0
LINE
8
0
10
4.500000
20
69.500000
30
0.0
11
1.384900
21
69.500000
31
0.0
0
LINE
8
0
10
1.384900
20
69.500000
30
0.0
11
1.384900
21
56.295500
31
0.0
0
LINE
8
0
10
1.384900
20
56.295500
30
0.0
11
5.158900
21
56.295500
31
0.0
0
LINE
8
0
10
5.158900
20
56.295500
30
0.0
11
5.158900
21
61.000000
31
0.0
0
LINE
8
0
10
5.158900
20
61.000000
30
0.0
11
7.676500
21
61.000000
31
0.0
0
LINE
8
0
10
7.676500
20
61.000000
30
0.0
11
7.676500
21
59.659500
31
0.0
0
LINE
8
0
10
7.676500
20
59.659500
30
0.0
11
6.005400
21
59.659500
31
0.0
0
LINE
8
0
10
6.005400
20
59.659500
30
0.0
11
6.005400
21
56.295500
31
0.0
0
LINE
8
0
10
6.005400
20
56.295500
30
0.0
11
13.926900
21
56.295500
31
0.0
0
LINE
8
0
10
13.926900
20
56.295500
30
0.0
11
13.926900
21
59.659500
31
0.0
0
LINE
8
0
10
13.926900
20
59.659500
30
0.0
11
12.299200
21
59.659500
31
0.0
0
LINE
8
0
10
12.299200
20
59.659500
30
0.0
11
12.299200
21
61.000000
31
0.0
0
LINE
8
0
10
12.299200
20
61.000000
30
0.0
11
17.269200
21
61.000000
31
0.0
0
LINE
8
0
10
17.269200
20
61.000000
30
0.0
11
17.269200
21
59.500000
31
0.0
0
LINE
8
0
10
17.269200
20
59.500000
30
0.0
11
15.164000
21
59.500000
31
0.0
0
LINE
8
0
10
15.164000
20
59.500000
30
0.0
11
15.164000
21
56.295500
31
0.0
0
LINE
8
0
10
15.164000
20
56.295500
30
0.0
11
34.856000
21
56.295500
31
0.0
0
LINE
8
0
10
34.856000
20
56.295500
30
0.0
11
34.856000
21
59.500000
31
0.0
0
LINE
8
0
10
34.856000
20
59.500000
30
0.0
11
32.828300
21
59.500000
31
0.0
0
LINE
8
0
10
32.828300
20
59.500000
30
0.0
11
32.828300
21
61.006100
31
0.0
0
LINE
8
0
10
32.828300
20
61.006100
30
0.0
11
38.493900
21
61.006100
31
0.0
0
LINE
8
0
10
38.493900
20
61.006100
30
0.0
11
38.493900
21
59.500000
31
0.0
0
LINE
8
0
10
38.493900
20
59.500000
30
0.0
11
35.959300
21
59.500000
31
0.0
0
LINE
8
0
10
35.959300
20
59.500000
30
0.0
11
35.959300
21
56.295500
31
0.0
0
LINE
8
0
10
35.959300
20
56.295500
30
0.0
11
48.766400
21
56.295500
31
0.0
0
LINE
8
0
10
48.766400
20
56.295500
30
0.0
11
48.766400
21
59.500000
31
0.0
0
LINE
8
0
10
48.766400
20
59.500000
30
0.0
11
46.887900
21
59.500000
31
0.0
0
LINE
8
0
10
46.887900
20
59.500000
30
0.0
11
46.887900
21
61.030000
31
0.0
0
LINE
8
0
10
46.887900
20
61.030000
30
0.0
11
50.000000
21
61.030000
31
0.0
0
LINE
8
0
10
50.000000
20
61.030000
30
0.0
11
50.000000
21
0.000000
31
0.0
0
LINE
8
0
10
50.000000
20
0.000000
30
0.0
11
46.000000
21
0.000000
31
0.0
0
LINE
8
0
10
46.000000
20
0.000000
30
0.0
11
46.000000
21
2.745700
31
0.0
0
LINE
8
0
10
46.000000
20
2.745700
30
0.0
11
47.105200
21
2.745700
31
0.0
0
LINE
8
0
10
47.105200
20
2.745700
30
0.0
11
47.105200
21
1.355600
31
0.0
0
LINE
8
0
10
47.105200
20
1.355600
30
0.0
11
48.614500
21
1.355600
31
0.0
0
LINE
8
0
10
48.614500
20
1.355600
30
0.0
11
48.824700
21
1.355600
31
0.0
0
LINE
8
0
10
48.824700
20
1.355600
30
0.0
11
48.824700
21
20.751300
31
0.0
0
LINE
8
0
10
48.824700
20
20.751300
30
0.0
11
36.102800
21
20.751300
31
0.0
0
LINE
8
0
10
36.102800
20
20.751300
30
0.0
11
36.102800
21
17.372400
31
0.0
0
LINE
8
0
10
36.102800
20
17.372400
30
0.0
11
37.500000
21
17.372400
31
0.0
0
LINE
8
0
10
37.500000
20
17.372400
30
0.0
11
37.500000
21
16.000000
31
0.0
0
LINE
8
0
10
37.500000
20
16.000000
30
0.0
11
32.360200
21
16.000000
31
0.0
0
LINE
8
0
10
32.360200
20
16.000000
30
0.0
11
32.360200
21
17.372400
31
0.0
0
LINE
8
0
10
32.360200
20
17.372400
30
0.0
11
35.227500
21
17.372400
31
0.0
0
LINE
8
0
10
35.227500
20
17.372400
30
0.0
11
35.227500
21
20.751300
31
0.0
0
LINE
8
0
10
35.227500
20
20.751300
30
0.0
11
14.827800
21
20.751300
31
0.0
0
LINE
8
0
10
14.827800
20
20.751300
30
0.0
11
14.827800
21
17.372400
31
0.0
0
LINE
8
0
10
14.827800
20
17.372400
30
0.0
11
17.621300
21
17.372400
31
0.0
0
LINE
8
0
10
17.621300
20
17.372400
30
0.0
11
17.621300
21
16.000000
31
0.0
0
LINE
8
0
10
17.621300
20
16.000000
30
0.0
11
15.014000
21
16.000000
31
0.0
0
LINE
8
0
10
15.014000
20
16.000000
30
0.0
11
15.014000
21
10.014000
31
0.0
0
ARC
8
0
10
16.259406
20
10.058617
30
0.0
40
1.246205
50
182.051738
51
225.813115
0
LINE
8
0
10
15.390800
20
9.165000
30
0.0
11
15.769600
21
8.790400
31
0.0
0
ARC
8
0
10
15.353880
20
8.357033
30
0.0
40
0.600525
50
225.664735
51
46.190646
0
ARC
8
0
10
16.276661
20
10.055706
30
0.0
40
2.516240
50
203.498943
51
237.756477
0
ARC
8
0
10
15.508726
20
9.873997
30
0.0
40
1.745127
50
179.924391
51
208.085908
0
LINE
8
0
10
13.763600
20
9.876300
30
0.0
11
13.763600
21
20.500000
31
0.0
0
LINE
8
0
10
13.763600
20
20.500000
30
0.0
11
5.510800
21
20.500000
31
0.0
0
LINE
8
0
10
5.510800
20
20.500000
30
0.0
11
5.510800
21
14.046700
31
0.0
0
LINE
8
0
10
5.510800
20
14.046700
30
0.0
11
4.510800
21
14.046700
31
0.0
0
LINE
8
0
10
4.510800
20
14.046700
30
0.0
11
4.510800
21
20.500000
31
0.0
0
LINE
8
0
10
4.510800
20
20.500000
30
0.0
11
0.000000
21
20.500000
31
0.0
0
ATTDEF
8
0
10
12.299200
20
61.000000
30
0.0
40
3.5
1

3

2
VC_START
70
0
0
ATTDEF
8
0
10
32.360200
20
16.000000
30
0.0
40
3.5
1

3

2
VC_END
70
0
0
ATTDEF
8
0
10
0.000000
20
0.000000
30
0.0
40
3.5
1

3

2
DESC:Thick coplanar wing Z 
70
0
0
ATTDEF
8
0
10
0.000000
20
0.000000
30
0.0
40
3.5
1

3

2
DENS:1.189000
70
0
0
ATTDEF
8
0
10
0.000000
20
0.000000
30
0.0
40
3.5
1

3

2
BLEN:6500.000000,500.000000,1,0,3000.000000,6500.000000,500.000000
70
0
0
ATTDEF
8
0
10
0.000000
20
0.000000
30
0.0
40
3.5
1

3

2
FRONT_VIEW
70
0
0
ATTDEF
8
0
10
0.000000
20
0.000000
30
0.0
40
3.5
1

3

2
FP_LCS_ORIG
70
0
0
ATTDEF
8
0
10
10.000000
20
0.000000
30
0.0
40
3.5
1

3

2
FP_LCS_HOT
70
0
0
ATTDEF
8
0
10
0.000000
20
10.000000
30
0.0
40
3.5
1

3

2
FP_LCS_INTERN
70
0
0
ENDSEC
0
EOF

EOF
