0
SECTION
2
ENTITIES
0
LINE
8
0
10
0.000000
20
84.000000
30
0.0
11
4.500000
21
84.000000
31
0.0
0
LINE
8
0
10
4.500000
20
84.000000
30
0.0
11
4.500000
21
80.435000
31
0.0
0
LINE
8
0
10
4.500000
20
80.435000
30
0.0
11
3.490200
21
80.435000
31
0.0
0
LINE
8
0
10
3.490200
20
80.435000
30
0.0
11
3.490200
21
82.692100
31
0.0
0
LINE
8
0
10
3.490200
20
82.692100
30
0.0
11
1.385000
21
82.692100
31
0.0
0
LINE
8
0
10
1.385000
20
82.692100
30
0.0
11
1.385000
21
74.293100
31
0.0
0
LINE
8
0
10
1.385000
20
74.293100
30
0.0
11
3.490200
21
74.293100
31
0.0
0
LINE
8
0
10
3.490200
20
74.293100
30
0.0
11
3.490200
21
76.463400
31
0.0
0
LINE
8
0
10
3.490200
20
76.463400
30
0.0
11
4.500000
21
76.463400
31
0.0
0
LINE
8
0
10
4.500000
20
76.463400
30
0.0
11
4.500000
21
73.000000
31
0.0
0
LINE
8
0
10
4.500000
20
73.000000
30
0.0
11
1.385000
21
73.000000
31
0.0
0
LINE
8
0
10
1.385000
20
73.000000
30
0.0
11
1.385000
21
59.795500
31
0.0
0
LINE
8
0
10
1.385000
20
59.795500
30
0.0
11
5.159000
21
59.795500
31
0.0
0
LINE
8
0
10
5.159000
20
59.795500
30
0.0
11
5.159000
21
64.500000
31
0.0
0
LINE
8
0
10
5.159000
20
64.500000
30
0.0
11
7.676500
21
64.500000
31
0.0
0
LINE
8
0
10
7.676500
20
64.500000
30
0.0
11
7.676500
21
63.159500
31
0.0
0
LINE
8
0
10
7.676500
20
63.159500
30
0.0
11
6.005400
21
63.159500
31
0.0
0
LINE
8
0
10
6.005400
20
63.159500
30
0.0
11
6.005400
21
59.795500
31
0.0
0
LINE
8
0
10
6.005400
20
59.795500
30
0.0
11
13.927000
21
59.795500
31
0.0
0
LINE
8
0
10
13.927000
20
59.795500
30
0.0
11
13.927000
21
63.159500
31
0.0
0
LINE
8
0
10
13.927000
20
63.159500
30
0.0
11
12.299300
21
63.159500
31
0.0
0
LINE
8
0
10
12.299300
20
63.159500
30
0.0
11
12.299300
21
64.500000
31
0.0
0
LINE
8
0
10
12.299300
20
64.500000
30
0.0
11
17.269200
21
64.500000
31
0.0
0
LINE
8
0
10
17.269200
20
64.500000
30
0.0
11
17.269200
21
63.000000
31
0.0
0
LINE
8
0
10
17.269200
20
63.000000
30
0.0
11
15.164100
21
63.000000
31
0.0
0
LINE
8
0
10
15.164100
20
63.000000
30
0.0
11
15.164100
21
59.795500
31
0.0
0
LINE
8
0
10
15.164100
20
59.795500
30
0.0
11
34.856100
21
59.795500
31
0.0
0
LINE
8
0
10
34.856100
20
59.795500
30
0.0
11
34.856100
21
63.000000
31
0.0
0
LINE
8
0
10
34.856100
20
63.000000
30
0.0
11
32.828400
21
63.000000
31
0.0
0
LINE
8
0
10
32.828400
20
63.000000
30
0.0
11
32.828400
21
64.506000
31
0.0
0
LINE
8
0
10
32.828400
20
64.506000
30
0.0
11
38.494000
21
64.506000
31
0.0
0
LINE
8
0
10
38.494000
20
64.506000
30
0.0
11
38.494000
21
63.000000
31
0.0
0
LINE
8
0
10
38.494000
20
63.000000
30
0.0
11
35.959400
21
63.000000
31
0.0
0
LINE
8
0
10
35.959400
20
63.000000
30
0.0
11
35.959400
21
59.795500
31
0.0
0
LINE
8
0
10
35.959400
20
59.795500
30
0.0
11
48.766500
21
59.795500
31
0.0
0
LINE
8
0
10
48.766500
20
59.795500
30
0.0
11
48.766500
21
63.000000
31
0.0
0
LINE
8
0
10
48.766500
20
63.000000
30
0.0
11
46.887900
21
63.000000
31
0.0
0
LINE
8
0
10
46.887900
20
63.000000
30
0.0
11
46.887900
21
64.530000
31
0.0
0
LINE
8
0
10
46.887900
20
64.530000
30
0.0
11
50.000000
21
64.530000
31
0.0
0
LINE
8
0
10
0.000000
20
84.000000
30
0.0
11
0.000000
21
19.500000
31
0.0
0
LINE
8
0
10
0.000000
20
19.500000
30
0.0
11
7.500000
21
19.500000
31
0.0
0
LINE
8
0
10
7.500000
20
19.500000
30
0.0
11
7.500000
21
11.400000
31
0.0
0
LINE
8
0
10
7.500000
20
11.400000
30
0.0
11
9.017000
21
11.400000
31
0.0
0
LINE
8
0
10
9.017000
20
11.400000
30
0.0
11
9.017000
21
17.933900
31
0.0
0
LINE
8
0
10
9.017000
20
17.933900
30
0.0
11
16.983900
21
17.933900
31
0.0
0
LINE
8
0
10
16.983900
20
17.933900
30
0.0
11
16.983900
21
19.458600
31
0.0
0
LINE
8
0
10
16.983900
20
19.458600
30
0.0
11
14.724200
21
19.458600
31
0.0
0
LINE
8
0
10
14.724200
20
19.458600
30
0.0
11
14.724200
21
24.223100
31
0.0
0
LINE
8
0
10
14.724200
20
24.223100
30
0.0
11
35.266100
21
24.223100
31
0.0
0
LINE
8
0
10
35.266100
20
24.223100
30
0.0
11
35.266100
21
19.458600
31
0.0
0
LINE
8
0
10
35.266100
20
19.458600
30
0.0
11
32.974300
21
19.458600
31
0.0
0
LINE
8
0
10
32.974300
20
19.458600
30
0.0
11
32.974300
21
18.000000
31
0.0
0
LINE
8
0
10
32.974300
20
18.000000
30
0.0
11
42.500000
21
18.000000
31
0.0
0
LINE
8
0
10
42.500000
20
18.000000
30
0.0
11
42.500000
21
19.500000
31
0.0
0
LINE
8
0
10
42.500000
20
19.500000
30
0.0
11
48.300000
21
19.500000
31
0.0
0
LINE
8
0
10
48.300000
20
19.500000
30
0.0
11
48.732300
21
19.500000
31
0.0
0
LINE
8
0
10
48.732300
20
19.500000
30
0.0
11
48.732300
21
10.690100
31
0.0
0
LINE
8
0
10
48.732300
20
10.690100
30
0.0
11
45.500000
21
10.690100
31
0.0
0
LINE
8
0
10
45.500000
20
10.690100
30
0.0
11
45.500000
21
7.540800
31
0.0
0
LINE
8
0
10
45.500000
20
7.540800
30
0.0
11
46.629600
21
7.540800
31
0.0
0
LINE
8
0
10
46.629600
20
7.540800
30
0.0
11
46.629600
21
9.669300
31
0.0
0
LINE
8
0
10
46.629600
20
9.669300
30
0.0
11
49.011000
21
9.669300
31
0.0
0
LINE
8
0
10
49.011000
20
9.669300
30
0.0
11
49.011000
21
1.197500
31
0.0
0
LINE
8
0
10
49.011000
20
1.197500
30
0.0
11
46.482100
21
1.197500
31
0.0
0
LINE
8
0
10
46.482100
20
1.197500
30
0.0
11
46.482100
21
3.452400
31
0.0
0
LINE
8
0
10
46.482100
20
3.452400
30
0.0
11
45.500000
21
3.452400
31
0.0
0
LINE
8
0
10
45.500000
20
3.452400
30
0.0
11
45.500000
21
0.000000
31
0.0
0
LINE
8
0
10
45.500000
20
0.000000
30
0.0
11
50.000000
21
0.000000
31
0.0
0
LINE
8
0
10
50.000000
20
0.000000
30
0.0
11
50.000000
21
64.530000
31
0.0
0
LINE
8
0
10
1.342300
20
21.156100
30
0.0
11
1.342300
21
58.660100
31
0.0
0
LINE
8
0
10
1.342300
20
58.660100
30
0.0
11
48.814000
21
58.660100
31
0.0
0
LINE
8
0
10
48.814000
20
58.660100
30
0.0
11
48.814000
21
20.879400
31
0.0
0
LINE
8
0
10
48.814000
20
20.879400
30
0.0
11
41.131000
21
20.879400
31
0.0
0
LINE
8
0
10
41.131000
20
20.879400
30
0.0
11
41.131000
21
19.632900
31
0.0
0
LINE
8
0
10
41.131000
20
19.632900
30
0.0
11
36.548800
21
19.632900
31
0.0
0
LINE
8
0
10
36.548800
20
19.632900
30
0.0
11
36.548800
21
25.654700
31
0.0
0
LINE
8
0
10
36.548800
20
25.654700
30
0.0
11
13.436200
21
25.654700
31
0.0
0
LINE
8
0
10
13.436200
20
25.654700
30
0.0
11
13.436200
21
19.632900
31
0.0
0
LINE
8
0
10
13.436200
20
19.632900
30
0.0
11
8.850800
21
19.632900
31
0.0
0
LINE
8
0
10
8.850800
20
19.632900
30
0.0
11
8.850800
21
21.156100
31
0.0
0
LINE
8
0
10
8.850800
20
21.156100
30
0.0
11
1.342300
21
21.156100
31
0.0
0
ATTDEF
8
0
10
12.299300
20
64.500000
30
0.0
40
3.5
1

3

2
VC_START
70
0
0
ATTDEF
8
0
10
0.000000
20
19.500000
30
0.0
40
3.5
1

3

2
VC_END
70
0
0
ATTDEF
8
0
10
0.000000
20
0.000000
30
0.0
40
3.5
1

3

2
DESC:Wing Z
70
0
0
ATTDEF
8
0
10
0.000000
20
0.000000
30
0.0
40
3.5
1

3

2
DENS:1.299000
70
0
0
ATTDEF
8
0
10
0.000000
20
0.000000
30
0.0
40
3.5
1

3

2
BLEN:6500.000000,500.000000,1,0,3000.000000,6500.000000,500.000000
70
0
0
ATTDEF
8
0
10
0.000000
20
0.000000
30
0.0
40
3.5
1

3

2
FRONT_VIEW
70
0
0
ATTDEF
8
0
10
0.000000
20
0.000000
30
0.0
40
3.5
1

3

2
FP_LCS_ORIG
70
0
0
ATTDEF
8
0
10
10.000000
20
0.000000
30
0.0
40
3.5
1

3

2
FP_LCS_HOT
70
0
0
ATTDEF
8
0
10
0.000000
20
10.000000
30
0.0
40
3.5
1

3

2
FP_LCS_INTERN
70
0
0
ENDSEC
0
EOF
