0
SECTION
2
ENTITIES
0
LINE
8
0
10
1.109100
20
25.159000
30
0.0
11
1.109100
21
40.215300
31
0.0
0
LINE
8
0
10
1.109100
20
40.215300
30
0.0
11
48.843300
21
40.215300
31
0.0
0
LINE
8
0
10
48.843300
20
40.215300
30
0.0
11
48.843300
21
25.159000
31
0.0
0
LINE
8
0
10
48.843300
20
25.159000
30
0.0
11
1.109100
21
25.159000
31
0.0
0
LINE
8
0
10
46.887800
20
46.030000
30
0.0
11
50.000000
21
46.000000
31
0.0
0
LINE
8
0
10
50.000000
20
46.000000
30
0.0
11
50.000000
21
19.470000
31
0.0
0
LINE
8
0
10
50.000000
20
19.470000
30
0.0
11
46.887800
21
19.470000
31
0.0
0
LINE
8
0
10
46.887800
20
19.470000
30
0.0
11
46.887800
21
21.000000
31
0.0
0
LINE
8
0
10
46.887800
20
21.000000
30
0.0
11
48.766400
21
21.000000
31
0.0
0
LINE
8
0
10
48.766400
20
21.000000
30
0.0
11
48.766400
21
24.204500
31
0.0
0
LINE
8
0
10
48.766400
20
24.204500
30
0.0
11
35.959300
21
24.204500
31
0.0
0
LINE
8
0
10
35.959300
20
24.204500
30
0.0
11
35.959300
21
21.000000
31
0.0
0
LINE
8
0
10
35.959300
20
21.000000
30
0.0
11
38.493900
21
21.000000
31
0.0
0
LINE
8
0
10
38.493900
20
21.000000
30
0.0
11
38.493900
21
19.494000
31
0.0
0
LINE
8
0
10
38.493900
20
19.494000
30
0.0
11
32.828300
21
19.494000
31
0.0
0
LINE
8
0
10
32.828300
20
19.494000
30
0.0
11
32.828300
21
21.000000
31
0.0
0
LINE
8
0
10
32.828300
20
21.000000
30
0.0
11
34.856000
21
21.000000
31
0.0
0
LINE
8
0
10
34.856000
20
21.000000
30
0.0
11
34.856000
21
24.204500
31
0.0
0
LINE
8
0
10
34.856000
20
24.204500
30
0.0
11
15.164000
21
24.204500
31
0.0
0
LINE
8
0
10
15.164000
20
24.204500
30
0.0
11
15.164000
21
21.000000
31
0.0
0
LINE
8
0
10
15.164000
20
21.000000
30
0.0
11
17.269200
21
21.000000
31
0.0
0
LINE
8
0
10
17.269200
20
21.000000
30
0.0
11
17.269200
21
19.500000
31
0.0
0
LINE
8
0
10
17.269200
20
19.500000
30
0.0
11
12.299200
21
19.500000
31
0.0
0
LINE
8
0
10
12.299200
20
19.500000
30
0.0
11
12.299200
21
20.840500
31
0.0
0
LINE
8
0
10
12.299200
20
20.840500
30
0.0
11
13.926900
21
20.840500
31
0.0
0
LINE
8
0
10
13.926900
20
20.840500
30
0.0
11
13.926900
21
24.204500
31
0.0
0
LINE
8
0
10
13.926900
20
24.204500
30
0.0
11
6.005300
21
24.204500
31
0.0
0
LINE
8
0
10
6.005300
20
24.204500
30
0.0
11
6.005300
21
20.840500
31
0.0
0
LINE
8
0
10
6.005300
20
20.840500
30
0.0
11
7.676500
21
20.840500
31
0.0
0
LINE
8
0
10
7.676500
20
20.840500
30
0.0
11
7.676500
21
19.500000
31
0.0
0
LINE
8
0
10
7.676500
20
19.500000
30
0.0
11
5.914900
21
19.500000
31
0.0
0
LINE
8
0
10
5.914900
20
19.500000
30
0.0
11
5.914900
21
17.894600
31
0.0
0
LINE
8
0
10
5.914900
20
17.894600
30
0.0
11
1.384900
21
17.894600
31
0.0
0
LINE
8
0
10
1.384900
20
17.894600
30
0.0
11
1.384900
21
11.000000
31
0.0
0
LINE
8
0
10
1.384900
20
11.000000
30
0.0
11
4.500000
21
11.000000
31
0.0
0
LINE
8
0
10
4.500000
20
11.000000
30
0.0
11
4.500000
21
7.536600
31
0.0
0
LINE
8
0
10
4.500000
20
7.536600
30
0.0
11
3.490100
21
7.536600
31
0.0
0
LINE
8
0
10
3.490100
20
7.536600
30
0.0
11
3.490100
21
9.706900
31
0.0
0
LINE
8
0
10
3.490100
20
9.706900
30
0.0
11
1.384900
21
9.706900
31
0.0
0
LINE
8
0
10
1.384900
20
9.706900
30
0.0
11
1.384900
21
1.307900
31
0.0
0
LINE
8
0
10
1.384900
20
1.307900
30
0.0
11
3.490100
21
1.307900
31
0.0
0
LINE
8
0
10
3.490100
20
1.307900
30
0.0
11
3.490100
21
3.565000
31
0.0
0
LINE
8
0
10
3.490100
20
3.565000
30
0.0
11
4.500000
21
3.565000
31
0.0
0
LINE
8
0
10
4.500000
20
3.565000
30
0.0
11
4.500000
21
0.000000
31
0.0
0
LINE
8
0
10
4.500000
20
0.000000
30
0.0
11
0.000000
21
0.000000
31
0.0
0
LINE
8
0
10
0.000000
20
0.000000
30
0.0
11
0.000000
21
19.000000
31
0.0
0
LINE
8
0
10
0.000000
20
19.000000
30
0.0
11
4.700000
21
19.000000
31
0.0
0
LINE
8
0
10
4.700000
20
19.000000
30
0.0
11
4.700000
21
24.000000
31
0.0
0
LINE
8
0
10
4.700000
20
24.000000
30
0.0
11
0.000000
21
24.000000
31
0.0
0
LINE
8
0
10
0.000000
20
24.000000
30
0.0
11
0.000000
21
65.500000
31
0.0
0
LINE
8
0
10
0.000000
20
65.500000
30
0.0
11
4.500000
21
65.500000
31
0.0
0
LINE
8
0
10
4.500000
20
65.500000
30
0.0
11
4.500000
21
61.935000
31
0.0
0
LINE
8
0
10
4.500000
20
61.935000
30
0.0
11
3.490100
21
61.935000
31
0.0
0
LINE
8
0
10
3.490100
20
61.935000
30
0.0
11
3.490100
21
64.192100
31
0.0
0
LINE
8
0
10
3.490100
20
64.192100
30
0.0
11
1.384900
21
64.192100
31
0.0
0
LINE
8
0
10
1.384900
20
64.192100
30
0.0
11
1.384900
21
55.793100
31
0.0
0
LINE
8
0
10
1.384900
20
55.793100
30
0.0
11
3.490100
21
55.793100
31
0.0
0
LINE
8
0
10
3.490100
20
55.793100
30
0.0
11
3.490100
21
57.963400
31
0.0
0
LINE
8
0
10
3.490100
20
57.963400
30
0.0
11
4.500000
21
57.963400
31
0.0
0
LINE
8
0
10
4.500000
20
57.963400
30
0.0
11
4.500000
21
54.500000
31
0.0
0
LINE
8
0
10
4.500000
20
54.500000
30
0.0
11
1.384900
21
54.500000
31
0.0
0
LINE
8
0
10
1.384900
20
54.500000
30
0.0
11
1.384900
21
41.295500
31
0.0
0
LINE
8
0
10
1.384900
20
41.295500
30
0.0
11
13.926900
21
41.295500
31
0.0
0
LINE
8
0
10
13.926900
20
41.295500
30
0.0
11
13.926900
21
46.000000
31
0.0
0
LINE
8
0
10
13.926900
20
46.000000
30
0.0
11
17.269200
21
46.000000
31
0.0
0
LINE
8
0
10
17.269200
20
46.000000
30
0.0
11
17.269200
21
44.500000
31
0.0
0
LINE
8
0
10
17.269200
20
44.500000
30
0.0
11
15.164000
21
44.500000
31
0.0
0
LINE
8
0
10
15.164000
20
44.500000
30
0.0
11
15.164000
21
41.295500
31
0.0
0
LINE
8
0
10
15.164000
20
41.295500
30
0.0
11
34.856000
21
41.295500
31
0.0
0
LINE
8
0
10
34.856000
20
41.295500
30
0.0
11
34.856000
21
44.500000
31
0.0
0
LINE
8
0
10
34.856000
20
44.500000
30
0.0
11
32.828300
21
44.500000
31
0.0
0
LINE
8
0
10
32.828300
20
44.500000
30
0.0
11
32.828300
21
46.006100
31
0.0
0
LINE
8
0
10
32.828300
20
46.006100
30
0.0
11
38.493900
21
46.006100
31
0.0
0
LINE
8
0
10
38.493900
20
46.006100
30
0.0
11
38.493900
21
44.500000
31
0.0
0
LINE
8
0
10
38.493900
20
44.500000
30
0.0
11
35.959300
21
44.500000
31
0.0
0
LINE
8
0
10
35.959300
20
44.500000
30
0.0
11
35.959300
21
41.295500
31
0.0
0
LINE
8
0
10
35.959300
20
41.295500
30
0.0
11
48.766400
21
41.295500
31
0.0
0
LINE
8
0
10
48.766400
20
41.295500
30
0.0
11
48.766400
21
44.500000
31
0.0
0
LINE
8
0
10
48.766400
20
44.500000
30
0.0
11
46.887800
21
44.500000
31
0.0
0
LINE
8
0
10
46.887800
20
44.500000
30
0.0
11
46.887800
21
46.030000
31
0.0
0
ATTDEF
8
0
10
13.926900
20
46.000000
30
0.0
40
3.5
1

3

2
VC_START
70
0
0
ATTDEF
8
0
10
12.299200
20
19.500000
30
0.0
40
3.5
1

3

2
VC_END
70
0
0
ATTDEF
8
0
10
0.000000
20
0.000000
30
0.0
40
3.5
1

3

2
BLEN:6500.000000,500.000000,1,0,3000.000000,6500.000000,500.000000
70
0
0
ATTDEF
8
0
10
0.000000
20
0.000000
30
0.0
40
3.5
1

3

2
FRONT_VIEW
70
0
0
ATTDEF
8
0
10
0.000000
20
0.000000
30
0.0
40
3.5
1

3

2
FP_LCS_ORIG
70
0
0
ATTDEF
8
0
10
10.000000
20
0.000000
30
0.0
40
3.5
1

3

2
FP_LCS_HOT
70
0
0
ATTDEF
8
0
10
0.000000
20
10.000000
30
0.0
40
3.5
1

3

2
FP_LCS_INTERN
70
0
0
ATTDEF
8
0
10
0.000000
20
4.500000
30
0.0
40
3.5
1

3

2
DESC:Wing T coplanar
70
0
0
ATTDEF
8
0
10
0.000000
20
4.500000
30
0.0
40
3.5
1

3

2
DENS:0.960000
70
0
0
ATTDEF
8
0
10
0.000000
20
4.500000
30
0.0
40
3.5
1

3

2
TDEV:0.000000
70
0
0
ENDSEC
0
EOF

