0
SECTION
2
ENTITIES
0
LINE
8
0
10
0.000000
20
0.000000
30
0.0
11
0.000000
21
54.998000
31
0.0
0
LINE
8
0
10
0.000000
20
54.998000
30
0.0
11
4.500000
21
54.998000
31
0.0
0
LINE
8
0
10
4.500000
20
54.998000
30
0.0
11
4.500000
21
51.566200
31
0.0
0
LINE
8
0
10
4.500000
20
51.566200
30
0.0
11
3.424000
21
51.566200
31
0.0
0
LINE
8
0
10
3.424000
20
51.566200
30
0.0
11
3.424000
21
53.858000
31
0.0
0
LINE
8
0
10
3.424000
20
53.858000
30
0.0
11
0.990700
21
53.858000
31
0.0
0
LINE
8
0
10
0.990700
20
53.858000
30
0.0
11
0.990700
21
45.341700
31
0.0
0
LINE
8
0
10
0.990700
20
45.341700
30
0.0
11
3.424000
21
45.341700
31
0.0
0
LINE
8
0
10
3.424000
20
45.341700
30
0.0
11
3.424000
21
47.520300
31
0.0
0
LINE
8
0
10
3.424000
20
47.520300
30
0.0
11
4.500000
21
47.520300
31
0.0
0
LINE
8
0
10
4.500000
20
47.520300
30
0.0
11
4.500000
21
44.096700
31
0.0
0
LINE
8
0
10
4.500000
20
44.096700
30
0.0
11
1.217100
21
44.096700
31
0.0
0
LINE
8
0
10
1.217100
20
44.096700
30
0.0
11
1.217100
21
32.498000
31
0.0
0
LINE
8
0
10
1.217100
20
32.498000
30
0.0
11
21.500000
21
32.498000
31
0.0
0
LINE
8
0
10
21.500000
20
32.498000
30
0.0
11
21.500000
21
37.997200
31
0.0
0
LINE
8
0
10
21.500000
20
37.997200
30
0.0
11
25.355200
21
37.997200
31
0.0
0
LINE
8
0
10
25.355200
20
37.997200
30
0.0
11
25.355200
21
36.350400
31
0.0
0
LINE
8
0
10
25.355200
20
36.350400
30
0.0
11
22.918100
21
36.350400
31
0.0
0
LINE
8
0
10
22.918100
20
36.350400
30
0.0
11
22.918100
21
32.498000
31
0.0
0
LINE
8
0
10
22.918100
20
32.498000
30
0.0
11
43.246100
21
32.498000
31
0.0
0
LINE
8
0
10
43.246100
20
32.498000
30
0.0
11
43.246100
21
36.350400
31
0.0
0
LINE
8
0
10
43.246100
20
36.350400
30
0.0
11
40.066100
21
36.350400
31
0.0
0
LINE
8
0
10
40.066100
20
36.350400
30
0.0
11
40.066100
21
37.997200
31
0.0
0
LINE
8
0
10
40.066100
20
37.997200
30
0.0
11
44.500000
21
37.997200
31
0.0
0
LINE
8
0
10
44.500000
20
37.997200
30
0.0
11
44.500000
21
32.498000
31
0.0
0
LINE
8
0
10
44.500000
20
32.498000
30
0.0
11
46.000000
21
32.498000
31
0.0
0
LINE
8
0
10
46.000000
20
32.498000
30
0.0
11
46.000000
21
29.245900
31
0.0
0
LINE
8
0
10
46.000000
20
29.245900
30
0.0
11
44.706600
21
29.245900
31
0.0
0
LINE
8
0
10
44.706600
20
29.245900
30
0.0
11
44.706600
21
31.189100
31
0.0
0
LINE
8
0
10
44.706600
20
31.189100
30
0.0
11
41.864300
21
31.189100
31
0.0
0
LINE
8
0
10
41.864300
20
31.189100
30
0.0
11
41.864300
21
23.779200
31
0.0
0
LINE
8
0
10
41.864300
20
23.779200
30
0.0
11
44.706600
21
23.779200
31
0.0
0
LINE
8
0
10
44.706600
20
23.779200
30
0.0
11
44.706600
21
25.809400
31
0.0
0
LINE
8
0
10
44.706600
20
25.809400
30
0.0
11
46.000000
21
25.809400
31
0.0
0
LINE
8
0
10
46.000000
20
25.809400
30
0.0
11
46.000000
21
22.498000
31
0.0
0
LINE
8
0
10
46.000000
20
22.498000
30
0.0
11
44.500000
21
22.498000
31
0.0
0
LINE
8
0
10
44.500000
20
22.498000
30
0.0
11
44.500000
21
17.006600
31
0.0
0
LINE
8
0
10
44.500000
20
17.006600
30
0.0
11
23.000000
21
16.998000
31
0.0
0
LINE
8
0
10
23.000000
20
16.998000
30
0.0
11
23.000000
21
5.498000
31
0.0
0
LINE
8
0
10
23.000000
20
5.498000
30
0.0
11
1.278300
21
5.498000
31
0.0
0
LINE
8
0
10
1.278300
20
5.498000
30
0.0
11
1.278300
21
1.281900
31
0.0
0
LINE
8
0
10
1.278300
20
1.281900
30
0.0
11
7.577100
21
1.281900
31
0.0
0
LINE
8
0
10
7.577100
20
1.281900
30
0.0
11
7.577100
21
0.000000
31
0.0
0
LINE
8
0
10
7.577100
20
0.000000
30
0.0
11
0.000000
21
0.000000
31
0.0
0
LINE
8
0
10
4.001100
20
31.200900
30
0.0
11
8.929500
21
31.200900
31
0.0
0
ARC
8
0
10
11.458969
20
28.913994
30
0.0
40
3.410008
50
137.883102
51
222.309455
0
LINE
8
0
10
8.937200
20
26.618600
30
0.0
11
10.000300
21
27.681600
31
0.0
0
ARC
8
0
10
11.482308
20
28.898612
30
0.0
40
1.917672
50
318.745913
51
219.392535
0
LINE
8
0
10
12.924000
20
27.634100
30
0.0
11
13.934300
21
26.567700
31
0.0
0
ARC
8
0
10
11.459455
20
28.898814
30
0.0
40
3.399846
50
316.713028
51
42.611733
0
LINE
8
0
10
13.961600
20
31.200600
30
0.0
11
19.496900
21
31.200600
31
0.0
0
LINE
8
0
10
4.034200
20
6.998200
30
0.0
11
1.207200
21
6.998200
31
0.0
0
LINE
8
0
10
1.207200
20
6.998200
30
0.0
11
8.962600
21
6.998200
31
0.0
0
ARC
8
0
10
11.492119
20
9.285051
30
0.0
40
3.410008
50
137.689295
51
222.115648
0
LINE
8
0
10
8.970400
20
11.580500
30
0.0
11
10.033400
21
10.517400
31
0.0
0
ARC
8
0
10
11.515451
20
9.300438
30
0.0
40
1.917673
50
140.609424
51
41.256046
0
LINE
8
0
10
12.957100
20
10.565000
30
0.0
11
13.967400
21
11.631400
31
0.0
0
ARC
8
0
10
11.492555
20
9.300286
30
0.0
40
3.399846
50
317.388267
51
43.286972
0
LINE
8
0
10
13.994700
20
6.998500
30
0.0
11
19.530000
21
6.998500
31
0.0
0
LINE
8
0
10
1.207200
20
6.998200
30
0.0
11
1.207200
21
31.200900
31
0.0
0
LINE
8
0
10
1.207200
20
31.200900
30
0.0
11
4.001100
21
31.200900
31
0.0
0
LINE
8
0
10
19.530000
20
6.998500
30
0.0
11
21.908800
21
6.998500
31
0.0
0
LINE
8
0
10
21.908800
20
6.998500
30
0.0
11
21.908800
21
18.219400
31
0.0
0
LINE
8
0
10
21.908800
20
18.219400
30
0.0
11
43.414600
21
18.219400
31
0.0
0
LINE
8
0
10
43.414600
20
18.219400
30
0.0
11
43.414600
21
22.833800
31
0.0
0
LINE
8
0
10
43.414600
20
22.833800
30
0.0
11
40.729100
21
22.833800
31
0.0
0
LINE
8
0
10
40.729100
20
22.833800
30
0.0
11
40.729100
21
31.200600
31
0.0
0
LINE
8
0
10
40.729100
20
31.200600
30
0.0
11
23.050000
21
31.200600
31
0.0
0
LINE
8
0
10
23.050000
20
31.200600
30
0.0
11
23.050000
21
29.248000
31
0.0
0
LINE
8
0
10
23.050000
20
29.248000
30
0.0
11
21.550000
21
29.248000
31
0.0
0
LINE
8
0
10
21.550000
20
29.248000
30
0.0
11
21.550000
21
31.200600
31
0.0
0
LINE
8
0
10
21.550000
20
31.200600
30
0.0
11
19.496900
21
31.200600
31
0.0
0
ATTDEF
8
0
10
21.500000
20
37.997200
30
0.0
40
3.5
1

3

2
VC_START
70
0
0
ATTDEF
8
0
10
0.000000
20
0.000000
30
0.0
40
3.5
1

3

2
VC_END
70
0
0
LINE
8
0
10
0.000000
20
0.000000
30
0.0
11
0.000000
21
54.998000
31
0.0
0
LINE
8
0
10
0.000000
20
54.998000
30
0.0
11
4.500000
21
54.998000
31
0.0
0
LINE
8
0
10
4.500000
20
54.998000
30
0.0
11
4.500000
21
51.566200
31
0.0
0
LINE
8
0
10
4.500000
20
51.566200
30
0.0
11
3.424000
21
51.566200
31
0.0
0
LINE
8
0
10
3.424000
20
51.566200
30
0.0
11
3.424000
21
53.858000
31
0.0
0
LINE
8
0
10
3.424000
20
53.858000
30
0.0
11
0.990700
21
53.858000
31
0.0
0
LINE
8
0
10
0.990700
20
53.858000
30
0.0
11
0.990700
21
45.341700
31
0.0
0
LINE
8
0
10
0.990700
20
45.341700
30
0.0
11
3.424000
21
45.341700
31
0.0
0
LINE
8
0
10
3.424000
20
45.341700
30
0.0
11
3.424000
21
47.520300
31
0.0
0
LINE
8
0
10
3.424000
20
47.520300
30
0.0
11
4.500000
21
47.520300
31
0.0
0
LINE
8
0
10
4.500000
20
47.520300
30
0.0
11
4.500000
21
44.096700
31
0.0
0
LINE
8
0
10
4.500000
20
44.096700
30
0.0
11
1.217100
21
44.096700
31
0.0
0
LINE
8
0
10
1.217100
20
44.096700
30
0.0
11
1.217100
21
32.498000
31
0.0
0
LINE
8
0
10
1.217100
20
32.498000
30
0.0
11
21.500000
21
32.498000
31
0.0
0
LINE
8
0
10
21.500000
20
32.498000
30
0.0
11
21.500000
21
37.997200
31
0.0
0
LINE
8
0
10
21.500000
20
37.997200
30
0.0
11
25.355200
21
37.997200
31
0.0
0
LINE
8
0
10
25.355200
20
37.997200
30
0.0
11
25.355200
21
36.350400
31
0.0
0
LINE
8
0
10
25.355200
20
36.350400
30
0.0
11
22.918100
21
36.350400
31
0.0
0
LINE
8
0
10
22.918100
20
36.350400
30
0.0
11
22.918100
21
32.498000
31
0.0
0
LINE
8
0
10
22.918100
20
32.498000
30
0.0
11
43.246100
21
32.498000
31
0.0
0
LINE
8
0
10
43.246100
20
32.498000
30
0.0
11
43.246100
21
36.350400
31
0.0
0
LINE
8
0
10
43.246100
20
36.350400
30
0.0
11
40.066100
21
36.350400
31
0.0
0
LINE
8
0
10
40.066100
20
36.350400
30
0.0
11
40.066100
21
37.997200
31
0.0
0
LINE
8
0
10
40.066100
20
37.997200
30
0.0
11
44.500000
21
37.997200
31
0.0
0
LINE
8
0
10
44.500000
20
37.997200
30
0.0
11
44.500000
21
32.498000
31
0.0
0
LINE
8
0
10
44.500000
20
32.498000
30
0.0
11
46.000000
21
32.498000
31
0.0
0
LINE
8
0
10
46.000000
20
32.498000
30
0.0
11
46.000000
21
29.245900
31
0.0
0
LINE
8
0
10
46.000000
20
29.245900
30
0.0
11
44.706600
21
29.245900
31
0.0
0
LINE
8
0
10
44.706600
20
29.245900
30
0.0
11
44.706600
21
31.189100
31
0.0
0
LINE
8
0
10
44.706600
20
31.189100
30
0.0
11
41.864300
21
31.189100
31
0.0
0
LINE
8
0
10
41.864300
20
31.189100
30
0.0
11
41.864300
21
23.779200
31
0.0
0
LINE
8
0
10
41.864300
20
23.779200
30
0.0
11
44.706600
21
23.779200
31
0.0
0
LINE
8
0
10
44.706600
20
23.779200
30
0.0
11
44.706600
21
25.809400
31
0.0
0
LINE
8
0
10
44.706600
20
25.809400
30
0.0
11
46.000000
21
25.809400
31
0.0
0
LINE
8
0
10
46.000000
20
25.809400
30
0.0
11
46.000000
21
22.498000
31
0.0
0
LINE
8
0
10
46.000000
20
22.498000
30
0.0
11
44.500000
21
22.498000
31
0.0
0
LINE
8
0
10
44.500000
20
22.498000
30
0.0
11
44.500000
21
17.006600
31
0.0
0
LINE
8
0
10
44.500000
20
17.006600
30
0.0
11
23.000000
21
16.998000
31
0.0
0
LINE
8
0
10
23.000000
20
16.998000
30
0.0
11
23.000000
21
5.498000
31
0.0
0
LINE
8
0
10
23.000000
20
5.498000
30
0.0
11
1.278300
21
5.498000
31
0.0
0
LINE
8
0
10
1.278300
20
5.498000
30
0.0
11
1.278300
21
1.281900
31
0.0
0
LINE
8
0
10
1.278300
20
1.281900
30
0.0
11
7.577100
21
1.281900
31
0.0
0
LINE
8
0
10
7.577100
20
1.281900
30
0.0
11
7.577100
21
0.000000
31
0.0
0
LINE
8
0
10
7.577100
20
0.000000
30
0.0
11
0.000000
21
0.000000
31
0.0
0
LINE
8
0
10
4.001100
20
31.200900
30
0.0
11
8.929500
21
31.200900
31
0.0
0
ARC
8
0
10
11.458969
20
28.913994
30
0.0
40
3.410008
50
137.883102
51
222.309455
0
LINE
8
0
10
8.937200
20
26.618600
30
0.0
11
10.000300
21
27.681600
31
0.0
0
ARC
8
0
10
11.482308
20
28.898612
30
0.0
40
1.917672
50
318.745913
51
219.392535
0
LINE
8
0
10
12.924000
20
27.634100
30
0.0
11
13.934300
21
26.567700
31
0.0
0
ARC
8
0
10
11.459455
20
28.898814
30
0.0
40
3.399846
50
316.713028
51
42.611733
0
LINE
8
0
10
13.961600
20
31.200600
30
0.0
11
19.496900
21
31.200600
31
0.0
0
LINE
8
0
10
4.034200
20
6.998200
30
0.0
11
1.207200
21
6.998200
31
0.0
0
LINE
8
0
10
1.207200
20
6.998200
30
0.0
11
8.962600
21
6.998200
31
0.0
0
ARC
8
0
10
11.492119
20
9.285051
30
0.0
40
3.410008
50
137.689295
51
222.115648
0
LINE
8
0
10
8.970400
20
11.580500
30
0.0
11
10.033400
21
10.517400
31
0.0
0
ARC
8
0
10
11.515451
20
9.300438
30
0.0
40
1.917673
50
140.609424
51
41.256046
0
LINE
8
0
10
12.957100
20
10.565000
30
0.0
11
13.967400
21
11.631400
31
0.0
0
ARC
8
0
10
11.492555
20
9.300286
30
0.0
40
3.399846
50
317.388267
51
43.286972
0
LINE
8
0
10
13.994700
20
6.998500
30
0.0
11
19.530000
21
6.998500
31
0.0
0
LINE
8
0
10
1.207200
20
6.998200
30
0.0
11
1.207200
21
31.200900
31
0.0
0
LINE
8
0
10
1.207200
20
31.200900
30
0.0
11
4.001100
21
31.200900
31
0.0
0
LINE
8
0
10
19.530000
20
6.998500
30
0.0
11
21.908800
21
6.998500
31
0.0
0
LINE
8
0
10
21.908800
20
6.998500
30
0.0
11
21.908800
21
18.219400
31
0.0
0
LINE
8
0
10
21.908800
20
18.219400
30
0.0
11
43.414600
21
18.219400
31
0.0
0
LINE
8
0
10
43.414600
20
18.219400
30
0.0
11
43.414600
21
22.833800
31
0.0
0
LINE
8
0
10
43.414600
20
22.833800
30
0.0
11
40.729100
21
22.833800
31
0.0
0
LINE
8
0
10
40.729100
20
22.833800
30
0.0
11
40.729100
21
31.200600
31
0.0
0
LINE
8
0
10
40.729100
20
31.200600
30
0.0
11
23.050000
21
31.200600
31
0.0
0
LINE
8
0
10
23.050000
20
31.200600
30
0.0
11
23.050000
21
29.248000
31
0.0
0
LINE
8
0
10
23.050000
20
29.248000
30
0.0
11
21.550000
21
29.248000
31
0.0
0
LINE
8
0
10
21.550000
20
29.248000
30
0.0
11
21.550000
21
31.200600
31
0.0
0
LINE
8
0
10
21.550000
20
31.200600
30
0.0
11
19.496900
21
31.200600
31
0.0
0
ATTDEF
8
0
10
21.500000
20
37.997200
30
0.0
40
3.5
1

3

2
VC_START
70
0
0
ATTDEF
8
0
10
23.000000
20
5.498000
30
0.0
40
3.5
1

3

2
VC_END
70
0
0
ATTDEF
8
0
10
0.000000
20
0.000000
30
0.0
40
3.5
1

3

2
DESC:Rabbet reversing for pivoting (Frame)
70
0
0
ATTDEF
8
0
10
0.000000
20
0.000000
30
0.0
40
3.5
1

3

2
DENS:0.915000
70
0
0
ATTDEF
8
0
10
0.000000
20
0.000000
30
0.0
40
3.5
1

3

2
BLEN:6500.000000,500.000000,1,0,3000.000000,6500.000000,500.000000
70
0
0
ATTDEF
8
0
10
0.000000
20
0.000000
30
0.0
40
3.5
1

3

2
FRONT_VIEW
70
0
0
ATTDEF
8
0
10
0.000000
20
0.000000
30
0.0
40
3.5
1

3

2
FP_LCS_ORIG
70
0
0
ATTDEF
8
0
10
10.000000
20
0.000000
30
0.0
40
3.5
1

3

2
FP_LCS_HOT
70
0
0
ATTDEF
8
0
10
0.000000
20
10.000000
30
0.0
40
3.5
1

3

2
FP_LCS_INTERN
70
0
0
ENDSEC
0
EOF
