0
SECTION
2
ENTITIES
0
LINE
8
0
10
13.217000
20
22.824872
30
0.0
11
1.003700
21
22.824872
31
0.0
0
LINE
8
0
10
1.003700
20
22.824872
30
0.0
11
1.003700
21
20.943372
31
0.0
0
LINE
8
0
10
1.003700
20
20.943372
30
0.0
11
0.000000
21
20.943372
31
0.0
0
LINE
8
0
10
0.000000
20
20.943372
30
0.0
11
0.000000
21
23.843372
31
0.0
0
LINE
8
0
10
0.000000
20
23.843372
30
0.0
11
21.000000
21
23.843372
31
0.0
0
LINE
8
0
10
21.000000
20
23.843372
30
0.0
11
21.000000
21
4.343372
31
0.0
0
LINE
8
0
10
19.800000
20
5.412572
30
0.0
11
19.800000
21
5.412572
31
0.0
0
LINE
8
0
10
19.800000
20
5.412572
30
0.0
11
17.000000
21
5.412572
31
0.0
0
LINE
8
0
10
17.000000
20
5.412572
30
0.0
11
17.000000
21
1.575672
31
0.0
0
LINE
8
0
10
17.000000
20
1.575672
30
0.0
11
18.253600
21
0.097772
31
0.0
0
ARC
8
0
10
18.537870
20
0.462140
30
0.0
40
0.462140
50
232.039569
51
359.632106
0
LINE
8
0
10
19.000000
20
0.459172
30
0.0
11
19.000000
21
1.543572
31
0.0
0
LINE
8
0
10
19.000000
20
1.543572
30
0.0
11
18.451000
21
1.543572
31
0.0
0
LINE
8
0
10
18.451000
20
1.543572
30
0.0
11
18.036000
21
2.073572
31
0.0
0
LINE
8
0
10
18.036000
20
2.073572
30
0.0
11
18.036000
21
4.343372
31
0.0
0
LINE
8
0
10
18.036000
20
4.343372
30
0.0
11
21.000000
21
4.343372
31
0.0
0
LINE
8
0
10
21.000000
20
4.343372
30
0.0
11
21.000000
21
4.343372
31
0.0
0
LINE
8
0
10
9.761800
20
5.472372
30
0.0
11
13.217000
21
22.824872
31
0.0
0
LINE
8
0
10
13.217000
20
22.824872
30
0.0
11
9.170400
21
2.526972
31
0.0
0
LINE
8
0
10
9.170400
20
2.526972
30
0.0
11
8.060100
21
2.526972
31
0.0
0
ARC
8
0
10
8.050578
20
2.271842
30
0.0
40
0.255308
50
87.862684
51
196.747843
0
ARC
8
0
10
10.582606
20
2.951340
30
0.0
40
2.876821
50
195.175172
51
248.659433
0
ARC
8
0
10
9.742162
20
0.524445
30
0.0
40
0.326297
50
230.747348
51
50.046203
0
ARC
8
0
10
10.417579
20
1.143783
30
0.0
40
0.594441
50
218.396973
51
166.279861
0
LINE
8
0
10
9.840100
20
1.284772
30
0.0
11
10.628100
21
5.298872
31
0.0
0
LINE
8
0
10
10.628100
20
5.298872
30
0.0
11
10.628100
21
5.298872
31
0.0
0
LINE
8
0
10
19.802300
20
5.412572
30
0.0
11
19.802300
21
22.824872
31
0.0
0
LINE
8
0
10
19.802300
20
22.824872
30
0.0
11
14.248600
21
22.824872
31
0.0
0
LINE
8
0
10
14.248600
20
22.824872
30
0.0
11
14.062100
21
22.824872
31
0.0
0
LINE
8
0
10
14.062100
20
22.824872
30
0.0
11
10.628100
21
5.298872
31
0.0
0
ATTDEF
8
0
10
0.000000
20
23.843372
30
0.0
40
3.5
1

3

2
VC_START
70
0
0
ATTDEF
8
0
10
18.036000
20
4.343372
30
0.0
40
3.5
1

3

2
VC_END
70
0
0
ATTDEF
8
0
10
0.000000
20
0.000000
30
0.0
40
3.5
1

3

2
BLEN:6000.000000,1500.000000,1,0,3000.000000,6500.000000,500.000000
70
0
0
ATTDEF
8
0
10
0.000000
20
0.000000
30
0.0
40
3.5
1

3

2
FP_LCS_ORIG
70
0
0
ATTDEF
8
0
10
10.000000
20
0.000000
30
0.0
40
3.5
1

3

2
FP_LCS_HOT
70
0
0
ATTDEF
8
0
10
0.000000
20
10.000000
30
0.0
40
3.5
1

3

2
FP_LCS_INTERN
70
0
0
ATTDEF
8
0
10
0.000000
20
4.500000
30
0.0
40
3.5
1

3

2
DESC:Glazing bead 21 mm (glass 20 mm)
70
0
0
ATTDEF
8
0
10
0.000000
20
4.500000
30
0.0
40
3.5
1

3

2
DENS:0.200000
70
0
0
ATTDEF
8
0
10
0.000000
20
4.500000
30
0.0
40
3.5
1

3

2
TDEV:0.000000
70
0
0
ENDSEC
0
EOF
OF
