0
SECTION
2
ENTITIES
0
LINE
8
0
10
15.218325
20
62.324560
30
0.0
11
34.910325
21
62.324560
31
0.0
0
LINE
8
0
10
17.323525
20
65.529060
30
0.0
11
15.218325
21
65.529060
31
0.0
0
LINE
8
0
10
12.353525
20
67.029060
30
0.0
11
17.323525
21
67.029060
31
0.0
0
LINE
8
0
10
15.900000
20
22.529048
30
0.0
11
48.200000
21
22.529048
31
0.0
0
LINE
8
0
10
48.820800
20
23.435048
30
0.0
11
11.140500
21
23.435048
31
0.0
0
LINE
8
0
10
1.140500
20
61.229048
30
0.0
11
20.660200
21
61.229048
31
0.0
0
LINE
8
0
10
1.140500
20
23.435048
30
0.0
11
1.140500
21
61.229048
31
0.0
0
LINE
8
0
10
0.000000
20
86.529048
30
0.0
11
0.000000
21
22.529048
31
0.0
0
LINE
8
0
10
5.900000
20
16.779048
30
0.0
11
5.900000
21
22.529048
31
0.0
0
LINE
8
0
10
4.600000
20
19.987948
30
0.0
11
3.873300
21
19.301548
31
0.0
0
LINE
8
0
10
3.719500
20
18.488848
30
0.0
11
4.839900
21
16.553548
31
0.0
0
ARC
8
0
10
4.302637
20
18.799395
30
0.0
40
0.660673
50
130.530203
51
208.037296
0
ARC
8
0
10
5.316713
20
16.916571
30
0.0
40
0.599279
50
217.283858
51
346.733598
0
LINE
8
0
10
5.900000
20
22.529048
30
0.0
11
15.900000
21
22.529048
31
0.0
0
LINE
8
0
10
1.140500
20
23.435048
30
0.0
11
11.140500
21
23.435048
31
0.0
0
LINE
8
0
10
0.000000
20
22.529048
30
0.0
11
4.600000
21
22.529048
31
0.0
0
LINE
8
0
10
4.600000
20
22.529048
30
0.0
11
4.600000
21
19.987948
31
0.0
0
LINE
8
0
10
1.138480
20
76.293387
30
0.0
11
1.138480
21
62.324680
31
0.0
0
LINE
8
0
10
6.059725
20
62.324560
30
0.0
11
13.981325
21
62.324560
31
0.0
0
LINE
8
0
10
7.730825
20
65.688560
30
0.0
11
6.059725
21
65.688560
31
0.0
0
LINE
8
0
10
5.213325
20
67.029060
30
0.0
11
7.730825
21
67.029060
31
0.0
0
LINE
8
0
10
1.138480
20
62.324680
30
0.0
11
5.213325
21
62.324560
31
0.0
0
LINE
8
0
10
6.059725
20
65.688560
30
0.0
11
6.059725
21
62.324560
31
0.0
0
LINE
8
0
10
5.213325
20
62.324560
30
0.0
11
5.213325
21
67.029060
31
0.0
0
LINE
8
0
10
7.730825
20
67.029060
30
0.0
11
7.730825
21
65.688560
31
0.0
0
LINE
8
0
10
13.981325
20
62.324560
30
0.0
11
13.981325
21
65.688560
31
0.0
0
LINE
8
0
10
13.981325
20
65.688560
30
0.0
11
12.353525
21
65.688560
31
0.0
0
LINE
8
0
10
12.353525
20
65.688560
30
0.0
11
12.353525
21
67.029060
31
0.0
0
LINE
8
0
10
15.218325
20
65.529060
30
0.0
11
15.218325
21
62.324560
31
0.0
0
LINE
8
0
10
1.130100
20
77.450348
30
0.0
11
3.401900
21
77.450348
31
0.0
0
LINE
8
0
10
3.396600
20
85.423648
30
0.0
11
1.130100
21
85.423648
31
0.0
0
LINE
8
0
10
0.000000
20
86.529048
30
0.0
11
4.406900
21
86.529048
31
0.0
0
LINE
8
0
10
4.427500
20
76.287948
30
0.0
11
1.138480
21
76.293387
31
0.0
0
LINE
8
0
10
1.130100
20
85.423648
30
0.0
11
1.130100
21
77.450348
31
0.0
0
LINE
8
0
10
3.401900
20
77.450348
30
0.0
11
3.401900
21
79.174948
31
0.0
0
LINE
8
0
10
4.427500
20
79.174948
30
0.0
11
4.427500
21
76.287948
31
0.0
0
LINE
8
0
10
3.401900
20
79.174948
30
0.0
11
4.427500
21
79.174948
31
0.0
0
LINE
8
0
10
4.406900
20
86.529048
30
0.0
11
4.406900
21
83.826148
31
0.0
0
LINE
8
0
10
3.396600
20
83.826148
30
0.0
11
3.396600
21
85.423648
31
0.0
0
LINE
8
0
10
4.406900
20
83.826148
30
0.0
11
3.396600
21
83.826148
31
0.0
0
LINE
8
0
10
50.000000
20
3.029048
30
0.0
11
50.000000
21
66.807048
31
0.0
0
LINE
8
0
10
48.820800
20
61.229048
30
0.0
11
48.820800
21
23.829048
31
0.0
0
LINE
8
0
10
48.700000
20
22.029048
30
0.0
11
48.700000
21
4.100548
31
0.0
0
LINE
8
0
10
47.200000
20
3.029048
30
0.0
11
50.000000
21
3.029048
31
0.0
0
LINE
8
0
10
48.700000
20
4.100548
30
0.0
11
46.359500
21
4.100548
31
0.0
0
LINE
8
0
10
46.359500
20
4.100548
30
0.0
11
46.359500
21
0.679548
31
0.0
0
LINE
8
0
10
47.200000
20
1.329048
30
0.0
11
47.200000
21
3.029048
31
0.0
0
LINE
8
0
10
47.793500
20
0.986348
30
0.0
11
47.200000
21
1.329048
31
0.0
0
ARC
8
0
10
47.694832
20
0.498109
30
0.0
40
0.498109
50
239.790285
51
78.574989
0
LINE
8
0
10
46.359500
20
0.679548
30
0.0
11
47.444200
21
0.067648
31
0.0
0
ARC
8
0
10
48.199988
20
22.029037
30
0.0
40
0.500012
50
360.000000
51
89.998673
0
LINE
8
0
10
48.820800
20
23.829048
30
0.0
11
48.820800
21
23.435048
31
0.0
0
LINE
8
0
10
36.013625
20
62.324560
30
0.0
11
48.820825
21
62.324560
31
0.0
0
LINE
8
0
10
38.548225
20
65.529060
30
0.0
11
36.013625
21
65.529060
31
0.0
0
LINE
8
0
10
32.882725
20
67.035160
30
0.0
11
38.548225
21
67.035160
31
0.0
0
LINE
8
0
10
29.312700
20
61.229048
30
0.0
11
48.820800
21
61.229048
31
0.0
0
ARC
8
0
10
27.253740
20
56.994069
30
0.0
40
1.005029
50
146.413329
51
325.619913
0
ARC
8
0
10
25.001500
20
59.006324
30
0.0
40
2.017467
50
323.808871
51
221.692207
0
LINE
8
0
10
26.629700
20
57.815048
30
0.0
11
26.416500
21
57.550048
31
0.0
0
ARC
8
0
10
20.660220
20
60.729140
30
0.0
40
0.499908
50
352.368115
51
90.002303
0
ARC
8
0
10
25.035991
20
59.167098
30
0.0
40
4.158561
50
158.920942
51
223.968801
0
ARC
8
0
10
22.898572
20
56.950092
30
0.0
40
0.888707
50
301.053434
51
28.713126
0
ARC
8
0
10
22.742524
20
56.847036
30
0.0
40
0.900513
50
219.030866
51
313.028481
0
LINE
8
0
10
23.678000
20
57.377048
30
0.0
11
23.495000
21
57.664448
31
0.0
0
LINE
8
0
10
17.323525
20
67.029060
30
0.0
11
17.323525
21
65.529060
31
0.0
0
ARC
8
0
10
29.312762
20
60.729064
30
0.0
40
0.499984
50
90.007105
51
200.355376
0
ARC
8
0
10
25.080502
20
59.114271
30
0.0
40
4.029894
50
318.168196
51
20.949648
0
LINE
8
0
10
34.910325
20
65.529060
30
0.0
11
32.882725
21
65.529060
31
0.0
0
LINE
8
0
10
32.882725
20
65.529060
30
0.0
11
32.882725
21
67.035160
31
0.0
0
LINE
8
0
10
36.013625
20
65.529060
30
0.0
11
36.013625
21
62.324560
31
0.0
0
LINE
8
0
10
34.910325
20
62.324560
30
0.0
11
34.910325
21
65.529060
31
0.0
0
LINE
8
0
10
38.548225
20
67.035160
30
0.0
11
38.548225
21
65.529060
31
0.0
0
LINE
8
0
10
48.820825
20
65.277060
30
0.0
11
46.942225
21
65.277060
31
0.0
0
LINE
8
0
10
50.000000
20
66.807048
30
0.0
11
46.942225
21
66.807060
31
0.0
0
LINE
8
0
10
46.942225
20
65.277060
30
0.0
11
46.942225
21
66.807060
31
0.0
0
LINE
8
0
10
48.820825
20
62.324560
30
0.0
11
48.820825
21
65.277060
31
0.0
0
ATTDEF
8
0
10
12.353525
20
67.029060
30
0.0
40
3.5
1

3

2
VC_START
70
0
0
ATTDEF
8
0
10
50.000000
20
3.029048
30
0.0
40
3.5
1

3

2
VC_END
70
0
0
ATTDEF
8
0
10
0.000000
20
0.000000
30
0.0
40
3.5
1

3

2
DESC:Rabbet Bottom rail 
70
0
0
ATTDEF
8
0
10
0.000000
20
0.000000
30
0.0
40
3.5
1

3

2
DENS:1.220000
70
0
0
ATTDEF
8
0
10
0.000000
20
0.000000
30
0.0
40
3.5
1

3

2
BLEN:6500.000000,500.000000,1,0,3000.000000,6500.000000,500.000000
70
0
0
ATTDEF
8
0
10
0.000000
20
0.000000
30
0.0
40
3.5
1

3

2
FRONT_VIEW
70
0
0
ATTDEF
8
0
10
0.000000
20
0.000000
30
0.0
40
3.5
1

3

2
FP_LCS_ORIG
70
0
0
ATTDEF
8
0
10
10.000000
20
0.000000
30
0.0
40
3.5
1

3

2
FP_LCS_HOT
70
0
0
ATTDEF
8
0
10
0.000000
20
10.000000
30
0.0
40
3.5
1

3

2
FP_LCS_INTERN
70
0
0
ATTDEF
8
0
10
0.000000
20
0.000000
30
0.0
40
3.5
1

3

2
PANE_WIDTH:45.500000
70
0
0
ENDSEC
0
EOF
