0
SECTION
2
ENTITIES
0
LINE
8
0
10
1.000000
20
0.000000
30
0.0
11
1.000000
21
4.667949
31
0.0
0
LINE
8
0
10
1.000000
20
4.667949
30
0.0
11
2.000000
21
6.400000
31
0.0
0
LINE
8
0
10
2.000000
20
6.400000
30
0.0
11
1.200000
21
6.861880
31
0.0
0
LINE
8
0
10
1.200000
20
6.861880
30
0.0
11
1.200000
21
7.514359
31
0.0
0
LINE
8
0
10
1.200000
20
7.514359
30
0.0
11
2.000000
21
8.900000
31
0.0
0
LINE
8
0
10
2.000000
20
8.900000
30
0.0
11
1.200000
21
9.361880
31
0.0
0
LINE
8
0
10
1.200000
20
9.361880
30
0.0
11
1.200000
21
10.600000
31
0.0
0
LINE
8
0
10
1.200000
20
10.600000
30
0.0
11
5.000000
21
10.600000
31
0.0
0
LINE
8
0
10
5.000000
20
10.600000
30
0.0
11
5.000000
21
11.600000
31
0.0
0
LINE
8
0
10
5.000000
20
11.600000
30
0.0
11
1.200000
21
11.600000
31
0.0
0
LINE
8
0
10
1.200000
20
11.600000
30
0.0
11
1.200000
21
18.000000
31
0.0
0
ARC
8
0
10
1.700000
20
18.000000
30
0.0
40
0.500000
50
90.000000
51
180.000000
0
LINE
8
0
10
1.700000
20
18.500000
30
0.0
11
58.300000
21
18.500000
31
0.0
0
ARC
8
0
10
58.300000
20
18.000000
30
0.0
40
0.500000
50
360.000000
51
90.000000
0
LINE
8
0
10
58.800000
20
18.000000
30
0.0
11
58.800000
21
11.600000
31
0.0
0
LINE
8
0
10
58.800000
20
11.600000
30
0.0
11
55.000000
21
11.600000
31
0.0
0
LINE
8
0
10
55.000000
20
11.600000
30
0.0
11
55.000000
21
10.600000
31
0.0
0
LINE
8
0
10
55.000000
20
10.600000
30
0.0
11
58.800000
21
10.600000
31
0.0
0
LINE
8
0
10
58.800000
20
10.600000
30
0.0
11
58.800000
21
9.361880
31
0.0
0
LINE
8
0
10
58.800000
20
9.361880
30
0.0
11
58.000000
21
8.900000
31
0.0
0
LINE
8
0
10
58.000000
20
8.900000
30
0.0
11
58.800000
21
7.514359
31
0.0
0
LINE
8
0
10
58.800000
20
7.514359
30
0.0
11
58.800000
21
6.861880
31
0.0
0
LINE
8
0
10
58.800000
20
6.861880
30
0.0
11
58.000000
21
6.400000
31
0.0
0
LINE
8
0
10
58.000000
20
6.400000
30
0.0
11
59.000000
21
4.667949
31
0.0
0
LINE
8
0
10
59.000000
20
4.667949
30
0.0
11
59.000000
21
0.000000
31
0.0
0
LINE
8
0
10
59.000000
20
0.000000
30
0.0
11
60.000000
21
0.000000
31
0.0
0
LINE
8
0
10
60.000000
20
0.000000
30
0.0
11
60.000000
21
20.000000
31
0.0
0
LINE
8
0
10
60.000000
20
20.000000
30
0.0
11
0.000000
21
20.000000
31
0.0
0
LINE
8
0
10
0.000000
20
20.000000
30
0.0
11
0.000000
21
0.000000
31
0.0
0
LINE
8
0
10
0.000000
20
0.000000
30
0.0
11
1.000000
21
0.000000
31
0.0
0
ATTDEF
8
0
10
60.000000
20
20.000000
30
0.0
40
3.5
1

3

2
HC_START
70
0
0
ATTDEF
8
0
10
0.000000
20
20.000000
30
0.0
40
3.5
1

3

2
HC_END
70
0
0
ATTDEF
8
0
10
0.000000
20
20.000000
30
0.0
40
3.5
1

3

2
PTO_PRESS|1|20.00|-1.80
70
0
0
ATTDEF
8
0
10
0.000000
20
20.000000
30
0.0
40
3.5
1

3

2
DESC:TAPETA SENCILLA
70
0
0
ATTDEF
8
0
10
0.000000
20
20.000000
30
0.0
40
3.5
1

3

2
DENS:0.000000
70
0
0
ATTDEF
8
0
10
0.000000
20
20.000000
30
0.0
40
3.5
1

3

2
TDEV:0.000000
70
0
0
ATTDEF
8
0
10
0.000000
20
20.000000
30
0.0
40
3.5
1

3

2
TDEV2:0.000000
70
0
0
ATTDEF
8
0
10
0.000000
20
20.000000
30
0.0
40
3.5
1

3

2
TDEV3:0.000000
70
0
0
ATTDEF
8
0
10
0.000000
20
20.000000
30
0.0
40
3.5
1

3

2
TDEV4:0.000000
70
0
0
ATTDEF
8
0
10
0.000000
20
20.000000
30
0.0
40
3.5
1

3

2
TDEV5:0.000000
70
0
0
ATTDEF
8
0
10
0.000000
20
20.000000
30
0.0
40
3.5
1

3

2
REAR_VIEW
70
0
0
ATTDEF
8
0
10
0.000000
20
20.000000
30
0.0
40
3.5
1

3

2
BL01:6500.000000,,1
70
0
0
ATTDEF
8
0
10
0.000000
20
20.000000
30
0.0
40
3.5
1

3

2
OPTI:500.000000,1,0,3000.000000,6500.000000,500.000000,0,0.000000,0
70
0
0
ATTDEF
8
0
10
0.000000
20
20.000000
30
0.0
40
3.5
1

3

2
PANE_WIDTH:0.000000
70
0
0
ATTDEF
8
0
10
0.000000
20
20.000000
30
0.0
40
3.5
1

3

2
GLASS_MIN:0.000000
70
0
0
ATTDEF
8
0
10
0.000000
20
20.000000
30
0.0
40
3.5
1

3

2
GLASS_MAX:0.000000
70
0
0
ATTDEF
8
0
10
0.000000
20
20.000000
30
0.0
40
3.5
1

3

2
JX:0.000000
70
0
0
ATTDEF
8
0
10
0.000000
20
20.000000
30
0.0
40
3.5
1

3

2
WX:0.000000
70
0
0
ATTDEF
8
0
10
0.000000
20
20.000000
30
0.0
40
3.5
1

3

2
JY:0.000000
70
0
0
ATTDEF
8
0
10
0.000000
20
20.000000
30
0.0
40
3.5
1

3

2
WY:0.000000
70
0
0
ATTDEF
8
0
10
0.000000
20
20.000000
30
0.0
40
3.5
1

3

2
FP_LCS_ORIG
70
0
0
ATTDEF
8
0
10
0.000000
20
10.000000
30
0.0
40
3.5
1

3

2
FP_LCS_HOT
70
0
0
ATTDEF
8
0
10
10.000000
20
20.000000
30
0.0
40
3.5
1

3

2
FP_LCS_INTERN
70
0
0
ENDSEC
0
EOF
