0
SECTION
2
ENTITIES
0
LINE
8
0
10
1.500000
20
0.000000
30
0.0
11
0.500000
21
0.000000
31
0.0
0
ARC
8
0
10
0.500000
20
0.500000
30
0.0
40
0.500000
50
180.000000
51
270.000000
0
LINE
8
0
10
0.000000
20
0.500000
30
0.0
11
0.000000
21
12.300000
31
0.0
0
ARC
8
0
10
0.500000
20
12.300000
30
0.0
40
0.500000
50
90.000000
51
180.000000
0
LINE
8
0
10
0.500000
20
12.800000
30
0.0
11
1.500000
21
12.800000
31
0.0
0
ARC
8
0
10
1.500000
20
12.300000
30
0.0
40
0.500000
50
360.000000
51
90.000000
0
LINE
8
0
10
2.000000
20
12.300000
30
0.0
11
2.000000
21
12.050000
31
0.0
0
ARC
8
0
10
2.500000
20
12.050000
30
0.0
40
0.500000
50
180.000000
51
270.000000
0
LINE
8
0
10
2.500000
20
11.550000
30
0.0
11
5.450000
21
11.550000
31
0.0
0
LINE
8
0
10
5.450000
20
11.550000
30
0.0
11
5.450000
21
10.500000
31
0.0
0
ARC
8
0
10
7.450000
20
10.500000
30
0.0
40
2.000000
50
180.000000
51
270.000000
0
LINE
8
0
10
7.450000
20
8.500000
30
0.0
11
11.850000
21
8.500000
31
0.0
0
ARC
8
0
10
11.850000
20
6.400000
30
0.0
40
2.100000
50
270.000000
51
90.000000
0
LINE
8
0
10
11.850000
20
4.300000
30
0.0
11
7.450000
21
4.300000
31
0.0
0
ARC
8
0
10
7.450000
20
2.300000
30
0.0
40
2.000000
50
90.000000
51
180.000000
0
LINE
8
0
10
5.450000
20
2.300000
30
0.0
11
5.450000
21
1.250000
31
0.0
0
LINE
8
0
10
5.450000
20
1.250000
30
0.0
11
2.500000
21
1.250000
31
0.0
0
ARC
8
0
10
2.500000
20
0.750000
30
0.0
40
0.500000
50
90.000000
51
180.000000
0
LINE
8
0
10
2.000000
20
0.750000
30
0.0
11
2.000000
21
0.500000
31
0.0
0
ARC
8
0
10
1.500000
20
0.500000
30
0.0
40
0.500000
50
270.000000
51
360.000000
0
LINE
8
0
10
1.500000
20
50.000000
30
0.0
11
0.500000
21
50.000000
31
0.0
0
ARC
8
0
10
0.500000
20
50.500000
30
0.0
40
0.500000
50
180.000000
51
270.000000
0
LINE
8
0
10
0.000000
20
50.500000
30
0.0
11
0.000000
21
62.300000
31
0.0
0
ARC
8
0
10
0.500000
20
62.300000
30
0.0
40
0.500000
50
90.000000
51
180.000000
0
LINE
8
0
10
0.500000
20
62.800000
30
0.0
11
1.500000
21
62.800000
31
0.0
0
ARC
8
0
10
1.500000
20
62.300000
30
0.0
40
0.500000
50
360.000000
51
90.000000
0
LINE
8
0
10
2.000000
20
62.300000
30
0.0
11
2.000000
21
62.050000
31
0.0
0
ARC
8
0
10
2.500000
20
62.050000
30
0.0
40
0.500000
50
180.000000
51
270.000000
0
LINE
8
0
10
2.500000
20
61.550000
30
0.0
11
5.450000
21
61.550000
31
0.0
0
LINE
8
0
10
5.450000
20
61.550000
30
0.0
11
5.450000
21
60.500000
31
0.0
0
ARC
8
0
10
7.450000
20
60.500000
30
0.0
40
2.000000
50
180.000000
51
270.000000
0
LINE
8
0
10
7.450000
20
58.500000
30
0.0
11
11.850000
21
58.500000
31
0.0
0
ARC
8
0
10
11.850000
20
56.400000
30
0.0
40
2.100000
50
270.000000
51
90.000000
0
LINE
8
0
10
11.850000
20
54.300000
30
0.0
11
7.450000
21
54.300000
31
0.0
0
ARC
8
0
10
7.450000
20
52.300000
30
0.0
40
2.000000
50
90.000000
51
180.000000
0
LINE
8
0
10
5.450000
20
52.300000
30
0.0
11
5.450000
21
51.250000
31
0.0
0
LINE
8
0
10
5.450000
20
51.250000
30
0.0
11
2.500000
21
51.250000
31
0.0
0
ARC
8
0
10
2.500000
20
50.750000
30
0.0
40
0.500000
50
90.000000
51
180.000000
0
LINE
8
0
10
2.000000
20
50.750000
30
0.0
11
2.000000
21
50.500000
31
0.0
0
ARC
8
0
10
1.500000
20
50.500000
30
0.0
40
0.500000
50
270.000000
51
360.000000
0
ATTDEF
8
0
10
0.000000
20
0.000000
30
0.0
40
3.5
1

3

2
HW_START
70
0
0
ATTDEF
8
0
10
13.950000
20
62.800000
30
0.0
40
3.5
1

3

2
HW_END
70
0
0
ATTDEF
8
0
10
5.450000
20
61.550000
30
0.0
40
3.5
1

3

2
VC_START
70
0
0
ATTDEF
8
0
10
5.450000
20
1.250000
30
0.0
40
3.5
1

3

2
VC_END
70
0
0
ATTDEF
8
0
10
0.000000
20
0.000000
30
0.0
40
3.5
1

3

2
DESC:B58 - B58
70
0
0
ATTDEF
8
0
10
0.000000
20
0.000000
30
0.0
40
3.5
1

3

2
DENS:0.000000
70
0
0
ATTDEF
8
0
10
0.000000
20
0.000000
30
0.0
40
3.5
1

3

2
TDEV:0.000000
70
0
0
ATTDEF
8
0
10
0.000000
20
0.000000
30
0.0
40
3.5
1

3

2
TDEV2:0.000000
70
0
0
ATTDEF
8
0
10
0.000000
20
0.000000
30
0.0
40
3.5
1

3

2
TDEV3:0.000000
70
0
0
ATTDEF
8
0
10
0.000000
20
0.000000
30
0.0
40
3.5
1

3

2
TDEV4:0.000000
70
0
0
ATTDEF
8
0
10
0.000000
20
0.000000
30
0.0
40
3.5
1

3

2
TDEV5:0.000000
70
0
0
ATTDEF
8
0
10
0.000000
20
0.000000
30
0.0
40
3.5
1

3

2
REAR_VIEW
70
0
0
ATTDEF
8
0
10
0.000000
20
0.000000
30
0.0
40
3.5
1

3

2
BL01:6500.000000,,1
70
0
0
ATTDEF
8
0
10
0.000000
20
0.000000
30
0.0
40
3.5
1

3

2
OPTI:500.000000,1,0,3000.000000,6500.000000,500.000000,0,0.000000,0
70
0
0
ATTDEF
8
0
10
0.000000
20
0.000000
30
0.0
40
3.5
1

3

2
PANE_WIDTH:5.500000
70
0
0
ATTDEF
8
0
10
0.000000
20
0.000000
30
0.0
40
3.5
1

3

2
GLASS_MIN:0.000000
70
0
0
ATTDEF
8
0
10
0.000000
20
0.000000
30
0.0
40
3.5
1

3

2
GLASS_MAX:0.000000
70
0
0
ATTDEF
8
0
10
0.000000
20
0.000000
30
0.0
40
3.5
1

3

2
JX:0.000000
70
0
0
ATTDEF
8
0
10
0.000000
20
0.000000
30
0.0
40
3.5
1

3

2
WX:0.000000
70
0
0
ATTDEF
8
0
10
0.000000
20
0.000000
30
0.0
40
3.5
1

3

2
JY:0.000000
70
0
0
ATTDEF
8
0
10
0.000000
20
0.000000
30
0.0
40
3.5
1

3

2
WY:0.000000
70
0
0
ATTDEF
8
0
10
0.000000
20
0.000000
30
0.0
40
3.5
1

3

2
PTO_PRESS|1|0.00|-5.15
70
0
0
ATTDEF
8
0
10
0.000000
20
0.000000
30
0.0
40
3.5
1

3

2
PTO_MNTTRV|1|5.45|0.00
70
0
0
ATTDEF
8
0
10
0.000000
20
0.000000
30
0.0
40
3.5
1

3

2
FP_LCS_ORIG
70
0
0
ATTDEF
8
0
10
10.000000
20
0.000000
30
0.0
40
3.5
1

3

2
FP_LCS_HOT
70
0
0
ATTDEF
8
0
10
0.000000
20
10.000000
30
0.0
40
3.5
1

3

2
FP_LCS_INTERN
70
0
0
ENDSEC
0
EOF
