0
SECTION
2
ENTITIES
0
LINE
8
0
10
0.250000
20
0.000000
30
0.0
11
46.750000
21
0.000000
31
0.0
0
ARC
8
0
10
0.250000
20
0.250000
30
0.0
40
0.250000
50
180.000000
51
270.000000
0
ARC
8
0
10
46.750000
20
0.250000
30
0.0
40
0.250000
50
270.000000
51
360.000000
0
LINE
8
0
10
0.000000
20
59.750000
30
0.0
11
0.000000
21
0.250000
31
0.0
0
LINE
8
0
10
47.000000
20
0.250000
30
0.0
11
47.000000
21
0.750000
31
0.0
0
ARC
8
0
10
0.250000
20
59.750000
30
0.0
40
0.250000
50
90.000000
51
180.000000
0
ARC
8
0
10
46.750000
20
0.750000
30
0.0
40
0.250000
50
360.000000
51
90.000000
0
LINE
8
0
10
46.750000
20
60.000000
30
0.0
11
0.250000
21
60.000000
31
0.0
0
LINE
8
0
10
46.750000
20
1.000000
30
0.0
11
42.332051
21
1.000000
31
0.0
0
ARC
8
0
10
46.750000
20
59.750000
30
0.0
40
0.250000
50
360.000000
51
90.000000
0
LINE
8
0
10
42.332051
20
1.000000
30
0.0
11
40.600000
21
2.000000
31
0.0
0
LINE
8
0
10
47.000000
20
59.250000
30
0.0
11
47.000000
21
59.750000
31
0.0
0
LINE
8
0
10
40.600000
20
2.000000
30
0.0
11
40.138120
21
1.200000
31
0.0
0
ARC
8
0
10
46.750000
20
59.250000
30
0.0
40
0.250000
50
270.000000
51
360.000000
0
LINE
8
0
10
40.138120
20
1.200000
30
0.0
11
39.485641
21
1.200000
31
0.0
0
LINE
8
0
10
42.332051
20
59.000000
30
0.0
11
46.750000
21
59.000000
31
0.0
0
LINE
8
0
10
39.485641
20
1.200000
30
0.0
11
38.100000
21
2.000000
31
0.0
0
LINE
8
0
10
40.600000
20
58.000000
30
0.0
11
42.332051
21
59.000000
31
0.0
0
LINE
8
0
10
38.100000
20
2.000000
30
0.0
11
37.638120
21
1.200000
31
0.0
0
LINE
8
0
10
40.138120
20
58.800000
30
0.0
11
40.600000
21
58.000000
31
0.0
0
LINE
8
0
10
37.638120
20
1.200000
30
0.0
11
36.650000
21
1.200000
31
0.0
0
LINE
8
0
10
39.485641
20
58.800000
30
0.0
11
40.138120
21
58.800000
31
0.0
0
ARC
8
0
10
36.650000
20
1.450000
30
0.0
40
0.250000
50
180.000000
51
270.000000
0
LINE
8
0
10
38.100000
20
58.000000
30
0.0
11
39.485641
21
58.800000
31
0.0
0
LINE
8
0
10
36.400000
20
1.450000
30
0.0
11
36.400000
21
4.500000
31
0.0
0
LINE
8
0
10
37.638120
20
58.800000
30
0.0
11
38.100000
21
58.000000
31
0.0
0
ARC
8
0
10
35.900000
20
4.500000
30
0.0
40
0.500000
50
360.000000
51
180.000000
0
LINE
8
0
10
36.650000
20
58.800000
30
0.0
11
37.638120
21
58.800000
31
0.0
0
LINE
8
0
10
35.400000
20
4.500000
30
0.0
11
35.400000
21
1.450000
31
0.0
0
ARC
8
0
10
36.650000
20
58.550000
30
0.0
40
0.250000
50
90.000000
51
180.000000
0
ARC
8
0
10
35.150000
20
1.450000
30
0.0
40
0.250000
50
270.000000
51
360.000000
0
LINE
8
0
10
36.400000
20
55.500000
30
0.0
11
36.400000
21
58.550000
31
0.0
0
LINE
8
0
10
35.150000
20
1.200000
30
0.0
11
29.000000
21
1.200000
31
0.0
0
ARC
8
0
10
35.900000
20
55.500000
30
0.0
40
0.500000
50
180.000000
51
360.000000
0
ARC
8
0
10
29.000000
20
1.700000
30
0.0
40
0.500000
50
180.000000
51
270.000000
0
LINE
8
0
10
35.400000
20
58.550000
30
0.0
11
35.400000
21
55.500000
31
0.0
0
LINE
8
0
10
28.500000
20
1.700000
30
0.0
11
28.500000
21
58.300000
31
0.0
0
ARC
8
0
10
35.150000
20
58.550000
30
0.0
40
0.250000
50
360.000000
51
90.000000
0
ARC
8
0
10
29.000000
20
58.300000
30
0.0
40
0.500000
50
90.000000
51
180.000000
0
LINE
8
0
10
29.000000
20
58.800000
30
0.0
11
35.150000
21
58.800000
31
0.0
0
ARC
8
0
10
2.000000
20
58.000000
30
0.0
40
0.500000
50
90.000000
51
180.000000
0
LINE
8
0
10
1.500000
20
58.000000
30
0.0
11
1.500000
21
2.000000
31
0.0
0
LINE
8
0
10
26.500000
20
58.500000
30
0.0
11
2.000000
21
58.500000
31
0.0
0
ARC
8
0
10
2.000000
20
2.000000
30
0.0
40
0.500000
50
180.000000
51
270.000000
0
ARC
8
0
10
26.500000
20
58.000000
30
0.0
40
0.500000
50
360.000000
51
90.000000
0
LINE
8
0
10
2.000000
20
1.500000
30
0.0
11
26.500000
21
1.500000
31
0.0
0
LINE
8
0
10
27.000000
20
2.000000
30
0.0
11
27.000000
21
58.000000
31
0.0
0
ARC
8
0
10
26.500000
20
2.000000
30
0.0
40
0.500000
50
270.000000
51
360.000000
0
ATTDEF
8
0
10
0.250000
20
60.000000
30
0.0
40
3.5
1

3

2
VC_START
70
0
0
ATTDEF
8
0
10
0.250000
20
0.000000
30
0.0
40
3.5
1

3

2
VC_END
70
0
0
LINE
8
0
10
45.299038
20
23.250000
30
0.0
11
43.799038
21
23.250000
31
0.0
0
ARC
8
0
10
43.799038
20
23.750000
30
0.0
40
0.500000
50
180.000000
51
270.000000
0
LINE
8
0
10
43.299038
20
23.750000
30
0.0
11
43.299038
21
30.150000
31
0.0
0
LINE
8
0
10
43.299038
20
30.150000
30
0.0
11
43.299038
21
36.550000
31
0.0
0
ARC
8
0
10
43.799038
20
36.550000
30
0.0
40
0.500000
50
90.000000
51
180.000000
0
LINE
8
0
10
43.799038
20
37.050000
30
0.0
11
45.299038
21
37.050000
31
0.0
0
ARC
8
0
10
45.299038
20
36.550000
30
0.0
40
0.500000
50
360.000000
51
90.000000
0
LINE
8
0
10
45.799038
20
36.550000
30
0.0
11
45.799038
21
36.050000
31
0.0
0
ARC
8
0
10
46.299038
20
36.050000
30
0.0
40
0.500000
50
180.000000
51
270.000000
0
LINE
8
0
10
46.299038
20
35.550000
30
0.0
11
46.499038
21
35.550000
31
0.0
0
ARC
8
0
10
46.499038
20
36.050000
30
0.0
40
0.500000
50
270.000000
51
360.000000
0
LINE
8
0
10
46.999038
20
36.050000
30
0.0
11
46.999038
21
44.750000
31
0.0
0
ARC
8
0
10
45.499038
20
44.750000
30
0.0
40
1.500000
50
360.000000
51
90.000000
0
LINE
8
0
10
45.499038
20
46.250000
30
0.0
11
45.099038
21
46.250000
31
0.0
0
ARC
8
0
10
45.099038
20
46.750000
30
0.0
40
0.500000
50
180.000000
51
270.000000
0
LINE
8
0
10
44.599038
20
46.750000
30
0.0
11
44.599038
21
51.350000
31
0.0
0
ARC
8
0
10
45.099038
20
51.350000
30
0.0
40
0.500000
50
90.000000
51
180.000000
0
LINE
8
0
10
45.099038
20
51.850000
30
0.0
11
46.999038
21
51.850000
31
0.0
0
LINE
8
0
10
46.999038
20
51.850000
30
0.0
11
46.999038
21
53.200000
31
0.0
0
ARC
8
0
10
46.499038
20
53.200000
30
0.0
40
0.500000
50
360.000000
51
90.000000
0
LINE
8
0
10
46.499038
20
53.700000
30
0.0
11
46.299038
21
53.700000
31
0.0
0
ARC
8
0
10
46.299038
20
53.200000
30
0.0
40
0.500000
50
90.000000
51
180.000000
0
LINE
8
0
10
45.799038
20
53.200000
30
0.0
11
45.799038
21
53.000000
31
0.0
0
LINE
8
0
10
45.799038
20
53.000000
30
0.0
11
44.599038
21
53.000000
31
0.0
0
LINE
8
0
10
44.599038
20
53.000000
30
0.0
11
44.599038
21
57.000000
31
0.0
0
LINE
8
0
10
44.599038
20
57.000000
30
0.0
11
45.799038
21
57.000000
31
0.0
0
LINE
8
0
10
45.799038
20
57.000000
30
0.0
11
45.799038
21
56.800000
31
0.0
0
ARC
8
0
10
46.299038
20
56.800000
30
0.0
40
0.500000
50
180.000000
51
270.000000
0
LINE
8
0
10
46.299038
20
56.300000
30
0.0
11
46.499038
21
56.300000
31
0.0
0
ARC
8
0
10
46.499038
20
56.800000
30
0.0
40
0.500000
50
270.000000
51
360.000000
0
LINE
8
0
10
46.999038
20
56.800000
30
0.0
11
46.999038
21
58.200000
31
0.0
0
LINE
8
0
10
46.999038
20
58.200000
30
0.0
11
41.737834
21
58.200000
31
0.0
0
LINE
8
0
10
41.737834
20
58.200000
30
0.0
11
40.525241
21
57.502759
31
0.0
0
LINE
8
0
10
40.525241
20
57.502759
30
0.0
11
39.943781
21
58.500000
31
0.0
0
LINE
8
0
10
39.943781
20
58.500000
30
0.0
11
36.900000
21
56.750000
31
0.0
0
LINE
8
0
10
36.900000
20
56.750000
30
0.0
11
37.400000
21
55.900000
31
0.0
0
LINE
8
0
10
37.400000
20
55.900000
30
0.0
11
39.565063
21
57.150000
31
0.0
0
LINE
8
0
10
39.565063
20
57.150000
30
0.0
11
40.149038
21
56.150000
31
0.0
0
LINE
8
0
10
40.149038
20
56.150000
30
0.0
11
41.845827
21
57.146527
31
0.0
0
ARC
8
0
10
42.099038
20
56.715384
30
0.0
40
0.500000
50
360.000000
51
120.425784
0
LINE
8
0
10
42.599038
20
56.715384
30
0.0
11
42.599038
21
45.750000
31
0.0
0
ARC
8
0
10
44.099038
20
45.750000
30
0.0
40
1.500000
50
180.000000
51
270.000000
0
LINE
8
0
10
44.099038
20
44.250000
30
0.0
11
44.499038
21
44.250000
31
0.0
0
ARC
8
0
10
44.499038
20
43.750000
30
0.0
40
0.500000
50
360.000000
51
90.000000
0
LINE
8
0
10
44.999038
20
43.750000
30
0.0
11
44.999038
21
39.550000
31
0.0
0
ARC
8
0
10
44.499038
20
39.550000
30
0.0
40
0.500000
50
270.000000
51
360.000000
0
LINE
8
0
10
44.499038
20
39.050000
30
0.0
11
42.799038
21
39.050000
31
0.0
0
ARC
8
0
10
42.799038
20
37.550000
30
0.0
40
1.500000
50
90.000000
51
180.000000
0
LINE
8
0
10
41.299038
20
37.550000
30
0.0
11
41.299038
21
31.650000
31
0.0
0
LINE
8
0
10
41.299038
20
31.650000
30
0.0
11
40.799038
21
31.150000
31
0.0
0
LINE
8
0
10
40.799038
20
31.150000
30
0.0
11
41.299038
21
30.650000
31
0.0
0
LINE
8
0
10
41.299038
20
30.650000
30
0.0
11
41.299038
21
30.150000
31
0.0
0
LINE
8
0
10
41.299038
20
30.150000
30
0.0
11
41.299038
21
29.650000
31
0.0
0
LINE
8
0
10
41.299038
20
29.650000
30
0.0
11
40.799038
21
29.150000
31
0.0
0
LINE
8
0
10
40.799038
20
29.150000
30
0.0
11
41.299038
21
28.650000
31
0.0
0
LINE
8
0
10
41.299038
20
28.650000
30
0.0
11
41.299038
21
22.750000
31
0.0
0
ARC
8
0
10
42.799038
20
22.750000
30
0.0
40
1.500000
50
180.000000
51
270.000000
0
LINE
8
0
10
42.799038
20
21.250000
30
0.0
11
44.499038
21
21.250000
31
0.0
0
ARC
8
0
10
44.499038
20
20.750000
30
0.0
40
0.500000
50
360.000000
51
90.000000
0
LINE
8
0
10
44.999038
20
20.750000
30
0.0
11
44.999038
21
16.550000
31
0.0
0
ARC
8
0
10
44.499038
20
16.550000
30
0.0
40
0.500000
50
270.000000
51
360.000000
0
LINE
8
0
10
44.499038
20
16.050000
30
0.0
11
44.099038
21
16.050000
31
0.0
0
ARC
8
0
10
44.099038
20
14.550000
30
0.0
40
1.500000
50
90.000000
51
180.000000
0
LINE
8
0
10
42.599038
20
14.550000
30
0.0
11
42.599038
21
3.584616
31
0.0
0
ARC
8
0
10
42.099038
20
3.584616
30
0.0
40
0.500000
50
239.574216
51
360.000000
0
LINE
8
0
10
41.845827
20
3.153473
30
0.0
11
40.149038
21
4.150000
31
0.0
0
LINE
8
0
10
40.149038
20
4.150000
30
0.0
11
39.565063
21
3.150000
31
0.0
0
LINE
8
0
10
39.565063
20
3.150000
30
0.0
11
37.400000
21
4.400000
31
0.0
0
LINE
8
0
10
37.400000
20
4.400000
30
0.0
11
36.900000
21
3.550000
31
0.0
0
LINE
8
0
10
36.900000
20
3.550000
30
0.0
11
39.943781
21
1.800000
31
0.0
0
LINE
8
0
10
39.943781
20
1.800000
30
0.0
11
40.525241
21
2.797241
31
0.0
0
LINE
8
0
10
40.525241
20
2.797241
30
0.0
11
41.737834
21
2.100000
31
0.0
0
LINE
8
0
10
41.737834
20
2.100000
30
0.0
11
46.999038
21
2.100000
31
0.0
0
LINE
8
0
10
46.999038
20
2.100000
30
0.0
11
46.999038
21
3.500000
31
0.0
0
ARC
8
0
10
46.499038
20
3.500000
30
0.0
40
0.500000
50
360.000000
51
90.000000
0
LINE
8
0
10
46.499038
20
4.000000
30
0.0
11
46.299038
21
4.000000
31
0.0
0
ARC
8
0
10
46.299038
20
3.500000
30
0.0
40
0.500000
50
90.000000
51
180.000000
0
LINE
8
0
10
45.799038
20
3.500000
30
0.0
11
45.799038
21
3.300000
31
0.0
0
LINE
8
0
10
45.799038
20
3.300000
30
0.0
11
44.599038
21
3.300000
31
0.0
0
LINE
8
0
10
44.599038
20
3.300000
30
0.0
11
44.599038
21
7.300000
31
0.0
0
LINE
8
0
10
44.599038
20
7.300000
30
0.0
11
45.799038
21
7.300000
31
0.0
0
LINE
8
0
10
45.799038
20
7.300000
30
0.0
11
45.799038
21
7.100000
31
0.0
0
ARC
8
0
10
46.299038
20
7.100000
30
0.0
40
0.500000
50
180.000000
51
270.000000
0
LINE
8
0
10
46.299038
20
6.600000
30
0.0
11
46.499038
21
6.600000
31
0.0
0
ARC
8
0
10
46.499038
20
7.100000
30
0.0
40
0.500000
50
270.000000
51
360.000000
0
LINE
8
0
10
46.999038
20
7.100000
30
0.0
11
46.999038
21
8.500000
31
0.0
0
LINE
8
0
10
46.999038
20
8.500000
30
0.0
11
45.099038
21
8.500000
31
0.0
0
ARC
8
0
10
45.099038
20
9.000000
30
0.0
40
0.500000
50
180.000000
51
270.000000
0
LINE
8
0
10
44.599038
20
9.000000
30
0.0
11
44.599038
21
13.550000
31
0.0
0
ARC
8
0
10
45.099038
20
13.550000
30
0.0
40
0.500000
50
90.000000
51
180.000000
0
LINE
8
0
10
45.099038
20
14.050000
30
0.0
11
45.499038
21
14.050000
31
0.0
0
ARC
8
0
10
45.499038
20
15.550000
30
0.0
40
1.500000
50
270.000000
51
360.000000
0
LINE
8
0
10
46.999038
20
15.550000
30
0.0
11
46.999038
21
24.250000
31
0.0
0
ARC
8
0
10
46.499038
20
24.250000
30
0.0
40
0.500000
50
360.000000
51
90.000000
0
LINE
8
0
10
46.499038
20
24.750000
30
0.0
11
46.299038
21
24.750000
31
0.0
0
ARC
8
0
10
46.299038
20
24.250000
30
0.0
40
0.500000
50
90.000000
51
180.000000
0
LINE
8
0
10
45.799038
20
24.250000
30
0.0
11
45.799038
21
23.750000
31
0.0
0
ARC
8
0
10
45.299038
20
23.750000
30
0.0
40
0.500000
50
270.000000
51
360.000000
0
ATTDEF
8
0
10
39.943781
20
58.500000
30
0.0
40
3.5
1

3

2
VC_START
70
0
0
ATTDEF
8
0
10
39.943781
20
1.800000
30
0.0
40
3.5
1

3

2
VC_END
70
0
0
ARC
8
0
10
59.491641
20
30.150000
30
0.0
40
2.199036
50
180.000000
51
360.000000
0
ARC
8
0
10
59.491641
20
30.150000
30
0.0
40
2.199036
50
360.000000
51
180.000000
0
ARC
8
0
10
50.423844
20
30.150000
30
0.0
40
3.251302
50
180.000000
51
360.000000
0
ARC
8
0
10
50.423844
20
30.150000
30
0.0
40
3.251302
50
360.000000
51
180.000000
0
LINE
8
0
10
44.800000
20
23.750000
30
0.0
11
43.800000
21
23.750000
31
0.0
0
ARC
8
0
10
43.800000
20
24.250000
30
0.0
40
0.500000
50
180.000000
51
270.000000
0
LINE
8
0
10
43.300000
20
24.250000
30
0.0
11
43.300000
21
36.050000
31
0.0
0
ARC
8
0
10
43.800000
20
36.050000
30
0.0
40
0.500000
50
90.000000
51
180.000000
0
LINE
8
0
10
43.800000
20
36.550000
30
0.0
11
44.800000
21
36.550000
31
0.0
0
ARC
8
0
10
44.800000
20
36.050000
30
0.0
40
0.500000
50
360.000000
51
90.000000
0
LINE
8
0
10
45.300000
20
36.050000
30
0.0
11
45.300000
21
35.800000
31
0.0
0
ARC
8
0
10
45.800000
20
35.800000
30
0.0
40
0.500000
50
180.000000
51
270.000000
0
LINE
8
0
10
45.800000
20
35.300000
30
0.0
11
64.750000
21
35.300000
31
0.0
0
LINE
8
0
10
64.750000
20
35.300000
30
0.0
11
64.750000
21
34.250000
31
0.0
0
ARC
8
0
10
66.750000
20
34.250000
30
0.0
40
2.000000
50
180.000000
51
270.000000
0
LINE
8
0
10
66.750000
20
32.250000
30
0.0
11
71.150000
21
32.250000
31
0.0
0
ARC
8
0
10
71.150000
20
30.150000
30
0.0
40
2.100000
50
270.000000
51
90.000000
0
LINE
8
0
10
71.150000
20
28.050000
30
0.0
11
66.750000
21
28.050000
31
0.0
0
ARC
8
0
10
66.750000
20
26.050000
30
0.0
40
2.000000
50
90.000000
51
180.000000
0
LINE
8
0
10
64.750000
20
26.050000
30
0.0
11
64.750000
21
25.000000
31
0.0
0
LINE
8
0
10
64.750000
20
25.000000
30
0.0
11
45.800000
21
25.000000
31
0.0
0
ARC
8
0
10
45.800000
20
24.500000
30
0.0
40
0.500000
50
90.000000
51
180.000000
0
LINE
8
0
10
45.300000
20
24.500000
30
0.0
11
45.300000
21
24.250000
31
0.0
0
ARC
8
0
10
44.800000
20
24.250000
30
0.0
40
0.500000
50
270.000000
51
360.000000
0
ATTDEF
8
0
10
45.800000
20
35.300000
30
0.0
40
3.5
1

3

2
VC_START
70
0
0
ATTDEF
8
0
10
45.800000
20
25.000000
30
0.0
40
3.5
1

3

2
VC_END
70
0
0
ARC
8
0
10
139.750000
20
3.200000
30
0.0
40
1.000000
50
270.000000
51
360.000000
0
LINE
8
0
10
139.750000
20
2.200000
30
0.0
11
84.150000
21
2.200000
31
0.0
0
ARC
8
0
10
84.150000
20
3.200000
30
0.0
40
1.000000
50
180.000000
51
270.000000
0
LINE
8
0
10
83.150000
20
3.200000
30
0.0
11
83.150000
21
25.550000
31
0.0
0
ARC
8
0
10
81.650000
20
25.550000
30
0.0
40
1.500000
50
360.000000
51
90.000000
0
LINE
8
0
10
81.650000
20
27.050000
30
0.0
11
80.650000
21
27.050000
31
0.0
0
ARC
8
0
10
80.650000
20
27.550000
30
0.0
40
0.500000
50
180.000000
51
270.000000
0
LINE
8
0
10
80.150000
20
27.550000
30
0.0
11
80.150000
21
32.850000
31
0.0
0
ARC
8
0
10
80.650000
20
32.850000
30
0.0
40
0.500000
50
90.000000
51
180.000000
0
LINE
8
0
10
80.650000
20
33.350000
30
0.0
11
81.650000
21
33.350000
31
0.0
0
ARC
8
0
10
81.650000
20
34.850000
30
0.0
40
1.500000
50
270.000000
51
360.000000
0
LINE
8
0
10
83.150000
20
34.850000
30
0.0
11
83.150000
21
57.200000
31
0.0
0
ARC
8
0
10
84.150000
20
57.200000
30
0.0
40
1.000000
50
90.000000
51
180.000000
0
LINE
8
0
10
84.150000
20
58.200000
30
0.0
11
139.750000
21
58.200000
31
0.0
0
ARC
8
0
10
139.750000
20
57.200000
30
0.0
40
1.000000
50
360.000000
51
90.000000
0
LINE
8
0
10
140.750000
20
57.200000
30
0.0
11
140.750000
21
3.200000
31
0.0
0
LINE
8
0
10
65.750000
20
33.350000
30
0.0
11
66.989211
21
33.350000
31
0.0
0
ARC
8
0
10
66.989211
20
33.150000
30
0.0
40
0.200000
50
28.442929
51
90.000000
0
LINE
8
0
10
67.165069
20
33.245257
30
0.0
11
67.474142
21
32.674662
31
0.0
0
ARC
8
0
10
67.650000
20
32.769918
30
0.0
40
0.200000
50
208.442929
51
331.557072
0
LINE
8
0
10
67.825858
20
32.674662
30
0.0
11
68.124142
21
33.225338
31
0.0
0
ARC
8
0
10
68.300000
20
33.130082
30
0.0
40
0.200000
50
28.442929
51
151.557072
0
LINE
8
0
10
68.475858
20
33.225338
30
0.0
11
68.774142
21
32.674662
31
0.0
0
ARC
8
0
10
68.950000
20
32.769918
30
0.0
40
0.200000
50
208.442929
51
331.557071
0
LINE
8
0
10
69.125858
20
32.674662
30
0.0
11
69.424142
21
33.225338
31
0.0
0
ARC
8
0
10
69.600000
20
33.130082
30
0.0
40
0.200000
50
28.442929
51
151.557071
0
LINE
8
0
10
69.775858
20
33.225338
30
0.0
11
70.074142
21
32.674662
31
0.0
0
ARC
8
0
10
70.250000
20
32.769918
30
0.0
40
0.200000
50
208.442929
51
331.557071
0
LINE
8
0
10
70.425858
20
32.674662
30
0.0
11
70.724142
21
33.225338
31
0.0
0
ARC
8
0
10
70.900000
20
33.130082
30
0.0
40
0.200000
50
28.442929
51
151.557071
0
LINE
8
0
10
71.075858
20
33.225338
30
0.0
11
71.374142
21
32.674662
31
0.0
0
ARC
8
0
10
71.550000
20
32.769918
30
0.0
40
0.200000
50
208.442929
51
331.557071
0
LINE
8
0
10
71.725858
20
32.674662
30
0.0
11
72.024142
21
33.225338
31
0.0
0
ARC
8
0
10
72.200000
20
33.130082
30
0.0
40
0.200000
50
28.442929
51
151.557071
0
LINE
8
0
10
72.375858
20
33.225338
30
0.0
11
72.674142
21
32.674662
31
0.0
0
ARC
8
0
10
72.850000
20
32.769918
30
0.0
40
0.200000
50
208.442929
51
331.557071
0
LINE
8
0
10
73.025858
20
32.674662
30
0.0
11
73.324142
21
33.225338
31
0.0
0
ARC
8
0
10
73.500000
20
33.130082
30
0.0
40
0.200000
50
28.442929
51
151.557071
0
LINE
8
0
10
73.675858
20
33.225338
30
0.0
11
73.974142
21
32.674662
31
0.0
0
ARC
8
0
10
74.150000
20
32.769918
30
0.0
40
0.200000
50
208.442929
51
331.557071
0
LINE
8
0
10
74.325858
20
32.674662
30
0.0
11
74.624142
21
33.225338
31
0.0
0
ARC
8
0
10
74.800000
20
33.130082
30
0.0
40
0.200000
50
28.442929
51
151.557071
0
LINE
8
0
10
74.975858
20
33.225338
30
0.0
11
75.274142
21
32.674662
31
0.0
0
ARC
8
0
10
75.450000
20
32.769918
30
0.0
40
0.200000
50
208.442929
51
331.557071
0
LINE
8
0
10
75.625858
20
32.674662
30
0.0
11
75.934931
21
33.245257
31
0.0
0
ARC
8
0
10
76.110789
20
33.150000
30
0.0
40
0.200000
50
90.000000
51
151.557072
0
LINE
8
0
10
76.110789
20
33.350000
30
0.0
11
77.150000
21
33.350000
31
0.0
0
ARC
8
0
10
77.150000
20
32.350000
30
0.0
40
1.000000
50
360.000000
51
90.000000
0
LINE
8
0
10
78.150000
20
32.350000
30
0.0
11
78.150000
21
28.050000
31
0.0
0
ARC
8
0
10
77.150000
20
28.050000
30
0.0
40
1.000000
50
270.000000
51
360.000000
0
LINE
8
0
10
77.150000
20
27.050000
30
0.0
11
76.760789
21
27.050000
31
0.0
0
ARC
8
0
10
76.760789
20
27.250000
30
0.0
40
0.200000
50
208.442928
51
270.000000
0
LINE
8
0
10
76.584931
20
27.154743
30
0.0
11
76.275858
21
27.725338
31
0.0
0
ARC
8
0
10
76.100000
20
27.630082
30
0.0
40
0.200000
50
28.442928
51
151.557071
0
LINE
8
0
10
75.924142
20
27.725338
30
0.0
11
75.625858
21
27.174662
31
0.0
0
ARC
8
0
10
75.450000
20
27.269918
30
0.0
40
0.200000
50
208.442928
51
331.557071
0
LINE
8
0
10
75.274142
20
27.174662
30
0.0
11
74.975858
21
27.725338
31
0.0
0
ARC
8
0
10
74.800000
20
27.630082
30
0.0
40
0.200000
50
28.442929
51
151.557071
0
LINE
8
0
10
74.624142
20
27.725338
30
0.0
11
74.325858
21
27.174662
31
0.0
0
ARC
8
0
10
74.150000
20
27.269918
30
0.0
40
0.200000
50
208.442928
51
331.557071
0
LINE
8
0
10
73.974142
20
27.174662
30
0.0
11
73.675858
21
27.725338
31
0.0
0
ARC
8
0
10
73.500000
20
27.630082
30
0.0
40
0.200000
50
28.442929
51
151.557071
0
LINE
8
0
10
73.324142
20
27.725338
30
0.0
11
73.025858
21
27.174662
31
0.0
0
ARC
8
0
10
72.850000
20
27.269918
30
0.0
40
0.200000
50
208.442928
51
331.557071
0
LINE
8
0
10
72.674142
20
27.174662
30
0.0
11
72.375858
21
27.725338
31
0.0
0
ARC
8
0
10
72.200000
20
27.630082
30
0.0
40
0.200000
50
28.442929
51
151.557071
0
LINE
8
0
10
72.024142
20
27.725338
30
0.0
11
71.725858
21
27.174662
31
0.0
0
ARC
8
0
10
71.550000
20
27.269918
30
0.0
40
0.200000
50
208.442929
51
331.557071
0
LINE
8
0
10
71.374142
20
27.174662
30
0.0
11
71.075858
21
27.725338
31
0.0
0
ARC
8
0
10
70.900000
20
27.630082
30
0.0
40
0.200000
50
28.442929
51
151.557071
0
LINE
8
0
10
70.724142
20
27.725338
30
0.0
11
70.425858
21
27.174662
31
0.0
0
ARC
8
0
10
70.250000
20
27.269918
30
0.0
40
0.200000
50
208.442929
51
331.557071
0
LINE
8
0
10
70.074142
20
27.174662
30
0.0
11
69.775858
21
27.725338
31
0.0
0
ARC
8
0
10
69.600000
20
27.630082
30
0.0
40
0.200000
50
28.442928
51
151.557071
0
LINE
8
0
10
69.424142
20
27.725338
30
0.0
11
69.125858
21
27.174662
31
0.0
0
ARC
8
0
10
68.950000
20
27.269918
30
0.0
40
0.200000
50
208.442929
51
331.557071
0
LINE
8
0
10
68.774142
20
27.174662
30
0.0
11
68.475858
21
27.725338
31
0.0
0
ARC
8
0
10
68.300000
20
27.630082
30
0.0
40
0.200000
50
28.442929
51
151.557071
0
LINE
8
0
10
68.124142
20
27.725338
30
0.0
11
67.825858
21
27.174662
31
0.0
0
ARC
8
0
10
67.650000
20
27.269918
30
0.0
40
0.200000
50
208.442929
51
331.557071
0
LINE
8
0
10
67.474142
20
27.174662
30
0.0
11
67.175858
21
27.725338
31
0.0
0
ARC
8
0
10
67.000000
20
27.630082
30
0.0
40
0.200000
50
28.442929
51
151.557071
0
LINE
8
0
10
66.824142
20
27.725338
30
0.0
11
66.515069
21
27.154743
31
0.0
0
ARC
8
0
10
66.339211
20
27.250000
30
0.0
40
0.200000
50
270.000000
51
331.557071
0
LINE
8
0
10
66.339211
20
27.050000
30
0.0
11
65.750000
21
27.050000
31
0.0
0
ARC
8
0
10
65.750000
20
26.050000
30
0.0
40
1.000000
50
90.000000
51
180.000000
0
LINE
8
0
10
64.750000
20
26.050000
30
0.0
11
64.750000
21
25.050000
31
0.0
0
LINE
8
0
10
64.750000
20
25.050000
30
0.0
11
80.650000
21
25.050000
31
0.0
0
ARC
8
0
10
80.650000
20
24.550000
30
0.0
40
0.500000
50
360.000000
51
90.000000
0
LINE
8
0
10
81.150000
20
24.550000
30
0.0
11
81.150000
21
7.100000
31
0.0
0
ARC
8
0
10
80.650000
20
7.100000
30
0.0
40
0.500000
50
270.000000
51
360.000000
0
LINE
8
0
10
80.650000
20
6.600000
30
0.0
11
78.750000
21
6.600000
31
0.0
0
LINE
8
0
10
78.750000
20
6.600000
30
0.0
11
78.750000
21
5.200000
31
0.0
0
ARC
8
0
10
79.250000
20
5.200000
30
0.0
40
0.500000
50
180.000000
51
270.000000
0
LINE
8
0
10
79.250000
20
4.700000
30
0.0
11
79.450000
21
4.700000
31
0.0
0
ARC
8
0
10
79.450000
20
5.200000
30
0.0
40
0.500000
50
270.000000
51
360.000000
0
LINE
8
0
10
79.950000
20
5.200000
30
0.0
11
79.950000
21
5.400000
31
0.0
0
LINE
8
0
10
79.950000
20
5.400000
30
0.0
11
81.150000
21
5.400000
31
0.0
0
LINE
8
0
10
81.150000
20
5.400000
30
0.0
11
81.150000
21
1.400000
31
0.0
0
LINE
8
0
10
81.150000
20
1.400000
30
0.0
11
79.950000
21
1.400000
31
0.0
0
LINE
8
0
10
79.950000
20
1.400000
30
0.0
11
79.950000
21
1.600000
31
0.0
0
ARC
8
0
10
79.450000
20
1.600000
30
0.0
40
0.500000
50
360.000000
51
90.000000
0
LINE
8
0
10
79.450000
20
2.100000
30
0.0
11
79.250000
21
2.100000
31
0.0
0
ARC
8
0
10
79.250000
20
1.600000
30
0.0
40
0.500000
50
90.000000
51
180.000000
0
LINE
8
0
10
78.750000
20
1.600000
30
0.0
11
78.750000
21
0.200000
31
0.0
0
LINE
8
0
10
78.750000
20
0.200000
30
0.0
11
142.750000
21
0.200000
31
0.0
0
LINE
8
0
10
142.750000
20
0.200000
30
0.0
11
142.750000
21
60.200000
31
0.0
0
LINE
8
0
10
142.750000
20
60.200000
30
0.0
11
78.750000
21
60.200000
31
0.0
0
LINE
8
0
10
78.750000
20
60.200000
30
0.0
11
78.750000
21
58.800000
31
0.0
0
ARC
8
0
10
79.250000
20
58.800000
30
0.0
40
0.500000
50
180.000000
51
270.000000
0
LINE
8
0
10
79.250000
20
58.300000
30
0.0
11
79.450000
21
58.300000
31
0.0
0
ARC
8
0
10
79.450000
20
58.800000
30
0.0
40
0.500000
50
270.000000
51
360.000000
0
LINE
8
0
10
79.950000
20
58.800000
30
0.0
11
79.950000
21
59.000000
31
0.0
0
LINE
8
0
10
79.950000
20
59.000000
30
0.0
11
81.150000
21
59.000000
31
0.0
0
LINE
8
0
10
81.150000
20
59.000000
30
0.0
11
81.150000
21
55.000000
31
0.0
0
LINE
8
0
10
81.150000
20
55.000000
30
0.0
11
79.950000
21
55.000000
31
0.0
0
LINE
8
0
10
79.950000
20
55.000000
30
0.0
11
79.950000
21
55.200000
31
0.0
0
ARC
8
0
10
79.450000
20
55.200000
30
0.0
40
0.500000
50
360.000000
51
90.000000
0
LINE
8
0
10
79.450000
20
55.700000
30
0.0
11
79.250000
21
55.700000
31
0.0
0
ARC
8
0
10
79.250000
20
55.200000
30
0.0
40
0.500000
50
90.000000
51
180.000000
0
LINE
8
0
10
78.750000
20
55.200000
30
0.0
11
78.750000
21
53.800000
31
0.0
0
LINE
8
0
10
78.750000
20
53.800000
30
0.0
11
80.650000
21
53.800000
31
0.0
0
ARC
8
0
10
80.650000
20
53.300000
30
0.0
40
0.500000
50
360.000000
51
90.000000
0
LINE
8
0
10
81.150000
20
53.300000
30
0.0
11
81.150000
21
35.850000
31
0.0
0
ARC
8
0
10
80.650000
20
35.850000
30
0.0
40
0.500000
50
270.000000
51
360.000000
0
LINE
8
0
10
80.650000
20
35.350000
30
0.0
11
64.750000
21
35.350000
31
0.0
0
LINE
8
0
10
64.750000
20
35.350000
30
0.0
11
64.750000
21
34.350000
31
0.0
0
ARC
8
0
10
65.750000
20
34.350000
30
0.0
40
1.000000
50
180.000000
51
270.000000
0
ATTDEF
8
0
10
78.750000
20
60.200000
30
0.0
40
3.5
1

3

2
VC_START
70
0
0
ATTDEF
8
0
10
78.750000
20
0.200000
30
0.0
40
3.5
1

3

2
VC_END
70
0
0
ATTDEF
8
0
10
0.000000
20
0.000000
30
0.0
40
3.5
1

3

2
DENS:0.000000
70
0
0
ATTDEF
8
0
10
0.000000
20
0.000000
30
0.0
40
3.5
1

3

2
GLASS_MIN:0.000000
70
0
0
ATTDEF
8
0
10
0.000000
20
0.000000
30
0.0
40
3.5
1

3

2
GLASS_MAX:0.000000
70
0
0
ATTDEF
8
0
10
0.000000
20
0.000000
30
0.0
40
3.5
1

3

2
DESC:5374 - B58DVH - 5379 - 7444
70
0
0
ATTDEF
8
0
10
0.000000
20
0.000000
30
0.0
40
3.5
1

3

2
HW_START
70
0
0
ATTDEF
8
0
10
142.750000
20
60.200000
30
0.0
40
3.5
1

3

2
HW_END
70
0
0
ATTDEF
8
0
10
0.000000
20
0.000000
30
0.0
40
3.5
1

3

2
BL01:6500.000000,,1
70
0
0
ENDSEC
0
EOF
