0
SECTION
2
ENTITIES
0
LINE
8
0
10
20.000000
20
1.000000
30
0.0
11
15.332051
21
1.000000
31
0.0
0
LINE
8
0
10
15.332051
20
1.000000
30
0.0
11
13.600000
21
2.000000
31
0.0
0
LINE
8
0
10
13.600000
20
2.000000
30
0.0
11
13.138120
21
1.200000
31
0.0
0
LINE
8
0
10
13.138120
20
1.200000
30
0.0
11
12.485641
21
1.200000
31
0.0
0
LINE
8
0
10
12.485641
20
1.200000
30
0.0
11
11.100000
21
2.000000
31
0.0
0
LINE
8
0
10
11.100000
20
2.000000
30
0.0
11
10.638120
21
1.200000
31
0.0
0
LINE
8
0
10
10.638120
20
1.200000
30
0.0
11
9.400000
21
1.200000
31
0.0
0
LINE
8
0
10
9.400000
20
1.200000
30
0.0
11
9.400000
21
5.000000
31
0.0
0
LINE
8
0
10
9.400000
20
5.000000
30
0.0
11
8.400000
21
5.000000
31
0.0
0
LINE
8
0
10
8.400000
20
5.000000
30
0.0
11
8.400000
21
1.200000
31
0.0
0
LINE
8
0
10
8.400000
20
1.200000
30
0.0
11
2.000000
21
1.200000
31
0.0
0
ARC
8
0
10
2.000000
20
1.700000
30
0.0
40
0.500000
50
180.000000
51
270.000000
0
LINE
8
0
10
1.500000
20
1.700000
30
0.0
11
1.500000
21
58.300000
31
0.0
0
ARC
8
0
10
2.000000
20
58.300000
30
0.0
40
0.500000
50
90.000000
51
180.000000
0
LINE
8
0
10
2.000000
20
58.800000
30
0.0
11
8.400000
21
58.800000
31
0.0
0
LINE
8
0
10
8.400000
20
58.800000
30
0.0
11
8.400000
21
55.000000
31
0.0
0
LINE
8
0
10
8.400000
20
55.000000
30
0.0
11
9.400000
21
55.000000
31
0.0
0
LINE
8
0
10
9.400000
20
55.000000
30
0.0
11
9.400000
21
58.800000
31
0.0
0
LINE
8
0
10
9.400000
20
58.800000
30
0.0
11
10.638120
21
58.800000
31
0.0
0
LINE
8
0
10
10.638120
20
58.800000
30
0.0
11
11.100000
21
58.000000
31
0.0
0
LINE
8
0
10
11.100000
20
58.000000
30
0.0
11
12.485641
21
58.800000
31
0.0
0
LINE
8
0
10
12.485641
20
58.800000
30
0.0
11
13.138120
21
58.800000
31
0.0
0
LINE
8
0
10
13.138120
20
58.800000
30
0.0
11
13.600000
21
58.000000
31
0.0
0
LINE
8
0
10
13.600000
20
58.000000
30
0.0
11
15.332051
21
59.000000
31
0.0
0
LINE
8
0
10
15.332051
20
59.000000
30
0.0
11
20.000000
21
59.000000
31
0.0
0
LINE
8
0
10
20.000000
20
59.000000
30
0.0
11
20.000000
21
60.000000
31
0.0
0
LINE
8
0
10
20.000000
20
60.000000
30
0.0
11
0.000000
21
60.000000
31
0.0
0
LINE
8
0
10
0.000000
20
60.000000
30
0.0
11
0.000000
21
0.000000
31
0.0
0
LINE
8
0
10
0.000000
20
0.000000
30
0.0
11
20.000000
21
0.000000
31
0.0
0
LINE
8
0
10
20.000000
20
0.000000
30
0.0
11
20.000000
21
1.000000
31
0.0
0
ATTDEF
8
0
10
0.000000
20
60.000000
30
0.0
40
3.5
1

3

2
VC_START
70
0
0
ATTDEF
8
0
10
0.000000
20
0.000000
30
0.0
40
3.5
1

3

2
VC_END
70
0
0
LINE
8
0
10
18.299038
20
23.250000
30
0.0
11
16.799038
21
23.250000
31
0.0
0
ARC
8
0
10
16.799038
20
23.750000
30
0.0
40
0.500000
50
180.000000
51
270.000000
0
LINE
8
0
10
16.299038
20
23.750000
30
0.0
11
16.299038
21
30.150000
31
0.0
0
LINE
8
0
10
16.299038
20
30.150000
30
0.0
11
16.299038
21
36.550000
31
0.0
0
ARC
8
0
10
16.799038
20
36.550000
30
0.0
40
0.500000
50
90.000000
51
180.000000
0
LINE
8
0
10
16.799038
20
37.050000
30
0.0
11
18.299038
21
37.050000
31
0.0
0
ARC
8
0
10
18.299038
20
36.550000
30
0.0
40
0.500000
50
360.000000
51
90.000000
0
LINE
8
0
10
18.799038
20
36.550000
30
0.0
11
18.799038
21
36.050000
31
0.0
0
ARC
8
0
10
19.299038
20
36.050000
30
0.0
40
0.500000
50
180.000000
51
270.000000
0
LINE
8
0
10
19.299038
20
35.550000
30
0.0
11
19.499038
21
35.550000
31
0.0
0
ARC
8
0
10
19.499038
20
36.050000
30
0.0
40
0.500000
50
270.000000
51
360.000000
0
LINE
8
0
10
19.999038
20
36.050000
30
0.0
11
19.999038
21
44.750000
31
0.0
0
ARC
8
0
10
18.499038
20
44.750000
30
0.0
40
1.500000
50
360.000000
51
90.000000
0
LINE
8
0
10
18.499038
20
46.250000
30
0.0
11
18.099038
21
46.250000
31
0.0
0
ARC
8
0
10
18.099038
20
46.750000
30
0.0
40
0.500000
50
180.000000
51
270.000000
0
LINE
8
0
10
17.599038
20
46.750000
30
0.0
11
17.599038
21
51.350000
31
0.0
0
ARC
8
0
10
18.099038
20
51.350000
30
0.0
40
0.500000
50
90.000000
51
180.000000
0
LINE
8
0
10
18.099038
20
51.850000
30
0.0
11
19.999038
21
51.850000
31
0.0
0
LINE
8
0
10
19.999038
20
51.850000
30
0.0
11
19.999038
21
53.200000
31
0.0
0
ARC
8
0
10
19.499038
20
53.200000
30
0.0
40
0.500000
50
360.000000
51
90.000000
0
LINE
8
0
10
19.499038
20
53.700000
30
0.0
11
19.299038
21
53.700000
31
0.0
0
ARC
8
0
10
19.299038
20
53.200000
30
0.0
40
0.500000
50
90.000000
51
180.000000
0
LINE
8
0
10
18.799038
20
53.200000
30
0.0
11
18.799038
21
53.000000
31
0.0
0
LINE
8
0
10
18.799038
20
53.000000
30
0.0
11
17.599038
21
53.000000
31
0.0
0
LINE
8
0
10
17.599038
20
53.000000
30
0.0
11
17.599038
21
57.000000
31
0.0
0
LINE
8
0
10
17.599038
20
57.000000
30
0.0
11
18.799038
21
57.000000
31
0.0
0
LINE
8
0
10
18.799038
20
57.000000
30
0.0
11
18.799038
21
56.800000
31
0.0
0
ARC
8
0
10
19.299038
20
56.800000
30
0.0
40
0.500000
50
180.000000
51
270.000000
0
LINE
8
0
10
19.299038
20
56.300000
30
0.0
11
19.499038
21
56.300000
31
0.0
0
ARC
8
0
10
19.499038
20
56.800000
30
0.0
40
0.500000
50
270.000000
51
360.000000
0
LINE
8
0
10
19.999038
20
56.800000
30
0.0
11
19.999038
21
58.200000
31
0.0
0
LINE
8
0
10
19.999038
20
58.200000
30
0.0
11
14.737834
21
58.200000
31
0.0
0
LINE
8
0
10
14.737834
20
58.200000
30
0.0
11
13.525241
21
57.502759
31
0.0
0
LINE
8
0
10
13.525241
20
57.502759
30
0.0
11
12.943781
21
58.500000
31
0.0
0
LINE
8
0
10
12.943781
20
58.500000
30
0.0
11
9.900000
21
56.750000
31
0.0
0
LINE
8
0
10
9.900000
20
56.750000
30
0.0
11
10.400000
21
55.900000
31
0.0
0
LINE
8
0
10
10.400000
20
55.900000
30
0.0
11
12.565063
21
57.150000
31
0.0
0
LINE
8
0
10
12.565063
20
57.150000
30
0.0
11
13.149038
21
56.150000
31
0.0
0
LINE
8
0
10
13.149038
20
56.150000
30
0.0
11
14.845827
21
57.146527
31
0.0
0
ARC
8
0
10
15.099038
20
56.715384
30
0.0
40
0.500000
50
360.000000
51
120.425784
0
LINE
8
0
10
15.599038
20
56.715384
30
0.0
11
15.599038
21
45.750000
31
0.0
0
ARC
8
0
10
17.099038
20
45.750000
30
0.0
40
1.500000
50
180.000000
51
270.000000
0
LINE
8
0
10
17.099038
20
44.250000
30
0.0
11
17.499038
21
44.250000
31
0.0
0
ARC
8
0
10
17.499038
20
43.750000
30
0.0
40
0.500000
50
360.000000
51
90.000000
0
LINE
8
0
10
17.999038
20
43.750000
30
0.0
11
17.999038
21
39.550000
31
0.0
0
ARC
8
0
10
17.499038
20
39.550000
30
0.0
40
0.500000
50
270.000000
51
360.000000
0
LINE
8
0
10
17.499038
20
39.050000
30
0.0
11
15.799038
21
39.050000
31
0.0
0
ARC
8
0
10
15.799038
20
37.550000
30
0.0
40
1.500000
50
90.000000
51
180.000000
0
LINE
8
0
10
14.299038
20
37.550000
30
0.0
11
14.299038
21
31.650000
31
0.0
0
LINE
8
0
10
14.299038
20
31.650000
30
0.0
11
13.799038
21
31.150000
31
0.0
0
LINE
8
0
10
13.799038
20
31.150000
30
0.0
11
14.299038
21
30.650000
31
0.0
0
LINE
8
0
10
14.299038
20
30.650000
30
0.0
11
14.299038
21
30.150000
31
0.0
0
LINE
8
0
10
14.299038
20
30.150000
30
0.0
11
14.299038
21
29.650000
31
0.0
0
LINE
8
0
10
14.299038
20
29.650000
30
0.0
11
13.799038
21
29.150000
31
0.0
0
LINE
8
0
10
13.799038
20
29.150000
30
0.0
11
14.299038
21
28.650000
31
0.0
0
LINE
8
0
10
14.299038
20
28.650000
30
0.0
11
14.299038
21
22.750000
31
0.0
0
ARC
8
0
10
15.799038
20
22.750000
30
0.0
40
1.500000
50
180.000000
51
270.000000
0
LINE
8
0
10
15.799038
20
21.250000
30
0.0
11
17.499038
21
21.250000
31
0.0
0
ARC
8
0
10
17.499038
20
20.750000
30
0.0
40
0.500000
50
360.000000
51
90.000000
0
LINE
8
0
10
17.999038
20
20.750000
30
0.0
11
17.999038
21
16.550000
31
0.0
0
ARC
8
0
10
17.499038
20
16.550000
30
0.0
40
0.500000
50
270.000000
51
360.000000
0
LINE
8
0
10
17.499038
20
16.050000
30
0.0
11
17.099038
21
16.050000
31
0.0
0
ARC
8
0
10
17.099038
20
14.550000
30
0.0
40
1.500000
50
90.000000
51
180.000000
0
LINE
8
0
10
15.599038
20
14.550000
30
0.0
11
15.599038
21
3.584616
31
0.0
0
ARC
8
0
10
15.099038
20
3.584616
30
0.0
40
0.500000
50
239.574216
51
360.000000
0
LINE
8
0
10
14.845827
20
3.153473
30
0.0
11
13.149038
21
4.150000
31
0.0
0
LINE
8
0
10
13.149038
20
4.150000
30
0.0
11
12.565063
21
3.150000
31
0.0
0
LINE
8
0
10
12.565063
20
3.150000
30
0.0
11
10.400000
21
4.400000
31
0.0
0
LINE
8
0
10
10.400000
20
4.400000
30
0.0
11
9.900000
21
3.550000
31
0.0
0
LINE
8
0
10
9.900000
20
3.550000
30
0.0
11
12.943781
21
1.800000
31
0.0
0
LINE
8
0
10
12.943781
20
1.800000
30
0.0
11
13.525241
21
2.797241
31
0.0
0
LINE
8
0
10
13.525241
20
2.797241
30
0.0
11
14.737834
21
2.100000
31
0.0
0
LINE
8
0
10
14.737834
20
2.100000
30
0.0
11
19.999038
21
2.100000
31
0.0
0
LINE
8
0
10
19.999038
20
2.100000
30
0.0
11
19.999038
21
3.500000
31
0.0
0
ARC
8
0
10
19.499038
20
3.500000
30
0.0
40
0.500000
50
360.000000
51
90.000000
0
LINE
8
0
10
19.499038
20
4.000000
30
0.0
11
19.299038
21
4.000000
31
0.0
0
ARC
8
0
10
19.299038
20
3.500000
30
0.0
40
0.500000
50
90.000000
51
180.000000
0
LINE
8
0
10
18.799038
20
3.500000
30
0.0
11
18.799038
21
3.300000
31
0.0
0
LINE
8
0
10
18.799038
20
3.300000
30
0.0
11
17.599038
21
3.300000
31
0.0
0
LINE
8
0
10
17.599038
20
3.300000
30
0.0
11
17.599038
21
7.300000
31
0.0
0
LINE
8
0
10
17.599038
20
7.300000
30
0.0
11
18.799038
21
7.300000
31
0.0
0
LINE
8
0
10
18.799038
20
7.300000
30
0.0
11
18.799038
21
7.100000
31
0.0
0
ARC
8
0
10
19.299038
20
7.100000
30
0.0
40
0.500000
50
180.000000
51
270.000000
0
LINE
8
0
10
19.299038
20
6.600000
30
0.0
11
19.499038
21
6.600000
31
0.0
0
ARC
8
0
10
19.499038
20
7.100000
30
0.0
40
0.500000
50
270.000000
51
360.000000
0
LINE
8
0
10
19.999038
20
7.100000
30
0.0
11
19.999038
21
8.500000
31
0.0
0
LINE
8
0
10
19.999038
20
8.500000
30
0.0
11
18.099038
21
8.500000
31
0.0
0
ARC
8
0
10
18.099038
20
9.000000
30
0.0
40
0.500000
50
180.000000
51
270.000000
0
LINE
8
0
10
17.599038
20
9.000000
30
0.0
11
17.599038
21
13.550000
31
0.0
0
ARC
8
0
10
18.099038
20
13.550000
30
0.0
40
0.500000
50
90.000000
51
180.000000
0
LINE
8
0
10
18.099038
20
14.050000
30
0.0
11
18.499038
21
14.050000
31
0.0
0
ARC
8
0
10
18.499038
20
15.550000
30
0.0
40
1.500000
50
270.000000
51
360.000000
0
LINE
8
0
10
19.999038
20
15.550000
30
0.0
11
19.999038
21
24.250000
31
0.0
0
ARC
8
0
10
19.499038
20
24.250000
30
0.0
40
0.500000
50
360.000000
51
90.000000
0
LINE
8
0
10
19.499038
20
24.750000
30
0.0
11
19.299038
21
24.750000
31
0.0
0
ARC
8
0
10
19.299038
20
24.250000
30
0.0
40
0.500000
50
90.000000
51
180.000000
0
LINE
8
0
10
18.799038
20
24.250000
30
0.0
11
18.799038
21
23.750000
31
0.0
0
ARC
8
0
10
18.299038
20
23.750000
30
0.0
40
0.500000
50
270.000000
51
360.000000
0
ATTDEF
8
0
10
12.943781
20
58.500000
30
0.0
40
3.5
1

3

2
VC_START
70
0
0
ATTDEF
8
0
10
12.943781
20
1.800000
30
0.0
40
3.5
1

3

2
VC_END
70
0
0
ARC
8
0
10
32.491641
20
30.150000
30
0.0
40
2.199036
50
180.000000
51
360.000000
0
ARC
8
0
10
32.491641
20
30.150000
30
0.0
40
2.199036
50
360.000000
51
180.000000
0
ARC
8
0
10
23.423844
20
30.150000
30
0.0
40
3.251302
50
180.000000
51
360.000000
0
ARC
8
0
10
23.423844
20
30.150000
30
0.0
40
3.251302
50
360.000000
51
180.000000
0
LINE
8
0
10
17.800000
20
23.750000
30
0.0
11
16.800000
21
23.750000
31
0.0
0
ARC
8
0
10
16.800000
20
24.250000
30
0.0
40
0.500000
50
180.000000
51
270.000000
0
LINE
8
0
10
16.300000
20
24.250000
30
0.0
11
16.300000
21
36.050000
31
0.0
0
ARC
8
0
10
16.800000
20
36.050000
30
0.0
40
0.500000
50
90.000000
51
180.000000
0
LINE
8
0
10
16.800000
20
36.550000
30
0.0
11
17.800000
21
36.550000
31
0.0
0
ARC
8
0
10
17.800000
20
36.050000
30
0.0
40
0.500000
50
360.000000
51
90.000000
0
LINE
8
0
10
18.300000
20
36.050000
30
0.0
11
18.300000
21
35.800000
31
0.0
0
ARC
8
0
10
18.800000
20
35.800000
30
0.0
40
0.500000
50
180.000000
51
270.000000
0
LINE
8
0
10
18.800000
20
35.300000
30
0.0
11
37.750000
21
35.300000
31
0.0
0
LINE
8
0
10
37.750000
20
35.300000
30
0.0
11
37.750000
21
34.250000
31
0.0
0
ARC
8
0
10
39.750000
20
34.250000
30
0.0
40
2.000000
50
180.000000
51
270.000000
0
LINE
8
0
10
39.750000
20
32.250000
30
0.0
11
44.150000
21
32.250000
31
0.0
0
ARC
8
0
10
44.150000
20
30.150000
30
0.0
40
2.100000
50
270.000000
51
90.000000
0
LINE
8
0
10
44.150000
20
28.050000
30
0.0
11
39.750000
21
28.050000
31
0.0
0
ARC
8
0
10
39.750000
20
26.050000
30
0.0
40
2.000000
50
90.000000
51
180.000000
0
LINE
8
0
10
37.750000
20
26.050000
30
0.0
11
37.750000
21
25.000000
31
0.0
0
LINE
8
0
10
37.750000
20
25.000000
30
0.0
11
18.800000
21
25.000000
31
0.0
0
ARC
8
0
10
18.800000
20
24.500000
30
0.0
40
0.500000
50
90.000000
51
180.000000
0
LINE
8
0
10
18.300000
20
24.500000
30
0.0
11
18.300000
21
24.250000
31
0.0
0
ARC
8
0
10
17.800000
20
24.250000
30
0.0
40
0.500000
50
270.000000
51
360.000000
0
ATTDEF
8
0
10
18.800000
20
35.300000
30
0.0
40
3.5
1

3

2
VC_START
70
0
0
ATTDEF
8
0
10
18.800000
20
25.000000
30
0.0
40
3.5
1

3

2
VC_END
70
0
0
LINE
8
0
10
51.750000
20
60.200000
30
0.0
11
51.750000
21
58.800000
31
0.0
0
ARC
8
0
10
52.250000
20
58.800000
30
0.0
40
0.500000
50
180.000000
51
281.536959
0
ARC
8
0
10
52.450000
20
58.800000
30
0.0
40
0.500000
50
258.463041
51
360.000000
0
LINE
8
0
10
52.950000
20
58.800000
30
0.0
11
52.950000
21
59.000000
31
0.0
0
LINE
8
0
10
52.950000
20
59.000000
30
0.0
11
54.150000
21
59.000000
31
0.0
0
LINE
8
0
10
54.150000
20
59.000000
30
0.0
11
54.150000
21
55.000000
31
0.0
0
LINE
8
0
10
54.150000
20
55.000000
30
0.0
11
52.950000
21
55.000000
31
0.0
0
LINE
8
0
10
52.950000
20
55.000000
30
0.0
11
52.950000
21
55.200000
31
0.0
0
ARC
8
0
10
52.450000
20
55.200000
30
0.0
40
0.500000
50
360.000000
51
101.536959
0
ARC
8
0
10
52.250000
20
55.200000
30
0.0
40
0.500000
50
78.463041
51
180.000000
0
LINE
8
0
10
51.750000
20
55.200000
30
0.0
11
51.750000
21
53.800000
31
0.0
0
LINE
8
0
10
51.750000
20
53.800000
30
0.0
11
53.650000
21
53.800000
31
0.0
0
ARC
8
0
10
53.650000
20
53.300000
30
0.0
40
0.500000
50
360.000000
51
90.000000
0
LINE
8
0
10
54.150000
20
53.300000
30
0.0
11
54.150000
21
35.850000
31
0.0
0
ARC
8
0
10
53.650000
20
35.850000
30
0.0
40
0.500000
50
270.000000
51
360.000000
0
LINE
8
0
10
53.650000
20
35.350000
30
0.0
11
37.750000
21
35.350000
31
0.0
0
LINE
8
0
10
37.750000
20
35.350000
30
0.0
11
37.750000
21
34.350000
31
0.0
0
ARC
8
0
10
38.750000
20
34.350000
30
0.0
40
1.000000
50
180.000000
51
270.000000
0
LINE
8
0
10
38.750000
20
33.350000
30
0.0
11
39.989211
21
33.350000
31
0.0
0
ARC
8
0
10
39.989211
20
33.150000
30
0.0
40
0.200000
50
28.442929
51
90.000000
0
LINE
8
0
10
40.165069
20
33.245257
30
0.0
11
40.474142
21
32.674662
31
0.0
0
ARC
8
0
10
40.650000
20
32.769918
30
0.0
40
0.200000
50
208.442929
51
331.557071
0
LINE
8
0
10
40.825858
20
32.674662
30
0.0
11
41.124142
21
33.225338
31
0.0
0
ARC
8
0
10
41.300000
20
33.130082
30
0.0
40
0.200000
50
28.442929
51
151.557071
0
LINE
8
0
10
41.475858
20
33.225338
30
0.0
11
41.774142
21
32.674662
31
0.0
0
ARC
8
0
10
41.950000
20
32.769918
30
0.0
40
0.200000
50
208.442929
51
331.557071
0
LINE
8
0
10
42.125858
20
32.674662
30
0.0
11
42.424142
21
33.225338
31
0.0
0
ARC
8
0
10
42.600000
20
33.130082
30
0.0
40
0.200000
50
28.442929
51
151.557071
0
LINE
8
0
10
42.775858
20
33.225338
30
0.0
11
43.074142
21
32.674662
31
0.0
0
ARC
8
0
10
43.250000
20
32.769918
30
0.0
40
0.200000
50
208.442929
51
331.557071
0
LINE
8
0
10
43.425858
20
32.674662
30
0.0
11
43.724142
21
33.225338
31
0.0
0
ARC
8
0
10
43.900000
20
33.130082
30
0.0
40
0.200000
50
28.442929
51
151.557071
0
LINE
8
0
10
44.075858
20
33.225338
30
0.0
11
44.374142
21
32.674662
31
0.0
0
ARC
8
0
10
44.550000
20
32.769918
30
0.0
40
0.200000
50
208.442929
51
331.557071
0
LINE
8
0
10
44.725858
20
32.674662
30
0.0
11
45.024142
21
33.225338
31
0.0
0
ARC
8
0
10
45.200000
20
33.130082
30
0.0
40
0.200000
50
28.442929
51
151.557071
0
LINE
8
0
10
45.375858
20
33.225338
30
0.0
11
45.674142
21
32.674662
31
0.0
0
ARC
8
0
10
45.850000
20
32.769918
30
0.0
40
0.200000
50
208.442929
51
331.557071
0
LINE
8
0
10
46.025858
20
32.674662
30
0.0
11
46.324142
21
33.225338
31
0.0
0
ARC
8
0
10
46.500000
20
33.130082
30
0.0
40
0.200000
50
28.442929
51
151.557071
0
LINE
8
0
10
46.675858
20
33.225338
30
0.0
11
46.974142
21
32.674662
31
0.0
0
ARC
8
0
10
47.150000
20
32.769918
30
0.0
40
0.200000
50
208.442929
51
331.557071
0
LINE
8
0
10
47.325858
20
32.674662
30
0.0
11
47.624142
21
33.225338
31
0.0
0
ARC
8
0
10
47.800000
20
33.130082
30
0.0
40
0.200000
50
28.442929
51
151.557071
0
LINE
8
0
10
47.975858
20
33.225338
30
0.0
11
48.274142
21
32.674662
31
0.0
0
ARC
8
0
10
48.450000
20
32.769918
30
0.0
40
0.200000
50
208.442929
51
331.557072
0
LINE
8
0
10
48.625858
20
32.674662
30
0.0
11
48.934931
21
33.245257
31
0.0
0
ARC
8
0
10
49.110789
20
33.150000
30
0.0
40
0.200000
50
90.000000
51
151.557072
0
LINE
8
0
10
49.110789
20
33.350000
30
0.0
11
50.150000
21
33.350000
31
0.0
0
ARC
8
0
10
50.150000
20
32.350000
30
0.0
40
1.000000
50
360.000000
51
90.000000
0
LINE
8
0
10
51.150000
20
32.350000
30
0.0
11
51.150000
21
30.200000
31
0.0
0
LINE
8
0
10
51.150000
20
30.200000
30
0.0
11
51.150000
21
28.050000
31
0.0
0
ARC
8
0
10
50.150000
20
28.050000
30
0.0
40
1.000000
50
270.000000
51
360.000000
0
LINE
8
0
10
50.150000
20
27.050000
30
0.0
11
49.760789
21
27.050000
31
0.0
0
ARC
8
0
10
49.760789
20
27.250000
30
0.0
40
0.200000
50
208.442928
51
270.000000
0
LINE
8
0
10
49.584931
20
27.154743
30
0.0
11
49.275858
21
27.725338
31
0.0
0
ARC
8
0
10
49.100000
20
27.630082
30
0.0
40
0.200000
50
28.442928
51
151.557071
0
LINE
8
0
10
48.924142
20
27.725338
30
0.0
11
48.625858
21
27.174662
31
0.0
0
ARC
8
0
10
48.450000
20
27.269918
30
0.0
40
0.200000
50
208.442929
51
331.557071
0
LINE
8
0
10
48.274142
20
27.174662
30
0.0
11
47.975858
21
27.725338
31
0.0
0
ARC
8
0
10
47.800000
20
27.630082
30
0.0
40
0.200000
50
28.442929
51
151.557071
0
LINE
8
0
10
47.624142
20
27.725338
30
0.0
11
47.325858
21
27.174662
31
0.0
0
ARC
8
0
10
47.150000
20
27.269918
30
0.0
40
0.200000
50
208.442929
51
331.557071
0
LINE
8
0
10
46.974142
20
27.174662
30
0.0
11
46.675858
21
27.725338
31
0.0
0
ARC
8
0
10
46.500000
20
27.630082
30
0.0
40
0.200000
50
28.442929
51
151.557071
0
LINE
8
0
10
46.324142
20
27.725338
30
0.0
11
46.025858
21
27.174662
31
0.0
0
ARC
8
0
10
45.850000
20
27.269918
30
0.0
40
0.200000
50
208.442929
51
331.557071
0
LINE
8
0
10
45.674142
20
27.174662
30
0.0
11
45.375858
21
27.725338
31
0.0
0
ARC
8
0
10
45.200000
20
27.630082
30
0.0
40
0.200000
50
28.442929
51
151.557071
0
LINE
8
0
10
45.024142
20
27.725338
30
0.0
11
44.725858
21
27.174662
31
0.0
0
ARC
8
0
10
44.550000
20
27.269918
30
0.0
40
0.200000
50
208.442929
51
331.557071
0
LINE
8
0
10
44.374142
20
27.174662
30
0.0
11
44.075858
21
27.725338
31
0.0
0
ARC
8
0
10
43.900000
20
27.630082
30
0.0
40
0.200000
50
28.442929
51
151.557071
0
LINE
8
0
10
43.724142
20
27.725338
30
0.0
11
43.425858
21
27.174662
31
0.0
0
ARC
8
0
10
43.250000
20
27.269918
30
0.0
40
0.200000
50
208.442929
51
331.557071
0
LINE
8
0
10
43.074142
20
27.174662
30
0.0
11
42.775858
21
27.725338
31
0.0
0
ARC
8
0
10
42.600000
20
27.630082
30
0.0
40
0.200000
50
28.442929
51
151.557071
0
LINE
8
0
10
42.424142
20
27.725338
30
0.0
11
42.125858
21
27.174662
31
0.0
0
ARC
8
0
10
41.950000
20
27.269918
30
0.0
40
0.200000
50
208.442929
51
331.557071
0
LINE
8
0
10
41.774142
20
27.174662
30
0.0
11
41.475858
21
27.725338
31
0.0
0
ARC
8
0
10
41.300000
20
27.630082
30
0.0
40
0.200000
50
28.442929
51
151.557071
0
LINE
8
0
10
41.124142
20
27.725338
30
0.0
11
40.825858
21
27.174662
31
0.0
0
ARC
8
0
10
40.650000
20
27.269918
30
0.0
40
0.200000
50
208.442929
51
331.557071
0
LINE
8
0
10
40.474142
20
27.174662
30
0.0
11
40.175858
21
27.725338
31
0.0
0
ARC
8
0
10
40.000000
20
27.630082
30
0.0
40
0.200000
50
28.442929
51
151.557071
0
LINE
8
0
10
39.824142
20
27.725338
30
0.0
11
39.515069
21
27.154743
31
0.0
0
ARC
8
0
10
39.339211
20
27.250000
30
0.0
40
0.200000
50
270.000000
51
331.557071
0
LINE
8
0
10
39.339211
20
27.050000
30
0.0
11
38.750000
21
27.050000
31
0.0
0
ARC
8
0
10
38.750000
20
26.050000
30
0.0
40
1.000000
50
90.000000
51
180.000000
0
LINE
8
0
10
37.750000
20
26.050000
30
0.0
11
37.750000
21
25.050000
31
0.0
0
LINE
8
0
10
37.750000
20
25.050000
30
0.0
11
53.650000
21
25.050000
31
0.0
0
ARC
8
0
10
53.650000
20
24.550000
30
0.0
40
0.500000
50
360.000000
51
90.000000
0
LINE
8
0
10
54.150000
20
24.550000
30
0.0
11
54.150000
21
7.100000
31
0.0
0
ARC
8
0
10
53.650000
20
7.100000
30
0.0
40
0.500000
50
270.000000
51
360.000000
0
LINE
8
0
10
53.650000
20
6.600000
30
0.0
11
51.750000
21
6.600000
31
0.0
0
LINE
8
0
10
51.750000
20
6.600000
30
0.0
11
51.750000
21
5.200000
31
0.0
0
ARC
8
0
10
52.250000
20
5.200000
30
0.0
40
0.500000
50
180.000000
51
281.536959
0
ARC
8
0
10
52.450000
20
5.200000
30
0.0
40
0.500000
50
258.463041
51
360.000000
0
LINE
8
0
10
52.950000
20
5.200000
30
0.0
11
52.950000
21
5.400000
31
0.0
0
LINE
8
0
10
52.950000
20
5.400000
30
0.0
11
54.150000
21
5.400000
31
0.0
0
LINE
8
0
10
54.150000
20
5.400000
30
0.0
11
54.150000
21
1.400000
31
0.0
0
LINE
8
0
10
54.150000
20
1.400000
30
0.0
11
52.950000
21
1.400000
31
0.0
0
LINE
8
0
10
52.950000
20
1.400000
30
0.0
11
52.950000
21
1.600000
31
0.0
0
ARC
8
0
10
52.450000
20
1.600000
30
0.0
40
0.500000
50
360.000000
51
101.536959
0
ARC
8
0
10
52.250000
20
1.600000
30
0.0
40
0.500000
50
78.463041
51
180.000000
0
LINE
8
0
10
51.750000
20
1.600000
30
0.0
11
51.750000
21
0.200000
31
0.0
0
LINE
8
0
10
51.750000
20
0.200000
30
0.0
11
154.150000
21
0.200000
31
0.0
0
LINE
8
0
10
154.150000
20
0.200000
30
0.0
11
154.150000
21
60.200000
31
0.0
0
LINE
8
0
10
154.150000
20
60.200000
30
0.0
11
51.750000
21
60.200000
31
0.0
0
ARC
8
0
10
57.150000
20
57.200000
30
0.0
40
1.000000
50
90.000000
51
180.000000
0
LINE
8
0
10
57.150000
20
58.200000
30
0.0
11
151.150000
21
58.200000
31
0.0
0
ARC
8
0
10
151.150000
20
57.200000
30
0.0
40
1.000000
50
360.000000
51
90.000000
0
LINE
8
0
10
152.150000
20
57.200000
30
0.0
11
152.150000
21
3.200000
31
0.0
0
ARC
8
0
10
151.150000
20
3.200000
30
0.0
40
1.000000
50
270.000000
51
360.000000
0
LINE
8
0
10
151.150000
20
2.200000
30
0.0
11
57.150000
21
2.200000
31
0.0
0
ARC
8
0
10
57.150000
20
3.200000
30
0.0
40
1.000000
50
180.000000
51
270.000000
0
LINE
8
0
10
56.150000
20
3.200000
30
0.0
11
56.150000
21
25.300000
31
0.0
0
ARC
8
0
10
54.198075
20
25.098075
30
0.0
40
1.962341
50
5.906185
51
84.093815
0
LINE
8
0
10
54.400000
20
27.050000
30
0.0
11
53.650000
21
27.050000
31
0.0
0
ARC
8
0
10
53.650000
20
27.550000
30
0.0
40
0.500000
50
180.000000
51
270.000000
0
LINE
8
0
10
53.150000
20
27.550000
30
0.0
11
53.150000
21
30.200000
31
0.0
0
LINE
8
0
10
53.150000
20
30.200000
30
0.0
11
53.150000
21
32.850000
31
0.0
0
ARC
8
0
10
53.650000
20
32.850000
30
0.0
40
0.500000
50
90.000000
51
180.000000
0
LINE
8
0
10
53.650000
20
33.350000
30
0.0
11
54.650000
21
33.350000
31
0.0
0
ARC
8
0
10
54.650000
20
34.850000
30
0.0
40
1.500000
50
270.000000
51
360.000000
0
LINE
8
0
10
56.150000
20
34.850000
30
0.0
11
56.150000
21
57.200000
31
0.0
0
ATTDEF
8
0
10
51.750000
20
60.200000
30
0.0
40
3.5
1

3

2
VC_START
70
0
0
ATTDEF
8
0
10
51.750000
20
0.200000
30
0.0
40
3.5
1

3

2
VC_END
70
0
0
ATTDEF
8
0
10
0.000000
20
0.000000
30
0.0
40
3.5
1

3

2
DENS:0.000000
70
0
0
ATTDEF
8
0
10
0.000000
20
0.000000
30
0.0
40
3.5
1

3

2
GLASS_MIN:0.000000
70
0
0
ATTDEF
8
0
10
0.000000
20
0.000000
30
0.0
40
3.5
1

3

2
GLASS_MAX:0.000000
70
0
0
ATTDEF
8
0
10
0.000000
20
0.000000
30
0.0
40
3.5
1

3

2
DESC:6929 - B58DVH - 5379 - 5378
70
0
0
ATTDEF
8
0
10
0.000000
20
0.000000
30
0.0
40
3.5
1

3

2
HW_START
70
0
0
ATTDEF
8
0
10
154.150000
20
60.200000
30
0.0
40
3.5
1

3

2
HW_END
70
0
0
ATTDEF
8
0
10
0.000000
20
0.000000
30
0.0
40
3.5
1

3

2
BL01:6500.000000,,1
70
0
0
ENDSEC
0
EOF
