0
SECTION
2
ENTITIES
0
LINE
8
0
10
84.772256
20
60.000000
30
0.0
11
84.772256
21
59.000000
31
0.0
0
LINE
8
0
10
84.772256
20
59.000000
30
0.0
11
80.104307
21
59.000000
31
0.0
0
LINE
8
0
10
80.104307
20
59.000000
30
0.0
11
78.372256
21
58.000000
31
0.0
0
LINE
8
0
10
78.372256
20
58.000000
30
0.0
11
77.910376
21
58.800000
31
0.0
0
LINE
8
0
10
77.910376
20
58.800000
30
0.0
11
77.257897
21
58.800000
31
0.0
0
LINE
8
0
10
77.257897
20
58.800000
30
0.0
11
75.872256
21
58.000000
31
0.0
0
LINE
8
0
10
75.872256
20
58.000000
30
0.0
11
75.410376
21
58.800000
31
0.0
0
LINE
8
0
10
75.410376
20
58.800000
30
0.0
11
74.172256
21
58.800000
31
0.0
0
LINE
8
0
10
74.172256
20
58.800000
30
0.0
11
74.172256
21
55.000000
31
0.0
0
LINE
8
0
10
74.172256
20
55.000000
30
0.0
11
73.172256
21
55.000000
31
0.0
0
LINE
8
0
10
73.172256
20
55.000000
30
0.0
11
73.172256
21
58.800000
31
0.0
0
LINE
8
0
10
73.172256
20
58.800000
30
0.0
11
66.772256
21
58.800000
31
0.0
0
ARC
8
0
10
66.772256
20
58.300000
30
0.0
40
0.500000
50
90.000000
51
180.000000
0
LINE
8
0
10
66.272256
20
58.300000
30
0.0
11
66.272256
21
1.700000
31
0.0
0
ARC
8
0
10
66.772256
20
1.700000
30
0.0
40
0.500000
50
180.000000
51
270.000000
0
LINE
8
0
10
66.772256
20
1.200000
30
0.0
11
73.172256
21
1.200000
31
0.0
0
LINE
8
0
10
73.172256
20
1.200000
30
0.0
11
73.172256
21
5.000000
31
0.0
0
LINE
8
0
10
73.172256
20
5.000000
30
0.0
11
74.172256
21
5.000000
31
0.0
0
LINE
8
0
10
74.172256
20
5.000000
30
0.0
11
74.172256
21
1.200000
31
0.0
0
LINE
8
0
10
74.172256
20
1.200000
30
0.0
11
75.410376
21
1.200000
31
0.0
0
LINE
8
0
10
75.410376
20
1.200000
30
0.0
11
75.872256
21
2.000000
31
0.0
0
LINE
8
0
10
75.872256
20
2.000000
30
0.0
11
77.257897
21
1.200000
31
0.0
0
LINE
8
0
10
77.257897
20
1.200000
30
0.0
11
77.910376
21
1.200000
31
0.0
0
LINE
8
0
10
77.910376
20
1.200000
30
0.0
11
78.372256
21
2.000000
31
0.0
0
LINE
8
0
10
78.372256
20
2.000000
30
0.0
11
80.104307
21
1.000000
31
0.0
0
LINE
8
0
10
80.104307
20
1.000000
30
0.0
11
84.772256
21
1.000000
31
0.0
0
LINE
8
0
10
84.772256
20
1.000000
30
0.0
11
84.772256
21
0.000000
31
0.0
0
LINE
8
0
10
84.772256
20
0.000000
30
0.0
11
64.772256
21
0.000000
31
0.0
0
LINE
8
0
10
64.772256
20
0.000000
30
0.0
11
64.772256
21
3.500000
31
0.0
0
ARC
8
0
10
64.272256
20
3.500000
30
0.0
40
0.500000
50
360.000000
51
90.000000
0
LINE
8
0
10
64.272256
20
4.000000
30
0.0
11
61.272256
21
4.000000
31
0.0
0
ARC
8
0
10
61.272256
20
3.500000
30
0.0
40
0.500000
50
90.000000
51
180.000000
0
LINE
8
0
10
60.772256
20
3.500000
30
0.0
11
60.772256
21
0.084248
31
0.0
0
ARC
8
0
10
64.772256
20
95.000000
30
0.0
40
95.000000
50
229.880833
51
267.586833
0
ARC
8
0
10
10.000000
20
30.000000
30
0.0
40
10.000000
50
130.119167
51
229.880833
0
ARC
8
0
10
64.772256
20
-35.000000
30
0.0
40
95.000000
50
90.000000
51
130.119167
0
LINE
8
0
10
64.772256
20
60.000000
30
0.0
11
84.772256
21
60.000000
31
0.0
0
LINE
8
0
10
59.272256
20
3.500000
30
0.0
11
59.272256
21
2.728661
31
0.0
0
ARC
8
0
10
58.272256
20
2.728661
30
0.0
40
1.000000
50
265.970489
51
360.000000
0
ARC
8
0
10
64.772256
20
95.000000
30
0.0
40
93.500000
50
229.880833
51
265.970489
0
ARC
8
0
10
10.000000
20
30.000000
30
0.0
40
8.500000
50
130.119167
51
229.880833
0
ARC
8
0
10
64.772256
20
-35.000000
30
0.0
40
93.500000
50
90.619426
51
130.119167
0
ARC
8
0
10
63.772256
20
57.494594
30
0.0
40
1.000000
50
360.000000
51
90.619426
0
LINE
8
0
10
64.772256
20
57.494594
30
0.0
11
64.772256
21
6.500000
31
0.0
0
ARC
8
0
10
63.772256
20
6.500000
30
0.0
40
1.000000
50
270.000000
51
360.000000
0
LINE
8
0
10
63.772256
20
5.500000
30
0.0
11
61.272256
21
5.500000
31
0.0
0
ARC
8
0
10
61.272256
20
3.500000
30
0.0
40
2.000000
50
90.000000
51
180.000000
0
ATTDEF
8
0
10
84.772256
20
60.000000
30
0.0
40
3.5
1

3

2
VC_START
70
0
0
ATTDEF
8
0
10
84.772256
20
0.000000
30
0.0
40
3.5
1

3

2
VC_END
70
0
0
LINE
8
0
10
83.069038
20
23.250000
30
0.0
11
81.569038
21
23.250000
31
0.0
0
ARC
8
0
10
81.569038
20
23.750000
30
0.0
40
0.500000
50
180.000000
51
270.000000
0
LINE
8
0
10
81.069038
20
23.750000
30
0.0
11
81.069038
21
30.150000
31
0.0
0
LINE
8
0
10
81.069038
20
30.150000
30
0.0
11
81.069038
21
36.550000
31
0.0
0
ARC
8
0
10
81.569038
20
36.550000
30
0.0
40
0.500000
50
90.000000
51
180.000000
0
LINE
8
0
10
81.569038
20
37.050000
30
0.0
11
83.069038
21
37.050000
31
0.0
0
ARC
8
0
10
83.069038
20
36.550000
30
0.0
40
0.500000
50
360.000000
51
90.000000
0
LINE
8
0
10
83.569038
20
36.550000
30
0.0
11
83.569038
21
36.050000
31
0.0
0
ARC
8
0
10
84.069038
20
36.050000
30
0.0
40
0.500000
50
180.000000
51
270.000000
0
LINE
8
0
10
84.069038
20
35.550000
30
0.0
11
84.269038
21
35.550000
31
0.0
0
ARC
8
0
10
84.269038
20
36.050000
30
0.0
40
0.500000
50
270.000000
51
360.000000
0
LINE
8
0
10
84.769038
20
36.050000
30
0.0
11
84.769038
21
44.750000
31
0.0
0
ARC
8
0
10
83.269038
20
44.750000
30
0.0
40
1.500000
50
360.000000
51
90.000000
0
LINE
8
0
10
83.269038
20
46.250000
30
0.0
11
82.869038
21
46.250000
31
0.0
0
ARC
8
0
10
82.869038
20
46.750000
30
0.0
40
0.500000
50
180.000000
51
270.000000
0
LINE
8
0
10
82.369038
20
46.750000
30
0.0
11
82.369038
21
51.350000
31
0.0
0
ARC
8
0
10
82.869038
20
51.350000
30
0.0
40
0.500000
50
90.000000
51
180.000000
0
LINE
8
0
10
82.869038
20
51.850000
30
0.0
11
84.769038
21
51.850000
31
0.0
0
LINE
8
0
10
84.769038
20
51.850000
30
0.0
11
84.769038
21
53.200000
31
0.0
0
ARC
8
0
10
84.269038
20
53.200000
30
0.0
40
0.500000
50
360.000000
51
90.000000
0
LINE
8
0
10
84.269038
20
53.700000
30
0.0
11
84.069038
21
53.700000
31
0.0
0
ARC
8
0
10
84.069038
20
53.200000
30
0.0
40
0.500000
50
90.000000
51
180.000000
0
LINE
8
0
10
83.569038
20
53.200000
30
0.0
11
83.569038
21
53.000000
31
0.0
0
LINE
8
0
10
83.569038
20
53.000000
30
0.0
11
82.369038
21
53.000000
31
0.0
0
LINE
8
0
10
82.369038
20
53.000000
30
0.0
11
82.369038
21
57.000000
31
0.0
0
LINE
8
0
10
82.369038
20
57.000000
30
0.0
11
83.569038
21
57.000000
31
0.0
0
LINE
8
0
10
83.569038
20
57.000000
30
0.0
11
83.569038
21
56.800000
31
0.0
0
ARC
8
0
10
84.069038
20
56.800000
30
0.0
40
0.500000
50
180.000000
51
270.000000
0
LINE
8
0
10
84.069038
20
56.300000
30
0.0
11
84.269038
21
56.300000
31
0.0
0
ARC
8
0
10
84.269038
20
56.800000
30
0.0
40
0.500000
50
270.000000
51
360.000000
0
LINE
8
0
10
84.769038
20
56.800000
30
0.0
11
84.769038
21
58.200000
31
0.0
0
LINE
8
0
10
84.769038
20
58.200000
30
0.0
11
79.507834
21
58.200000
31
0.0
0
LINE
8
0
10
79.507834
20
58.200000
30
0.0
11
78.295241
21
57.502759
31
0.0
0
LINE
8
0
10
78.295241
20
57.502759
30
0.0
11
77.713781
21
58.500000
31
0.0
0
LINE
8
0
10
77.713781
20
58.500000
30
0.0
11
74.670000
21
56.750000
31
0.0
0
LINE
8
0
10
74.670000
20
56.750000
30
0.0
11
75.170000
21
55.900000
31
0.0
0
LINE
8
0
10
75.170000
20
55.900000
30
0.0
11
77.335063
21
57.150000
31
0.0
0
LINE
8
0
10
77.335063
20
57.150000
30
0.0
11
77.919038
21
56.150000
31
0.0
0
LINE
8
0
10
77.919038
20
56.150000
30
0.0
11
79.615827
21
57.146527
31
0.0
0
ARC
8
0
10
79.869038
20
56.715384
30
0.0
40
0.500000
50
360.000000
51
120.425784
0
LINE
8
0
10
80.369038
20
56.715384
30
0.0
11
80.369038
21
45.750000
31
0.0
0
ARC
8
0
10
81.869038
20
45.750000
30
0.0
40
1.500000
50
180.000000
51
270.000000
0
LINE
8
0
10
81.869038
20
44.250000
30
0.0
11
82.269038
21
44.250000
31
0.0
0
ARC
8
0
10
82.269038
20
43.750000
30
0.0
40
0.500000
50
360.000000
51
90.000000
0
LINE
8
0
10
82.769038
20
43.750000
30
0.0
11
82.769038
21
39.550000
31
0.0
0
ARC
8
0
10
82.269038
20
39.550000
30
0.0
40
0.500000
50
270.000000
51
360.000000
0
LINE
8
0
10
82.269038
20
39.050000
30
0.0
11
80.569038
21
39.050000
31
0.0
0
ARC
8
0
10
80.569038
20
37.550000
30
0.0
40
1.500000
50
90.000000
51
180.000000
0
LINE
8
0
10
79.069038
20
37.550000
30
0.0
11
79.069038
21
31.650000
31
0.0
0
LINE
8
0
10
79.069038
20
31.650000
30
0.0
11
78.569038
21
31.150000
31
0.0
0
LINE
8
0
10
78.569038
20
31.150000
30
0.0
11
79.069038
21
30.650000
31
0.0
0
LINE
8
0
10
79.069038
20
30.650000
30
0.0
11
79.069038
21
30.150000
31
0.0
0
LINE
8
0
10
79.069038
20
30.150000
30
0.0
11
79.069038
21
29.650000
31
0.0
0
LINE
8
0
10
79.069038
20
29.650000
30
0.0
11
78.569038
21
29.150000
31
0.0
0
LINE
8
0
10
78.569038
20
29.150000
30
0.0
11
79.069038
21
28.650000
31
0.0
0
LINE
8
0
10
79.069038
20
28.650000
30
0.0
11
79.069038
21
22.750000
31
0.0
0
ARC
8
0
10
80.569038
20
22.750000
30
0.0
40
1.500000
50
180.000000
51
270.000000
0
LINE
8
0
10
80.569038
20
21.250000
30
0.0
11
82.269038
21
21.250000
31
0.0
0
ARC
8
0
10
82.269038
20
20.750000
30
0.0
40
0.500000
50
360.000000
51
90.000000
0
LINE
8
0
10
82.769038
20
20.750000
30
0.0
11
82.769038
21
16.550000
31
0.0
0
ARC
8
0
10
82.269038
20
16.550000
30
0.0
40
0.500000
50
270.000000
51
360.000000
0
LINE
8
0
10
82.269038
20
16.050000
30
0.0
11
81.869038
21
16.050000
31
0.0
0
ARC
8
0
10
81.869038
20
14.550000
30
0.0
40
1.500000
50
90.000000
51
180.000000
0
LINE
8
0
10
80.369038
20
14.550000
30
0.0
11
80.369038
21
3.584616
31
0.0
0
ARC
8
0
10
79.869038
20
3.584616
30
0.0
40
0.500000
50
239.574216
51
360.000000
0
LINE
8
0
10
79.615827
20
3.153473
30
0.0
11
77.919038
21
4.150000
31
0.0
0
LINE
8
0
10
77.919038
20
4.150000
30
0.0
11
77.335063
21
3.150000
31
0.0
0
LINE
8
0
10
77.335063
20
3.150000
30
0.0
11
75.170000
21
4.400000
31
0.0
0
LINE
8
0
10
75.170000
20
4.400000
30
0.0
11
74.670000
21
3.550000
31
0.0
0
LINE
8
0
10
74.670000
20
3.550000
30
0.0
11
77.713781
21
1.800000
31
0.0
0
LINE
8
0
10
77.713781
20
1.800000
30
0.0
11
78.295241
21
2.797241
31
0.0
0
LINE
8
0
10
78.295241
20
2.797241
30
0.0
11
79.507834
21
2.100000
31
0.0
0
LINE
8
0
10
79.507834
20
2.100000
30
0.0
11
84.769038
21
2.100000
31
0.0
0
LINE
8
0
10
84.769038
20
2.100000
30
0.0
11
84.769038
21
3.500000
31
0.0
0
ARC
8
0
10
84.269038
20
3.500000
30
0.0
40
0.500000
50
360.000000
51
90.000000
0
LINE
8
0
10
84.269038
20
4.000000
30
0.0
11
84.069038
21
4.000000
31
0.0
0
ARC
8
0
10
84.069038
20
3.500000
30
0.0
40
0.500000
50
90.000000
51
180.000000
0
LINE
8
0
10
83.569038
20
3.500000
30
0.0
11
83.569038
21
3.300000
31
0.0
0
LINE
8
0
10
83.569038
20
3.300000
30
0.0
11
82.369038
21
3.300000
31
0.0
0
LINE
8
0
10
82.369038
20
3.300000
30
0.0
11
82.369038
21
7.300000
31
0.0
0
LINE
8
0
10
82.369038
20
7.300000
30
0.0
11
83.569038
21
7.300000
31
0.0
0
LINE
8
0
10
83.569038
20
7.300000
30
0.0
11
83.569038
21
7.100000
31
0.0
0
ARC
8
0
10
84.069038
20
7.100000
30
0.0
40
0.500000
50
180.000000
51
270.000000
0
LINE
8
0
10
84.069038
20
6.600000
30
0.0
11
84.269038
21
6.600000
31
0.0
0
ARC
8
0
10
84.269038
20
7.100000
30
0.0
40
0.500000
50
270.000000
51
360.000000
0
LINE
8
0
10
84.769038
20
7.100000
30
0.0
11
84.769038
21
8.500000
31
0.0
0
LINE
8
0
10
84.769038
20
8.500000
30
0.0
11
82.869038
21
8.500000
31
0.0
0
ARC
8
0
10
82.869038
20
9.000000
30
0.0
40
0.500000
50
180.000000
51
270.000000
0
LINE
8
0
10
82.369038
20
9.000000
30
0.0
11
82.369038
21
13.550000
31
0.0
0
ARC
8
0
10
82.869038
20
13.550000
30
0.0
40
0.500000
50
90.000000
51
180.000000
0
LINE
8
0
10
82.869038
20
14.050000
30
0.0
11
83.269038
21
14.050000
31
0.0
0
ARC
8
0
10
83.269038
20
15.550000
30
0.0
40
1.500000
50
270.000000
51
360.000000
0
LINE
8
0
10
84.769038
20
15.550000
30
0.0
11
84.769038
21
24.250000
31
0.0
0
ARC
8
0
10
84.269038
20
24.250000
30
0.0
40
0.500000
50
360.000000
51
90.000000
0
LINE
8
0
10
84.269038
20
24.750000
30
0.0
11
84.069038
21
24.750000
31
0.0
0
ARC
8
0
10
84.069038
20
24.250000
30
0.0
40
0.500000
50
90.000000
51
180.000000
0
LINE
8
0
10
83.569038
20
24.250000
30
0.0
11
83.569038
21
23.750000
31
0.0
0
ARC
8
0
10
83.069038
20
23.750000
30
0.0
40
0.500000
50
270.000000
51
360.000000
0
ATTDEF
8
0
10
77.713781
20
58.500000
30
0.0
40
3.5
1

3

2
VC_START
70
0
0
ATTDEF
8
0
10
77.713781
20
1.800000
30
0.0
40
3.5
1

3

2
VC_END
70
0
0
LINE
8
0
10
82.570000
20
23.750000
30
0.0
11
81.570000
21
23.750000
31
0.0
0
ARC
8
0
10
81.570000
20
24.250000
30
0.0
40
0.500000
50
180.000000
51
270.000000
0
LINE
8
0
10
81.070000
20
24.250000
30
0.0
11
81.070000
21
36.050000
31
0.0
0
ARC
8
0
10
81.570000
20
36.050000
30
0.0
40
0.500000
50
90.000000
51
180.000000
0
LINE
8
0
10
81.570000
20
36.550000
30
0.0
11
82.570000
21
36.550000
31
0.0
0
ARC
8
0
10
82.570000
20
36.050000
30
0.0
40
0.500000
50
360.000000
51
90.000000
0
LINE
8
0
10
83.070000
20
36.050000
30
0.0
11
83.070000
21
35.800000
31
0.0
0
ARC
8
0
10
83.570000
20
35.800000
30
0.0
40
0.500000
50
180.000000
51
270.000000
0
LINE
8
0
10
83.570000
20
35.300000
30
0.0
11
86.520000
21
35.300000
31
0.0
0
LINE
8
0
10
86.520000
20
35.300000
30
0.0
11
86.520000
21
34.250000
31
0.0
0
ARC
8
0
10
88.520000
20
34.250000
30
0.0
40
2.000000
50
180.000000
51
270.000000
0
LINE
8
0
10
88.520000
20
32.250000
30
0.0
11
92.920000
21
32.250000
31
0.0
0
ARC
8
0
10
92.920000
20
30.150000
30
0.0
40
2.100000
50
270.000000
51
90.000000
0
LINE
8
0
10
92.920000
20
28.050000
30
0.0
11
88.520000
21
28.050000
31
0.0
0
ARC
8
0
10
88.520000
20
26.050000
30
0.0
40
2.000000
50
90.000000
51
180.000000
0
LINE
8
0
10
86.520000
20
26.050000
30
0.0
11
86.520000
21
25.000000
31
0.0
0
LINE
8
0
10
86.520000
20
25.000000
30
0.0
11
83.570000
21
25.000000
31
0.0
0
ARC
8
0
10
83.570000
20
24.500000
30
0.0
40
0.500000
50
90.000000
51
180.000000
0
LINE
8
0
10
83.070000
20
24.500000
30
0.0
11
83.070000
21
24.250000
31
0.0
0
ARC
8
0
10
82.570000
20
24.250000
30
0.0
40
0.500000
50
270.000000
51
360.000000
0
ATTDEF
8
0
10
86.520000
20
35.300000
30
0.0
40
3.5
1

3

2
VC_START
70
0
0
ATTDEF
8
0
10
86.520000
20
25.000000
30
0.0
40
3.5
1

3

2
VC_END
70
0
0
ARC
8
0
10
229.920000
20
57.400000
30
0.0
40
1.000000
50
360.000000
51
90.000000
0
LINE
8
0
10
230.920000
20
57.400000
30
0.0
11
230.920000
21
3.000000
31
0.0
0
ARC
8
0
10
229.920000
20
3.000000
30
0.0
40
1.000000
50
270.000000
51
360.000000
0
LINE
8
0
10
229.920000
20
2.000000
30
0.0
11
106.920000
21
2.000000
31
0.0
0
ARC
8
0
10
106.920000
20
3.000000
30
0.0
40
1.000000
50
180.000000
51
270.000000
0
LINE
8
0
10
105.920000
20
3.000000
30
0.0
11
105.920000
21
57.400000
31
0.0
0
ARC
8
0
10
106.920000
20
57.400000
30
0.0
40
1.000000
50
90.000000
51
180.000000
0
LINE
8
0
10
106.920000
20
58.400000
30
0.0
11
229.920000
21
58.400000
31
0.0
0
LINE
8
0
10
100.520000
20
60.200000
30
0.0
11
100.520000
21
58.800000
31
0.0
0
ARC
8
0
10
101.020000
20
58.800000
30
0.0
40
0.500000
50
180.000000
51
281.536959
0
ARC
8
0
10
101.220000
20
58.800000
30
0.0
40
0.500000
50
258.463041
51
360.000000
0
LINE
8
0
10
101.720000
20
58.800000
30
0.0
11
101.720000
21
59.000000
31
0.0
0
LINE
8
0
10
101.720000
20
59.000000
30
0.0
11
102.920000
21
59.000000
31
0.0
0
LINE
8
0
10
102.920000
20
59.000000
30
0.0
11
102.920000
21
55.000000
31
0.0
0
LINE
8
0
10
102.920000
20
55.000000
30
0.0
11
101.720000
21
55.000000
31
0.0
0
LINE
8
0
10
101.720000
20
55.000000
30
0.0
11
101.720000
21
55.200000
31
0.0
0
ARC
8
0
10
101.220000
20
55.200000
30
0.0
40
0.500000
50
360.000000
51
101.536959
0
ARC
8
0
10
101.020000
20
55.200000
30
0.0
40
0.500000
50
78.463041
51
180.000000
0
LINE
8
0
10
100.520000
20
55.200000
30
0.0
11
100.520000
21
53.800000
31
0.0
0
LINE
8
0
10
100.520000
20
53.800000
30
0.0
11
102.420000
21
53.800000
31
0.0
0
ARC
8
0
10
102.420000
20
53.300000
30
0.0
40
0.500000
50
360.000000
51
90.000000
0
LINE
8
0
10
102.920000
20
53.300000
30
0.0
11
102.920000
21
35.850000
31
0.0
0
ARC
8
0
10
102.420000
20
35.850000
30
0.0
40
0.500000
50
270.000000
51
360.000000
0
LINE
8
0
10
102.420000
20
35.350000
30
0.0
11
86.520000
21
35.350000
31
0.0
0
LINE
8
0
10
86.520000
20
35.350000
30
0.0
11
86.520000
21
34.350000
31
0.0
0
ARC
8
0
10
87.520000
20
34.350000
30
0.0
40
1.000000
50
180.000000
51
270.000000
0
LINE
8
0
10
87.520000
20
33.350000
30
0.0
11
88.878333
21
33.350000
31
0.0
0
LINE
8
0
10
88.878333
20
33.350000
30
0.0
11
89.244142
21
32.674662
31
0.0
0
ARC
8
0
10
89.420000
20
32.769918
30
0.0
40
0.200000
50
208.442929
51
331.557071
0
LINE
8
0
10
89.595858
20
32.674662
30
0.0
11
89.894142
21
33.225338
31
0.0
0
ARC
8
0
10
90.070000
20
33.130082
30
0.0
40
0.200000
50
28.442929
51
151.557071
0
LINE
8
0
10
90.245858
20
33.225338
30
0.0
11
90.544142
21
32.674662
31
0.0
0
ARC
8
0
10
90.720000
20
32.769918
30
0.0
40
0.200000
50
208.442929
51
331.557071
0
LINE
8
0
10
90.895858
20
32.674662
30
0.0
11
91.194142
21
33.225338
31
0.0
0
ARC
8
0
10
91.370000
20
33.130082
30
0.0
40
0.200000
50
28.442929
51
151.557071
0
LINE
8
0
10
91.545858
20
33.225338
30
0.0
11
91.844142
21
32.674662
31
0.0
0
ARC
8
0
10
92.020000
20
32.769918
30
0.0
40
0.200000
50
208.442929
51
331.557071
0
LINE
8
0
10
92.195858
20
32.674662
30
0.0
11
92.494142
21
33.225338
31
0.0
0
ARC
8
0
10
92.670000
20
33.130082
30
0.0
40
0.200000
50
28.442929
51
151.557071
0
LINE
8
0
10
92.845858
20
33.225338
30
0.0
11
93.144142
21
32.674662
31
0.0
0
ARC
8
0
10
93.320000
20
32.769918
30
0.0
40
0.200000
50
208.442929
51
331.557071
0
LINE
8
0
10
93.495858
20
32.674662
30
0.0
11
93.794142
21
33.225338
31
0.0
0
ARC
8
0
10
93.970000
20
33.130082
30
0.0
40
0.200000
50
28.442929
51
151.557071
0
LINE
8
0
10
94.145858
20
33.225338
30
0.0
11
94.444142
21
32.674662
31
0.0
0
ARC
8
0
10
94.620000
20
32.769918
30
0.0
40
0.200000
50
208.442929
51
331.557071
0
LINE
8
0
10
94.795858
20
32.674662
30
0.0
11
95.094142
21
33.225338
31
0.0
0
ARC
8
0
10
95.270000
20
33.130082
30
0.0
40
0.200000
50
28.442929
51
151.557071
0
LINE
8
0
10
95.445858
20
33.225338
30
0.0
11
95.744142
21
32.674662
31
0.0
0
ARC
8
0
10
95.920000
20
32.769918
30
0.0
40
0.200000
50
208.442929
51
331.557071
0
LINE
8
0
10
96.095858
20
32.674662
30
0.0
11
96.394142
21
33.225338
31
0.0
0
ARC
8
0
10
96.570000
20
33.130082
30
0.0
40
0.200000
50
28.442929
51
151.557071
0
LINE
8
0
10
96.745858
20
33.225338
30
0.0
11
97.044142
21
32.674662
31
0.0
0
ARC
8
0
10
97.220000
20
32.769918
30
0.0
40
0.200000
50
208.442929
51
331.557072
0
LINE
8
0
10
97.395858
20
32.674662
30
0.0
11
97.761667
21
33.350000
31
0.0
0
LINE
8
0
10
97.761667
20
33.350000
30
0.0
11
98.920000
21
33.350000
31
0.0
0
ARC
8
0
10
98.920000
20
32.350000
30
0.0
40
1.000000
50
360.000000
51
90.000000
0
LINE
8
0
10
99.920000
20
32.350000
30
0.0
11
99.920000
21
28.050000
31
0.0
0
ARC
8
0
10
98.920000
20
28.050000
30
0.0
40
1.000000
50
270.000000
51
360.000000
0
LINE
8
0
10
98.920000
20
27.050000
30
0.0
11
98.411667
21
27.050000
31
0.0
0
LINE
8
0
10
98.411667
20
27.050000
30
0.0
11
98.045858
21
27.725338
31
0.0
0
ARC
8
0
10
97.870000
20
27.630082
30
0.0
40
0.200000
50
28.442928
51
151.557071
0
LINE
8
0
10
97.694142
20
27.725338
30
0.0
11
97.395858
21
27.174662
31
0.0
0
ARC
8
0
10
97.220000
20
27.269918
30
0.0
40
0.200000
50
208.442929
51
331.557071
0
LINE
8
0
10
97.044142
20
27.174662
30
0.0
11
96.745858
21
27.725338
31
0.0
0
ARC
8
0
10
96.570000
20
27.630082
30
0.0
40
0.200000
50
28.442929
51
151.557071
0
LINE
8
0
10
96.394142
20
27.725338
30
0.0
11
96.095858
21
27.174662
31
0.0
0
ARC
8
0
10
95.920000
20
27.269918
30
0.0
40
0.200000
50
208.442929
51
331.557071
0
LINE
8
0
10
95.744142
20
27.174662
30
0.0
11
95.445858
21
27.725338
31
0.0
0
ARC
8
0
10
95.270000
20
27.630082
30
0.0
40
0.200000
50
28.442929
51
151.557071
0
LINE
8
0
10
95.094142
20
27.725338
30
0.0
11
94.795858
21
27.174662
31
0.0
0
ARC
8
0
10
94.620000
20
27.269918
30
0.0
40
0.200000
50
208.442929
51
331.557071
0
LINE
8
0
10
94.444142
20
27.174662
30
0.0
11
94.145858
21
27.725338
31
0.0
0
ARC
8
0
10
93.970000
20
27.630082
30
0.0
40
0.200000
50
28.442929
51
151.557071
0
LINE
8
0
10
93.794142
20
27.725338
30
0.0
11
93.495858
21
27.174662
31
0.0
0
ARC
8
0
10
93.320000
20
27.269918
30
0.0
40
0.200000
50
208.442929
51
331.557071
0
LINE
8
0
10
93.144142
20
27.174662
30
0.0
11
92.845858
21
27.725338
31
0.0
0
ARC
8
0
10
92.670000
20
27.630082
30
0.0
40
0.200000
50
28.442929
51
151.557071
0
LINE
8
0
10
92.494142
20
27.725338
30
0.0
11
92.195858
21
27.174662
31
0.0
0
ARC
8
0
10
92.020000
20
27.269918
30
0.0
40
0.200000
50
208.442929
51
331.557071
0
LINE
8
0
10
91.844142
20
27.174662
30
0.0
11
91.545858
21
27.725338
31
0.0
0
ARC
8
0
10
91.370000
20
27.630082
30
0.0
40
0.200000
50
28.442929
51
151.557071
0
LINE
8
0
10
91.194142
20
27.725338
30
0.0
11
90.895858
21
27.174662
31
0.0
0
ARC
8
0
10
90.720000
20
27.269918
30
0.0
40
0.200000
50
208.442929
51
331.557071
0
LINE
8
0
10
90.544142
20
27.174662
30
0.0
11
90.245858
21
27.725338
31
0.0
0
ARC
8
0
10
90.070000
20
27.630082
30
0.0
40
0.200000
50
28.442929
51
151.557071
0
LINE
8
0
10
89.894142
20
27.725338
30
0.0
11
89.595858
21
27.174662
31
0.0
0
ARC
8
0
10
89.420000
20
27.269918
30
0.0
40
0.200000
50
208.442929
51
331.557071
0
LINE
8
0
10
89.244142
20
27.174662
30
0.0
11
88.945858
21
27.725338
31
0.0
0
ARC
8
0
10
88.770000
20
27.630082
30
0.0
40
0.200000
50
28.442929
51
151.557071
0
LINE
8
0
10
88.594142
20
27.725338
30
0.0
11
88.228333
21
27.050000
31
0.0
0
LINE
8
0
10
88.228333
20
27.050000
30
0.0
11
87.520000
21
27.050000
31
0.0
0
ARC
8
0
10
87.520000
20
26.050000
30
0.0
40
1.000000
50
90.000000
51
180.000000
0
LINE
8
0
10
86.520000
20
26.050000
30
0.0
11
86.520000
21
25.050000
31
0.0
0
LINE
8
0
10
86.520000
20
25.050000
30
0.0
11
102.420000
21
25.050000
31
0.0
0
ARC
8
0
10
102.420000
20
24.550000
30
0.0
40
0.500000
50
360.000000
51
90.000000
0
LINE
8
0
10
102.920000
20
24.550000
30
0.0
11
102.920000
21
7.100000
31
0.0
0
ARC
8
0
10
102.420000
20
7.100000
30
0.0
40
0.500000
50
270.000000
51
360.000000
0
LINE
8
0
10
102.420000
20
6.600000
30
0.0
11
100.520000
21
6.600000
31
0.0
0
LINE
8
0
10
100.520000
20
6.600000
30
0.0
11
100.520000
21
5.200000
31
0.0
0
ARC
8
0
10
101.020000
20
5.200000
30
0.0
40
0.500000
50
180.000000
51
281.536959
0
ARC
8
0
10
101.220000
20
5.200000
30
0.0
40
0.500000
50
258.463041
51
360.000000
0
LINE
8
0
10
101.720000
20
5.200000
30
0.0
11
101.720000
21
5.400000
31
0.0
0
LINE
8
0
10
101.720000
20
5.400000
30
0.0
11
102.920000
21
5.400000
31
0.0
0
LINE
8
0
10
102.920000
20
5.400000
30
0.0
11
102.920000
21
1.400000
31
0.0
0
LINE
8
0
10
102.920000
20
1.400000
30
0.0
11
101.720000
21
1.400000
31
0.0
0
LINE
8
0
10
101.720000
20
1.400000
30
0.0
11
101.720000
21
1.600000
31
0.0
0
ARC
8
0
10
101.220000
20
1.600000
30
0.0
40
0.500000
50
360.000000
51
101.536959
0
ARC
8
0
10
101.020000
20
1.600000
30
0.0
40
0.500000
50
78.463041
51
180.000000
0
LINE
8
0
10
100.520000
20
1.600000
30
0.0
11
100.520000
21
0.200000
31
0.0
0
LINE
8
0
10
100.520000
20
0.200000
30
0.0
11
233.920000
21
0.200000
31
0.0
0
LINE
8
0
10
233.920000
20
0.200000
30
0.0
11
233.920000
21
60.200000
31
0.0
0
LINE
8
0
10
233.920000
20
60.200000
30
0.0
11
100.520000
21
60.200000
31
0.0
0
ATTDEF
8
0
10
100.520000
20
60.200000
30
0.0
40
3.5
1

3

2
VC_START
70
0
0
ATTDEF
8
0
10
100.520000
20
0.200000
30
0.0
40
3.5
1

3

2
VC_END
70
0
0
ATTDEF
8
0
10
0.000000
20
0.000000
30
0.0
40
3.5
1

3

2
DENS:0.000000
70
0
0
ATTDEF
8
0
10
0.000000
20
0.000000
30
0.0
40
3.5
1

3

2
GLASS_MIN:0.000000
70
0
0
ATTDEF
8
0
10
0.000000
20
0.000000
30
0.0
40
3.5
1

3

2
GLASS_MAX:0.000000
70
0
0
ATTDEF
8
0
10
0.000000
20
0.000000
30
0.0
40
3.5
1

3

2
DESC:7696 - B58 - 5379 - 7010
70
0
0
ATTDEF
8
0
10
0.000000
20
0.000000
30
0.0
40
3.5
1

3

2
HW_START
70
0
0
ATTDEF
8
0
10
233.920000
20
60.200000
30
0.0
40
3.5
1

3

2
HW_END
70
0
0
ATTDEF
8
0
10
0.000000
20
0.000000
30
0.0
40
3.5
1

3

2
BL01:6500.000000,,1
70
0
0
ENDSEC
0
EOF
