0
SECTION
2
ENTITIES
0
ARC
8
0
10
30.000000
20
30.000000
30
0.0
40
30.000000
50
90.000000
51
261.225710
0
LINE
8
0
10
30.000000
20
60.000000
30
0.0
11
49.500000
21
60.000000
31
0.0
0
ARC
8
0
10
49.500000
20
59.500000
30
0.0
40
0.500000
50
270.000000
51
90.000000
0
LINE
8
0
10
49.500000
20
59.000000
30
0.0
11
45.332051
21
59.000000
31
0.0
0
LINE
8
0
10
45.332051
20
59.000000
30
0.0
11
43.600000
21
58.000000
31
0.0
0
LINE
8
0
10
43.600000
20
58.000000
30
0.0
11
43.138120
21
58.800000
31
0.0
0
LINE
8
0
10
43.138120
20
58.800000
30
0.0
11
42.485641
21
58.800000
31
0.0
0
LINE
8
0
10
42.485641
20
58.800000
30
0.0
11
41.100000
21
58.000000
31
0.0
0
LINE
8
0
10
41.100000
20
58.000000
30
0.0
11
40.638120
21
58.800000
31
0.0
0
LINE
8
0
10
40.638120
20
58.800000
30
0.0
11
39.900000
21
58.800000
31
0.0
0
ARC
8
0
10
39.900000
20
58.300000
30
0.0
40
0.500000
50
90.000000
51
180.000000
0
LINE
8
0
10
39.400000
20
58.300000
30
0.0
11
39.400000
21
55.500000
31
0.0
0
ARC
8
0
10
38.900000
20
55.500000
30
0.0
40
0.500000
50
180.000000
51
360.000000
0
LINE
8
0
10
38.400000
20
55.500000
30
0.0
11
38.400000
21
58.300000
31
0.0
0
ARC
8
0
10
37.900000
20
58.300000
30
0.0
40
0.500000
50
360.000000
51
90.000000
0
LINE
8
0
10
37.900000
20
58.800000
30
0.0
11
32.000000
21
58.800000
31
0.0
0
ARC
8
0
10
32.000000
20
58.300000
30
0.0
40
0.500000
50
90.000000
51
180.000000
0
LINE
8
0
10
31.500000
20
58.300000
30
0.0
11
31.500000
21
1.700000
31
0.0
0
ARC
8
0
10
32.000000
20
1.700000
30
0.0
40
0.500000
50
180.000000
51
270.000000
0
LINE
8
0
10
32.000000
20
1.200000
30
0.0
11
37.900000
21
1.200000
31
0.0
0
ARC
8
0
10
37.900000
20
1.700000
30
0.0
40
0.500000
50
270.000000
51
360.000000
0
LINE
8
0
10
38.400000
20
1.700000
30
0.0
11
38.400000
21
4.500000
31
0.0
0
ARC
8
0
10
38.900000
20
4.500000
30
0.0
40
0.500000
50
360.000000
51
180.000000
0
LINE
8
0
10
39.400000
20
4.500000
30
0.0
11
39.400000
21
1.700000
31
0.0
0
ARC
8
0
10
39.900000
20
1.700000
30
0.0
40
0.500000
50
180.000000
51
270.000000
0
LINE
8
0
10
39.900000
20
1.200000
30
0.0
11
40.638120
21
1.200000
31
0.0
0
LINE
8
0
10
40.638120
20
1.200000
30
0.0
11
41.100000
21
2.000000
31
0.0
0
LINE
8
0
10
41.100000
20
2.000000
30
0.0
11
42.485641
21
1.200000
31
0.0
0
LINE
8
0
10
42.485641
20
1.200000
30
0.0
11
43.138120
21
1.200000
31
0.0
0
LINE
8
0
10
43.138120
20
1.200000
30
0.0
11
43.600000
21
2.000000
31
0.0
0
LINE
8
0
10
43.600000
20
2.000000
30
0.0
11
45.332051
21
1.000000
31
0.0
0
LINE
8
0
10
45.332051
20
1.000000
30
0.0
11
49.500000
21
1.000000
31
0.0
0
ARC
8
0
10
49.500000
20
0.500000
30
0.0
40
0.500000
50
270.000000
51
90.000000
0
LINE
8
0
10
49.500000
20
0.000000
30
0.0
11
30.500000
21
0.000000
31
0.0
0
ARC
8
0
10
30.500000
20
0.500000
30
0.0
40
0.500000
50
180.000000
51
270.000000
0
LINE
8
0
10
30.000000
20
0.500000
30
0.0
11
30.000000
21
3.500000
31
0.0
0
ARC
8
0
10
29.500000
20
3.500000
30
0.0
40
0.500000
50
360.000000
51
90.000000
0
LINE
8
0
10
29.500000
20
4.000000
30
0.0
11
26.500000
21
4.000000
31
0.0
0
ARC
8
0
10
26.500000
20
3.500000
30
0.0
40
0.500000
50
90.000000
51
180.000000
0
LINE
8
0
10
26.000000
20
3.500000
30
0.0
11
26.000000
21
0.845241
31
0.0
0
ARC
8
0
10
25.500000
20
0.845241
30
0.0
40
0.500000
50
261.225710
51
360.000000
0
LINE
8
0
10
29.000000
20
5.500000
30
0.0
11
26.500000
21
5.500000
31
0.0
0
ARC
8
0
10
26.500000
20
3.500000
30
0.0
40
2.000000
50
90.000000
51
180.000000
0
LINE
8
0
10
24.500000
20
3.500000
30
0.0
11
24.500000
21
3.279222
31
0.0
0
ARC
8
0
10
23.500000
20
3.279222
30
0.0
40
1.000000
50
256.327982
51
360.000000
0
ARC
8
0
10
30.000000
20
30.000000
30
0.0
40
28.500000
50
92.083942
51
256.327982
0
ARC
8
0
10
29.000000
20
57.481812
30
0.0
40
1.000000
50
360.000000
51
92.083942
0
LINE
8
0
10
30.000000
20
57.481812
30
0.0
11
30.000000
21
6.500000
31
0.0
0
ARC
8
0
10
29.000000
20
6.500000
30
0.0
40
1.000000
50
270.000000
51
360.000000
0
ATTDEF
8
0
10
30.000000
20
60.000000
30
0.0
40
3.5
1

3

2
VC_START
70
0
0
ATTDEF
8
0
10
30.500000
20
0.000000
30
0.0
40
3.5
1

3

2
VC_END
70
0
0
LINE
8
0
10
48.299038
20
23.250000
30
0.0
11
46.799038
21
23.250000
31
0.0
0
ARC
8
0
10
46.799038
20
23.750000
30
0.0
40
0.500000
50
180.000000
51
270.000000
0
LINE
8
0
10
46.299038
20
23.750000
30
0.0
11
46.299038
21
30.150000
31
0.0
0
LINE
8
0
10
46.299038
20
30.150000
30
0.0
11
46.299038
21
36.550000
31
0.0
0
ARC
8
0
10
46.799038
20
36.550000
30
0.0
40
0.500000
50
90.000000
51
180.000000
0
LINE
8
0
10
46.799038
20
37.050000
30
0.0
11
48.299038
21
37.050000
31
0.0
0
ARC
8
0
10
48.299038
20
36.550000
30
0.0
40
0.500000
50
360.000000
51
90.000000
0
LINE
8
0
10
48.799038
20
36.550000
30
0.0
11
48.799038
21
36.050000
31
0.0
0
ARC
8
0
10
49.299038
20
36.050000
30
0.0
40
0.500000
50
180.000000
51
270.000000
0
LINE
8
0
10
49.299038
20
35.550000
30
0.0
11
49.499038
21
35.550000
31
0.0
0
ARC
8
0
10
49.499038
20
36.050000
30
0.0
40
0.500000
50
270.000000
51
360.000000
0
LINE
8
0
10
49.999038
20
36.050000
30
0.0
11
49.999038
21
44.750000
31
0.0
0
ARC
8
0
10
48.499038
20
44.750000
30
0.0
40
1.500000
50
360.000000
51
90.000000
0
LINE
8
0
10
48.499038
20
46.250000
30
0.0
11
48.099038
21
46.250000
31
0.0
0
ARC
8
0
10
48.099038
20
46.750000
30
0.0
40
0.500000
50
180.000000
51
270.000000
0
LINE
8
0
10
47.599038
20
46.750000
30
0.0
11
47.599038
21
51.350000
31
0.0
0
ARC
8
0
10
48.099038
20
51.350000
30
0.0
40
0.500000
50
90.000000
51
180.000000
0
LINE
8
0
10
48.099038
20
51.850000
30
0.0
11
49.999038
21
51.850000
31
0.0
0
LINE
8
0
10
49.999038
20
51.850000
30
0.0
11
49.999038
21
53.200000
31
0.0
0
ARC
8
0
10
49.499038
20
53.200000
30
0.0
40
0.500000
50
360.000000
51
90.000000
0
LINE
8
0
10
49.499038
20
53.700000
30
0.0
11
49.299038
21
53.700000
31
0.0
0
ARC
8
0
10
49.299038
20
53.200000
30
0.0
40
0.500000
50
90.000000
51
180.000000
0
LINE
8
0
10
48.799038
20
53.200000
30
0.0
11
48.799038
21
53.000000
31
0.0
0
LINE
8
0
10
48.799038
20
53.000000
30
0.0
11
47.599038
21
53.000000
31
0.0
0
LINE
8
0
10
47.599038
20
53.000000
30
0.0
11
47.599038
21
57.000000
31
0.0
0
LINE
8
0
10
47.599038
20
57.000000
30
0.0
11
48.799038
21
57.000000
31
0.0
0
LINE
8
0
10
48.799038
20
57.000000
30
0.0
11
48.799038
21
56.800000
31
0.0
0
ARC
8
0
10
49.299038
20
56.800000
30
0.0
40
0.500000
50
180.000000
51
270.000000
0
LINE
8
0
10
49.299038
20
56.300000
30
0.0
11
49.499038
21
56.300000
31
0.0
0
ARC
8
0
10
49.499038
20
56.800000
30
0.0
40
0.500000
50
270.000000
51
360.000000
0
LINE
8
0
10
49.999038
20
56.800000
30
0.0
11
49.999038
21
58.200000
31
0.0
0
LINE
8
0
10
49.999038
20
58.200000
30
0.0
11
44.737834
21
58.200000
31
0.0
0
LINE
8
0
10
44.737834
20
58.200000
30
0.0
11
43.525241
21
57.502759
31
0.0
0
LINE
8
0
10
43.525241
20
57.502759
30
0.0
11
42.943781
21
58.500000
31
0.0
0
LINE
8
0
10
42.943781
20
58.500000
30
0.0
11
39.900000
21
56.750000
31
0.0
0
LINE
8
0
10
39.900000
20
56.750000
30
0.0
11
40.400000
21
55.900000
31
0.0
0
LINE
8
0
10
40.400000
20
55.900000
30
0.0
11
42.565063
21
57.150000
31
0.0
0
LINE
8
0
10
42.565063
20
57.150000
30
0.0
11
43.149038
21
56.150000
31
0.0
0
LINE
8
0
10
43.149038
20
56.150000
30
0.0
11
44.845827
21
57.146527
31
0.0
0
ARC
8
0
10
45.099038
20
56.715384
30
0.0
40
0.500000
50
360.000000
51
120.425784
0
LINE
8
0
10
45.599038
20
56.715384
30
0.0
11
45.599038
21
45.750000
31
0.0
0
ARC
8
0
10
47.099038
20
45.750000
30
0.0
40
1.500000
50
180.000000
51
270.000000
0
LINE
8
0
10
47.099038
20
44.250000
30
0.0
11
47.499038
21
44.250000
31
0.0
0
ARC
8
0
10
47.499038
20
43.750000
30
0.0
40
0.500000
50
360.000000
51
90.000000
0
LINE
8
0
10
47.999038
20
43.750000
30
0.0
11
47.999038
21
39.550000
31
0.0
0
ARC
8
0
10
47.499038
20
39.550000
30
0.0
40
0.500000
50
270.000000
51
360.000000
0
LINE
8
0
10
47.499038
20
39.050000
30
0.0
11
45.799038
21
39.050000
31
0.0
0
ARC
8
0
10
45.799038
20
37.550000
30
0.0
40
1.500000
50
90.000000
51
180.000000
0
LINE
8
0
10
44.299038
20
37.550000
30
0.0
11
44.299038
21
31.650000
31
0.0
0
LINE
8
0
10
44.299038
20
31.650000
30
0.0
11
43.799038
21
31.150000
31
0.0
0
LINE
8
0
10
43.799038
20
31.150000
30
0.0
11
44.299038
21
30.650000
31
0.0
0
LINE
8
0
10
44.299038
20
30.650000
30
0.0
11
44.299038
21
30.150000
31
0.0
0
LINE
8
0
10
44.299038
20
30.150000
30
0.0
11
44.299038
21
29.650000
31
0.0
0
LINE
8
0
10
44.299038
20
29.650000
30
0.0
11
43.799038
21
29.150000
31
0.0
0
LINE
8
0
10
43.799038
20
29.150000
30
0.0
11
44.299038
21
28.650000
31
0.0
0
LINE
8
0
10
44.299038
20
28.650000
30
0.0
11
44.299038
21
22.750000
31
0.0
0
ARC
8
0
10
45.799038
20
22.750000
30
0.0
40
1.500000
50
180.000000
51
270.000000
0
LINE
8
0
10
45.799038
20
21.250000
30
0.0
11
47.499038
21
21.250000
31
0.0
0
ARC
8
0
10
47.499038
20
20.750000
30
0.0
40
0.500000
50
360.000000
51
90.000000
0
LINE
8
0
10
47.999038
20
20.750000
30
0.0
11
47.999038
21
16.550000
31
0.0
0
ARC
8
0
10
47.499038
20
16.550000
30
0.0
40
0.500000
50
270.000000
51
360.000000
0
LINE
8
0
10
47.499038
20
16.050000
30
0.0
11
47.099038
21
16.050000
31
0.0
0
ARC
8
0
10
47.099038
20
14.550000
30
0.0
40
1.500000
50
90.000000
51
180.000000
0
LINE
8
0
10
45.599038
20
14.550000
30
0.0
11
45.599038
21
3.584616
31
0.0
0
ARC
8
0
10
45.099038
20
3.584616
30
0.0
40
0.500000
50
239.574216
51
360.000000
0
LINE
8
0
10
44.845827
20
3.153473
30
0.0
11
43.149038
21
4.150000
31
0.0
0
LINE
8
0
10
43.149038
20
4.150000
30
0.0
11
42.565063
21
3.150000
31
0.0
0
LINE
8
0
10
42.565063
20
3.150000
30
0.0
11
40.400000
21
4.400000
31
0.0
0
LINE
8
0
10
40.400000
20
4.400000
30
0.0
11
39.900000
21
3.550000
31
0.0
0
LINE
8
0
10
39.900000
20
3.550000
30
0.0
11
42.943781
21
1.800000
31
0.0
0
LINE
8
0
10
42.943781
20
1.800000
30
0.0
11
43.525241
21
2.797241
31
0.0
0
LINE
8
0
10
43.525241
20
2.797241
30
0.0
11
44.737834
21
2.100000
31
0.0
0
LINE
8
0
10
44.737834
20
2.100000
30
0.0
11
49.999038
21
2.100000
31
0.0
0
LINE
8
0
10
49.999038
20
2.100000
30
0.0
11
49.999038
21
3.500000
31
0.0
0
ARC
8
0
10
49.499038
20
3.500000
30
0.0
40
0.500000
50
360.000000
51
90.000000
0
LINE
8
0
10
49.499038
20
4.000000
30
0.0
11
49.299038
21
4.000000
31
0.0
0
ARC
8
0
10
49.299038
20
3.500000
30
0.0
40
0.500000
50
90.000000
51
180.000000
0
LINE
8
0
10
48.799038
20
3.500000
30
0.0
11
48.799038
21
3.300000
31
0.0
0
LINE
8
0
10
48.799038
20
3.300000
30
0.0
11
47.599038
21
3.300000
31
0.0
0
LINE
8
0
10
47.599038
20
3.300000
30
0.0
11
47.599038
21
7.300000
31
0.0
0
LINE
8
0
10
47.599038
20
7.300000
30
0.0
11
48.799038
21
7.300000
31
0.0
0
LINE
8
0
10
48.799038
20
7.300000
30
0.0
11
48.799038
21
7.100000
31
0.0
0
ARC
8
0
10
49.299038
20
7.100000
30
0.0
40
0.500000
50
180.000000
51
270.000000
0
LINE
8
0
10
49.299038
20
6.600000
30
0.0
11
49.499038
21
6.600000
31
0.0
0
ARC
8
0
10
49.499038
20
7.100000
30
0.0
40
0.500000
50
270.000000
51
360.000000
0
LINE
8
0
10
49.999038
20
7.100000
30
0.0
11
49.999038
21
8.500000
31
0.0
0
LINE
8
0
10
49.999038
20
8.500000
30
0.0
11
48.099038
21
8.500000
31
0.0
0
ARC
8
0
10
48.099038
20
9.000000
30
0.0
40
0.500000
50
180.000000
51
270.000000
0
LINE
8
0
10
47.599038
20
9.000000
30
0.0
11
47.599038
21
13.550000
31
0.0
0
ARC
8
0
10
48.099038
20
13.550000
30
0.0
40
0.500000
50
90.000000
51
180.000000
0
LINE
8
0
10
48.099038
20
14.050000
30
0.0
11
48.499038
21
14.050000
31
0.0
0
ARC
8
0
10
48.499038
20
15.550000
30
0.0
40
1.500000
50
270.000000
51
360.000000
0
LINE
8
0
10
49.999038
20
15.550000
30
0.0
11
49.999038
21
24.250000
31
0.0
0
ARC
8
0
10
49.499038
20
24.250000
30
0.0
40
0.500000
50
360.000000
51
90.000000
0
LINE
8
0
10
49.499038
20
24.750000
30
0.0
11
49.299038
21
24.750000
31
0.0
0
ARC
8
0
10
49.299038
20
24.250000
30
0.0
40
0.500000
50
90.000000
51
180.000000
0
LINE
8
0
10
48.799038
20
24.250000
30
0.0
11
48.799038
21
23.750000
31
0.0
0
ARC
8
0
10
48.299038
20
23.750000
30
0.0
40
0.500000
50
270.000000
51
360.000000
0
ATTDEF
8
0
10
42.943781
20
58.500000
30
0.0
40
3.5
1

3

2
VC_START
70
0
0
ATTDEF
8
0
10
42.943781
20
1.800000
30
0.0
40
3.5
1

3

2
VC_END
70
0
0
ARC
8
0
10
62.491641
20
30.150000
30
0.0
40
2.199036
50
180.000000
51
360.000000
0
ARC
8
0
10
62.491641
20
30.150000
30
0.0
40
2.199036
50
360.000000
51
180.000000
0
ARC
8
0
10
53.423844
20
30.150000
30
0.0
40
3.251302
50
180.000000
51
360.000000
0
ARC
8
0
10
53.423844
20
30.150000
30
0.0
40
3.251302
50
360.000000
51
180.000000
0
LINE
8
0
10
47.800000
20
23.750000
30
0.0
11
46.800000
21
23.750000
31
0.0
0
ARC
8
0
10
46.800000
20
24.250000
30
0.0
40
0.500000
50
180.000000
51
270.000000
0
LINE
8
0
10
46.300000
20
24.250000
30
0.0
11
46.300000
21
36.050000
31
0.0
0
ARC
8
0
10
46.800000
20
36.050000
30
0.0
40
0.500000
50
90.000000
51
180.000000
0
LINE
8
0
10
46.800000
20
36.550000
30
0.0
11
47.800000
21
36.550000
31
0.0
0
ARC
8
0
10
47.800000
20
36.050000
30
0.0
40
0.500000
50
360.000000
51
90.000000
0
LINE
8
0
10
48.300000
20
36.050000
30
0.0
11
48.300000
21
35.800000
31
0.0
0
ARC
8
0
10
48.800000
20
35.800000
30
0.0
40
0.500000
50
180.000000
51
270.000000
0
LINE
8
0
10
48.800000
20
35.300000
30
0.0
11
67.750000
21
35.300000
31
0.0
0
LINE
8
0
10
67.750000
20
35.300000
30
0.0
11
67.750000
21
34.250000
31
0.0
0
ARC
8
0
10
69.750000
20
34.250000
30
0.0
40
2.000000
50
180.000000
51
270.000000
0
LINE
8
0
10
69.750000
20
32.250000
30
0.0
11
74.150000
21
32.250000
31
0.0
0
ARC
8
0
10
74.150000
20
30.150000
30
0.0
40
2.100000
50
270.000000
51
90.000000
0
LINE
8
0
10
74.150000
20
28.050000
30
0.0
11
69.750000
21
28.050000
31
0.0
0
ARC
8
0
10
69.750000
20
26.050000
30
0.0
40
2.000000
50
90.000000
51
180.000000
0
LINE
8
0
10
67.750000
20
26.050000
30
0.0
11
67.750000
21
25.000000
31
0.0
0
LINE
8
0
10
67.750000
20
25.000000
30
0.0
11
48.800000
21
25.000000
31
0.0
0
ARC
8
0
10
48.800000
20
24.500000
30
0.0
40
0.500000
50
90.000000
51
180.000000
0
LINE
8
0
10
48.300000
20
24.500000
30
0.0
11
48.300000
21
24.250000
31
0.0
0
ARC
8
0
10
47.800000
20
24.250000
30
0.0
40
0.500000
50
270.000000
51
360.000000
0
ATTDEF
8
0
10
48.800000
20
35.300000
30
0.0
40
3.5
1

3

2
VC_START
70
0
0
ATTDEF
8
0
10
48.800000
20
25.000000
30
0.0
40
3.5
1

3

2
VC_END
70
0
0
ARC
8
0
10
211.150000
20
57.400000
30
0.0
40
1.000000
50
360.000000
51
90.000000
0
LINE
8
0
10
212.150000
20
57.400000
30
0.0
11
212.150000
21
3.000000
31
0.0
0
ARC
8
0
10
211.150000
20
3.000000
30
0.0
40
1.000000
50
270.000000
51
360.000000
0
LINE
8
0
10
211.150000
20
2.000000
30
0.0
11
88.150000
21
2.000000
31
0.0
0
ARC
8
0
10
88.150000
20
3.000000
30
0.0
40
1.000000
50
180.000000
51
270.000000
0
LINE
8
0
10
87.150000
20
3.000000
30
0.0
11
87.150000
21
57.400000
31
0.0
0
ARC
8
0
10
88.150000
20
57.400000
30
0.0
40
1.000000
50
90.000000
51
180.000000
0
LINE
8
0
10
88.150000
20
58.400000
30
0.0
11
211.150000
21
58.400000
31
0.0
0
LINE
8
0
10
81.750000
20
60.200000
30
0.0
11
81.750000
21
58.800000
31
0.0
0
ARC
8
0
10
82.250000
20
58.800000
30
0.0
40
0.500000
50
180.000000
51
281.536959
0
ARC
8
0
10
82.450000
20
58.800000
30
0.0
40
0.500000
50
258.463041
51
360.000000
0
LINE
8
0
10
82.950000
20
58.800000
30
0.0
11
82.950000
21
59.000000
31
0.0
0
LINE
8
0
10
82.950000
20
59.000000
30
0.0
11
84.150000
21
59.000000
31
0.0
0
LINE
8
0
10
84.150000
20
59.000000
30
0.0
11
84.150000
21
55.000000
31
0.0
0
LINE
8
0
10
84.150000
20
55.000000
30
0.0
11
82.950000
21
55.000000
31
0.0
0
LINE
8
0
10
82.950000
20
55.000000
30
0.0
11
82.950000
21
55.200000
31
0.0
0
ARC
8
0
10
82.450000
20
55.200000
30
0.0
40
0.500000
50
360.000000
51
101.536959
0
ARC
8
0
10
82.250000
20
55.200000
30
0.0
40
0.500000
50
78.463041
51
180.000000
0
LINE
8
0
10
81.750000
20
55.200000
30
0.0
11
81.750000
21
53.800000
31
0.0
0
LINE
8
0
10
81.750000
20
53.800000
30
0.0
11
83.650000
21
53.800000
31
0.0
0
ARC
8
0
10
83.650000
20
53.300000
30
0.0
40
0.500000
50
360.000000
51
90.000000
0
LINE
8
0
10
84.150000
20
53.300000
30
0.0
11
84.150000
21
35.850000
31
0.0
0
ARC
8
0
10
83.650000
20
35.850000
30
0.0
40
0.500000
50
270.000000
51
360.000000
0
LINE
8
0
10
83.650000
20
35.350000
30
0.0
11
67.750000
21
35.350000
31
0.0
0
LINE
8
0
10
67.750000
20
35.350000
30
0.0
11
67.750000
21
34.350000
31
0.0
0
ARC
8
0
10
68.750000
20
34.350000
30
0.0
40
1.000000
50
180.000000
51
270.000000
0
LINE
8
0
10
68.750000
20
33.350000
30
0.0
11
70.108333
21
33.350000
31
0.0
0
LINE
8
0
10
70.108333
20
33.350000
30
0.0
11
70.474142
21
32.674662
31
0.0
0
ARC
8
0
10
70.650000
20
32.769918
30
0.0
40
0.200000
50
208.442929
51
331.557071
0
LINE
8
0
10
70.825858
20
32.674662
30
0.0
11
71.124142
21
33.225338
31
0.0
0
ARC
8
0
10
71.300000
20
33.130082
30
0.0
40
0.200000
50
28.442929
51
151.557071
0
LINE
8
0
10
71.475858
20
33.225338
30
0.0
11
71.774142
21
32.674662
31
0.0
0
ARC
8
0
10
71.950000
20
32.769918
30
0.0
40
0.200000
50
208.442929
51
331.557071
0
LINE
8
0
10
72.125858
20
32.674662
30
0.0
11
72.424142
21
33.225338
31
0.0
0
ARC
8
0
10
72.600000
20
33.130082
30
0.0
40
0.200000
50
28.442929
51
151.557071
0
LINE
8
0
10
72.775858
20
33.225338
30
0.0
11
73.074142
21
32.674662
31
0.0
0
ARC
8
0
10
73.250000
20
32.769918
30
0.0
40
0.200000
50
208.442929
51
331.557071
0
LINE
8
0
10
73.425858
20
32.674662
30
0.0
11
73.724142
21
33.225338
31
0.0
0
ARC
8
0
10
73.900000
20
33.130082
30
0.0
40
0.200000
50
28.442929
51
151.557071
0
LINE
8
0
10
74.075858
20
33.225338
30
0.0
11
74.374142
21
32.674662
31
0.0
0
ARC
8
0
10
74.550000
20
32.769918
30
0.0
40
0.200000
50
208.442929
51
331.557071
0
LINE
8
0
10
74.725858
20
32.674662
30
0.0
11
75.024142
21
33.225338
31
0.0
0
ARC
8
0
10
75.200000
20
33.130082
30
0.0
40
0.200000
50
28.442929
51
151.557071
0
LINE
8
0
10
75.375858
20
33.225338
30
0.0
11
75.674142
21
32.674662
31
0.0
0
ARC
8
0
10
75.850000
20
32.769918
30
0.0
40
0.200000
50
208.442929
51
331.557071
0
LINE
8
0
10
76.025858
20
32.674662
30
0.0
11
76.324142
21
33.225338
31
0.0
0
ARC
8
0
10
76.500000
20
33.130082
30
0.0
40
0.200000
50
28.442929
51
151.557071
0
LINE
8
0
10
76.675858
20
33.225338
30
0.0
11
76.974142
21
32.674662
31
0.0
0
ARC
8
0
10
77.150000
20
32.769918
30
0.0
40
0.200000
50
208.442929
51
331.557071
0
LINE
8
0
10
77.325858
20
32.674662
30
0.0
11
77.624142
21
33.225338
31
0.0
0
ARC
8
0
10
77.800000
20
33.130082
30
0.0
40
0.200000
50
28.442929
51
151.557071
0
LINE
8
0
10
77.975858
20
33.225338
30
0.0
11
78.274142
21
32.674662
31
0.0
0
ARC
8
0
10
78.450000
20
32.769918
30
0.0
40
0.200000
50
208.442929
51
331.557072
0
LINE
8
0
10
78.625858
20
32.674662
30
0.0
11
78.991667
21
33.350000
31
0.0
0
LINE
8
0
10
78.991667
20
33.350000
30
0.0
11
80.150000
21
33.350000
31
0.0
0
ARC
8
0
10
80.150000
20
32.350000
30
0.0
40
1.000000
50
360.000000
51
90.000000
0
LINE
8
0
10
81.150000
20
32.350000
30
0.0
11
81.150000
21
28.050000
31
0.0
0
ARC
8
0
10
80.150000
20
28.050000
30
0.0
40
1.000000
50
270.000000
51
360.000000
0
LINE
8
0
10
80.150000
20
27.050000
30
0.0
11
79.641667
21
27.050000
31
0.0
0
LINE
8
0
10
79.641667
20
27.050000
30
0.0
11
79.275858
21
27.725338
31
0.0
0
ARC
8
0
10
79.100000
20
27.630082
30
0.0
40
0.200000
50
28.442928
51
151.557071
0
LINE
8
0
10
78.924142
20
27.725338
30
0.0
11
78.625858
21
27.174662
31
0.0
0
ARC
8
0
10
78.450000
20
27.269918
30
0.0
40
0.200000
50
208.442929
51
331.557071
0
LINE
8
0
10
78.274142
20
27.174662
30
0.0
11
77.975858
21
27.725338
31
0.0
0
ARC
8
0
10
77.800000
20
27.630082
30
0.0
40
0.200000
50
28.442929
51
151.557071
0
LINE
8
0
10
77.624142
20
27.725338
30
0.0
11
77.325858
21
27.174662
31
0.0
0
ARC
8
0
10
77.150000
20
27.269918
30
0.0
40
0.200000
50
208.442929
51
331.557071
0
LINE
8
0
10
76.974142
20
27.174662
30
0.0
11
76.675858
21
27.725338
31
0.0
0
ARC
8
0
10
76.500000
20
27.630082
30
0.0
40
0.200000
50
28.442929
51
151.557071
0
LINE
8
0
10
76.324142
20
27.725338
30
0.0
11
76.025858
21
27.174662
31
0.0
0
ARC
8
0
10
75.850000
20
27.269918
30
0.0
40
0.200000
50
208.442929
51
331.557071
0
LINE
8
0
10
75.674142
20
27.174662
30
0.0
11
75.375858
21
27.725338
31
0.0
0
ARC
8
0
10
75.200000
20
27.630082
30
0.0
40
0.200000
50
28.442929
51
151.557071
0
LINE
8
0
10
75.024142
20
27.725338
30
0.0
11
74.725858
21
27.174662
31
0.0
0
ARC
8
0
10
74.550000
20
27.269918
30
0.0
40
0.200000
50
208.442929
51
331.557071
0
LINE
8
0
10
74.374142
20
27.174662
30
0.0
11
74.075858
21
27.725338
31
0.0
0
ARC
8
0
10
73.900000
20
27.630082
30
0.0
40
0.200000
50
28.442929
51
151.557071
0
LINE
8
0
10
73.724142
20
27.725338
30
0.0
11
73.425858
21
27.174662
31
0.0
0
ARC
8
0
10
73.250000
20
27.269918
30
0.0
40
0.200000
50
208.442929
51
331.557071
0
LINE
8
0
10
73.074142
20
27.174662
30
0.0
11
72.775858
21
27.725338
31
0.0
0
ARC
8
0
10
72.600000
20
27.630082
30
0.0
40
0.200000
50
28.442929
51
151.557071
0
LINE
8
0
10
72.424142
20
27.725338
30
0.0
11
72.125858
21
27.174662
31
0.0
0
ARC
8
0
10
71.950000
20
27.269918
30
0.0
40
0.200000
50
208.442929
51
331.557071
0
LINE
8
0
10
71.774142
20
27.174662
30
0.0
11
71.475858
21
27.725338
31
0.0
0
ARC
8
0
10
71.300000
20
27.630082
30
0.0
40
0.200000
50
28.442929
51
151.557071
0
LINE
8
0
10
71.124142
20
27.725338
30
0.0
11
70.825858
21
27.174662
31
0.0
0
ARC
8
0
10
70.650000
20
27.269918
30
0.0
40
0.200000
50
208.442929
51
331.557071
0
LINE
8
0
10
70.474142
20
27.174662
30
0.0
11
70.175858
21
27.725338
31
0.0
0
ARC
8
0
10
70.000000
20
27.630082
30
0.0
40
0.200000
50
28.442929
51
151.557071
0
LINE
8
0
10
69.824142
20
27.725338
30
0.0
11
69.458333
21
27.050000
31
0.0
0
LINE
8
0
10
69.458333
20
27.050000
30
0.0
11
68.750000
21
27.050000
31
0.0
0
ARC
8
0
10
68.750000
20
26.050000
30
0.0
40
1.000000
50
90.000000
51
180.000000
0
LINE
8
0
10
67.750000
20
26.050000
30
0.0
11
67.750000
21
25.050000
31
0.0
0
LINE
8
0
10
67.750000
20
25.050000
30
0.0
11
83.650000
21
25.050000
31
0.0
0
ARC
8
0
10
83.650000
20
24.550000
30
0.0
40
0.500000
50
360.000000
51
90.000000
0
LINE
8
0
10
84.150000
20
24.550000
30
0.0
11
84.150000
21
7.100000
31
0.0
0
ARC
8
0
10
83.650000
20
7.100000
30
0.0
40
0.500000
50
270.000000
51
360.000000
0
LINE
8
0
10
83.650000
20
6.600000
30
0.0
11
81.750000
21
6.600000
31
0.0
0
LINE
8
0
10
81.750000
20
6.600000
30
0.0
11
81.750000
21
5.200000
31
0.0
0
ARC
8
0
10
82.250000
20
5.200000
30
0.0
40
0.500000
50
180.000000
51
281.536959
0
ARC
8
0
10
82.450000
20
5.200000
30
0.0
40
0.500000
50
258.463041
51
360.000000
0
LINE
8
0
10
82.950000
20
5.200000
30
0.0
11
82.950000
21
5.400000
31
0.0
0
LINE
8
0
10
82.950000
20
5.400000
30
0.0
11
84.150000
21
5.400000
31
0.0
0
LINE
8
0
10
84.150000
20
5.400000
30
0.0
11
84.150000
21
1.400000
31
0.0
0
LINE
8
0
10
84.150000
20
1.400000
30
0.0
11
82.950000
21
1.400000
31
0.0
0
LINE
8
0
10
82.950000
20
1.400000
30
0.0
11
82.950000
21
1.600000
31
0.0
0
ARC
8
0
10
82.450000
20
1.600000
30
0.0
40
0.500000
50
360.000000
51
101.536959
0
ARC
8
0
10
82.250000
20
1.600000
30
0.0
40
0.500000
50
78.463041
51
180.000000
0
LINE
8
0
10
81.750000
20
1.600000
30
0.0
11
81.750000
21
0.200000
31
0.0
0
LINE
8
0
10
81.750000
20
0.200000
30
0.0
11
215.150000
21
0.200000
31
0.0
0
LINE
8
0
10
215.150000
20
0.200000
30
0.0
11
215.150000
21
60.200000
31
0.0
0
LINE
8
0
10
215.150000
20
60.200000
30
0.0
11
81.750000
21
60.200000
31
0.0
0
ATTDEF
8
0
10
81.750000
20
60.200000
30
0.0
40
3.5
1

3

2
VC_START
70
0
0
ATTDEF
8
0
10
81.750000
20
0.200000
30
0.0
40
3.5
1

3

2
VC_END
70
0
0
ATTDEF
8
0
10
0.000000
20
0.000000
30
0.0
40
3.5
1

3

2
DENS:0.000000
70
0
0
ATTDEF
8
0
10
0.000000
20
0.000000
30
0.0
40
3.5
1

3

2
GLASS_MIN:0.000000
70
0
0
ATTDEF
8
0
10
0.000000
20
0.000000
30
0.0
40
3.5
1

3

2
GLASS_MAX:0.000000
70
0
0
ATTDEF
8
0
10
0.000000
20
0.000000
30
0.0
40
3.5
1

3

2
DESC:7696 - B58DVH - 5379 - 7741
70
0
0
ATTDEF
8
0
10
0.000000
20
0.000000
30
0.0
40
3.5
1

3

2
HW_START
70
0
0
ATTDEF
8
0
10
215.150000
20
60.200000
30
0.0
40
3.5
1

3

2
HW_END
70
0
0
ATTDEF
8
0
10
0.000000
20
0.000000
30
0.0
40
3.5
1

3

2
BL01:6500.000000,,1
70
0
0
ENDSEC
0
EOF
