0
SECTION
2
ENTITIES
0
ARC
8
0
10
30.000000
20
30.000000
30
0.0
40
30.000000
50
90.000000
51
261.225710
0
LINE
8
0
10
30.000000
20
60.000000
30
0.0
11
49.500000
21
60.000000
31
0.0
0
ARC
8
0
10
49.500000
20
59.500000
30
0.0
40
0.500000
50
270.000000
51
90.000000
0
LINE
8
0
10
49.500000
20
59.000000
30
0.0
11
45.332051
21
59.000000
31
0.0
0
LINE
8
0
10
45.332051
20
59.000000
30
0.0
11
43.600000
21
58.000000
31
0.0
0
LINE
8
0
10
43.600000
20
58.000000
30
0.0
11
43.138120
21
58.800000
31
0.0
0
LINE
8
0
10
43.138120
20
58.800000
30
0.0
11
42.485641
21
58.800000
31
0.0
0
LINE
8
0
10
42.485641
20
58.800000
30
0.0
11
41.100000
21
58.000000
31
0.0
0
LINE
8
0
10
41.100000
20
58.000000
30
0.0
11
40.638120
21
58.800000
31
0.0
0
LINE
8
0
10
40.638120
20
58.800000
30
0.0
11
39.900000
21
58.800000
31
0.0
0
ARC
8
0
10
39.900000
20
58.300000
30
0.0
40
0.500000
50
90.000000
51
180.000000
0
LINE
8
0
10
39.400000
20
58.300000
30
0.0
11
39.400000
21
55.500000
31
0.0
0
ARC
8
0
10
38.900000
20
55.500000
30
0.0
40
0.500000
50
180.000000
51
360.000000
0
LINE
8
0
10
38.400000
20
55.500000
30
0.0
11
38.400000
21
58.300000
31
0.0
0
ARC
8
0
10
37.900000
20
58.300000
30
0.0
40
0.500000
50
360.000000
51
90.000000
0
LINE
8
0
10
37.900000
20
58.800000
30
0.0
11
32.000000
21
58.800000
31
0.0
0
ARC
8
0
10
32.000000
20
58.300000
30
0.0
40
0.500000
50
90.000000
51
180.000000
0
LINE
8
0
10
31.500000
20
58.300000
30
0.0
11
31.500000
21
1.700000
31
0.0
0
ARC
8
0
10
32.000000
20
1.700000
30
0.0
40
0.500000
50
180.000000
51
270.000000
0
LINE
8
0
10
32.000000
20
1.200000
30
0.0
11
37.900000
21
1.200000
31
0.0
0
ARC
8
0
10
37.900000
20
1.700000
30
0.0
40
0.500000
50
270.000000
51
360.000000
0
LINE
8
0
10
38.400000
20
1.700000
30
0.0
11
38.400000
21
4.500000
31
0.0
0
ARC
8
0
10
38.900000
20
4.500000
30
0.0
40
0.500000
50
360.000000
51
180.000000
0
LINE
8
0
10
39.400000
20
4.500000
30
0.0
11
39.400000
21
1.700000
31
0.0
0
ARC
8
0
10
39.900000
20
1.700000
30
0.0
40
0.500000
50
180.000000
51
270.000000
0
LINE
8
0
10
39.900000
20
1.200000
30
0.0
11
40.638120
21
1.200000
31
0.0
0
LINE
8
0
10
40.638120
20
1.200000
30
0.0
11
41.100000
21
2.000000
31
0.0
0
LINE
8
0
10
41.100000
20
2.000000
30
0.0
11
42.485641
21
1.200000
31
0.0
0
LINE
8
0
10
42.485641
20
1.200000
30
0.0
11
43.138120
21
1.200000
31
0.0
0
LINE
8
0
10
43.138120
20
1.200000
30
0.0
11
43.600000
21
2.000000
31
0.0
0
LINE
8
0
10
43.600000
20
2.000000
30
0.0
11
45.332051
21
1.000000
31
0.0
0
LINE
8
0
10
45.332051
20
1.000000
30
0.0
11
49.500000
21
1.000000
31
0.0
0
ARC
8
0
10
49.500000
20
0.500000
30
0.0
40
0.500000
50
270.000000
51
90.000000
0
LINE
8
0
10
49.500000
20
0.000000
30
0.0
11
30.500000
21
0.000000
31
0.0
0
ARC
8
0
10
30.500000
20
0.500000
30
0.0
40
0.500000
50
180.000000
51
270.000000
0
LINE
8
0
10
30.000000
20
0.500000
30
0.0
11
30.000000
21
3.500000
31
0.0
0
ARC
8
0
10
29.500000
20
3.500000
30
0.0
40
0.500000
50
360.000000
51
90.000000
0
LINE
8
0
10
29.500000
20
4.000000
30
0.0
11
26.500000
21
4.000000
31
0.0
0
ARC
8
0
10
26.500000
20
3.500000
30
0.0
40
0.500000
50
90.000000
51
180.000000
0
LINE
8
0
10
26.000000
20
3.500000
30
0.0
11
26.000000
21
0.845241
31
0.0
0
ARC
8
0
10
25.500000
20
0.845241
30
0.0
40
0.500000
50
261.225710
51
360.000000
0
LINE
8
0
10
29.000000
20
5.500000
30
0.0
11
26.500000
21
5.500000
31
0.0
0
ARC
8
0
10
26.500000
20
3.500000
30
0.0
40
2.000000
50
90.000000
51
180.000000
0
LINE
8
0
10
24.500000
20
3.500000
30
0.0
11
24.500000
21
3.279222
31
0.0
0
ARC
8
0
10
23.500000
20
3.279222
30
0.0
40
1.000000
50
256.327982
51
360.000000
0
ARC
8
0
10
30.000000
20
30.000000
30
0.0
40
28.500000
50
92.083942
51
256.327982
0
ARC
8
0
10
29.000000
20
57.481812
30
0.0
40
1.000000
50
360.000000
51
92.083942
0
LINE
8
0
10
30.000000
20
57.481812
30
0.0
11
30.000000
21
6.500000
31
0.0
0
ARC
8
0
10
29.000000
20
6.500000
30
0.0
40
1.000000
50
270.000000
51
360.000000
0
ATTDEF
8
0
10
30.000000
20
60.000000
30
0.0
40
3.5
1

3

2
VC_START
70
0
0
ATTDEF
8
0
10
30.500000
20
0.000000
30
0.0
40
3.5
1

3

2
VC_END
70
0
0
LINE
8
0
10
48.299038
20
23.250000
30
0.0
11
46.799038
21
23.250000
31
0.0
0
ARC
8
0
10
46.799038
20
23.750000
30
0.0
40
0.500000
50
180.000000
51
270.000000
0
LINE
8
0
10
46.299038
20
23.750000
30
0.0
11
46.299038
21
30.150000
31
0.0
0
LINE
8
0
10
46.299038
20
30.150000
30
0.0
11
46.299038
21
36.550000
31
0.0
0
ARC
8
0
10
46.799038
20
36.550000
30
0.0
40
0.500000
50
90.000000
51
180.000000
0
LINE
8
0
10
46.799038
20
37.050000
30
0.0
11
48.299038
21
37.050000
31
0.0
0
ARC
8
0
10
48.299038
20
36.550000
30
0.0
40
0.500000
50
360.000000
51
90.000000
0
LINE
8
0
10
48.799038
20
36.550000
30
0.0
11
48.799038
21
36.050000
31
0.0
0
ARC
8
0
10
49.299038
20
36.050000
30
0.0
40
0.500000
50
180.000000
51
270.000000
0
LINE
8
0
10
49.299038
20
35.550000
30
0.0
11
49.499038
21
35.550000
31
0.0
0
ARC
8
0
10
49.499038
20
36.050000
30
0.0
40
0.500000
50
270.000000
51
360.000000
0
LINE
8
0
10
49.999038
20
36.050000
30
0.0
11
49.999038
21
44.750000
31
0.0
0
ARC
8
0
10
48.499038
20
44.750000
30
0.0
40
1.500000
50
360.000000
51
90.000000
0
LINE
8
0
10
48.499038
20
46.250000
30
0.0
11
48.099038
21
46.250000
31
0.0
0
ARC
8
0
10
48.099038
20
46.750000
30
0.0
40
0.500000
50
180.000000
51
270.000000
0
LINE
8
0
10
47.599038
20
46.750000
30
0.0
11
47.599038
21
51.350000
31
0.0
0
ARC
8
0
10
48.099038
20
51.350000
30
0.0
40
0.500000
50
90.000000
51
180.000000
0
LINE
8
0
10
48.099038
20
51.850000
30
0.0
11
49.999038
21
51.850000
31
0.0
0
LINE
8
0
10
49.999038
20
51.850000
30
0.0
11
49.999038
21
53.200000
31
0.0
0
ARC
8
0
10
49.499038
20
53.200000
30
0.0
40
0.500000
50
360.000000
51
90.000000
0
LINE
8
0
10
49.499038
20
53.700000
30
0.0
11
49.299038
21
53.700000
31
0.0
0
ARC
8
0
10
49.299038
20
53.200000
30
0.0
40
0.500000
50
90.000000
51
180.000000
0
LINE
8
0
10
48.799038
20
53.200000
30
0.0
11
48.799038
21
53.000000
31
0.0
0
LINE
8
0
10
48.799038
20
53.000000
30
0.0
11
47.599038
21
53.000000
31
0.0
0
LINE
8
0
10
47.599038
20
53.000000
30
0.0
11
47.599038
21
57.000000
31
0.0
0
LINE
8
0
10
47.599038
20
57.000000
30
0.0
11
48.799038
21
57.000000
31
0.0
0
LINE
8
0
10
48.799038
20
57.000000
30
0.0
11
48.799038
21
56.800000
31
0.0
0
ARC
8
0
10
49.299038
20
56.800000
30
0.0
40
0.500000
50
180.000000
51
270.000000
0
LINE
8
0
10
49.299038
20
56.300000
30
0.0
11
49.499038
21
56.300000
31
0.0
0
ARC
8
0
10
49.499038
20
56.800000
30
0.0
40
0.500000
50
270.000000
51
360.000000
0
LINE
8
0
10
49.999038
20
56.800000
30
0.0
11
49.999038
21
58.200000
31
0.0
0
LINE
8
0
10
49.999038
20
58.200000
30
0.0
11
44.737834
21
58.200000
31
0.0
0
LINE
8
0
10
44.737834
20
58.200000
30
0.0
11
43.525241
21
57.502759
31
0.0
0
LINE
8
0
10
43.525241
20
57.502759
30
0.0
11
42.943781
21
58.500000
31
0.0
0
LINE
8
0
10
42.943781
20
58.500000
30
0.0
11
39.900000
21
56.750000
31
0.0
0
LINE
8
0
10
39.900000
20
56.750000
30
0.0
11
40.400000
21
55.900000
31
0.0
0
LINE
8
0
10
40.400000
20
55.900000
30
0.0
11
42.565063
21
57.150000
31
0.0
0
LINE
8
0
10
42.565063
20
57.150000
30
0.0
11
43.149038
21
56.150000
31
0.0
0
LINE
8
0
10
43.149038
20
56.150000
30
0.0
11
44.845827
21
57.146527
31
0.0
0
ARC
8
0
10
45.099038
20
56.715384
30
0.0
40
0.500000
50
360.000000
51
120.425784
0
LINE
8
0
10
45.599038
20
56.715384
30
0.0
11
45.599038
21
45.750000
31
0.0
0
ARC
8
0
10
47.099038
20
45.750000
30
0.0
40
1.500000
50
180.000000
51
270.000000
0
LINE
8
0
10
47.099038
20
44.250000
30
0.0
11
47.499038
21
44.250000
31
0.0
0
ARC
8
0
10
47.499038
20
43.750000
30
0.0
40
0.500000
50
360.000000
51
90.000000
0
LINE
8
0
10
47.999038
20
43.750000
30
0.0
11
47.999038
21
39.550000
31
0.0
0
ARC
8
0
10
47.499038
20
39.550000
30
0.0
40
0.500000
50
270.000000
51
360.000000
0
LINE
8
0
10
47.499038
20
39.050000
30
0.0
11
45.799038
21
39.050000
31
0.0
0
ARC
8
0
10
45.799038
20
37.550000
30
0.0
40
1.500000
50
90.000000
51
180.000000
0
LINE
8
0
10
44.299038
20
37.550000
30
0.0
11
44.299038
21
31.650000
31
0.0
0
LINE
8
0
10
44.299038
20
31.650000
30
0.0
11
43.799038
21
31.150000
31
0.0
0
LINE
8
0
10
43.799038
20
31.150000
30
0.0
11
44.299038
21
30.650000
31
0.0
0
LINE
8
0
10
44.299038
20
30.650000
30
0.0
11
44.299038
21
30.150000
31
0.0
0
LINE
8
0
10
44.299038
20
30.150000
30
0.0
11
44.299038
21
29.650000
31
0.0
0
LINE
8
0
10
44.299038
20
29.650000
30
0.0
11
43.799038
21
29.150000
31
0.0
0
LINE
8
0
10
43.799038
20
29.150000
30
0.0
11
44.299038
21
28.650000
31
0.0
0
LINE
8
0
10
44.299038
20
28.650000
30
0.0
11
44.299038
21
22.750000
31
0.0
0
ARC
8
0
10
45.799038
20
22.750000
30
0.0
40
1.500000
50
180.000000
51
270.000000
0
LINE
8
0
10
45.799038
20
21.250000
30
0.0
11
47.499038
21
21.250000
31
0.0
0
ARC
8
0
10
47.499038
20
20.750000
30
0.0
40
0.500000
50
360.000000
51
90.000000
0
LINE
8
0
10
47.999038
20
20.750000
30
0.0
11
47.999038
21
16.550000
31
0.0
0
ARC
8
0
10
47.499038
20
16.550000
30
0.0
40
0.500000
50
270.000000
51
360.000000
0
LINE
8
0
10
47.499038
20
16.050000
30
0.0
11
47.099038
21
16.050000
31
0.0
0
ARC
8
0
10
47.099038
20
14.550000
30
0.0
40
1.500000
50
90.000000
51
180.000000
0
LINE
8
0
10
45.599038
20
14.550000
30
0.0
11
45.599038
21
3.584616
31
0.0
0
ARC
8
0
10
45.099038
20
3.584616
30
0.0
40
0.500000
50
239.574216
51
360.000000
0
LINE
8
0
10
44.845827
20
3.153473
30
0.0
11
43.149038
21
4.150000
31
0.0
0
LINE
8
0
10
43.149038
20
4.150000
30
0.0
11
42.565063
21
3.150000
31
0.0
0
LINE
8
0
10
42.565063
20
3.150000
30
0.0
11
40.400000
21
4.400000
31
0.0
0
LINE
8
0
10
40.400000
20
4.400000
30
0.0
11
39.900000
21
3.550000
31
0.0
0
LINE
8
0
10
39.900000
20
3.550000
30
0.0
11
42.943781
21
1.800000
31
0.0
0
LINE
8
0
10
42.943781
20
1.800000
30
0.0
11
43.525241
21
2.797241
31
0.0
0
LINE
8
0
10
43.525241
20
2.797241
30
0.0
11
44.737834
21
2.100000
31
0.0
0
LINE
8
0
10
44.737834
20
2.100000
30
0.0
11
49.999038
21
2.100000
31
0.0
0
LINE
8
0
10
49.999038
20
2.100000
30
0.0
11
49.999038
21
3.500000
31
0.0
0
ARC
8
0
10
49.499038
20
3.500000
30
0.0
40
0.500000
50
360.000000
51
90.000000
0
LINE
8
0
10
49.499038
20
4.000000
30
0.0
11
49.299038
21
4.000000
31
0.0
0
ARC
8
0
10
49.299038
20
3.500000
30
0.0
40
0.500000
50
90.000000
51
180.000000
0
LINE
8
0
10
48.799038
20
3.500000
30
0.0
11
48.799038
21
3.300000
31
0.0
0
LINE
8
0
10
48.799038
20
3.300000
30
0.0
11
47.599038
21
3.300000
31
0.0
0
LINE
8
0
10
47.599038
20
3.300000
30
0.0
11
47.599038
21
7.300000
31
0.0
0
LINE
8
0
10
47.599038
20
7.300000
30
0.0
11
48.799038
21
7.300000
31
0.0
0
LINE
8
0
10
48.799038
20
7.300000
30
0.0
11
48.799038
21
7.100000
31
0.0
0
ARC
8
0
10
49.299038
20
7.100000
30
0.0
40
0.500000
50
180.000000
51
270.000000
0
LINE
8
0
10
49.299038
20
6.600000
30
0.0
11
49.499038
21
6.600000
31
0.0
0
ARC
8
0
10
49.499038
20
7.100000
30
0.0
40
0.500000
50
270.000000
51
360.000000
0
LINE
8
0
10
49.999038
20
7.100000
30
0.0
11
49.999038
21
8.500000
31
0.0
0
LINE
8
0
10
49.999038
20
8.500000
30
0.0
11
48.099038
21
8.500000
31
0.0
0
ARC
8
0
10
48.099038
20
9.000000
30
0.0
40
0.500000
50
180.000000
51
270.000000
0
LINE
8
0
10
47.599038
20
9.000000
30
0.0
11
47.599038
21
13.550000
31
0.0
0
ARC
8
0
10
48.099038
20
13.550000
30
0.0
40
0.500000
50
90.000000
51
180.000000
0
LINE
8
0
10
48.099038
20
14.050000
30
0.0
11
48.499038
21
14.050000
31
0.0
0
ARC
8
0
10
48.499038
20
15.550000
30
0.0
40
1.500000
50
270.000000
51
360.000000
0
LINE
8
0
10
49.999038
20
15.550000
30
0.0
11
49.999038
21
24.250000
31
0.0
0
ARC
8
0
10
49.499038
20
24.250000
30
0.0
40
0.500000
50
360.000000
51
90.000000
0
LINE
8
0
10
49.499038
20
24.750000
30
0.0
11
49.299038
21
24.750000
31
0.0
0
ARC
8
0
10
49.299038
20
24.250000
30
0.0
40
0.500000
50
90.000000
51
180.000000
0
LINE
8
0
10
48.799038
20
24.250000
30
0.0
11
48.799038
21
23.750000
31
0.0
0
ARC
8
0
10
48.299038
20
23.750000
30
0.0
40
0.500000
50
270.000000
51
360.000000
0
ATTDEF
8
0
10
42.943781
20
58.500000
30
0.0
40
3.5
1

3

2
VC_START
70
0
0
ATTDEF
8
0
10
42.943781
20
1.800000
30
0.0
40
3.5
1

3

2
VC_END
70
0
0
ARC
8
0
10
62.491641
20
30.150000
30
0.0
40
2.199036
50
180.000000
51
360.000000
0
ARC
8
0
10
62.491641
20
30.150000
30
0.0
40
2.199036
50
360.000000
51
180.000000
0
ARC
8
0
10
53.423844
20
30.150000
30
0.0
40
3.251302
50
180.000000
51
360.000000
0
ARC
8
0
10
53.423844
20
30.150000
30
0.0
40
3.251302
50
360.000000
51
180.000000
0
LINE
8
0
10
47.800000
20
23.750000
30
0.0
11
46.800000
21
23.750000
31
0.0
0
ARC
8
0
10
46.800000
20
24.250000
30
0.0
40
0.500000
50
180.000000
51
270.000000
0
LINE
8
0
10
46.300000
20
24.250000
30
0.0
11
46.300000
21
36.050000
31
0.0
0
ARC
8
0
10
46.800000
20
36.050000
30
0.0
40
0.500000
50
90.000000
51
180.000000
0
LINE
8
0
10
46.800000
20
36.550000
30
0.0
11
47.800000
21
36.550000
31
0.0
0
ARC
8
0
10
47.800000
20
36.050000
30
0.0
40
0.500000
50
360.000000
51
90.000000
0
LINE
8
0
10
48.300000
20
36.050000
30
0.0
11
48.300000
21
35.800000
31
0.0
0
ARC
8
0
10
48.800000
20
35.800000
30
0.0
40
0.500000
50
180.000000
51
270.000000
0
LINE
8
0
10
48.800000
20
35.300000
30
0.0
11
67.750000
21
35.300000
31
0.0
0
LINE
8
0
10
67.750000
20
35.300000
30
0.0
11
67.750000
21
34.250000
31
0.0
0
ARC
8
0
10
69.750000
20
34.250000
30
0.0
40
2.000000
50
180.000000
51
270.000000
0
LINE
8
0
10
69.750000
20
32.250000
30
0.0
11
74.150000
21
32.250000
31
0.0
0
ARC
8
0
10
74.150000
20
30.150000
30
0.0
40
2.100000
50
270.000000
51
90.000000
0
LINE
8
0
10
74.150000
20
28.050000
30
0.0
11
69.750000
21
28.050000
31
0.0
0
ARC
8
0
10
69.750000
20
26.050000
30
0.0
40
2.000000
50
90.000000
51
180.000000
0
LINE
8
0
10
67.750000
20
26.050000
30
0.0
11
67.750000
21
25.000000
31
0.0
0
LINE
8
0
10
67.750000
20
25.000000
30
0.0
11
48.800000
21
25.000000
31
0.0
0
ARC
8
0
10
48.800000
20
24.500000
30
0.0
40
0.500000
50
90.000000
51
180.000000
0
LINE
8
0
10
48.300000
20
24.500000
30
0.0
11
48.300000
21
24.250000
31
0.0
0
ARC
8
0
10
47.800000
20
24.250000
30
0.0
40
0.500000
50
270.000000
51
360.000000
0
ATTDEF
8
0
10
48.800000
20
35.300000
30
0.0
40
3.5
1

3

2
VC_START
70
0
0
ATTDEF
8
0
10
48.800000
20
25.000000
30
0.0
40
3.5
1

3

2
VC_END
70
0
0
ARC
8
0
10
256.750000
20
57.200000
30
0.0
40
1.000000
50
360.000000
51
90.000000
0
LINE
8
0
10
257.750000
20
57.200000
30
0.0
11
257.750000
21
3.200000
31
0.0
0
ARC
8
0
10
256.750000
20
3.200000
30
0.0
40
1.000000
50
270.000000
51
360.000000
0
LINE
8
0
10
256.750000
20
2.200000
30
0.0
11
87.150000
21
2.200000
31
0.0
0
ARC
8
0
10
87.150000
20
3.200000
30
0.0
40
1.000000
50
180.000000
51
270.000000
0
LINE
8
0
10
86.150000
20
3.200000
30
0.0
11
86.150000
21
57.200000
31
0.0
0
ARC
8
0
10
87.150000
20
57.200000
30
0.0
40
1.000000
50
90.000000
51
180.000000
0
LINE
8
0
10
87.150000
20
58.200000
30
0.0
11
256.750000
21
58.200000
31
0.0
0
ARC
8
0
10
79.150000
20
27.600000
30
0.0
40
0.200000
50
27.500000
51
152.500000
0
LINE
8
0
10
78.972598
20
27.692350
30
0.0
11
78.668223
21
27.107650
31
0.0
0
ARC
8
0
10
78.490820
20
27.200000
30
0.0
40
0.200000
50
207.500000
51
332.500000
0
LINE
8
0
10
78.313418
20
27.107650
30
0.0
11
78.009043
21
27.692350
31
0.0
0
ARC
8
0
10
77.831641
20
27.600000
30
0.0
40
0.200000
50
27.500000
51
152.500000
0
LINE
8
0
10
77.654239
20
27.692350
30
0.0
11
77.349863
21
27.107650
31
0.0
0
ARC
8
0
10
77.172461
20
27.200000
30
0.0
40
0.200000
50
207.500000
51
332.500000
0
LINE
8
0
10
76.995059
20
27.107650
30
0.0
11
76.690684
21
27.692350
31
0.0
0
ARC
8
0
10
76.513282
20
27.600000
30
0.0
40
0.200000
50
27.500000
51
152.500000
0
LINE
8
0
10
76.335879
20
27.692350
30
0.0
11
76.031504
21
27.107650
31
0.0
0
ARC
8
0
10
75.854102
20
27.200000
30
0.0
40
0.200000
50
207.500000
51
332.500000
0
LINE
8
0
10
75.676700
20
27.107650
30
0.0
11
75.372325
21
27.692350
31
0.0
0
ARC
8
0
10
75.194922
20
27.600000
30
0.0
40
0.200000
50
27.500000
51
152.500000
0
LINE
8
0
10
75.017520
20
27.692350
30
0.0
11
74.713145
21
27.107650
31
0.0
0
ARC
8
0
10
74.535743
20
27.200000
30
0.0
40
0.200000
50
207.500000
51
332.500000
0
LINE
8
0
10
74.358341
20
27.107650
30
0.0
11
74.053965
21
27.692350
31
0.0
0
ARC
8
0
10
73.876563
20
27.600000
30
0.0
40
0.200000
50
27.500000
51
152.500000
0
LINE
8
0
10
73.699161
20
27.692350
30
0.0
11
73.394786
21
27.107650
31
0.0
0
ARC
8
0
10
73.217384
20
27.200000
30
0.0
40
0.200000
50
207.500000
51
332.500000
0
LINE
8
0
10
73.039981
20
27.107650
30
0.0
11
72.735606
21
27.692350
31
0.0
0
ARC
8
0
10
72.558204
20
27.600000
30
0.0
40
0.200000
50
27.500000
51
152.500000
0
LINE
8
0
10
72.380802
20
27.692350
30
0.0
11
72.076427
21
27.107650
31
0.0
0
ARC
8
0
10
71.899024
20
27.200000
30
0.0
40
0.200000
50
207.500000
51
332.500000
0
LINE
8
0
10
71.721622
20
27.107650
30
0.0
11
71.417247
21
27.692350
31
0.0
0
ARC
8
0
10
71.239845
20
27.600000
30
0.0
40
0.200000
50
27.500000
51
152.500000
0
LINE
8
0
10
71.062443
20
27.692350
30
0.0
11
70.758067
21
27.107650
31
0.0
0
ARC
8
0
10
70.580665
20
27.200000
30
0.0
40
0.200000
50
207.500000
51
332.500000
0
LINE
8
0
10
70.403263
20
27.107650
30
0.0
11
70.098888
21
27.692350
31
0.0
0
ARC
8
0
10
69.921486
20
27.600000
30
0.0
40
0.200000
50
27.500000
51
152.500000
0
LINE
8
0
10
69.744083
20
27.692350
30
0.0
11
69.453718
21
27.134563
31
0.0
0
ARC
8
0
10
69.231965
20
27.250000
30
0.0
40
0.250000
50
270.000000
51
332.500000
0
LINE
8
0
10
69.231965
20
27.000000
30
0.0
11
68.750000
21
27.000000
31
0.0
0
ARC
8
0
10
68.750000
20
26.000000
30
0.0
40
1.000000
50
90.000000
51
180.000000
0
LINE
8
0
10
67.750000
20
26.000000
30
0.0
11
67.750000
21
25.500000
31
0.0
0
ARC
8
0
10
68.250000
20
25.500000
30
0.0
40
0.500000
50
180.000000
51
270.000000
0
LINE
8
0
10
68.250000
20
25.000000
30
0.0
11
83.650000
21
25.000000
31
0.0
0
ARC
8
0
10
83.650000
20
24.500000
30
0.0
40
0.500000
50
360.000000
51
90.000000
0
LINE
8
0
10
84.150000
20
24.500000
30
0.0
11
84.150000
21
7.100000
31
0.0
0
ARC
8
0
10
83.650000
20
7.100000
30
0.0
40
0.500000
50
270.000000
51
360.000000
0
LINE
8
0
10
83.650000
20
6.600000
30
0.0
11
82.250000
21
6.600000
31
0.0
0
ARC
8
0
10
82.250000
20
6.100000
30
0.0
40
0.500000
50
90.000000
51
180.000000
0
LINE
8
0
10
81.750000
20
6.100000
30
0.0
11
81.750000
21
5.200000
31
0.0
0
ARC
8
0
10
82.250000
20
5.200000
30
0.0
40
0.500000
50
180.000000
51
270.000000
0
LINE
8
0
10
82.250000
20
4.700000
30
0.0
11
82.450000
21
4.700000
31
0.0
0
ARC
8
0
10
82.450000
20
5.200000
30
0.0
40
0.500000
50
270.000000
51
356.177446
0
ARC
8
0
10
83.198331
20
5.150000
30
0.0
40
0.250000
50
90.000000
51
176.177446
0
LINE
8
0
10
83.198331
20
5.400000
30
0.0
11
83.900000
21
5.400000
31
0.0
0
ARC
8
0
10
83.900000
20
5.150000
30
0.0
40
0.250000
50
360.000000
51
90.000000
0
LINE
8
0
10
84.150000
20
5.150000
30
0.0
11
84.150000
21
1.650000
31
0.0
0
ARC
8
0
10
83.900000
20
1.650000
30
0.0
40
0.250000
50
270.000000
51
360.000000
0
LINE
8
0
10
83.900000
20
1.400000
30
0.0
11
83.198331
21
1.400000
31
0.0
0
ARC
8
0
10
83.198331
20
1.650000
30
0.0
40
0.250000
50
183.822554
51
270.000000
0
ARC
8
0
10
82.450000
20
1.600000
30
0.0
40
0.500000
50
3.822554
51
90.000000
0
LINE
8
0
10
82.450000
20
2.100000
30
0.0
11
82.250000
21
2.100000
31
0.0
0
ARC
8
0
10
82.250000
20
1.600000
30
0.0
40
0.500000
50
90.000000
51
180.000000
0
LINE
8
0
10
81.750000
20
1.600000
30
0.0
11
81.750000
21
0.700000
31
0.0
0
ARC
8
0
10
82.250000
20
0.700000
30
0.0
40
0.500000
50
180.000000
51
270.000000
0
LINE
8
0
10
82.250000
20
0.200000
30
0.0
11
261.250000
21
0.200000
31
0.0
0
ARC
8
0
10
261.250000
20
0.700000
30
0.0
40
0.500000
50
270.000000
51
360.000000
0
LINE
8
0
10
261.750000
20
0.700000
30
0.0
11
261.750000
21
59.700000
31
0.0
0
ARC
8
0
10
261.250000
20
59.700000
30
0.0
40
0.500000
50
360.000000
51
90.000000
0
LINE
8
0
10
261.250000
20
60.200000
30
0.0
11
82.250000
21
60.200000
31
0.0
0
ARC
8
0
10
82.250000
20
59.700000
30
0.0
40
0.500000
50
90.000000
51
180.000000
0
LINE
8
0
10
81.750000
20
59.700000
30
0.0
11
81.750000
21
58.800000
31
0.0
0
ARC
8
0
10
82.250000
20
58.800000
30
0.0
40
0.500000
50
180.000000
51
270.000000
0
LINE
8
0
10
82.250000
20
58.300000
30
0.0
11
82.450000
21
58.300000
31
0.0
0
ARC
8
0
10
82.450000
20
58.800000
30
0.0
40
0.500000
50
270.000000
51
356.177446
0
ARC
8
0
10
83.198331
20
58.750000
30
0.0
40
0.250000
50
90.000000
51
176.177446
0
LINE
8
0
10
83.198331
20
59.000000
30
0.0
11
83.900000
21
59.000000
31
0.0
0
ARC
8
0
10
83.900000
20
58.750000
30
0.0
40
0.250000
50
360.000000
51
90.000000
0
LINE
8
0
10
84.150000
20
58.750000
30
0.0
11
84.150000
21
55.250000
31
0.0
0
ARC
8
0
10
83.900000
20
55.250000
30
0.0
40
0.250000
50
270.000000
51
360.000000
0
LINE
8
0
10
83.900000
20
55.000000
30
0.0
11
83.198331
21
55.000000
31
0.0
0
ARC
8
0
10
83.198331
20
55.250000
30
0.0
40
0.250000
50
183.822554
51
270.000000
0
ARC
8
0
10
82.450000
20
55.200000
30
0.0
40
0.500000
50
3.822554
51
90.000000
0
LINE
8
0
10
82.450000
20
55.700000
30
0.0
11
82.250000
21
55.700000
31
0.0
0
ARC
8
0
10
82.250000
20
55.200000
30
0.0
40
0.500000
50
90.000000
51
180.000000
0
LINE
8
0
10
81.750000
20
55.200000
30
0.0
11
81.750000
21
54.300000
31
0.0
0
ARC
8
0
10
82.250000
20
54.300000
30
0.0
40
0.500000
50
180.000000
51
270.000000
0
LINE
8
0
10
82.250000
20
53.800000
30
0.0
11
83.650000
21
53.800000
31
0.0
0
ARC
8
0
10
83.650000
20
53.300000
30
0.0
40
0.500000
50
360.000000
51
90.000000
0
LINE
8
0
10
84.150000
20
53.300000
30
0.0
11
84.149477
21
35.899985
31
0.0
0
ARC
8
0
10
83.649477
20
35.900000
30
0.0
40
0.500000
50
270.000000
51
360.000000
0
LINE
8
0
10
83.649477
20
35.400000
30
0.0
11
68.250000
21
35.400000
31
0.0
0
ARC
8
0
10
68.250000
20
34.900000
30
0.0
40
0.500000
50
90.000000
51
180.000000
0
LINE
8
0
10
67.750000
20
34.900000
30
0.0
11
67.750000
21
34.400000
31
0.0
0
ARC
8
0
10
68.750000
20
34.400000
30
0.0
40
1.000000
50
180.000000
51
270.000000
0
LINE
8
0
10
68.750000
20
33.400000
30
0.0
11
69.891145
21
33.400000
31
0.0
0
ARC
8
0
10
69.891145
20
33.150000
30
0.0
40
0.250000
50
27.500000
51
90.000000
0
LINE
8
0
10
70.112898
20
33.265437
30
0.0
11
70.403263
21
32.707650
31
0.0
0
ARC
8
0
10
70.580665
20
32.800000
30
0.0
40
0.200000
50
207.500000
51
332.500000
0
LINE
8
0
10
70.758067
20
32.707650
30
0.0
11
71.062443
21
33.292350
31
0.0
0
ARC
8
0
10
71.239845
20
33.200000
30
0.0
40
0.200000
50
27.500000
51
152.500000
0
LINE
8
0
10
71.417247
20
33.292350
30
0.0
11
71.721622
21
32.707650
31
0.0
0
ARC
8
0
10
71.899024
20
32.800000
30
0.0
40
0.200000
50
207.500000
51
332.500000
0
LINE
8
0
10
72.076427
20
32.707650
30
0.0
11
72.380802
21
33.292350
31
0.0
0
ARC
8
0
10
72.558204
20
33.200000
30
0.0
40
0.200000
50
27.500000
51
152.500000
0
LINE
8
0
10
72.735606
20
33.292350
30
0.0
11
73.039981
21
32.707650
31
0.0
0
ARC
8
0
10
73.217384
20
32.800000
30
0.0
40
0.200000
50
207.500000
51
332.500000
0
LINE
8
0
10
73.394786
20
32.707650
30
0.0
11
73.699161
21
33.292350
31
0.0
0
ARC
8
0
10
73.876563
20
33.200000
30
0.0
40
0.200000
50
27.500000
51
152.500000
0
LINE
8
0
10
74.053965
20
33.292350
30
0.0
11
74.358341
21
32.707650
31
0.0
0
ARC
8
0
10
74.535743
20
32.800000
30
0.0
40
0.200000
50
207.500000
51
332.500000
0
LINE
8
0
10
74.713145
20
32.707650
30
0.0
11
75.017520
21
33.292350
31
0.0
0
ARC
8
0
10
75.194922
20
33.200000
30
0.0
40
0.200000
50
27.500000
51
152.500000
0
LINE
8
0
10
75.372325
20
33.292350
30
0.0
11
75.676700
21
32.707650
31
0.0
0
ARC
8
0
10
75.854102
20
32.800000
30
0.0
40
0.200000
50
207.500000
51
332.500000
0
LINE
8
0
10
76.031504
20
32.707650
30
0.0
11
76.335879
21
33.292350
31
0.0
0
ARC
8
0
10
76.513282
20
33.200000
30
0.0
40
0.200000
50
27.500000
51
152.500000
0
LINE
8
0
10
76.690684
20
33.292350
30
0.0
11
76.995059
21
32.707650
31
0.0
0
ARC
8
0
10
77.172461
20
32.800000
30
0.0
40
0.200000
50
207.500000
51
332.500000
0
LINE
8
0
10
77.349863
20
32.707650
30
0.0
11
77.654239
21
33.292350
31
0.0
0
ARC
8
0
10
77.831641
20
33.200000
30
0.0
40
0.200000
50
27.500000
51
152.500000
0
LINE
8
0
10
78.009043
20
33.292350
30
0.0
11
78.313418
21
32.707650
31
0.0
0
ARC
8
0
10
78.490820
20
32.800000
30
0.0
40
0.200000
50
207.500000
51
332.500000
0
LINE
8
0
10
78.668223
20
32.707650
30
0.0
11
78.958588
21
33.265437
31
0.0
0
ARC
8
0
10
79.180341
20
33.150000
30
0.0
40
0.250000
50
90.000000
51
152.500000
0
LINE
8
0
10
79.180341
20
33.400000
30
0.0
11
80.150000
21
33.400000
31
0.0
0
ARC
8
0
10
80.150000
20
32.400000
30
0.0
40
1.000000
50
360.000000
51
90.000000
0
LINE
8
0
10
81.150000
20
32.400000
30
0.0
11
81.150000
21
28.000000
31
0.0
0
ARC
8
0
10
80.150000
20
28.000000
30
0.0
40
1.000000
50
270.000000
51
360.000000
0
LINE
8
0
10
80.150000
20
27.000000
30
0.0
11
79.839520
21
27.000000
31
0.0
0
ARC
8
0
10
79.839520
20
27.250000
30
0.0
40
0.250000
50
207.500000
51
270.000000
0
LINE
8
0
10
79.617768
20
27.134563
30
0.0
11
79.327402
21
27.692350
31
0.0
0
ATTDEF
8
0
10
82.250000
20
60.200000
30
0.0
40
3.5
1

3

2
VC_START
70
0
0
ATTDEF
8
0
10
82.250000
20
0.200000
30
0.0
40
3.5
1

3

2
VC_END
70
0
0
ATTDEF
8
0
10
0.000000
20
0.000000
30
0.0
40
3.5
1

3

2
DENS:0.000000
70
0
0
ATTDEF
8
0
10
0.000000
20
0.000000
30
0.0
40
3.5
1

3

2
GLASS_MIN:0.000000
70
0
0
ATTDEF
8
0
10
0.000000
20
0.000000
30
0.0
40
3.5
1

3

2
GLASS_MAX:0.000000
70
0
0
ATTDEF
8
0
10
0.000000
20
0.000000
30
0.0
40
3.5
1

3

2
DESC:P-8271 - B58DVH - 5379 - 7741
70
0
0
ATTDEF
8
0
10
0.000000
20
0.000000
30
0.0
40
3.5
1

3

2
HW_START
70
0
0
ATTDEF
8
0
10
261.750000
20
60.200000
30
0.0
40
3.5
1

3

2
HW_END
70
0
0
ATTDEF
8
0
10
0.000000
20
0.000000
30
0.0
40
3.5
1

3

2
BL01:6500.000000,,1
70
0
0
ENDSEC
0
EOF
