0
SECTION
2
ENTITIES
0
LINE
8
0
10
84.772256
20
60.000000
30
0.0
11
84.772256
21
59.000000
31
0.0
0
LINE
8
0
10
84.772256
20
59.000000
30
0.0
11
80.104307
21
59.000000
31
0.0
0
LINE
8
0
10
80.104307
20
59.000000
30
0.0
11
78.372256
21
58.000000
31
0.0
0
LINE
8
0
10
78.372256
20
58.000000
30
0.0
11
77.910376
21
58.800000
31
0.0
0
LINE
8
0
10
77.910376
20
58.800000
30
0.0
11
77.257897
21
58.800000
31
0.0
0
LINE
8
0
10
77.257897
20
58.800000
30
0.0
11
75.872256
21
58.000000
31
0.0
0
LINE
8
0
10
75.872256
20
58.000000
30
0.0
11
75.410376
21
58.800000
31
0.0
0
LINE
8
0
10
75.410376
20
58.800000
30
0.0
11
74.172256
21
58.800000
31
0.0
0
LINE
8
0
10
74.172256
20
58.800000
30
0.0
11
74.172256
21
55.000000
31
0.0
0
LINE
8
0
10
74.172256
20
55.000000
30
0.0
11
73.172256
21
55.000000
31
0.0
0
LINE
8
0
10
73.172256
20
55.000000
30
0.0
11
73.172256
21
58.800000
31
0.0
0
LINE
8
0
10
73.172256
20
58.800000
30
0.0
11
66.772256
21
58.800000
31
0.0
0
ARC
8
0
10
66.772256
20
58.300000
30
0.0
40
0.500000
50
90.000000
51
180.000000
0
LINE
8
0
10
66.272256
20
58.300000
30
0.0
11
66.272256
21
1.700000
31
0.0
0
ARC
8
0
10
66.772256
20
1.700000
30
0.0
40
0.500000
50
180.000000
51
270.000000
0
LINE
8
0
10
66.772256
20
1.200000
30
0.0
11
73.172256
21
1.200000
31
0.0
0
LINE
8
0
10
73.172256
20
1.200000
30
0.0
11
73.172256
21
5.000000
31
0.0
0
LINE
8
0
10
73.172256
20
5.000000
30
0.0
11
74.172256
21
5.000000
31
0.0
0
LINE
8
0
10
74.172256
20
5.000000
30
0.0
11
74.172256
21
1.200000
31
0.0
0
LINE
8
0
10
74.172256
20
1.200000
30
0.0
11
75.410376
21
1.200000
31
0.0
0
LINE
8
0
10
75.410376
20
1.200000
30
0.0
11
75.872256
21
2.000000
31
0.0
0
LINE
8
0
10
75.872256
20
2.000000
30
0.0
11
77.257897
21
1.200000
31
0.0
0
LINE
8
0
10
77.257897
20
1.200000
30
0.0
11
77.910376
21
1.200000
31
0.0
0
LINE
8
0
10
77.910376
20
1.200000
30
0.0
11
78.372256
21
2.000000
31
0.0
0
LINE
8
0
10
78.372256
20
2.000000
30
0.0
11
80.104307
21
1.000000
31
0.0
0
LINE
8
0
10
80.104307
20
1.000000
30
0.0
11
84.772256
21
1.000000
31
0.0
0
LINE
8
0
10
84.772256
20
1.000000
30
0.0
11
84.772256
21
0.000000
31
0.0
0
LINE
8
0
10
84.772256
20
0.000000
30
0.0
11
64.772256
21
0.000000
31
0.0
0
LINE
8
0
10
64.772256
20
0.000000
30
0.0
11
64.772256
21
3.500000
31
0.0
0
ARC
8
0
10
64.272256
20
3.500000
30
0.0
40
0.500000
50
360.000000
51
90.000000
0
LINE
8
0
10
64.272256
20
4.000000
30
0.0
11
61.272256
21
4.000000
31
0.0
0
ARC
8
0
10
61.272256
20
3.500000
30
0.0
40
0.500000
50
90.000000
51
180.000000
0
LINE
8
0
10
60.772256
20
3.500000
30
0.0
11
60.772256
21
0.084248
31
0.0
0
ARC
8
0
10
64.772256
20
95.000000
30
0.0
40
95.000000
50
229.880833
51
267.586833
0
ARC
8
0
10
10.000000
20
30.000000
30
0.0
40
10.000000
50
130.119167
51
229.880833
0
ARC
8
0
10
64.772256
20
-35.000000
30
0.0
40
95.000000
50
90.000000
51
130.119167
0
LINE
8
0
10
64.772256
20
60.000000
30
0.0
11
84.772256
21
60.000000
31
0.0
0
LINE
8
0
10
59.272256
20
3.500000
30
0.0
11
59.272256
21
2.728661
31
0.0
0
ARC
8
0
10
58.272256
20
2.728661
30
0.0
40
1.000000
50
265.970489
51
360.000000
0
ARC
8
0
10
64.772256
20
95.000000
30
0.0
40
93.500000
50
229.880833
51
265.970489
0
ARC
8
0
10
10.000000
20
30.000000
30
0.0
40
8.500000
50
130.119167
51
229.880833
0
ARC
8
0
10
64.772256
20
-35.000000
30
0.0
40
93.500000
50
90.619426
51
130.119167
0
ARC
8
0
10
63.772256
20
57.494594
30
0.0
40
1.000000
50
360.000000
51
90.619426
0
LINE
8
0
10
64.772256
20
57.494594
30
0.0
11
64.772256
21
6.500000
31
0.0
0
ARC
8
0
10
63.772256
20
6.500000
30
0.0
40
1.000000
50
270.000000
51
360.000000
0
LINE
8
0
10
63.772256
20
5.500000
30
0.0
11
61.272256
21
5.500000
31
0.0
0
ARC
8
0
10
61.272256
20
3.500000
30
0.0
40
2.000000
50
90.000000
51
180.000000
0
ATTDEF
8
0
10
84.772256
20
60.000000
30
0.0
40
3.5
1

3

2
VC_START
70
0
0
ATTDEF
8
0
10
84.772256
20
0.000000
30
0.0
40
3.5
1

3

2
VC_END
70
0
0
LINE
8
0
10
83.069038
20
23.250000
30
0.0
11
81.569038
21
23.250000
31
0.0
0
ARC
8
0
10
81.569038
20
23.750000
30
0.0
40
0.500000
50
180.000000
51
270.000000
0
LINE
8
0
10
81.069038
20
23.750000
30
0.0
11
81.069038
21
30.150000
31
0.0
0
LINE
8
0
10
81.069038
20
30.150000
30
0.0
11
81.069038
21
36.550000
31
0.0
0
ARC
8
0
10
81.569038
20
36.550000
30
0.0
40
0.500000
50
90.000000
51
180.000000
0
LINE
8
0
10
81.569038
20
37.050000
30
0.0
11
83.069038
21
37.050000
31
0.0
0
ARC
8
0
10
83.069038
20
36.550000
30
0.0
40
0.500000
50
360.000000
51
90.000000
0
LINE
8
0
10
83.569038
20
36.550000
30
0.0
11
83.569038
21
36.050000
31
0.0
0
ARC
8
0
10
84.069038
20
36.050000
30
0.0
40
0.500000
50
180.000000
51
270.000000
0
LINE
8
0
10
84.069038
20
35.550000
30
0.0
11
84.269038
21
35.550000
31
0.0
0
ARC
8
0
10
84.269038
20
36.050000
30
0.0
40
0.500000
50
270.000000
51
360.000000
0
LINE
8
0
10
84.769038
20
36.050000
30
0.0
11
84.769038
21
44.750000
31
0.0
0
ARC
8
0
10
83.269038
20
44.750000
30
0.0
40
1.500000
50
360.000000
51
90.000000
0
LINE
8
0
10
83.269038
20
46.250000
30
0.0
11
82.869038
21
46.250000
31
0.0
0
ARC
8
0
10
82.869038
20
46.750000
30
0.0
40
0.500000
50
180.000000
51
270.000000
0
LINE
8
0
10
82.369038
20
46.750000
30
0.0
11
82.369038
21
51.350000
31
0.0
0
ARC
8
0
10
82.869038
20
51.350000
30
0.0
40
0.500000
50
90.000000
51
180.000000
0
LINE
8
0
10
82.869038
20
51.850000
30
0.0
11
84.769038
21
51.850000
31
0.0
0
LINE
8
0
10
84.769038
20
51.850000
30
0.0
11
84.769038
21
53.200000
31
0.0
0
ARC
8
0
10
84.269038
20
53.200000
30
0.0
40
0.500000
50
360.000000
51
90.000000
0
LINE
8
0
10
84.269038
20
53.700000
30
0.0
11
84.069038
21
53.700000
31
0.0
0
ARC
8
0
10
84.069038
20
53.200000
30
0.0
40
0.500000
50
90.000000
51
180.000000
0
LINE
8
0
10
83.569038
20
53.200000
30
0.0
11
83.569038
21
53.000000
31
0.0
0
LINE
8
0
10
83.569038
20
53.000000
30
0.0
11
82.369038
21
53.000000
31
0.0
0
LINE
8
0
10
82.369038
20
53.000000
30
0.0
11
82.369038
21
57.000000
31
0.0
0
LINE
8
0
10
82.369038
20
57.000000
30
0.0
11
83.569038
21
57.000000
31
0.0
0
LINE
8
0
10
83.569038
20
57.000000
30
0.0
11
83.569038
21
56.800000
31
0.0
0
ARC
8
0
10
84.069038
20
56.800000
30
0.0
40
0.500000
50
180.000000
51
270.000000
0
LINE
8
0
10
84.069038
20
56.300000
30
0.0
11
84.269038
21
56.300000
31
0.0
0
ARC
8
0
10
84.269038
20
56.800000
30
0.0
40
0.500000
50
270.000000
51
360.000000
0
LINE
8
0
10
84.769038
20
56.800000
30
0.0
11
84.769038
21
58.200000
31
0.0
0
LINE
8
0
10
84.769038
20
58.200000
30
0.0
11
79.507834
21
58.200000
31
0.0
0
LINE
8
0
10
79.507834
20
58.200000
30
0.0
11
78.295241
21
57.502759
31
0.0
0
LINE
8
0
10
78.295241
20
57.502759
30
0.0
11
77.713781
21
58.500000
31
0.0
0
LINE
8
0
10
77.713781
20
58.500000
30
0.0
11
74.670000
21
56.750000
31
0.0
0
LINE
8
0
10
74.670000
20
56.750000
30
0.0
11
75.170000
21
55.900000
31
0.0
0
LINE
8
0
10
75.170000
20
55.900000
30
0.0
11
77.335063
21
57.150000
31
0.0
0
LINE
8
0
10
77.335063
20
57.150000
30
0.0
11
77.919038
21
56.150000
31
0.0
0
LINE
8
0
10
77.919038
20
56.150000
30
0.0
11
79.615827
21
57.146527
31
0.0
0
ARC
8
0
10
79.869038
20
56.715384
30
0.0
40
0.500000
50
360.000000
51
120.425784
0
LINE
8
0
10
80.369038
20
56.715384
30
0.0
11
80.369038
21
45.750000
31
0.0
0
ARC
8
0
10
81.869038
20
45.750000
30
0.0
40
1.500000
50
180.000000
51
270.000000
0
LINE
8
0
10
81.869038
20
44.250000
30
0.0
11
82.269038
21
44.250000
31
0.0
0
ARC
8
0
10
82.269038
20
43.750000
30
0.0
40
0.500000
50
360.000000
51
90.000000
0
LINE
8
0
10
82.769038
20
43.750000
30
0.0
11
82.769038
21
39.550000
31
0.0
0
ARC
8
0
10
82.269038
20
39.550000
30
0.0
40
0.500000
50
270.000000
51
360.000000
0
LINE
8
0
10
82.269038
20
39.050000
30
0.0
11
80.569038
21
39.050000
31
0.0
0
ARC
8
0
10
80.569038
20
37.550000
30
0.0
40
1.500000
50
90.000000
51
180.000000
0
LINE
8
0
10
79.069038
20
37.550000
30
0.0
11
79.069038
21
31.650000
31
0.0
0
LINE
8
0
10
79.069038
20
31.650000
30
0.0
11
78.569038
21
31.150000
31
0.0
0
LINE
8
0
10
78.569038
20
31.150000
30
0.0
11
79.069038
21
30.650000
31
0.0
0
LINE
8
0
10
79.069038
20
30.650000
30
0.0
11
79.069038
21
30.150000
31
0.0
0
LINE
8
0
10
79.069038
20
30.150000
30
0.0
11
79.069038
21
29.650000
31
0.0
0
LINE
8
0
10
79.069038
20
29.650000
30
0.0
11
78.569038
21
29.150000
31
0.0
0
LINE
8
0
10
78.569038
20
29.150000
30
0.0
11
79.069038
21
28.650000
31
0.0
0
LINE
8
0
10
79.069038
20
28.650000
30
0.0
11
79.069038
21
22.750000
31
0.0
0
ARC
8
0
10
80.569038
20
22.750000
30
0.0
40
1.500000
50
180.000000
51
270.000000
0
LINE
8
0
10
80.569038
20
21.250000
30
0.0
11
82.269038
21
21.250000
31
0.0
0
ARC
8
0
10
82.269038
20
20.750000
30
0.0
40
0.500000
50
360.000000
51
90.000000
0
LINE
8
0
10
82.769038
20
20.750000
30
0.0
11
82.769038
21
16.550000
31
0.0
0
ARC
8
0
10
82.269038
20
16.550000
30
0.0
40
0.500000
50
270.000000
51
360.000000
0
LINE
8
0
10
82.269038
20
16.050000
30
0.0
11
81.869038
21
16.050000
31
0.0
0
ARC
8
0
10
81.869038
20
14.550000
30
0.0
40
1.500000
50
90.000000
51
180.000000
0
LINE
8
0
10
80.369038
20
14.550000
30
0.0
11
80.369038
21
3.584616
31
0.0
0
ARC
8
0
10
79.869038
20
3.584616
30
0.0
40
0.500000
50
239.574216
51
360.000000
0
LINE
8
0
10
79.615827
20
3.153473
30
0.0
11
77.919038
21
4.150000
31
0.0
0
LINE
8
0
10
77.919038
20
4.150000
30
0.0
11
77.335063
21
3.150000
31
0.0
0
LINE
8
0
10
77.335063
20
3.150000
30
0.0
11
75.170000
21
4.400000
31
0.0
0
LINE
8
0
10
75.170000
20
4.400000
30
0.0
11
74.670000
21
3.550000
31
0.0
0
LINE
8
0
10
74.670000
20
3.550000
30
0.0
11
77.713781
21
1.800000
31
0.0
0
LINE
8
0
10
77.713781
20
1.800000
30
0.0
11
78.295241
21
2.797241
31
0.0
0
LINE
8
0
10
78.295241
20
2.797241
30
0.0
11
79.507834
21
2.100000
31
0.0
0
LINE
8
0
10
79.507834
20
2.100000
30
0.0
11
84.769038
21
2.100000
31
0.0
0
LINE
8
0
10
84.769038
20
2.100000
30
0.0
11
84.769038
21
3.500000
31
0.0
0
ARC
8
0
10
84.269038
20
3.500000
30
0.0
40
0.500000
50
360.000000
51
90.000000
0
LINE
8
0
10
84.269038
20
4.000000
30
0.0
11
84.069038
21
4.000000
31
0.0
0
ARC
8
0
10
84.069038
20
3.500000
30
0.0
40
0.500000
50
90.000000
51
180.000000
0
LINE
8
0
10
83.569038
20
3.500000
30
0.0
11
83.569038
21
3.300000
31
0.0
0
LINE
8
0
10
83.569038
20
3.300000
30
0.0
11
82.369038
21
3.300000
31
0.0
0
LINE
8
0
10
82.369038
20
3.300000
30
0.0
11
82.369038
21
7.300000
31
0.0
0
LINE
8
0
10
82.369038
20
7.300000
30
0.0
11
83.569038
21
7.300000
31
0.0
0
LINE
8
0
10
83.569038
20
7.300000
30
0.0
11
83.569038
21
7.100000
31
0.0
0
ARC
8
0
10
84.069038
20
7.100000
30
0.0
40
0.500000
50
180.000000
51
270.000000
0
LINE
8
0
10
84.069038
20
6.600000
30
0.0
11
84.269038
21
6.600000
31
0.0
0
ARC
8
0
10
84.269038
20
7.100000
30
0.0
40
0.500000
50
270.000000
51
360.000000
0
LINE
8
0
10
84.769038
20
7.100000
30
0.0
11
84.769038
21
8.500000
31
0.0
0
LINE
8
0
10
84.769038
20
8.500000
30
0.0
11
82.869038
21
8.500000
31
0.0
0
ARC
8
0
10
82.869038
20
9.000000
30
0.0
40
0.500000
50
180.000000
51
270.000000
0
LINE
8
0
10
82.369038
20
9.000000
30
0.0
11
82.369038
21
13.550000
31
0.0
0
ARC
8
0
10
82.869038
20
13.550000
30
0.0
40
0.500000
50
90.000000
51
180.000000
0
LINE
8
0
10
82.869038
20
14.050000
30
0.0
11
83.269038
21
14.050000
31
0.0
0
ARC
8
0
10
83.269038
20
15.550000
30
0.0
40
1.500000
50
270.000000
51
360.000000
0
LINE
8
0
10
84.769038
20
15.550000
30
0.0
11
84.769038
21
24.250000
31
0.0
0
ARC
8
0
10
84.269038
20
24.250000
30
0.0
40
0.500000
50
360.000000
51
90.000000
0
LINE
8
0
10
84.269038
20
24.750000
30
0.0
11
84.069038
21
24.750000
31
0.0
0
ARC
8
0
10
84.069038
20
24.250000
30
0.0
40
0.500000
50
90.000000
51
180.000000
0
LINE
8
0
10
83.569038
20
24.250000
30
0.0
11
83.569038
21
23.750000
31
0.0
0
ARC
8
0
10
83.069038
20
23.750000
30
0.0
40
0.500000
50
270.000000
51
360.000000
0
ATTDEF
8
0
10
77.713781
20
58.500000
30
0.0
40
3.5
1

3

2
VC_START
70
0
0
ATTDEF
8
0
10
77.713781
20
1.800000
30
0.0
40
3.5
1

3

2
VC_END
70
0
0
LINE
8
0
10
82.570000
20
23.750000
30
0.0
11
81.570000
21
23.750000
31
0.0
0
ARC
8
0
10
81.570000
20
24.250000
30
0.0
40
0.500000
50
180.000000
51
270.000000
0
LINE
8
0
10
81.070000
20
24.250000
30
0.0
11
81.070000
21
36.050000
31
0.0
0
ARC
8
0
10
81.570000
20
36.050000
30
0.0
40
0.500000
50
90.000000
51
180.000000
0
LINE
8
0
10
81.570000
20
36.550000
30
0.0
11
82.570000
21
36.550000
31
0.0
0
ARC
8
0
10
82.570000
20
36.050000
30
0.0
40
0.500000
50
360.000000
51
90.000000
0
LINE
8
0
10
83.070000
20
36.050000
30
0.0
11
83.070000
21
35.800000
31
0.0
0
ARC
8
0
10
83.570000
20
35.800000
30
0.0
40
0.500000
50
180.000000
51
270.000000
0
LINE
8
0
10
83.570000
20
35.300000
30
0.0
11
86.520000
21
35.300000
31
0.0
0
LINE
8
0
10
86.520000
20
35.300000
30
0.0
11
86.520000
21
34.250000
31
0.0
0
ARC
8
0
10
88.520000
20
34.250000
30
0.0
40
2.000000
50
180.000000
51
270.000000
0
LINE
8
0
10
88.520000
20
32.250000
30
0.0
11
92.920000
21
32.250000
31
0.0
0
ARC
8
0
10
92.920000
20
30.150000
30
0.0
40
2.100000
50
270.000000
51
90.000000
0
LINE
8
0
10
92.920000
20
28.050000
30
0.0
11
88.520000
21
28.050000
31
0.0
0
ARC
8
0
10
88.520000
20
26.050000
30
0.0
40
2.000000
50
90.000000
51
180.000000
0
LINE
8
0
10
86.520000
20
26.050000
30
0.0
11
86.520000
21
25.000000
31
0.0
0
LINE
8
0
10
86.520000
20
25.000000
30
0.0
11
83.570000
21
25.000000
31
0.0
0
ARC
8
0
10
83.570000
20
24.500000
30
0.0
40
0.500000
50
90.000000
51
180.000000
0
LINE
8
0
10
83.070000
20
24.500000
30
0.0
11
83.070000
21
24.250000
31
0.0
0
ARC
8
0
10
82.570000
20
24.250000
30
0.0
40
0.500000
50
270.000000
51
360.000000
0
ATTDEF
8
0
10
86.520000
20
35.300000
30
0.0
40
3.5
1

3

2
VC_START
70
0
0
ATTDEF
8
0
10
86.520000
20
25.000000
30
0.0
40
3.5
1

3

2
VC_END
70
0
0
ARC
8
0
10
275.520000
20
57.200000
30
0.0
40
1.000000
50
360.000000
51
90.000000
0
LINE
8
0
10
276.520000
20
57.200000
30
0.0
11
276.520000
21
3.200000
31
0.0
0
ARC
8
0
10
275.520000
20
3.200000
30
0.0
40
1.000000
50
270.000000
51
360.000000
0
LINE
8
0
10
275.520000
20
2.200000
30
0.0
11
105.920000
21
2.200000
31
0.0
0
ARC
8
0
10
105.920000
20
3.200000
30
0.0
40
1.000000
50
180.000000
51
270.000000
0
LINE
8
0
10
104.920000
20
3.200000
30
0.0
11
104.920000
21
57.200000
31
0.0
0
ARC
8
0
10
105.920000
20
57.200000
30
0.0
40
1.000000
50
90.000000
51
180.000000
0
LINE
8
0
10
105.920000
20
58.200000
30
0.0
11
275.520000
21
58.200000
31
0.0
0
ARC
8
0
10
97.920000
20
27.600000
30
0.0
40
0.200000
50
27.500000
51
152.500000
0
LINE
8
0
10
97.742598
20
27.692350
30
0.0
11
97.438223
21
27.107650
31
0.0
0
ARC
8
0
10
97.260820
20
27.200000
30
0.0
40
0.200000
50
207.500000
51
332.500000
0
LINE
8
0
10
97.083418
20
27.107650
30
0.0
11
96.779043
21
27.692350
31
0.0
0
ARC
8
0
10
96.601641
20
27.600000
30
0.0
40
0.200000
50
27.500000
51
152.500000
0
LINE
8
0
10
96.424239
20
27.692350
30
0.0
11
96.119863
21
27.107650
31
0.0
0
ARC
8
0
10
95.942461
20
27.200000
30
0.0
40
0.200000
50
207.500000
51
332.500000
0
LINE
8
0
10
95.765059
20
27.107650
30
0.0
11
95.460684
21
27.692350
31
0.0
0
ARC
8
0
10
95.283282
20
27.600000
30
0.0
40
0.200000
50
27.500000
51
152.500000
0
LINE
8
0
10
95.105879
20
27.692350
30
0.0
11
94.801504
21
27.107650
31
0.0
0
ARC
8
0
10
94.624102
20
27.200000
30
0.0
40
0.200000
50
207.500000
51
332.500000
0
LINE
8
0
10
94.446700
20
27.107650
30
0.0
11
94.142325
21
27.692350
31
0.0
0
ARC
8
0
10
93.964922
20
27.600000
30
0.0
40
0.200000
50
27.500000
51
152.500000
0
LINE
8
0
10
93.787520
20
27.692350
30
0.0
11
93.483145
21
27.107650
31
0.0
0
ARC
8
0
10
93.305743
20
27.200000
30
0.0
40
0.200000
50
207.500000
51
332.500000
0
LINE
8
0
10
93.128341
20
27.107650
30
0.0
11
92.823965
21
27.692350
31
0.0
0
ARC
8
0
10
92.646563
20
27.600000
30
0.0
40
0.200000
50
27.500000
51
152.500000
0
LINE
8
0
10
92.469161
20
27.692350
30
0.0
11
92.164786
21
27.107650
31
0.0
0
ARC
8
0
10
91.987384
20
27.200000
30
0.0
40
0.200000
50
207.500000
51
332.500000
0
LINE
8
0
10
91.809981
20
27.107650
30
0.0
11
91.505606
21
27.692350
31
0.0
0
ARC
8
0
10
91.328204
20
27.600000
30
0.0
40
0.200000
50
27.500000
51
152.500000
0
LINE
8
0
10
91.150802
20
27.692350
30
0.0
11
90.846427
21
27.107650
31
0.0
0
ARC
8
0
10
90.669024
20
27.200000
30
0.0
40
0.200000
50
207.500000
51
332.500000
0
LINE
8
0
10
90.491622
20
27.107650
30
0.0
11
90.187247
21
27.692350
31
0.0
0
ARC
8
0
10
90.009845
20
27.600000
30
0.0
40
0.200000
50
27.500000
51
152.500000
0
LINE
8
0
10
89.832443
20
27.692350
30
0.0
11
89.528067
21
27.107650
31
0.0
0
ARC
8
0
10
89.350665
20
27.200000
30
0.0
40
0.200000
50
207.500000
51
332.500000
0
LINE
8
0
10
89.173263
20
27.107650
30
0.0
11
88.868888
21
27.692350
31
0.0
0
ARC
8
0
10
88.691486
20
27.600000
30
0.0
40
0.200000
50
27.500000
51
152.500000
0
LINE
8
0
10
88.514083
20
27.692350
30
0.0
11
88.223718
21
27.134563
31
0.0
0
ARC
8
0
10
88.001965
20
27.250000
30
0.0
40
0.250000
50
270.000000
51
332.500000
0
LINE
8
0
10
88.001965
20
27.000000
30
0.0
11
87.520000
21
27.000000
31
0.0
0
ARC
8
0
10
87.520000
20
26.000000
30
0.0
40
1.000000
50
90.000000
51
180.000000
0
LINE
8
0
10
86.520000
20
26.000000
30
0.0
11
86.520000
21
25.500000
31
0.0
0
ARC
8
0
10
87.020000
20
25.500000
30
0.0
40
0.500000
50
180.000000
51
270.000000
0
LINE
8
0
10
87.020000
20
25.000000
30
0.0
11
102.420000
21
25.000000
31
0.0
0
ARC
8
0
10
102.420000
20
24.500000
30
0.0
40
0.500000
50
360.000000
51
90.000000
0
LINE
8
0
10
102.920000
20
24.500000
30
0.0
11
102.920000
21
7.100000
31
0.0
0
ARC
8
0
10
102.420000
20
7.100000
30
0.0
40
0.500000
50
270.000000
51
360.000000
0
LINE
8
0
10
102.420000
20
6.600000
30
0.0
11
101.020000
21
6.600000
31
0.0
0
ARC
8
0
10
101.020000
20
6.100000
30
0.0
40
0.500000
50
90.000000
51
180.000000
0
LINE
8
0
10
100.520000
20
6.100000
30
0.0
11
100.520000
21
5.200000
31
0.0
0
ARC
8
0
10
101.020000
20
5.200000
30
0.0
40
0.500000
50
180.000000
51
270.000000
0
LINE
8
0
10
101.020000
20
4.700000
30
0.0
11
101.220000
21
4.700000
31
0.0
0
ARC
8
0
10
101.220000
20
5.200000
30
0.0
40
0.500000
50
270.000000
51
356.177446
0
ARC
8
0
10
101.968331
20
5.150000
30
0.0
40
0.250000
50
90.000000
51
176.177446
0
LINE
8
0
10
101.968331
20
5.400000
30
0.0
11
102.670000
21
5.400000
31
0.0
0
ARC
8
0
10
102.670000
20
5.150000
30
0.0
40
0.250000
50
360.000000
51
90.000000
0
LINE
8
0
10
102.920000
20
5.150000
30
0.0
11
102.920000
21
1.650000
31
0.0
0
ARC
8
0
10
102.670000
20
1.650000
30
0.0
40
0.250000
50
270.000000
51
360.000000
0
LINE
8
0
10
102.670000
20
1.400000
30
0.0
11
101.968331
21
1.400000
31
0.0
0
ARC
8
0
10
101.968331
20
1.650000
30
0.0
40
0.250000
50
183.822554
51
270.000000
0
ARC
8
0
10
101.220000
20
1.600000
30
0.0
40
0.500000
50
3.822554
51
90.000000
0
LINE
8
0
10
101.220000
20
2.100000
30
0.0
11
101.020000
21
2.100000
31
0.0
0
ARC
8
0
10
101.020000
20
1.600000
30
0.0
40
0.500000
50
90.000000
51
180.000000
0
LINE
8
0
10
100.520000
20
1.600000
30
0.0
11
100.520000
21
0.700000
31
0.0
0
ARC
8
0
10
101.020000
20
0.700000
30
0.0
40
0.500000
50
180.000000
51
270.000000
0
LINE
8
0
10
101.020000
20
0.200000
30
0.0
11
280.020000
21
0.200000
31
0.0
0
ARC
8
0
10
280.020000
20
0.700000
30
0.0
40
0.500000
50
270.000000
51
360.000000
0
LINE
8
0
10
280.520000
20
0.700000
30
0.0
11
280.520000
21
59.700000
31
0.0
0
ARC
8
0
10
280.020000
20
59.700000
30
0.0
40
0.500000
50
360.000000
51
90.000000
0
LINE
8
0
10
280.020000
20
60.200000
30
0.0
11
101.020000
21
60.200000
31
0.0
0
ARC
8
0
10
101.020000
20
59.700000
30
0.0
40
0.500000
50
90.000000
51
180.000000
0
LINE
8
0
10
100.520000
20
59.700000
30
0.0
11
100.520000
21
58.800000
31
0.0
0
ARC
8
0
10
101.020000
20
58.800000
30
0.0
40
0.500000
50
180.000000
51
270.000000
0
LINE
8
0
10
101.020000
20
58.300000
30
0.0
11
101.220000
21
58.300000
31
0.0
0
ARC
8
0
10
101.220000
20
58.800000
30
0.0
40
0.500000
50
270.000000
51
356.177446
0
ARC
8
0
10
101.968331
20
58.750000
30
0.0
40
0.250000
50
90.000000
51
176.177446
0
LINE
8
0
10
101.968331
20
59.000000
30
0.0
11
102.670000
21
59.000000
31
0.0
0
ARC
8
0
10
102.670000
20
58.750000
30
0.0
40
0.250000
50
360.000000
51
90.000000
0
LINE
8
0
10
102.920000
20
58.750000
30
0.0
11
102.920000
21
55.250000
31
0.0
0
ARC
8
0
10
102.670000
20
55.250000
30
0.0
40
0.250000
50
270.000000
51
360.000000
0
LINE
8
0
10
102.670000
20
55.000000
30
0.0
11
101.968331
21
55.000000
31
0.0
0
ARC
8
0
10
101.968331
20
55.250000
30
0.0
40
0.250000
50
183.822554
51
270.000000
0
ARC
8
0
10
101.220000
20
55.200000
30
0.0
40
0.500000
50
3.822554
51
90.000000
0
LINE
8
0
10
101.220000
20
55.700000
30
0.0
11
101.020000
21
55.700000
31
0.0
0
ARC
8
0
10
101.020000
20
55.200000
30
0.0
40
0.500000
50
90.000000
51
180.000000
0
LINE
8
0
10
100.520000
20
55.200000
30
0.0
11
100.520000
21
54.300000
31
0.0
0
ARC
8
0
10
101.020000
20
54.300000
30
0.0
40
0.500000
50
180.000000
51
270.000000
0
LINE
8
0
10
101.020000
20
53.800000
30
0.0
11
102.420000
21
53.800000
31
0.0
0
ARC
8
0
10
102.420000
20
53.300000
30
0.0
40
0.500000
50
360.000000
51
90.000000
0
LINE
8
0
10
102.920000
20
53.300000
30
0.0
11
102.919477
21
35.899985
31
0.0
0
ARC
8
0
10
102.419477
20
35.900000
30
0.0
40
0.500000
50
270.000000
51
360.000000
0
LINE
8
0
10
102.419477
20
35.400000
30
0.0
11
87.020000
21
35.400000
31
0.0
0
ARC
8
0
10
87.020000
20
34.900000
30
0.0
40
0.500000
50
90.000000
51
180.000000
0
LINE
8
0
10
86.520000
20
34.900000
30
0.0
11
86.520000
21
34.400000
31
0.0
0
ARC
8
0
10
87.520000
20
34.400000
30
0.0
40
1.000000
50
180.000000
51
270.000000
0
LINE
8
0
10
87.520000
20
33.400000
30
0.0
11
88.661145
21
33.400000
31
0.0
0
ARC
8
0
10
88.661145
20
33.150000
30
0.0
40
0.250000
50
27.500000
51
90.000000
0
LINE
8
0
10
88.882898
20
33.265437
30
0.0
11
89.173263
21
32.707650
31
0.0
0
ARC
8
0
10
89.350665
20
32.800000
30
0.0
40
0.200000
50
207.500000
51
332.500000
0
LINE
8
0
10
89.528067
20
32.707650
30
0.0
11
89.832443
21
33.292350
31
0.0
0
ARC
8
0
10
90.009845
20
33.200000
30
0.0
40
0.200000
50
27.500000
51
152.500000
0
LINE
8
0
10
90.187247
20
33.292350
30
0.0
11
90.491622
21
32.707650
31
0.0
0
ARC
8
0
10
90.669024
20
32.800000
30
0.0
40
0.200000
50
207.500000
51
332.500000
0
LINE
8
0
10
90.846427
20
32.707650
30
0.0
11
91.150802
21
33.292350
31
0.0
0
ARC
8
0
10
91.328204
20
33.200000
30
0.0
40
0.200000
50
27.500000
51
152.500000
0
LINE
8
0
10
91.505606
20
33.292350
30
0.0
11
91.809981
21
32.707650
31
0.0
0
ARC
8
0
10
91.987384
20
32.800000
30
0.0
40
0.200000
50
207.500000
51
332.500000
0
LINE
8
0
10
92.164786
20
32.707650
30
0.0
11
92.469161
21
33.292350
31
0.0
0
ARC
8
0
10
92.646563
20
33.200000
30
0.0
40
0.200000
50
27.500000
51
152.500000
0
LINE
8
0
10
92.823965
20
33.292350
30
0.0
11
93.128341
21
32.707650
31
0.0
0
ARC
8
0
10
93.305743
20
32.800000
30
0.0
40
0.200000
50
207.500000
51
332.500000
0
LINE
8
0
10
93.483145
20
32.707650
30
0.0
11
93.787520
21
33.292350
31
0.0
0
ARC
8
0
10
93.964922
20
33.200000
30
0.0
40
0.200000
50
27.500000
51
152.500000
0
LINE
8
0
10
94.142325
20
33.292350
30
0.0
11
94.446700
21
32.707650
31
0.0
0
ARC
8
0
10
94.624102
20
32.800000
30
0.0
40
0.200000
50
207.500000
51
332.500000
0
LINE
8
0
10
94.801504
20
32.707650
30
0.0
11
95.105879
21
33.292350
31
0.0
0
ARC
8
0
10
95.283282
20
33.200000
30
0.0
40
0.200000
50
27.500000
51
152.500000
0
LINE
8
0
10
95.460684
20
33.292350
30
0.0
11
95.765059
21
32.707650
31
0.0
0
ARC
8
0
10
95.942461
20
32.800000
30
0.0
40
0.200000
50
207.500000
51
332.500000
0
LINE
8
0
10
96.119863
20
32.707650
30
0.0
11
96.424239
21
33.292350
31
0.0
0
ARC
8
0
10
96.601641
20
33.200000
30
0.0
40
0.200000
50
27.500000
51
152.500000
0
LINE
8
0
10
96.779043
20
33.292350
30
0.0
11
97.083418
21
32.707650
31
0.0
0
ARC
8
0
10
97.260820
20
32.800000
30
0.0
40
0.200000
50
207.500000
51
332.500000
0
LINE
8
0
10
97.438223
20
32.707650
30
0.0
11
97.728588
21
33.265437
31
0.0
0
ARC
8
0
10
97.950341
20
33.150000
30
0.0
40
0.250000
50
90.000000
51
152.500000
0
LINE
8
0
10
97.950341
20
33.400000
30
0.0
11
98.920000
21
33.400000
31
0.0
0
ARC
8
0
10
98.920000
20
32.400000
30
0.0
40
1.000000
50
360.000000
51
90.000000
0
LINE
8
0
10
99.920000
20
32.400000
30
0.0
11
99.920000
21
28.000000
31
0.0
0
ARC
8
0
10
98.920000
20
28.000000
30
0.0
40
1.000000
50
270.000000
51
360.000000
0
LINE
8
0
10
98.920000
20
27.000000
30
0.0
11
98.609520
21
27.000000
31
0.0
0
ARC
8
0
10
98.609520
20
27.250000
30
0.0
40
0.250000
50
207.500000
51
270.000000
0
LINE
8
0
10
98.387768
20
27.134563
30
0.0
11
98.097402
21
27.692350
31
0.0
0
ATTDEF
8
0
10
101.020000
20
60.200000
30
0.0
40
3.5
1

3

2
VC_START
70
0
0
ATTDEF
8
0
10
101.020000
20
0.200000
30
0.0
40
3.5
1

3

2
VC_END
70
0
0
ATTDEF
8
0
10
0.000000
20
0.000000
30
0.0
40
3.5
1

3

2
DENS:0.000000
70
0
0
ATTDEF
8
0
10
0.000000
20
0.000000
30
0.0
40
3.5
1

3

2
GLASS_MIN:0.000000
70
0
0
ATTDEF
8
0
10
0.000000
20
0.000000
30
0.0
40
3.5
1

3

2
GLASS_MAX:0.000000
70
0
0
ATTDEF
8
0
10
0.000000
20
0.000000
30
0.0
40
3.5
1

3

2
DESC:P-8271 - B58 - 5379 - 7010
70
0
0
ATTDEF
8
0
10
0.000000
20
0.000000
30
0.0
40
3.5
1

3

2
HW_START
70
0
0
ATTDEF
8
0
10
280.520000
20
60.200000
30
0.0
40
3.5
1

3

2
HW_END
70
0
0
ATTDEF
8
0
10
0.000000
20
0.000000
30
0.0
40
3.5
1

3

2
BL01:6500.000000,,1
70
0
0
ENDSEC
0
EOF
