0
SECTION
2
ENTITIES
0
ARC
8
0
10
96.750000
20
3.000000
30
0.0
40
1.000000
50
270.000000
51
360.000000
0
LINE
8
0
10
96.750000
20
2.000000
30
0.0
11
41.150000
21
2.000000
31
0.0
0
ARC
8
0
10
41.150000
20
3.000000
30
0.0
40
1.000000
50
180.000000
51
270.000000
0
LINE
8
0
10
40.150000
20
3.000000
30
0.0
11
40.150000
21
24.800000
31
0.0
0
ARC
8
0
10
38.150000
20
24.800000
30
0.0
40
2.000000
50
360.000000
51
90.000000
0
ARC
8
0
10
38.150000
20
27.800000
30
0.0
40
1.000000
50
180.000000
51
270.000000
0
LINE
8
0
10
37.150000
20
27.800000
30
0.0
11
37.150000
21
32.200000
31
0.0
0
ARC
8
0
10
38.150000
20
32.200000
30
0.0
40
1.000000
50
90.000000
51
180.000000
0
ARC
8
0
10
38.150000
20
35.200000
30
0.0
40
2.000000
50
270.000000
51
360.000000
0
LINE
8
0
10
40.150000
20
35.200000
30
0.0
11
40.150000
21
74.800000
31
0.0
0
ARC
8
0
10
38.150000
20
74.800000
30
0.0
40
2.000000
50
360.000000
51
90.000000
0
ARC
8
0
10
38.150000
20
77.800000
30
0.0
40
1.000000
50
180.000000
51
270.000000
0
LINE
8
0
10
37.150000
20
77.800000
30
0.0
11
37.150000
21
82.200000
31
0.0
0
ARC
8
0
10
38.150000
20
82.200000
30
0.0
40
1.000000
50
90.000000
51
180.000000
0
ARC
8
0
10
38.150000
20
85.200000
30
0.0
40
2.000000
50
270.000000
51
360.000000
0
LINE
8
0
10
40.150000
20
85.200000
30
0.0
11
40.150000
21
107.000000
31
0.0
0
ARC
8
0
10
41.150000
20
107.000000
30
0.0
40
1.000000
50
90.000000
51
180.000000
0
LINE
8
0
10
41.150000
20
108.000000
30
0.0
11
96.750000
21
108.000000
31
0.0
0
ARC
8
0
10
96.750000
20
107.000000
30
0.0
40
1.000000
50
360.000000
51
90.000000
0
LINE
8
0
10
97.750000
20
107.000000
30
0.0
11
97.750000
21
3.000000
31
0.0
0
ARC
8
0
10
29.900000
20
26.981886
30
0.0
40
0.181886
50
208.442929
51
331.557071
0
LINE
8
0
10
29.740069
20
26.895257
30
0.0
11
29.409931
21
27.504743
31
0.0
0
ARC
8
0
10
29.250000
20
27.418114
30
0.0
40
0.181886
50
28.442929
51
151.557071
0
LINE
8
0
10
29.090069
20
27.504743
30
0.0
11
28.759931
21
26.895257
31
0.0
0
ARC
8
0
10
28.600000
20
26.981886
30
0.0
40
0.181886
50
208.442929
51
331.557071
0
LINE
8
0
10
28.440069
20
26.895257
30
0.0
11
28.109931
21
27.504743
31
0.0
0
ARC
8
0
10
27.950000
20
27.418114
30
0.0
40
0.181886
50
28.442929
51
151.557071
0
LINE
8
0
10
27.790069
20
27.504743
30
0.0
11
27.459931
21
26.895257
31
0.0
0
ARC
8
0
10
27.300000
20
26.981886
30
0.0
40
0.181886
50
208.442929
51
331.557071
0
LINE
8
0
10
27.140069
20
26.895257
30
0.0
11
26.809931
21
27.504743
31
0.0
0
ARC
8
0
10
26.650000
20
27.418114
30
0.0
40
0.181886
50
28.442929
51
151.557071
0
LINE
8
0
10
26.490069
20
27.504743
30
0.0
11
26.159931
21
26.895257
31
0.0
0
ARC
8
0
10
26.000000
20
26.981886
30
0.0
40
0.181886
50
208.442929
51
331.557071
0
LINE
8
0
10
25.840069
20
26.895257
30
0.0
11
25.509931
21
27.504743
31
0.0
0
ARC
8
0
10
25.350000
20
27.418114
30
0.0
40
0.181886
50
28.442929
51
151.557071
0
LINE
8
0
10
25.190069
20
27.504743
30
0.0
11
24.859931
21
26.895257
31
0.0
0
ARC
8
0
10
24.700000
20
26.981886
30
0.0
40
0.181886
50
208.442929
51
331.557071
0
LINE
8
0
10
24.540069
20
26.895257
30
0.0
11
24.209931
21
27.504743
31
0.0
0
ARC
8
0
10
24.050000
20
27.418114
30
0.0
40
0.181886
50
28.442929
51
151.557071
0
LINE
8
0
10
23.890069
20
27.504743
30
0.0
11
23.559931
21
26.895257
31
0.0
0
ARC
8
0
10
23.400000
20
26.981886
30
0.0
40
0.181886
50
270.000000
51
331.557071
0
LINE
8
0
10
23.400000
20
26.800000
30
0.0
11
22.750000
21
26.800000
31
0.0
0
ARC
8
0
10
22.750000
20
25.800000
30
0.0
40
1.000000
50
90.000000
51
180.000000
0
LINE
8
0
10
21.750000
20
25.800000
30
0.0
11
21.750000
21
24.800000
31
0.0
0
LINE
8
0
10
21.750000
20
24.800000
30
0.0
11
37.650000
21
24.800000
31
0.0
0
ARC
8
0
10
37.650000
20
24.300000
30
0.0
40
0.500000
50
360.000000
51
90.000000
0
LINE
8
0
10
38.150000
20
24.300000
30
0.0
11
38.150000
21
6.900000
31
0.0
0
ARC
8
0
10
37.650000
20
6.900000
30
0.0
40
0.500000
50
270.000000
51
360.000000
0
LINE
8
0
10
37.650000
20
6.400000
30
0.0
11
35.750000
21
6.400000
31
0.0
0
LINE
8
0
10
35.750000
20
6.400000
30
0.0
11
35.750000
21
5.100000
31
0.0
0
ARC
8
0
10
36.350000
20
5.100000
30
0.0
40
0.600000
50
180.000000
51
360.000000
0
LINE
8
0
10
36.950000
20
5.100000
30
0.0
11
36.950000
21
5.200000
31
0.0
0
LINE
8
0
10
36.950000
20
5.200000
30
0.0
11
38.150000
21
5.200000
31
0.0
0
LINE
8
0
10
38.150000
20
5.200000
30
0.0
11
38.150000
21
1.200000
31
0.0
0
LINE
8
0
10
38.150000
20
1.200000
30
0.0
11
36.950000
21
1.200000
31
0.0
0
LINE
8
0
10
36.950000
20
1.200000
30
0.0
11
36.950000
21
1.300000
31
0.0
0
ARC
8
0
10
36.350000
20
1.300000
30
0.0
40
0.600000
50
360.000000
51
180.000000
0
LINE
8
0
10
35.750000
20
1.300000
30
0.0
11
35.750000
21
0.000000
31
0.0
0
LINE
8
0
10
35.750000
20
0.000000
30
0.0
11
99.750000
21
0.000000
31
0.0
0
LINE
8
0
10
99.750000
20
0.000000
30
0.0
11
99.750000
21
110.000000
31
0.0
0
LINE
8
0
10
99.750000
20
110.000000
30
0.0
11
35.750000
21
110.000000
31
0.0
0
LINE
8
0
10
35.750000
20
110.000000
30
0.0
11
35.750000
21
108.700000
31
0.0
0
ARC
8
0
10
36.350000
20
108.700000
30
0.0
40
0.600000
50
180.000000
51
360.000000
0
LINE
8
0
10
36.950000
20
108.700000
30
0.0
11
36.950000
21
108.800000
31
0.0
0
LINE
8
0
10
36.950000
20
108.800000
30
0.0
11
38.150000
21
108.800000
31
0.0
0
LINE
8
0
10
38.150000
20
108.800000
30
0.0
11
38.150000
21
104.800000
31
0.0
0
LINE
8
0
10
38.150000
20
104.800000
30
0.0
11
36.950000
21
104.800000
31
0.0
0
LINE
8
0
10
36.950000
20
104.800000
30
0.0
11
36.950000
21
104.900000
31
0.0
0
ARC
8
0
10
36.350000
20
104.900000
30
0.0
40
0.600000
50
360.000000
51
180.000000
0
LINE
8
0
10
35.750000
20
104.900000
30
0.0
11
35.750000
21
103.600000
31
0.0
0
LINE
8
0
10
35.750000
20
103.600000
30
0.0
11
37.650000
21
103.600000
31
0.0
0
ARC
8
0
10
37.650000
20
103.100000
30
0.0
40
0.500000
50
360.000000
51
90.000000
0
LINE
8
0
10
38.150000
20
103.100000
30
0.0
11
38.150000
21
85.700000
31
0.0
0
ARC
8
0
10
37.650000
20
85.700000
30
0.0
40
0.500000
50
270.000000
51
360.000000
0
LINE
8
0
10
37.650000
20
85.200000
30
0.0
11
21.750000
21
85.200000
31
0.0
0
LINE
8
0
10
21.750000
20
85.200000
30
0.0
11
21.750000
21
84.200000
31
0.0
0
ARC
8
0
10
22.750000
20
84.200000
30
0.0
40
1.000000
50
180.000000
51
270.000000
0
LINE
8
0
10
22.750000
20
83.200000
30
0.0
11
23.400000
21
83.200000
31
0.0
0
ARC
8
0
10
23.400000
20
83.018114
30
0.0
40
0.181886
50
28.442929
51
90.000000
0
LINE
8
0
10
23.559931
20
83.104743
30
0.0
11
23.890069
21
82.495257
31
0.0
0
ARC
8
0
10
24.050000
20
82.581886
30
0.0
40
0.181886
50
208.442929
51
331.557071
0
LINE
8
0
10
24.209931
20
82.495257
30
0.0
11
24.540069
21
83.104743
31
0.0
0
ARC
8
0
10
24.700000
20
83.018114
30
0.0
40
0.181886
50
28.442929
51
151.557071
0
LINE
8
0
10
24.859931
20
83.104743
30
0.0
11
25.190069
21
82.495257
31
0.0
0
ARC
8
0
10
25.350000
20
82.581886
30
0.0
40
0.181886
50
208.442929
51
331.557071
0
LINE
8
0
10
25.509931
20
82.495257
30
0.0
11
25.840069
21
83.104743
31
0.0
0
ARC
8
0
10
26.000000
20
83.018114
30
0.0
40
0.181886
50
28.442929
51
151.557071
0
LINE
8
0
10
26.159931
20
83.104743
30
0.0
11
26.490069
21
82.495257
31
0.0
0
ARC
8
0
10
26.650000
20
82.581886
30
0.0
40
0.181886
50
208.442929
51
331.557071
0
LINE
8
0
10
26.809931
20
82.495257
30
0.0
11
27.140069
21
83.104743
31
0.0
0
ARC
8
0
10
27.300000
20
83.018114
30
0.0
40
0.181886
50
28.442929
51
151.557071
0
LINE
8
0
10
27.459931
20
83.104743
30
0.0
11
27.790069
21
82.495257
31
0.0
0
ARC
8
0
10
27.950000
20
82.581886
30
0.0
40
0.181886
50
208.442929
51
331.557071
0
LINE
8
0
10
28.109931
20
82.495257
30
0.0
11
28.440069
21
83.104743
31
0.0
0
ARC
8
0
10
28.600000
20
83.018114
30
0.0
40
0.181886
50
28.442929
51
151.557071
0
LINE
8
0
10
28.759931
20
83.104743
30
0.0
11
29.090069
21
82.495257
31
0.0
0
ARC
8
0
10
29.250000
20
82.581886
30
0.0
40
0.181886
50
208.442929
51
331.557071
0
LINE
8
0
10
29.409931
20
82.495257
30
0.0
11
29.740069
21
83.104743
31
0.0
0
ARC
8
0
10
29.900000
20
83.018114
30
0.0
40
0.181886
50
28.442929
51
151.557071
0
LINE
8
0
10
30.059931
20
83.104743
30
0.0
11
30.390069
21
82.495257
31
0.0
0
ARC
8
0
10
30.550000
20
82.581886
30
0.0
40
0.181886
50
208.442929
51
331.557071
0
LINE
8
0
10
30.709931
20
82.495257
30
0.0
11
31.040069
21
83.104743
31
0.0
0
ARC
8
0
10
31.200000
20
83.018114
30
0.0
40
0.181886
50
28.442929
51
151.557071
0
LINE
8
0
10
31.359931
20
83.104743
30
0.0
11
31.690069
21
82.495257
31
0.0
0
ARC
8
0
10
31.850000
20
82.581886
30
0.0
40
0.181886
50
208.442929
51
331.557071
0
LINE
8
0
10
32.009931
20
82.495257
30
0.0
11
32.340069
21
83.104743
31
0.0
0
ARC
8
0
10
32.500000
20
83.018114
30
0.0
40
0.181886
50
28.442929
51
151.557071
0
LINE
8
0
10
32.659931
20
83.104743
30
0.0
11
32.990069
21
82.495257
31
0.0
0
ARC
8
0
10
33.150000
20
82.581886
30
0.0
40
0.181886
50
208.442929
51
331.557071
0
LINE
8
0
10
33.309931
20
82.495257
30
0.0
11
33.640069
21
83.104743
31
0.0
0
ARC
8
0
10
33.800000
20
83.018114
30
0.0
40
0.181886
50
90.000000
51
151.557071
0
LINE
8
0
10
33.800000
20
83.200000
30
0.0
11
34.150000
21
83.200000
31
0.0
0
ARC
8
0
10
34.150000
20
82.200000
30
0.0
40
1.000000
50
360.000000
51
90.000000
0
LINE
8
0
10
35.150000
20
82.200000
30
0.0
11
35.150000
21
77.800000
31
0.0
0
ARC
8
0
10
34.150000
20
77.800000
30
0.0
40
1.000000
50
270.000000
51
360.000000
0
LINE
8
0
10
34.150000
20
76.800000
30
0.0
11
33.150000
21
76.800000
31
0.0
0
ARC
8
0
10
33.150000
20
76.981886
30
0.0
40
0.181886
50
208.442929
51
270.000000
0
LINE
8
0
10
32.990069
20
76.895257
30
0.0
11
32.659931
21
77.504743
31
0.0
0
ARC
8
0
10
32.500000
20
77.418114
30
0.0
40
0.181886
50
28.442929
51
151.557071
0
LINE
8
0
10
32.340069
20
77.504743
30
0.0
11
32.009931
21
76.895257
31
0.0
0
ARC
8
0
10
31.850000
20
76.981886
30
0.0
40
0.181886
50
208.442929
51
331.557071
0
LINE
8
0
10
31.690069
20
76.895257
30
0.0
11
31.359931
21
77.504743
31
0.0
0
ARC
8
0
10
31.200000
20
77.418114
30
0.0
40
0.181886
50
28.442929
51
151.557071
0
LINE
8
0
10
31.040069
20
77.504743
30
0.0
11
30.709931
21
76.895257
31
0.0
0
ARC
8
0
10
30.550000
20
76.981886
30
0.0
40
0.181886
50
208.442929
51
331.557071
0
LINE
8
0
10
30.390069
20
76.895257
30
0.0
11
30.059931
21
77.504743
31
0.0
0
ARC
8
0
10
29.900000
20
77.418114
30
0.0
40
0.181886
50
28.442929
51
151.557071
0
LINE
8
0
10
29.740069
20
77.504743
30
0.0
11
29.409931
21
76.895257
31
0.0
0
ARC
8
0
10
29.250000
20
76.981886
30
0.0
40
0.181886
50
208.442929
51
331.557071
0
LINE
8
0
10
29.090069
20
76.895257
30
0.0
11
28.759931
21
77.504743
31
0.0
0
ARC
8
0
10
28.600000
20
77.418114
30
0.0
40
0.181886
50
28.442929
51
151.557071
0
LINE
8
0
10
28.440069
20
77.504743
30
0.0
11
28.109931
21
76.895257
31
0.0
0
ARC
8
0
10
27.950000
20
76.981886
30
0.0
40
0.181886
50
208.442929
51
331.557071
0
LINE
8
0
10
27.790069
20
76.895257
30
0.0
11
27.459931
21
77.504743
31
0.0
0
ARC
8
0
10
27.300000
20
77.418114
30
0.0
40
0.181886
50
28.442929
51
151.557071
0
LINE
8
0
10
27.140069
20
77.504743
30
0.0
11
26.809931
21
76.895257
31
0.0
0
ARC
8
0
10
26.650000
20
76.981886
30
0.0
40
0.181886
50
208.442929
51
331.557071
0
LINE
8
0
10
26.490069
20
76.895257
30
0.0
11
26.159931
21
77.504743
31
0.0
0
ARC
8
0
10
26.000000
20
77.418114
30
0.0
40
0.181886
50
28.442929
51
151.557071
0
LINE
8
0
10
25.840069
20
77.504743
30
0.0
11
25.509931
21
76.895257
31
0.0
0
ARC
8
0
10
25.350000
20
76.981886
30
0.0
40
0.181886
50
208.442929
51
331.557071
0
LINE
8
0
10
25.190069
20
76.895257
30
0.0
11
24.859931
21
77.504743
31
0.0
0
ARC
8
0
10
24.700000
20
77.418114
30
0.0
40
0.181886
50
28.442929
51
151.557071
0
LINE
8
0
10
24.540069
20
77.504743
30
0.0
11
24.209931
21
76.895257
31
0.0
0
ARC
8
0
10
24.050000
20
76.981886
30
0.0
40
0.181886
50
270.000000
51
331.557071
0
LINE
8
0
10
24.050000
20
76.800000
30
0.0
11
22.750000
21
76.800000
31
0.0
0
ARC
8
0
10
22.750000
20
75.800000
30
0.0
40
1.000000
50
90.000000
51
180.000000
0
LINE
8
0
10
21.750000
20
75.800000
30
0.0
11
21.750000
21
74.800000
31
0.0
0
LINE
8
0
10
21.750000
20
74.800000
30
0.0
11
37.650000
21
74.800000
31
0.0
0
ARC
8
0
10
37.650000
20
74.300000
30
0.0
40
0.500000
50
360.000000
51
90.000000
0
LINE
8
0
10
38.150000
20
74.300000
30
0.0
11
38.150000
21
35.700000
31
0.0
0
ARC
8
0
10
37.650000
20
35.700000
30
0.0
40
0.500000
50
270.000000
51
360.000000
0
LINE
8
0
10
37.650000
20
35.200000
30
0.0
11
21.750000
21
35.200000
31
0.0
0
LINE
8
0
10
21.750000
20
35.200000
30
0.0
11
21.750000
21
34.200000
31
0.0
0
ARC
8
0
10
22.750000
20
34.200000
30
0.0
40
1.000000
50
180.000000
51
270.000000
0
LINE
8
0
10
22.750000
20
33.200000
30
0.0
11
24.050000
21
33.200000
31
0.0
0
ARC
8
0
10
24.050000
20
33.018114
30
0.0
40
0.181886
50
28.442929
51
90.000000
0
LINE
8
0
10
24.209931
20
33.104743
30
0.0
11
24.540069
21
32.495257
31
0.0
0
ARC
8
0
10
24.700000
20
32.581886
30
0.0
40
0.181886
50
208.442929
51
331.557071
0
LINE
8
0
10
24.859931
20
32.495257
30
0.0
11
25.190069
21
33.104743
31
0.0
0
ARC
8
0
10
25.350000
20
33.018114
30
0.0
40
0.181886
50
28.442929
51
151.557071
0
LINE
8
0
10
25.509931
20
33.104743
30
0.0
11
25.840069
21
32.495257
31
0.0
0
ARC
8
0
10
26.000000
20
32.581886
30
0.0
40
0.181886
50
208.442929
51
331.557071
0
LINE
8
0
10
26.159931
20
32.495257
30
0.0
11
26.490069
21
33.104743
31
0.0
0
ARC
8
0
10
26.650000
20
33.018114
30
0.0
40
0.181886
50
28.442929
51
151.557071
0
LINE
8
0
10
26.809931
20
33.104743
30
0.0
11
27.140069
21
32.495257
31
0.0
0
ARC
8
0
10
27.300000
20
32.581886
30
0.0
40
0.181886
50
208.442929
51
331.557071
0
LINE
8
0
10
27.459931
20
32.495257
30
0.0
11
27.790069
21
33.104743
31
0.0
0
ARC
8
0
10
27.950000
20
33.018114
30
0.0
40
0.181886
50
28.442929
51
151.557071
0
LINE
8
0
10
28.109931
20
33.104743
30
0.0
11
28.440069
21
32.495257
31
0.0
0
ARC
8
0
10
28.600000
20
32.581886
30
0.0
40
0.181886
50
208.442929
51
331.557071
0
LINE
8
0
10
28.759931
20
32.495257
30
0.0
11
29.090069
21
33.104743
31
0.0
0
ARC
8
0
10
29.250000
20
33.018114
30
0.0
40
0.181886
50
28.442929
51
151.557071
0
LINE
8
0
10
29.409931
20
33.104743
30
0.0
11
29.740069
21
32.495257
31
0.0
0
ARC
8
0
10
29.900000
20
32.581886
30
0.0
40
0.181886
50
208.442929
51
331.557071
0
LINE
8
0
10
30.059931
20
32.495257
30
0.0
11
30.390069
21
33.104743
31
0.0
0
ARC
8
0
10
30.550000
20
33.018114
30
0.0
40
0.181886
50
28.442929
51
151.557071
0
LINE
8
0
10
30.709931
20
33.104743
30
0.0
11
31.040069
21
32.495257
31
0.0
0
ARC
8
0
10
31.200000
20
32.581886
30
0.0
40
0.181886
50
208.442929
51
331.557071
0
LINE
8
0
10
31.359931
20
32.495257
30
0.0
11
31.690069
21
33.104743
31
0.0
0
ARC
8
0
10
31.850000
20
33.018114
30
0.0
40
0.181886
50
28.442929
51
151.557071
0
LINE
8
0
10
32.009931
20
33.104743
30
0.0
11
32.340069
21
32.495257
31
0.0
0
ARC
8
0
10
32.500000
20
32.581886
30
0.0
40
0.181886
50
208.442929
51
331.557071
0
LINE
8
0
10
32.659931
20
32.495257
30
0.0
11
32.990069
21
33.104743
31
0.0
0
ARC
8
0
10
33.150000
20
33.018114
30
0.0
40
0.181886
50
90.000000
51
151.557071
0
LINE
8
0
10
33.150000
20
33.200000
30
0.0
11
34.150000
21
33.200000
31
0.0
0
ARC
8
0
10
34.150000
20
32.200000
30
0.0
40
1.000000
50
360.000000
51
90.000000
0
LINE
8
0
10
35.150000
20
32.200000
30
0.0
11
35.150000
21
27.800000
31
0.0
0
ARC
8
0
10
34.150000
20
27.800000
30
0.0
40
1.000000
50
270.000000
51
360.000000
0
LINE
8
0
10
34.150000
20
26.800000
30
0.0
11
33.800000
21
26.800000
31
0.0
0
ARC
8
0
10
33.800000
20
26.981886
30
0.0
40
0.181886
50
208.442929
51
270.000000
0
LINE
8
0
10
33.640069
20
26.895257
30
0.0
11
33.309931
21
27.504743
31
0.0
0
ARC
8
0
10
33.150000
20
27.418114
30
0.0
40
0.181886
50
28.442929
51
151.557071
0
LINE
8
0
10
32.990069
20
27.504743
30
0.0
11
32.659931
21
26.895257
31
0.0
0
ARC
8
0
10
32.500000
20
26.981886
30
0.0
40
0.181886
50
208.442929
51
331.557071
0
LINE
8
0
10
32.340069
20
26.895257
30
0.0
11
32.009931
21
27.504743
31
0.0
0
ARC
8
0
10
31.850000
20
27.418114
30
0.0
40
0.181886
50
28.442929
51
151.557071
0
LINE
8
0
10
31.690069
20
27.504743
30
0.0
11
31.359931
21
26.895257
31
0.0
0
ARC
8
0
10
31.200000
20
26.981886
30
0.0
40
0.181886
50
208.442929
51
331.557071
0
LINE
8
0
10
31.040069
20
26.895257
30
0.0
11
30.709931
21
27.504743
31
0.0
0
ARC
8
0
10
30.550000
20
27.418114
30
0.0
40
0.181886
50
28.442929
51
151.557071
0
LINE
8
0
10
30.390069
20
27.504743
30
0.0
11
30.059931
21
26.895257
31
0.0
0
ATTDEF
8
0
10
21.750000
20
110.000000
30
0.0
40
3.5
1

3

2
HW_START
70
0
0
ATTDEF
8
0
10
99.750000
20
110.000000
30
0.0
40
3.5
1

3

2
HW_END
70
0
0
ATTDEF
8
0
10
35.750000
20
110.000000
30
0.0
40
3.5
1

3

2
VC_START
70
0
0
ATTDEF
8
0
10
35.750000
20
0.000000
30
0.0
40
3.5
1

3

2
VC_END
70
0
0
LINE
8
0
10
20.000000
20
1.000000
30
0.0
11
15.332051
21
1.000000
31
0.0
0
LINE
8
0
10
15.332051
20
1.000000
30
0.0
11
13.600000
21
2.000000
31
0.0
0
LINE
8
0
10
13.600000
20
2.000000
30
0.0
11
13.138120
21
1.200000
31
0.0
0
LINE
8
0
10
13.138120
20
1.200000
30
0.0
11
12.485641
21
1.200000
31
0.0
0
LINE
8
0
10
12.485641
20
1.200000
30
0.0
11
11.100000
21
2.000000
31
0.0
0
LINE
8
0
10
11.100000
20
2.000000
30
0.0
11
10.638120
21
1.200000
31
0.0
0
LINE
8
0
10
10.638120
20
1.200000
30
0.0
11
9.400000
21
1.200000
31
0.0
0
LINE
8
0
10
9.400000
20
1.200000
30
0.0
11
9.400000
21
5.000000
31
0.0
0
LINE
8
0
10
9.400000
20
5.000000
30
0.0
11
8.400000
21
5.000000
31
0.0
0
LINE
8
0
10
8.400000
20
5.000000
30
0.0
11
8.400000
21
1.200000
31
0.0
0
LINE
8
0
10
8.400000
20
1.200000
30
0.0
11
2.200000
21
1.200000
31
0.0
0
ARC
8
0
10
2.200000
20
1.700000
30
0.0
40
0.500000
50
180.000000
51
270.000000
0
LINE
8
0
10
1.700000
20
1.700000
30
0.0
11
1.700000
21
108.300000
31
0.0
0
ARC
8
0
10
2.200000
20
108.300000
30
0.0
40
0.500000
50
90.000000
51
180.000000
0
LINE
8
0
10
2.200000
20
108.800000
30
0.0
11
8.400000
21
108.800000
31
0.0
0
LINE
8
0
10
8.400000
20
108.800000
30
0.0
11
8.400000
21
105.000000
31
0.0
0
LINE
8
0
10
8.400000
20
105.000000
30
0.0
11
9.400000
21
105.000000
31
0.0
0
LINE
8
0
10
9.400000
20
105.000000
30
0.0
11
9.400000
21
108.800000
31
0.0
0
LINE
8
0
10
9.400000
20
108.800000
30
0.0
11
10.638120
21
108.800000
31
0.0
0
LINE
8
0
10
10.638120
20
108.800000
30
0.0
11
11.100000
21
108.000000
31
0.0
0
LINE
8
0
10
11.100000
20
108.000000
30
0.0
11
12.485641
21
108.800000
31
0.0
0
LINE
8
0
10
12.485641
20
108.800000
30
0.0
11
13.138120
21
108.800000
31
0.0
0
LINE
8
0
10
13.138120
20
108.800000
30
0.0
11
13.600000
21
108.000000
31
0.0
0
LINE
8
0
10
13.600000
20
108.000000
30
0.0
11
15.332051
21
109.000000
31
0.0
0
LINE
8
0
10
15.332051
20
109.000000
30
0.0
11
20.000000
21
109.000000
31
0.0
0
LINE
8
0
10
20.000000
20
109.000000
30
0.0
11
20.000000
21
110.000000
31
0.0
0
LINE
8
0
10
20.000000
20
110.000000
30
0.0
11
0.000000
21
110.000000
31
0.0
0
LINE
8
0
10
0.000000
20
110.000000
30
0.0
11
0.000000
21
0.000000
31
0.0
0
LINE
8
0
10
0.000000
20
0.000000
30
0.0
11
20.000000
21
0.000000
31
0.0
0
LINE
8
0
10
20.000000
20
0.000000
30
0.0
11
20.000000
21
1.000000
31
0.0
0
ATTDEF
8
0
10
0.000000
20
110.000000
30
0.0
40
3.5
1

3

2
HW_START
70
0
0
ATTDEF
8
0
10
20.000000
20
110.000000
30
0.0
40
3.5
1

3

2
HW_END
70
0
0
ARC
8
0
10
19.400000
20
36.000000
30
0.0
40
0.600000
50
180.000000
51
360.000000
0
LINE
8
0
10
20.000000
20
36.000000
30
0.0
11
20.000000
21
74.000000
31
0.0
0
ARC
8
0
10
19.400000
20
74.000000
30
0.0
40
0.600000
50
360.000000
51
180.000000
0
LINE
8
0
10
18.800000
20
74.000000
30
0.0
11
18.800000
21
73.600000
31
0.0
0
ARC
8
0
10
18.300000
20
73.600000
30
0.0
40
0.500000
50
270.000000
51
360.000000
0
LINE
8
0
10
18.300000
20
73.100000
30
0.0
11
16.800000
21
73.100000
31
0.0
0
ARC
8
0
10
16.800000
20
73.600000
30
0.0
40
0.500000
50
180.000000
51
270.000000
0
LINE
8
0
10
16.300000
20
73.600000
30
0.0
11
16.300000
21
86.400000
31
0.0
0
ARC
8
0
10
16.800000
20
86.400000
30
0.0
40
0.500000
50
90.000000
51
180.000000
0
LINE
8
0
10
16.800000
20
86.900000
30
0.0
11
18.300000
21
86.900000
31
0.0
0
ARC
8
0
10
18.300000
20
86.400000
30
0.0
40
0.500000
50
360.000000
51
90.000000
0
LINE
8
0
10
18.800000
20
86.400000
30
0.0
11
18.800000
21
86.000000
31
0.0
0
ARC
8
0
10
19.400000
20
86.000000
30
0.0
40
0.600000
50
180.000000
51
360.000000
0
LINE
8
0
10
20.000000
20
86.000000
30
0.0
11
20.000000
21
94.700000
31
0.0
0
ARC
8
0
10
18.500000
20
94.700000
30
0.0
40
1.500000
50
360.000000
51
90.000000
0
LINE
8
0
10
18.500000
20
96.200000
30
0.0
11
18.100000
21
96.200000
31
0.0
0
ARC
8
0
10
18.100000
20
96.700000
30
0.0
40
0.500000
50
180.000000
51
270.000000
0
LINE
8
0
10
17.600000
20
96.700000
30
0.0
11
17.600000
21
101.300000
31
0.0
0
ARC
8
0
10
18.100000
20
101.300000
30
0.0
40
0.500000
50
90.000000
51
180.000000
0
LINE
8
0
10
18.100000
20
101.800000
30
0.0
11
20.000000
21
101.800000
31
0.0
0
LINE
8
0
10
20.000000
20
101.800000
30
0.0
11
20.000000
21
103.100000
31
0.0
0
ARC
8
0
10
19.400000
20
103.100000
30
0.0
40
0.600000
50
360.000000
51
180.000000
0
LINE
8
0
10
18.800000
20
103.100000
30
0.0
11
18.800000
21
103.000000
31
0.0
0
LINE
8
0
10
18.800000
20
103.000000
30
0.0
11
17.600000
21
103.000000
31
0.0
0
LINE
8
0
10
17.600000
20
103.000000
30
0.0
11
17.600000
21
107.000000
31
0.0
0
LINE
8
0
10
17.600000
20
107.000000
30
0.0
11
18.800000
21
107.000000
31
0.0
0
LINE
8
0
10
18.800000
20
107.000000
30
0.0
11
18.800000
21
106.900000
31
0.0
0
ARC
8
0
10
19.400000
20
106.900000
30
0.0
40
0.600000
50
180.000000
51
360.000000
0
LINE
8
0
10
20.000000
20
106.900000
30
0.0
11
20.000000
21
108.200000
31
0.0
0
LINE
8
0
10
20.000000
20
108.200000
30
0.0
11
14.780385
21
108.200000
31
0.0
0
LINE
8
0
10
14.780385
20
108.200000
30
0.0
11
13.500000
21
107.460770
31
0.0
0
LINE
8
0
10
13.500000
20
107.460770
30
0.0
11
12.900000
21
108.500000
31
0.0
0
LINE
8
0
10
12.900000
20
108.500000
30
0.0
11
9.900000
21
106.767949
31
0.0
0
LINE
8
0
10
9.900000
20
106.767949
30
0.0
11
10.650000
21
105.468911
31
0.0
0
LINE
8
0
10
10.650000
20
105.468911
30
0.0
11
12.610770
21
106.600962
31
0.0
0
LINE
8
0
10
12.610770
20
106.600962
30
0.0
11
13.210770
21
105.561731
31
0.0
0
LINE
8
0
10
13.210770
20
105.561731
30
0.0
11
14.850000
21
106.508142
31
0.0
0
ARC
8
0
10
15.100000
20
106.075129
30
0.0
40
0.500000
50
360.000000
51
120.000000
0
LINE
8
0
10
15.600000
20
106.075129
30
0.0
11
15.600000
21
95.700000
31
0.0
0
ARC
8
0
10
17.100000
20
95.700000
30
0.0
40
1.500000
50
180.000000
51
270.000000
0
LINE
8
0
10
17.100000
20
94.200000
30
0.0
11
17.500000
21
94.200000
31
0.0
0
ARC
8
0
10
17.500000
20
93.700000
30
0.0
40
0.500000
50
360.000000
51
90.000000
0
LINE
8
0
10
18.000000
20
93.700000
30
0.0
11
18.000000
21
89.400000
31
0.0
0
ARC
8
0
10
17.500000
20
89.400000
30
0.0
40
0.500000
50
270.000000
51
360.000000
0
LINE
8
0
10
17.500000
20
88.900000
30
0.0
11
15.800000
21
88.900000
31
0.0
0
ARC
8
0
10
15.800000
20
87.400000
30
0.0
40
1.500000
50
90.000000
51
180.000000
0
LINE
8
0
10
14.300000
20
87.400000
30
0.0
11
14.300000
21
81.500000
31
0.0
0
LINE
8
0
10
14.300000
20
81.500000
30
0.0
11
13.800000
21
81.000000
31
0.0
0
LINE
8
0
10
13.800000
20
81.000000
30
0.0
11
14.300000
21
80.500000
31
0.0
0
LINE
8
0
10
14.300000
20
80.500000
30
0.0
11
14.300000
21
79.500000
31
0.0
0
LINE
8
0
10
14.300000
20
79.500000
30
0.0
11
13.800000
21
79.000000
31
0.0
0
LINE
8
0
10
13.800000
20
79.000000
30
0.0
11
14.300000
21
78.500000
31
0.0
0
LINE
8
0
10
14.300000
20
78.500000
30
0.0
11
14.300000
21
72.600000
31
0.0
0
ARC
8
0
10
15.800000
20
72.600000
30
0.0
40
1.500000
50
180.000000
51
270.000000
0
LINE
8
0
10
15.800000
20
71.100000
30
0.0
11
17.500000
21
71.100000
31
0.0
0
ARC
8
0
10
17.500000
20
70.600000
30
0.0
40
0.500000
50
360.000000
51
90.000000
0
LINE
8
0
10
18.000000
20
70.600000
30
0.0
11
18.000000
21
39.400000
31
0.0
0
ARC
8
0
10
17.500000
20
39.400000
30
0.0
40
0.500000
50
270.000000
51
360.000000
0
LINE
8
0
10
17.500000
20
38.900000
30
0.0
11
15.800000
21
38.900000
31
0.0
0
ARC
8
0
10
15.800000
20
37.400000
30
0.0
40
1.500000
50
90.000000
51
180.000000
0
LINE
8
0
10
14.300000
20
37.400000
30
0.0
11
14.300000
21
31.500000
31
0.0
0
LINE
8
0
10
14.300000
20
31.500000
30
0.0
11
13.800000
21
31.000000
31
0.0
0
LINE
8
0
10
13.800000
20
31.000000
30
0.0
11
14.300000
21
30.500000
31
0.0
0
LINE
8
0
10
14.300000
20
30.500000
30
0.0
11
14.300000
21
29.500000
31
0.0
0
LINE
8
0
10
14.300000
20
29.500000
30
0.0
11
13.800000
21
29.000000
31
0.0
0
LINE
8
0
10
13.800000
20
29.000000
30
0.0
11
14.300000
21
28.500000
31
0.0
0
LINE
8
0
10
14.300000
20
28.500000
30
0.0
11
14.300000
21
22.600000
31
0.0
0
ARC
8
0
10
15.800000
20
22.600000
30
0.0
40
1.500000
50
180.000000
51
270.000000
0
LINE
8
0
10
15.800000
20
21.100000
30
0.0
11
17.500000
21
21.100000
31
0.0
0
ARC
8
0
10
17.500000
20
20.600000
30
0.0
40
0.500000
50
360.000000
51
90.000000
0
LINE
8
0
10
18.000000
20
20.600000
30
0.0
11
18.000000
21
16.300000
31
0.0
0
ARC
8
0
10
17.500000
20
16.300000
30
0.0
40
0.500000
50
270.000000
51
360.000000
0
LINE
8
0
10
17.500000
20
15.800000
30
0.0
11
17.100000
21
15.800000
31
0.0
0
ARC
8
0
10
17.100000
20
14.300000
30
0.0
40
1.500000
50
90.000000
51
180.000000
0
LINE
8
0
10
15.600000
20
14.300000
30
0.0
11
15.600000
21
3.924871
31
0.0
0
ARC
8
0
10
15.100000
20
3.924871
30
0.0
40
0.500000
50
240.000000
51
360.000000
0
LINE
8
0
10
14.850000
20
3.491858
30
0.0
11
13.210770
21
4.438269
31
0.0
0
LINE
8
0
10
13.210770
20
4.438269
30
0.0
11
12.610770
21
3.399038
31
0.0
0
LINE
8
0
10
12.610770
20
3.399038
30
0.0
11
10.650000
21
4.531089
31
0.0
0
LINE
8
0
10
10.650000
20
4.531089
30
0.0
11
9.900000
21
3.232051
31
0.0
0
LINE
8
0
10
9.900000
20
3.232051
30
0.0
11
12.900000
21
1.500000
31
0.0
0
LINE
8
0
10
12.900000
20
1.500000
30
0.0
11
13.500000
21
2.539230
31
0.0
0
LINE
8
0
10
13.500000
20
2.539230
30
0.0
11
14.780385
21
1.800000
31
0.0
0
LINE
8
0
10
14.780385
20
1.800000
30
0.0
11
20.000000
21
1.800000
31
0.0
0
LINE
8
0
10
20.000000
20
1.800000
30
0.0
11
20.000000
21
3.100000
31
0.0
0
ARC
8
0
10
19.400000
20
3.100000
30
0.0
40
0.600000
50
360.000000
51
180.000000
0
LINE
8
0
10
18.800000
20
3.100000
30
0.0
11
18.800000
21
3.000000
31
0.0
0
LINE
8
0
10
18.800000
20
3.000000
30
0.0
11
17.600000
21
3.000000
31
0.0
0
LINE
8
0
10
17.600000
20
3.000000
30
0.0
11
17.600000
21
7.000000
31
0.0
0
LINE
8
0
10
17.600000
20
7.000000
30
0.0
11
18.800000
21
7.000000
31
0.0
0
LINE
8
0
10
18.800000
20
7.000000
30
0.0
11
18.800000
21
6.900000
31
0.0
0
ARC
8
0
10
19.400000
20
6.900000
30
0.0
40
0.600000
50
180.000000
51
360.000000
0
LINE
8
0
10
20.000000
20
6.900000
30
0.0
11
20.000000
21
8.200000
31
0.0
0
LINE
8
0
10
20.000000
20
8.200000
30
0.0
11
18.100000
21
8.200000
31
0.0
0
ARC
8
0
10
18.100000
20
8.700000
30
0.0
40
0.500000
50
180.000000
51
270.000000
0
LINE
8
0
10
17.600000
20
8.700000
30
0.0
11
17.600000
21
13.300000
31
0.0
0
ARC
8
0
10
18.100000
20
13.300000
30
0.0
40
0.500000
50
90.000000
51
180.000000
0
LINE
8
0
10
18.100000
20
13.800000
30
0.0
11
18.500000
21
13.800000
31
0.0
0
ARC
8
0
10
18.500000
20
15.300000
30
0.0
40
1.500000
50
270.000000
51
360.000000
0
LINE
8
0
10
20.000000
20
15.300000
30
0.0
11
20.000000
21
24.000000
31
0.0
0
ARC
8
0
10
19.400000
20
24.000000
30
0.0
40
0.600000
50
360.000000
51
180.000000
0
LINE
8
0
10
18.800000
20
24.000000
30
0.0
11
18.800000
21
23.600000
31
0.0
0
ARC
8
0
10
18.300000
20
23.600000
30
0.0
40
0.500000
50
270.000000
51
360.000000
0
LINE
8
0
10
18.300000
20
23.100000
30
0.0
11
16.800000
21
23.100000
31
0.0
0
ARC
8
0
10
16.800000
20
23.600000
30
0.0
40
0.500000
50
180.000000
51
270.000000
0
LINE
8
0
10
16.300000
20
23.600000
30
0.0
11
16.300000
21
36.400000
31
0.0
0
ARC
8
0
10
16.800000
20
36.400000
30
0.0
40
0.500000
50
90.000000
51
180.000000
0
LINE
8
0
10
16.800000
20
36.900000
30
0.0
11
18.300000
21
36.900000
31
0.0
0
ARC
8
0
10
18.300000
20
36.400000
30
0.0
40
0.500000
50
360.000000
51
90.000000
0
LINE
8
0
10
18.800000
20
36.400000
30
0.0
11
18.800000
21
36.000000
31
0.0
0
ATTDEF
8
0
10
9.900000
20
108.500000
30
0.0
40
3.5
1

3

2
HW_START
70
0
0
ATTDEF
8
0
10
20.000000
20
108.500000
30
0.0
40
3.5
1

3

2
HW_END
70
0
0
LINE
8
0
10
17.800000
20
23.600000
30
0.0
11
16.800000
21
23.600000
31
0.0
0
ARC
8
0
10
16.800000
20
24.100000
30
0.0
40
0.500000
50
180.000000
51
270.000000
0
LINE
8
0
10
16.300000
20
24.100000
30
0.0
11
16.300000
21
35.900000
31
0.0
0
ARC
8
0
10
16.800000
20
35.900000
30
0.0
40
0.500000
50
90.000000
51
180.000000
0
LINE
8
0
10
16.800000
20
36.400000
30
0.0
11
17.800000
21
36.400000
31
0.0
0
ARC
8
0
10
17.800000
20
35.900000
30
0.0
40
0.500000
50
360.000000
51
90.000000
0
LINE
8
0
10
18.300000
20
35.900000
30
0.0
11
18.300000
21
35.650000
31
0.0
0
ARC
8
0
10
18.800000
20
35.650000
30
0.0
40
0.500000
50
180.000000
51
270.000000
0
LINE
8
0
10
18.800000
20
35.150000
30
0.0
11
21.750000
21
35.150000
31
0.0
0
LINE
8
0
10
21.750000
20
35.150000
30
0.0
11
21.750000
21
34.100000
31
0.0
0
ARC
8
0
10
23.750000
20
34.100000
30
0.0
40
2.000000
50
180.000000
51
270.000000
0
LINE
8
0
10
23.750000
20
32.100000
30
0.0
11
28.150000
21
32.100000
31
0.0
0
ARC
8
0
10
28.150000
20
30.000000
30
0.0
40
2.100000
50
270.000000
51
90.000000
0
LINE
8
0
10
28.150000
20
27.900000
30
0.0
11
23.750000
21
27.900000
31
0.0
0
ARC
8
0
10
23.750000
20
25.900000
30
0.0
40
2.000000
50
90.000000
51
180.000000
0
LINE
8
0
10
21.750000
20
25.900000
30
0.0
11
21.750000
21
24.850000
31
0.0
0
LINE
8
0
10
21.750000
20
24.850000
30
0.0
11
18.800000
21
24.850000
31
0.0
0
ARC
8
0
10
18.800000
20
24.350000
30
0.0
40
0.500000
50
90.000000
51
180.000000
0
LINE
8
0
10
18.300000
20
24.350000
30
0.0
11
18.300000
21
24.100000
31
0.0
0
ARC
8
0
10
17.800000
20
24.100000
30
0.0
40
0.500000
50
270.000000
51
360.000000
0
LINE
8
0
10
17.800000
20
73.600000
30
0.0
11
16.800000
21
73.600000
31
0.0
0
ARC
8
0
10
16.800000
20
74.100000
30
0.0
40
0.500000
50
180.000000
51
270.000000
0
LINE
8
0
10
16.300000
20
74.100000
30
0.0
11
16.300000
21
85.900000
31
0.0
0
ARC
8
0
10
16.800000
20
85.900000
30
0.0
40
0.500000
50
90.000000
51
180.000000
0
LINE
8
0
10
16.800000
20
86.400000
30
0.0
11
17.800000
21
86.400000
31
0.0
0
ARC
8
0
10
17.800000
20
85.900000
30
0.0
40
0.500000
50
360.000000
51
90.000000
0
LINE
8
0
10
18.300000
20
85.900000
30
0.0
11
18.300000
21
85.650000
31
0.0
0
ARC
8
0
10
18.800000
20
85.650000
30
0.0
40
0.500000
50
180.000000
51
270.000000
0
LINE
8
0
10
18.800000
20
85.150000
30
0.0
11
21.750000
21
85.150000
31
0.0
0
LINE
8
0
10
21.750000
20
85.150000
30
0.0
11
21.750000
21
84.100000
31
0.0
0
ARC
8
0
10
23.750000
20
84.100000
30
0.0
40
2.000000
50
180.000000
51
270.000000
0
LINE
8
0
10
23.750000
20
82.100000
30
0.0
11
28.150000
21
82.100000
31
0.0
0
ARC
8
0
10
28.150000
20
80.000000
30
0.0
40
2.100000
50
270.000000
51
90.000000
0
LINE
8
0
10
28.150000
20
77.900000
30
0.0
11
23.750000
21
77.900000
31
0.0
0
ARC
8
0
10
23.750000
20
75.900000
30
0.0
40
2.000000
50
90.000000
51
180.000000
0
LINE
8
0
10
21.750000
20
75.900000
30
0.0
11
21.750000
21
74.850000
31
0.0
0
LINE
8
0
10
21.750000
20
74.850000
30
0.0
11
18.800000
21
74.850000
31
0.0
0
ARC
8
0
10
18.800000
20
74.350000
30
0.0
40
0.500000
50
90.000000
51
180.000000
0
LINE
8
0
10
18.300000
20
74.350000
30
0.0
11
18.300000
21
74.100000
31
0.0
0
ARC
8
0
10
17.800000
20
74.100000
30
0.0
40
0.500000
50
270.000000
51
360.000000
0
ATTDEF
8
0
10
16.300000
20
23.600000
30
0.0
40
3.5
1

3

2
HW_START
70
0
0
ATTDEF
8
0
10
30.250000
20
86.400000
30
0.0
40
3.5
1

3

2
HW_END
70
0
0
ATTDEF
8
0
10
0.000000
20
0.000000
30
0.0
40
3.5
1

3

2
DENS:0.000000
70
0
0
ATTDEF
8
0
10
0.000000
20
0.000000
30
0.0
40
3.5
1

3

2
GLASS_MIN:0.000000
70
0
0
ATTDEF
8
0
10
0.000000
20
0.000000
30
0.0
40
3.5
1

3

2
GLASS_MAX:0.000000
70
0
0
ATTDEF
8
0
10
0.000000
20
0.000000
30
0.0
40
3.5
1

3

2
DESC:5373 - 5375 - 5376 - B58 - B58
70
0
0
ATTDEF
8
0
10
0.000000
20
0.000000
30
0.0
40
3.5
1

3

2
BL01:6500.000000,,1
70
0
0
ENDSEC
0
EOF
