0
SECTION
2
ENTITIES
0
LINE
8
0
10
6.100000
20
26.700000
30
0.0
11
8.500000
21
26.700000
31
0.0
0
LINE
8
0
10
8.500000
20
26.700000
30
0.0
11
8.500000
21
28.500000
31
0.0
0
LINE
8
0
10
8.500000
20
28.500000
30
0.0
11
9.000000
21
28.500000
31
0.0
0
LINE
8
0
10
9.000000
20
28.500000
30
0.0
11
10.000000
21
26.767949
31
0.0
0
LINE
8
0
10
10.000000
20
26.767949
30
0.0
11
10.000000
21
25.500000
31
0.0
0
ARC
8
0
10
10.500000
20
25.500000
30
0.0
40
0.500000
50
180.000000
51
270.000000
0
LINE
8
0
10
10.500000
20
25.000000
30
0.0
11
11.500000
21
25.000000
31
0.0
0
ARC
8
0
10
11.500000
20
25.500000
30
0.0
40
0.500000
50
270.000000
51
0.000000
0
LINE
8
0
10
12.000000
20
25.500000
30
0.0
11
12.000000
21
28.500000
31
0.0
0
LINE
8
0
10
12.000000
20
28.500000
30
0.0
11
14.000000
21
28.500000
31
0.0
0
LINE
8
0
10
14.000000
20
28.500000
30
0.0
11
14.000000
21
0.000000
31
0.0
0
LINE
8
0
10
14.000000
20
0.000000
30
0.0
11
12.000000
21
0.000000
31
0.0
0
LINE
8
0
10
12.000000
20
0.000000
30
0.0
11
12.000000
21
23.500000
31
0.0
0
LINE
8
0
10
12.000000
20
23.500000
30
0.0
11
8.500000
21
23.500000
31
0.0
0
LINE
8
0
10
8.500000
20
23.500000
30
0.0
11
8.500000
21
25.200000
31
0.0
0
LINE
8
0
10
8.500000
20
25.200000
30
0.0
11
6.100000
21
25.200000
31
0.0
0
LINE
8
0
10
6.100000
20
25.200000
30
0.0
11
5.800000
21
24.900000
31
0.0
0
LINE
8
0
10
5.800000
20
24.900000
30
0.0
11
5.500000
21
25.200000
31
0.0
0
LINE
8
0
10
5.500000
20
25.200000
30
0.0
11
4.500000
21
25.200000
31
0.0
0
LINE
8
0
10
4.500000
20
25.200000
30
0.0
11
4.200000
21
24.900000
31
0.0
0
LINE
8
0
10
4.200000
20
24.900000
30
0.0
11
3.900000
21
25.200000
31
0.0
0
LINE
8
0
10
3.900000
20
25.200000
30
0.0
11
0.000000
21
25.200000
31
0.0
0
LINE
8
0
10
0.000000
20
25.200000
30
0.0
11
0.000000
21
28.500000
31
0.0
0
LINE
8
0
10
0.000000
20
28.500000
30
0.0
11
0.500000
21
28.500000
31
0.0
0
LINE
8
0
10
0.500000
20
28.500000
30
0.0
11
1.500000
21
26.700000
31
0.0
0
LINE
8
0
10
1.500000
20
26.700000
30
0.0
11
3.900000
21
26.700000
31
0.0
0
LINE
8
0
10
3.900000
20
26.700000
30
0.0
11
4.200000
21
27.000000
31
0.0
0
LINE
8
0
10
4.200000
20
27.000000
30
0.0
11
4.500000
21
26.700000
31
0.0
0
LINE
8
0
10
4.500000
20
26.700000
30
0.0
11
5.500000
21
26.700000
31
0.0
0
LINE
8
0
10
5.500000
20
26.700000
30
0.0
11
5.800000
21
27.000000
31
0.0
0
LINE
8
0
10
5.800000
20
27.000000
30
0.0
11
6.100000
21
26.700000
31
0.0
0
ATTDEF
8
0
10
12.000000
20
28.500000
30
0.0
40
3.5
1

3

2
VC_START
70
0
0
ATTDEF
8
0
10
12.000000
20
0.000000
30
0.0
40
3.5
1

3

2
VC_END
70
0
0
ATTDEF
8
0
10
0.000000
20
0.000000
30
0.0
40
3.5
1

3

2
REAR_VIEW
70
0
0
ATTDEF
8
0
10
0.000000
20
0.000000
30
0.0
40
3.5
1

3

2
OPTI:1500.000000,1,0,3000.000000,6900.000000,500.000000,0,0.000000,0
70
0
0
ATTDEF
8
0
10
0.000000
20
0.000000
30
0.0
40
3.5
1

3

2
GLASS_MIN:0.000000
70
0
0
ATTDEF
8
0
10
0.000000
20
0.000000
30
0.0
40
3.5
1

3

2
GLASS_MAX:0.000000
70
0
0
ATTDEF
8
0
10
0.000000
20
0.000000
30
0.0
40
3.5
1

3

2
JX:0.000000
70
0
0
ATTDEF
8
0
10
0.000000
20
0.000000
30
0.0
40
3.5
1

3

2
WX:0.000000
70
0
0
ATTDEF
8
0
10
0.000000
20
0.000000
30
0.0
40
3.5
1

3

2
JY:0.000000
70
0
0
ATTDEF
8
0
10
0.000000
20
0.000000
30
0.0
40
3.5
1

3

2
WY:0.000000
70
0
0
ATTDEF
8
0
10
0.000000
20
0.000000
30
0.0
40
3.5
1

3

2
FP_LCS_ORIG
70
0
0
ATTDEF
8
0
10
10.000000
20
0.000000
30
0.0
40
3.5
1

3

2
FP_LCS_HOT
70
0
0
ATTDEF
8
0
10
0.000000
20
10.000000
30
0.0
40
3.5
1

3

2
FP_LCS_INTERN
70
0
0
ATTDEF
8
0
10
0.000000
20
0.000000
30
0.0
40
3.5
1

3

2
BL01:6200.000,,1
70
0
0
ATTDEF
8
0
10
0.000000
20
0.000000
30
0.0
40
3.5
1

3

2
DESC:Tapa premarco para marco de 75 mm (m-0872)
70
0
0
ATTDEF
8
0
10
0.000000
20
0.000000
30
0.0
40
3.5
1

3

2
DENS:0.224
70
0
0
ATTDEF
8
0
10
0.000000
20
0.000000
30
0.0
40
3.5
1

3

2
TDEV:0
70
0
0
ATTDEF
8
0
10
0.000000
20
0.000000
30
0.0
40
3.5
1

3

2
TDEV2:0
70
0
0
ATTDEF
8
0
10
0.000000
20
0.000000
30
0.0
40
3.5
1

3

2
TDEV3:0
70
0
0
ATTDEF
8
0
10
0.000000
20
0.000000
30
0.0
40
3.5
1

3

2
TDEV4:0
70
0
0
ATTDEF
8
0
10
0.000000
20
0.000000
30
0.0
40
3.5
1

3

2
TDEV5:0
70
0
0
ATTDEF
8
0
10
0.000000
20
0.000000
30
0.0
40
3.5
1

3

2
PANE_WIDTH:0
70
0
0
ATTDEF
8
0
10
0.000000
20
0.000000
30
0.0
40
3.5
1

3

2
MIN_VETRO:0
70
0
0
ATTDEF
8
0
10
0.000000
20
0.000000
30
0.0
40
3.5
1

3

2
MAX_VETRO:0
70
0
0
ATTDEF
8
0
10
0.000000
20
0.000000
30
0.0
40
3.5
1

3

2
JX:0
70
0
0
ATTDEF
8
0
10
0.000000
20
0.000000
30
0.0
40
3.5
1

3

2
WX:0
70
0
0
ATTDEF
8
0
10
0.000000
20
0.000000
30
0.0
40
3.5
1

3

2
JY:0
70
0
0
ATTDEF
8
0
10
0.000000
20
0.000000
30
0.0
40
3.5
1

3

2
WY:0
70
0
0
ENDSEC
0
EOF
