0
SECTION
2
ENTITIES
0
LINE
8
0
10
47.614214
20
22.300000
30
0.0
11
72.800000
21
22.300000
31
0.0
0
ARC
8
0
10
72.800000
20
21.300000
30
0.0
40
1.000000
50
0.000000
51
90.000000
0
LINE
8
0
10
73.800000
20
21.300000
30
0.0
11
73.800000
21
20.000000
31
0.0
0
ARC
8
0
10
72.800000
20
20.000000
30
0.0
40
1.000000
50
270.000000
51
0.000000
0
LINE
8
0
10
72.800000
20
19.000000
30
0.0
11
71.300000
21
19.000000
31
0.0
0
ARC
8
0
10
71.300000
20
18.500000
30
0.0
40
0.500000
50
90.000000
51
180.000000
0
LINE
8
0
10
70.800000
20
18.500000
30
0.0
11
70.800000
21
18.300000
31
0.0
0
ARC
8
0
10
71.300000
20
18.300000
30
0.0
40
0.500000
50
180.000000
51
270.000000
0
LINE
8
0
10
71.300000
20
17.800000
30
0.0
11
72.800000
21
17.800000
31
0.0
0
ARC
8
0
10
72.800000
20
16.800000
30
0.0
40
1.000000
50
0.000000
51
90.000000
0
LINE
8
0
10
73.800000
20
16.800000
30
0.0
11
73.800000
21
12.000000
31
0.0
0
ARC
8
0
10
73.300000
20
12.000000
30
0.0
40
0.500000
50
270.000000
51
0.000000
0
ARC
8
0
10
73.300000
20
11.000000
30
0.0
40
0.500000
50
90.000000
51
180.000000
0
ARC
8
0
10
73.300000
20
11.000000
30
0.0
40
0.500000
50
180.000000
51
270.000000
0
ARC
8
0
10
73.300000
20
10.000000
30
0.0
40
0.500000
50
0.000000
51
90.000000
0
LINE
8
0
10
73.800000
20
10.000000
30
0.0
11
73.800000
21
5.500000
31
0.0
0
ARC
8
0
10
72.800000
20
5.500000
30
0.0
40
1.000000
50
270.000000
51
0.000000
0
LINE
8
0
10
72.800000
20
4.500000
30
0.0
11
66.000000
21
4.500000
31
0.0
0
ARC
8
0
10
66.000000
20
3.500000
30
0.0
40
1.000000
50
90.000000
51
180.000000
0
LINE
8
0
10
65.000000
20
3.500000
30
0.0
11
65.000000
21
2.200000
31
0.0
0
ARC
8
0
10
65.500000
20
2.200000
30
0.0
40
0.500000
50
180.000000
51
270.000000
0
ARC
8
0
10
65.500000
20
2.200000
30
0.0
40
0.500000
50
270.000000
51
0.000000
0
LINE
8
0
10
66.000000
20
2.200000
30
0.0
11
66.000000
21
3.000000
31
0.0
0
ARC
8
0
10
66.500000
20
3.000000
30
0.0
40
0.500000
50
90.000000
51
180.000000
0
LINE
8
0
10
66.500000
20
3.500000
30
0.0
11
72.800000
21
3.500000
31
0.0
0
ARC
8
0
10
72.800000
20
2.500000
30
0.0
40
1.000000
50
0.000000
51
90.000000
0
LINE
8
0
10
73.800000
20
2.500000
30
0.0
11
73.800000
21
0.500000
31
0.0
0
ARC
8
0
10
74.300000
20
0.500000
30
0.0
40
0.500000
50
180.000000
51
270.000000
0
LINE
8
0
10
74.300000
20
0.000000
30
0.0
11
74.500000
21
0.000000
31
0.0
0
ARC
8
0
10
74.500000
20
0.500000
30
0.0
40
0.500000
50
270.000000
51
0.000000
0
LINE
8
0
10
75.000000
20
0.500000
30
0.0
11
75.000000
21
28.000000
31
0.0
0
ARC
8
0
10
74.500000
20
28.000000
30
0.0
40
0.500000
50
0.000000
51
90.000000
0
LINE
8
0
10
74.500000
20
28.500000
30
0.0
11
72.600000
21
28.500000
31
0.0
0
LINE
8
0
10
72.600000
20
28.500000
30
0.0
11
71.600000
21
27.500000
31
0.0
0
LINE
8
0
10
71.600000
20
27.500000
30
0.0
11
71.600000
21
27.000000
31
0.0
0
ARC
8
0
10
72.100000
20
27.000000
30
0.0
40
0.500000
50
180.000000
51
270.000000
0
LINE
8
0
10
72.100000
20
26.500000
30
0.0
11
73.300000
21
26.500000
31
0.0
0
ARC
8
0
10
73.300000
20
26.000000
30
0.0
40
0.500000
50
0.000000
51
90.000000
0
LINE
8
0
10
73.800000
20
26.000000
30
0.0
11
73.800000
21
24.000000
31
0.0
0
ARC
8
0
10
73.300000
20
24.000000
30
0.0
40
0.500000
50
270.000000
51
0.000000
0
LINE
8
0
10
73.300000
20
23.500000
30
0.0
11
55.900000
21
23.500000
31
0.0
0
ARC
8
0
10
55.900000
20
24.000000
30
0.0
40
0.500000
50
180.000000
51
270.000000
0
LINE
8
0
10
55.400000
20
24.000000
30
0.0
11
55.400000
21
26.000000
31
0.0
0
ARC
8
0
10
55.900000
20
26.000000
30
0.0
40
0.500000
50
90.000000
51
180.000000
0
LINE
8
0
10
55.900000
20
26.500000
30
0.0
11
57.100000
21
26.500000
31
0.0
0
ARC
8
0
10
57.100000
20
27.000000
30
0.0
40
0.500000
50
270.000000
51
0.000000
0
LINE
8
0
10
57.600000
20
27.000000
30
0.0
11
57.600000
21
27.500000
31
0.0
0
LINE
8
0
10
57.600000
20
27.500000
30
0.0
11
56.600000
21
28.500000
31
0.0
0
LINE
8
0
10
56.600000
20
28.500000
30
0.0
11
54.700000
21
28.500000
31
0.0
0
ARC
8
0
10
54.700000
20
28.000000
30
0.0
40
0.500000
50
90.000000
51
180.000000
0
LINE
8
0
10
54.200000
20
28.000000
30
0.0
11
54.200000
21
24.500000
31
0.0
0
ARC
8
0
10
53.200000
20
24.500000
30
0.0
40
1.000000
50
270.000000
51
0.000000
0
LINE
8
0
10
53.200000
20
23.500000
30
0.0
11
39.200000
21
23.500000
31
0.0
0
ARC
8
0
10
47.700000
20
20.300000
30
0.0
40
0.500000
50
180.000000
51
0.000000
0
ARC
8
0
10
46.200000
20
20.300000
30
0.0
40
2.000000
50
0.000000
51
51.057559
0
ARC
8
0
10
46.200000
20
20.300000
30
0.0
40
1.000000
50
0.000000
51
180.000000
0
ARC
8
0
10
47.614214
20
22.050000
30
0.0
40
0.250000
50
90.000000
51
231.057559
0
ARC
8
0
10
44.700000
20
20.300000
30
0.0
40
0.500000
50
180.000000
51
0.000000
0
ARC
8
0
10
46.200000
20
20.300000
30
0.0
40
2.000000
50
128.942441
51
180.000000
0
ARC
8
0
10
44.785786
20
22.050000
30
0.0
40
0.250000
50
308.942441
51
90.000000
0
LINE
8
0
10
39.200000
20
22.300000
30
0.0
11
44.785786
21
22.300000
31
0.0
0
ARC
8
0
10
39.200000
20
21.300000
30
0.0
40
1.000000
50
90.000000
51
180.000000
0
LINE
8
0
10
38.200000
20
18.800000
30
0.0
11
38.200000
21
21.300000
31
0.0
0
ARC
8
0
10
37.200000
20
18.800000
30
0.0
40
1.000000
50
270.000000
51
0.000000
0
LINE
8
0
10
2.200000
20
17.800000
30
0.0
11
37.200000
21
17.800000
31
0.0
0
ARC
8
0
10
2.200000
20
16.800000
30
0.0
40
1.000000
50
90.000000
51
180.000000
0
LINE
8
0
10
1.200000
20
12.000000
30
0.0
11
1.200000
21
16.800000
31
0.0
0
ARC
8
0
10
1.700000
20
12.000000
30
0.0
40
0.500000
50
180.000000
51
270.000000
0
LINE
8
0
10
0.000000
20
18.000000
30
0.0
11
0.000000
21
0.500000
31
0.0
0
ARC
8
0
10
1.000000
20
18.000000
30
0.0
40
1.000000
50
90.000000
51
180.000000
0
LINE
8
0
10
36.500000
20
19.000000
30
0.0
11
1.000000
21
19.000000
31
0.0
0
ARC
8
0
10
36.500000
20
19.500000
30
0.0
40
0.500000
50
270.000000
51
0.000000
0
LINE
8
0
10
37.000000
20
45.000000
30
0.0
11
37.000000
21
19.500000
31
0.0
0
ARC
8
0
10
37.500000
20
45.000000
30
0.0
40
0.500000
50
90.000000
51
180.000000
0
LINE
8
0
10
41.500000
20
45.500000
30
0.0
11
37.500000
21
45.500000
31
0.0
0
ARC
8
0
10
41.500000
20
45.000000
30
0.0
40
0.500000
50
0.000000
51
90.000000
0
LINE
8
0
10
42.000000
20
43.762436
30
0.0
11
42.000000
21
45.000000
31
0.0
0
LINE
8
0
10
41.733013
20
43.300000
30
0.0
11
42.000000
21
43.762436
31
0.0
0
ARC
8
0
10
41.300000
20
43.550000
30
0.0
40
0.500000
50
180.000000
51
330.000000
0
LINE
8
0
10
40.800000
20
43.800000
30
0.0
11
40.800000
21
43.550000
31
0.0
0
ARC
8
0
10
40.300000
20
43.800000
30
0.0
40
0.500000
50
0.000000
51
90.000000
0
LINE
8
0
10
38.700000
20
44.300000
30
0.0
11
40.300000
21
44.300000
31
0.0
0
ARC
8
0
10
38.700000
20
43.800000
30
0.0
40
0.500000
50
90.000000
51
180.000000
0
LINE
8
0
10
38.200000
20
38.300000
30
0.0
11
38.200000
21
43.800000
31
0.0
0
ARC
8
0
10
38.700000
20
38.300000
30
0.0
40
0.500000
50
180.000000
51
270.000000
0
LINE
8
0
10
40.300000
20
37.800000
30
0.0
11
38.700000
21
37.800000
31
0.0
0
ARC
8
0
10
40.300000
20
38.300000
30
0.0
40
0.500000
50
270.000000
51
0.000000
0
LINE
8
0
10
40.800000
20
38.550000
30
0.0
11
40.800000
21
38.300000
31
0.0
0
ARC
8
0
10
41.300000
20
38.550000
30
0.0
40
0.500000
50
30.000000
51
180.000000
0
LINE
8
0
10
42.000000
20
38.337564
30
0.0
11
41.733013
21
38.800000
31
0.0
0
LINE
8
0
10
42.000000
20
37.100000
30
0.0
11
42.000000
21
38.337564
31
0.0
0
ARC
8
0
10
41.500000
20
37.100000
30
0.0
40
0.500000
50
270.000000
51
0.000000
0
LINE
8
0
10
39.200000
20
36.600000
30
0.0
11
41.500000
21
36.600000
31
0.0
0
ARC
8
0
10
39.200000
20
24.500000
30
0.0
40
1.000000
50
180.000000
51
270.000000
0
ARC
8
0
10
39.200000
20
35.600000
30
0.0
40
1.000000
50
90.000000
51
180.000000
0
LINE
8
0
10
38.200000
20
24.500000
30
0.0
11
38.200000
21
35.600000
31
0.0
0
ARC
8
0
10
1.700000
20
11.000000
30
0.0
40
0.500000
50
0.000000
51
90.000000
0
ARC
8
0
10
1.700000
20
11.000000
30
0.0
40
0.500000
50
270.000000
51
0.000000
0
ARC
8
0
10
1.700000
20
10.000000
30
0.0
40
0.500000
50
90.000000
51
180.000000
0
LINE
8
0
10
1.200000
20
5.500000
30
0.0
11
1.200000
21
10.000000
31
0.0
0
ARC
8
0
10
2.200000
20
5.500000
30
0.0
40
1.000000
50
180.000000
51
270.000000
0
LINE
8
0
10
9.000000
20
4.500000
30
0.0
11
2.200000
21
4.500000
31
0.0
0
ARC
8
0
10
9.000000
20
3.500000
30
0.0
40
1.000000
50
0.000000
51
90.000000
0
LINE
8
0
10
10.000000
20
2.200000
30
0.0
11
10.000000
21
3.500000
31
0.0
0
ARC
8
0
10
9.500000
20
2.200000
30
0.0
40
0.500000
50
270.000000
51
0.000000
0
ARC
8
0
10
9.500000
20
2.200000
30
0.0
40
0.500000
50
180.000000
51
270.000000
0
LINE
8
0
10
9.000000
20
3.000000
30
0.0
11
9.000000
21
2.200000
31
0.0
0
ARC
8
0
10
8.500000
20
3.000000
30
0.0
40
0.500000
50
0.000000
51
90.000000
0
LINE
8
0
10
2.200000
20
3.500000
30
0.0
11
8.500000
21
3.500000
31
0.0
0
ARC
8
0
10
2.200000
20
2.500000
30
0.0
40
1.000000
50
90.000000
51
180.000000
0
LINE
8
0
10
1.200000
20
0.500000
30
0.0
11
1.200000
21
2.500000
31
0.0
0
ARC
8
0
10
0.700000
20
0.500000
30
0.0
40
0.500000
50
270.000000
51
0.000000
0
LINE
8
0
10
0.500000
20
0.000000
30
0.0
11
0.700000
21
0.000000
31
0.0
0
ARC
8
0
10
0.500000
20
0.500000
30
0.0
40
0.500000
50
180.000000
51
270.000000
0
ATTDEF
8
0
10
55.650000
20
28.500000
30
0.0
40
3.5
1

3

2
VC_START
70
0
0
ATTDEF
8
0
10
74.400000
20
0.000000
30
0.0
40
3.5
1

3

2
VC_END
70
0
0
ATTDEF
8
0
10
0.000000
20
0.000000
30
0.0
40
3.5
1

3

2
REAR_VIEW
70
0
0
ATTDEF
8
0
10
0.000000
20
0.000000
30
0.0
40
3.5
1

3

2
OPTI:1500.000000,1,0,3000.000000,6900.000000,500.000000,0,0.000000,0
70
0
0
ATTDEF
8
0
10
0.000000
20
0.000000
30
0.0
40
3.5
1

3

2
GLASS_MIN:0.000000
70
0
0
ATTDEF
8
0
10
0.000000
20
0.000000
30
0.0
40
3.5
1

3

2
GLASS_MAX:0.000000
70
0
0
ATTDEF
8
0
10
0.000000
20
0.000000
30
0.0
40
3.5
1

3

2
JX:0.000000
70
0
0
ATTDEF
8
0
10
0.000000
20
0.000000
30
0.0
40
3.5
1

3

2
WX:0.000000
70
0
0
ATTDEF
8
0
10
0.000000
20
0.000000
30
0.0
40
3.5
1

3

2
JY:0.000000
70
0
0
ATTDEF
8
0
10
0.000000
20
0.000000
30
0.0
40
3.5
1

3

2
WY:0.000000
70
0
0
ATTDEF
8
0
10
0.000000
20
0.000000
30
0.0
40
3.5
1

3

2
FP_LCS_ORIG
70
0
0
ATTDEF
8
0
10
10.000000
20
0.000000
30
0.0
40
3.5
1

3

2
FP_LCS_HOT
70
0
0
ATTDEF
8
0
10
0.000000
20
10.000000
30
0.0
40
3.5
1

3

2
FP_LCS_INTERN
70
0
0
ATTDEF
8
0
10
0.000000
20
0.000000
30
0.0
40
3.5
1

3

2
BL01:6200.000,,1
70
0
0
ATTDEF
8
0
10
0.000000
20
0.000000
30
0.0
40
3.5
1

3

2
DESC:Marco 75 mm PF-vent. abrir-puerta reb-banderola-ventiluz
70
0
0
ATTDEF
8
0
10
0.000000
20
0.000000
30
0.0
40
3.5
1

3

2
DENS:0.635
70
0
0
ATTDEF
8
0
10
0.000000
20
0.000000
30
0.0
40
3.5
1

3

2
TDEV:0
70
0
0
ATTDEF
8
0
10
0.000000
20
0.000000
30
0.0
40
3.5
1

3

2
TDEV2:0
70
0
0
ATTDEF
8
0
10
0.000000
20
0.000000
30
0.0
40
3.5
1

3

2
TDEV3:0
70
0
0
ATTDEF
8
0
10
0.000000
20
0.000000
30
0.0
40
3.5
1

3

2
TDEV4:0
70
0
0
ATTDEF
8
0
10
0.000000
20
0.000000
30
0.0
40
3.5
1

3

2
TDEV5:0
70
0
0
ATTDEF
8
0
10
0.000000
20
0.000000
30
0.0
40
3.5
1

3

2
PANE_WIDTH:0
70
0
0
ATTDEF
8
0
10
0.000000
20
0.000000
30
0.0
40
3.5
1

3

2
MIN_VETRO:0
70
0
0
ATTDEF
8
0
10
0.000000
20
0.000000
30
0.0
40
3.5
1

3

2
MAX_VETRO:0
70
0
0
ATTDEF
8
0
10
0.000000
20
0.000000
30
0.0
40
3.5
1

3

2
JX:0
70
0
0
ATTDEF
8
0
10
0.000000
20
0.000000
30
0.0
40
3.5
1

3

2
WX:0
70
0
0
ATTDEF
8
0
10
0.000000
20
0.000000
30
0.0
40
3.5
1

3

2
JY:0
70
0
0
ATTDEF
8
0
10
0.000000
20
0.000000
30
0.0
40
3.5
1

3

2
WY:0
70
0
0
ENDSEC
0
EOF
