0
SECTION
2
ENTITIES
0
LINE
8
0
10
0.500000
20
19.000000
30
0.0
11
35.700000
21
19.000000
31
0.0
0
ARC
8
0
10
0.500000
20
18.500000
30
0.0
40
0.500000
50
90.000000
51
180.000000
0
LINE
8
0
10
0.000000
20
0.500000
30
0.0
11
0.000000
21
18.500000
31
0.0
0
ARC
8
0
10
0.500000
20
0.500000
30
0.0
40
0.500000
50
180.000000
51
270.000000
0
LINE
8
0
10
0.700000
20
0.000000
30
0.0
11
0.500000
21
0.000000
31
0.0
0
ARC
8
0
10
0.700000
20
0.500000
30
0.0
40
0.500000
50
270.000000
51
0.000000
0
LINE
8
0
10
1.200000
20
2.300000
30
0.0
11
1.200000
21
0.500000
31
0.0
0
ARC
8
0
10
2.200000
20
2.300000
30
0.0
40
1.000000
50
90.000000
51
180.000000
0
LINE
8
0
10
8.500000
20
3.300000
30
0.0
11
2.200000
21
3.300000
31
0.0
0
ARC
8
0
10
8.500000
20
2.800000
30
0.0
40
0.500000
50
0.000000
51
90.000000
0
LINE
8
0
10
9.000000
20
2.200000
30
0.0
11
9.000000
21
2.800000
31
0.0
0
ARC
8
0
10
9.500000
20
2.200000
30
0.0
40
0.500000
50
180.000000
51
270.000000
0
ARC
8
0
10
9.500000
20
2.200000
30
0.0
40
0.500000
50
270.000000
51
0.000000
0
LINE
8
0
10
10.000000
20
3.500000
30
0.0
11
10.000000
21
2.200000
31
0.0
0
ARC
8
0
10
9.000000
20
3.500000
30
0.0
40
1.000000
50
0.000000
51
90.000000
0
LINE
8
0
10
2.200000
20
4.500000
30
0.0
11
9.000000
21
4.500000
31
0.0
0
ARC
8
0
10
2.200000
20
5.500000
30
0.0
40
1.000000
50
180.000000
51
270.000000
0
LINE
8
0
10
1.200000
20
10.000000
30
0.0
11
1.200000
21
5.500000
31
0.0
0
ARC
8
0
10
1.700000
20
10.000000
30
0.0
40
0.500000
50
90.000000
51
180.000000
0
ARC
8
0
10
1.700000
20
11.000000
30
0.0
40
0.500000
50
270.000000
51
0.000000
0
ARC
8
0
10
1.700000
20
11.000000
30
0.0
40
0.500000
50
0.000000
51
90.000000
0
ARC
8
0
10
1.700000
20
12.000000
30
0.0
40
0.500000
50
180.000000
51
270.000000
0
LINE
8
0
10
1.200000
20
16.800000
30
0.0
11
1.200000
21
12.000000
31
0.0
0
ARC
8
0
10
2.200000
20
16.800000
30
0.0
40
1.000000
50
90.000000
51
180.000000
0
LINE
8
0
10
36.400000
20
17.800000
30
0.0
11
2.200000
21
17.800000
31
0.0
0
LINE
8
0
10
36.700000
20
29.000000
30
0.0
11
72.800000
21
29.000000
31
0.0
0
ARC
8
0
10
72.800000
20
30.000000
30
0.0
40
1.000000
50
270.000000
51
0.000000
0
LINE
8
0
10
73.800000
20
30.000000
30
0.0
11
73.800000
21
41.100000
31
0.0
0
ARC
8
0
10
72.800000
20
41.100000
30
0.0
40
1.000000
50
0.000000
51
90.000000
0
LINE
8
0
10
72.800000
20
42.100000
30
0.0
11
70.500000
21
42.100000
31
0.0
0
ARC
8
0
10
70.500000
20
42.600000
30
0.0
40
0.500000
50
180.000000
51
270.000000
0
LINE
8
0
10
70.000000
20
42.600000
30
0.0
11
70.000000
21
43.837564
31
0.0
0
LINE
8
0
10
70.000000
20
43.837564
30
0.0
11
70.411325
21
44.550000
31
0.0
0
LINE
8
0
10
70.411325
20
44.550000
30
0.0
11
70.700000
21
44.550000
31
0.0
0
ARC
8
0
10
70.700000
20
44.050000
30
0.0
40
0.500000
50
0.000000
51
90.000000
0
LINE
8
0
10
71.200000
20
44.050000
30
0.0
11
71.200000
21
43.800000
31
0.0
0
ARC
8
0
10
71.700000
20
43.800000
30
0.0
40
0.500000
50
180.000000
51
270.000000
0
LINE
8
0
10
71.700000
20
43.300000
30
0.0
11
73.300000
21
43.300000
31
0.0
0
ARC
8
0
10
73.300000
20
43.800000
30
0.0
40
0.500000
50
270.000000
51
0.000000
0
LINE
8
0
10
73.800000
20
43.800000
30
0.0
11
73.800000
21
49.300000
31
0.0
0
ARC
8
0
10
73.300000
20
49.300000
30
0.0
40
0.500000
50
0.000000
51
90.000000
0
LINE
8
0
10
73.300000
20
49.800000
30
0.0
11
71.700000
21
49.800000
31
0.0
0
ARC
8
0
10
71.700000
20
49.300000
30
0.0
40
0.500000
50
90.000000
51
180.000000
0
LINE
8
0
10
71.200000
20
49.300000
30
0.0
11
71.200000
21
49.050000
31
0.0
0
ARC
8
0
10
70.700000
20
49.050000
30
0.0
40
0.500000
50
270.000000
51
0.000000
0
LINE
8
0
10
70.700000
20
48.550000
30
0.0
11
70.411325
21
48.550000
31
0.0
0
LINE
8
0
10
70.411325
20
48.550000
30
0.0
11
70.000000
21
49.262436
31
0.0
0
LINE
8
0
10
70.000000
20
49.262436
30
0.0
11
70.000000
21
50.500000
31
0.0
0
ARC
8
0
10
70.500000
20
50.500000
30
0.0
40
0.500000
50
90.000000
51
180.000000
0
LINE
8
0
10
70.500000
20
51.000000
30
0.0
11
74.500000
21
51.000000
31
0.0
0
ARC
8
0
10
74.500000
20
50.500000
30
0.0
40
0.500000
50
0.000000
51
90.000000
0
LINE
8
0
10
75.000000
20
50.500000
30
0.0
11
75.000000
21
0.500000
31
0.0
0
LINE
8
0
10
58.200000
20
27.600000
30
0.0
11
43.200000
21
27.600000
31
0.0
0
ARC
8
0
10
74.500000
20
0.500000
30
0.0
40
0.500000
50
270.000000
51
0.000000
0
LINE
8
0
10
58.200000
20
27.800000
30
0.0
11
58.200000
21
27.600000
31
0.0
0
LINE
8
0
10
74.500000
20
0.000000
30
0.0
11
74.300000
21
0.000000
31
0.0
0
LINE
8
0
10
63.585786
20
27.800000
30
0.0
11
58.200000
21
27.800000
31
0.0
0
ARC
8
0
10
74.300000
20
0.500000
30
0.0
40
0.500000
50
180.000000
51
270.000000
0
ARC
8
0
10
63.585786
20
27.550000
30
0.0
40
0.250000
50
308.942441
51
90.000000
0
LINE
8
0
10
73.800000
20
0.500000
30
0.0
11
73.800000
21
2.300000
31
0.0
0
ARC
8
0
10
65.000000
20
25.800000
30
0.0
40
2.000000
50
128.942441
51
180.000000
0
ARC
8
0
10
72.800000
20
2.300000
30
0.0
40
1.000000
50
0.000000
51
90.000000
0
ARC
8
0
10
63.500000
20
25.800000
30
0.0
40
0.500000
50
180.000000
51
270.000000
0
LINE
8
0
10
72.800000
20
3.300000
30
0.0
11
66.500000
21
3.300000
31
0.0
0
ARC
8
0
10
63.500000
20
25.800000
30
0.0
40
0.500000
50
270.000000
51
0.000000
0
ARC
8
0
10
66.500000
20
2.800000
30
0.0
40
0.500000
50
90.000000
51
180.000000
0
ARC
8
0
10
65.000000
20
25.800000
30
0.0
40
1.000000
50
90.000000
51
180.000000
0
LINE
8
0
10
66.000000
20
2.800000
30
0.0
11
66.000000
21
2.200000
31
0.0
0
ARC
8
0
10
65.000000
20
25.800000
30
0.0
40
1.000000
50
0.000000
51
90.000000
0
ARC
8
0
10
65.500000
20
2.200000
30
0.0
40
0.500000
50
270.000000
51
0.000000
0
ARC
8
0
10
66.500000
20
25.800000
30
0.0
40
0.500000
50
180.000000
51
270.000000
0
ARC
8
0
10
65.500000
20
2.200000
30
0.0
40
0.500000
50
180.000000
51
270.000000
0
ARC
8
0
10
66.500000
20
25.800000
30
0.0
40
0.500000
50
270.000000
51
0.000000
0
LINE
8
0
10
65.000000
20
2.200000
30
0.0
11
65.000000
21
3.500000
31
0.0
0
ARC
8
0
10
65.000000
20
25.800000
30
0.0
40
2.000000
50
0.000000
51
51.057559
0
ARC
8
0
10
66.000000
20
3.500000
30
0.0
40
1.000000
50
90.000000
51
180.000000
0
ARC
8
0
10
66.414214
20
27.550000
30
0.0
40
0.250000
50
90.000000
51
231.057559
0
LINE
8
0
10
66.000000
20
4.500000
30
0.0
11
72.800000
21
4.500000
31
0.0
0
LINE
8
0
10
72.800000
20
27.800000
30
0.0
11
66.414214
21
27.800000
31
0.0
0
ARC
8
0
10
72.800000
20
5.500000
30
0.0
40
1.000000
50
270.000000
51
0.000000
0
ARC
8
0
10
72.800000
20
26.800000
30
0.0
40
1.000000
50
0.000000
51
90.000000
0
LINE
8
0
10
73.800000
20
5.500000
30
0.0
11
73.800000
21
10.000000
31
0.0
0
LINE
8
0
10
73.800000
20
20.000000
30
0.0
11
73.800000
21
26.800000
31
0.0
0
ARC
8
0
10
73.300000
20
10.000000
30
0.0
40
0.500000
50
0.000000
51
90.000000
0
ARC
8
0
10
72.800000
20
20.000000
30
0.0
40
1.000000
50
270.000000
51
0.000000
0
ARC
8
0
10
73.300000
20
11.000000
30
0.0
40
0.500000
50
180.000000
51
270.000000
0
LINE
8
0
10
70.500000
20
19.000000
30
0.0
11
72.800000
21
19.000000
31
0.0
0
ARC
8
0
10
73.300000
20
11.000000
30
0.0
40
0.500000
50
90.000000
51
180.000000
0
ARC
8
0
10
70.500000
20
18.500000
30
0.0
40
0.500000
50
90.000000
51
180.000000
0
ARC
8
0
10
73.300000
20
12.000000
30
0.0
40
0.500000
50
270.000000
51
0.000000
0
LINE
8
0
10
70.000000
20
18.300000
30
0.0
11
70.000000
21
18.500000
31
0.0
0
LINE
8
0
10
73.800000
20
12.000000
30
0.0
11
73.800000
21
16.800000
31
0.0
0
ARC
8
0
10
70.500000
20
18.300000
30
0.0
40
0.500000
50
180.000000
51
270.000000
0
ARC
8
0
10
72.800000
20
16.800000
30
0.0
40
1.000000
50
0.000000
51
90.000000
0
LINE
8
0
10
72.800000
20
17.800000
30
0.0
11
70.500000
21
17.800000
31
0.0
0
ARC
8
0
10
35.700000
20
19.500000
30
0.0
40
0.500000
50
270.000000
51
0.000000
0
LINE
8
0
10
36.200000
20
19.500000
30
0.0
11
36.200000
21
28.500000
31
0.0
0
ARC
8
0
10
36.700000
20
28.500000
30
0.0
40
0.500000
50
90.000000
51
180.000000
0
ARC
8
0
10
36.400000
20
18.800000
30
0.0
40
1.000000
50
270.000000
51
0.000000
0
LINE
8
0
10
37.400000
20
27.300000
30
0.0
11
37.400000
21
18.800000
31
0.0
0
ARC
8
0
10
37.900000
20
27.300000
30
0.0
40
0.500000
50
90.000000
51
180.000000
0
LINE
8
0
10
43.200000
20
27.800000
30
0.0
11
37.900000
21
27.800000
31
0.0
0
LINE
8
0
10
43.200000
20
27.800000
30
0.0
11
43.200000
21
27.600000
31
0.0
0
ATTDEF
8
0
10
54.750000
20
29.000000
30
0.0
40
3.5
1

3

2
VC_START
70
0
0
ATTDEF
8
0
10
74.400000
20
0.000000
30
0.0
40
3.5
1

3

2
VC_END
70
0
0
ATTDEF
8
0
10
75.000000
20
0.000000
30
0.0
40
3.5
1

3

2
FRONT_VIEW
70
0
0
ATTDEF
8
0
10
75.000000
20
0.000000
30
0.0
40
3.5
1

3

2
OPTI:1500.000000,1,0,3000.000000,6900.000000,500.000000,0,0.000000,0
70
0
0
ATTDEF
8
0
10
75.000000
20
0.000000
30
0.0
40
3.5
1

3

2
GLASS_MIN:0.000000
70
0
0
ATTDEF
8
0
10
75.000000
20
0.000000
30
0.0
40
3.5
1

3

2
GLASS_MAX:0.000000
70
0
0
ATTDEF
8
0
10
75.000000
20
0.000000
30
0.0
40
3.5
1

3

2
JX:0.000000
70
0
0
ATTDEF
8
0
10
75.000000
20
0.000000
30
0.0
40
3.5
1

3

2
WX:0.000000
70
0
0
ATTDEF
8
0
10
75.000000
20
0.000000
30
0.0
40
3.5
1

3

2
JY:0.000000
70
0
0
ATTDEF
8
0
10
75.000000
20
0.000000
30
0.0
40
3.5
1

3

2
WY:0.000000
70
0
0
ATTDEF
8
0
10
75.000000
20
0.000000
30
0.0
40
3.5
1

3

2
FP_LCS_ORIG
70
0
0
ATTDEF
8
0
10
65.000000
20
0.000000
30
0.0
40
3.5
1

3

2
FP_LCS_HOT
70
0
0
ATTDEF
8
0
10
75.000000
20
10.000000
30
0.0
40
3.5
1

3

2
FP_LCS_INTERN
70
0
0
ATTDEF
8
0
10
0.000000
20
0.000000
30
0.0
40
3.5
1

3

2
BL01:6200.000,,1
70
0
0
ATTDEF
8
0
10
0.000000
20
0.000000
30
0.0
40
3.5
1

3

2
DESC:Marco 75 mm ventana desplazable
70
0
0
ATTDEF
8
0
10
0.000000
20
0.000000
30
0.0
40
3.5
1

3

2
DENS:0.637
70
0
0
ATTDEF
8
0
10
0.000000
20
0.000000
30
0.0
40
3.5
1

3

2
TDEV:0
70
0
0
ATTDEF
8
0
10
0.000000
20
0.000000
30
0.0
40
3.5
1

3

2
TDEV2:0
70
0
0
ATTDEF
8
0
10
0.000000
20
0.000000
30
0.0
40
3.5
1

3

2
TDEV3:0
70
0
0
ATTDEF
8
0
10
0.000000
20
0.000000
30
0.0
40
3.5
1

3

2
TDEV4:0
70
0
0
ATTDEF
8
0
10
0.000000
20
0.000000
30
0.0
40
3.5
1

3

2
TDEV5:0
70
0
0
ATTDEF
8
0
10
0.000000
20
0.000000
30
0.0
40
3.5
1

3

2
PANE_WIDTH:0
70
0
0
ATTDEF
8
0
10
0.000000
20
0.000000
30
0.0
40
3.5
1

3

2
MIN_VETRO:0
70
0
0
ATTDEF
8
0
10
0.000000
20
0.000000
30
0.0
40
3.5
1

3

2
MAX_VETRO:0
70
0
0
ATTDEF
8
0
10
0.000000
20
0.000000
30
0.0
40
3.5
1

3

2
JX:0
70
0
0
ATTDEF
8
0
10
0.000000
20
0.000000
30
0.0
40
3.5
1

3

2
WX:0
70
0
0
ATTDEF
8
0
10
0.000000
20
0.000000
30
0.0
40
3.5
1

3

2
JY:0
70
0
0
ATTDEF
8
0
10
0.000000
20
0.000000
30
0.0
40
3.5
1

3

2
WY:0
70
0
0
ENDSEC
0
EOF
