0
SECTION
2
ENTITIES
0
ARC
8
0
10
36.300000
20
51.600000
30
0.0
40
1.000000
50
0.000000
51
90.000000
0
LINE
8
0
10
37.300000
20
51.600000
30
0.0
11
37.300000
21
37.800000
31
0.0
0
ARC
8
0
10
36.300000
20
37.800000
30
0.0
40
1.000000
50
270.000000
51
0.000000
0
LINE
8
0
10
36.300000
20
36.800000
30
0.0
11
19.700000
21
36.800000
31
0.0
0
ARC
8
0
10
19.700000
20
37.800000
30
0.0
40
1.000000
50
180.000000
51
270.000000
0
LINE
8
0
10
18.700000
20
37.800000
30
0.0
11
18.700000
21
51.600000
31
0.0
0
ARC
8
0
10
19.700000
20
51.600000
30
0.0
40
1.000000
50
90.000000
51
180.000000
0
LINE
8
0
10
19.700000
20
52.600000
30
0.0
11
36.300000
21
52.600000
31
0.0
0
ARC
8
0
10
12.300000
20
23.700000
30
0.0
40
0.500000
50
270.000000
51
356.177446
0
LINE
8
0
10
12.300000
20
23.200000
30
0.0
11
12.000000
21
23.200000
31
0.0
0
ARC
8
0
10
12.000000
20
23.700000
30
0.0
40
0.500000
50
183.822554
51
270.000000
0
ARC
8
0
10
10.503337
20
23.600000
30
0.0
40
1.000000
50
3.822554
51
90.000000
0
LINE
8
0
10
10.503337
20
24.600000
30
0.0
11
1.700000
21
24.600000
31
0.0
0
ARC
8
0
10
1.700000
20
25.100000
30
0.0
40
0.500000
50
180.000000
51
270.000000
0
LINE
8
0
10
1.200000
20
25.100000
30
0.0
11
1.200000
21
35.100000
31
0.0
0
ARC
8
0
10
1.700000
20
35.100000
30
0.0
40
0.500000
50
90.000000
51
180.000000
0
LINE
8
0
10
1.700000
20
35.600000
30
0.0
11
36.800000
21
35.600000
31
0.0
0
ARC
8
0
10
36.800000
20
35.100000
30
0.0
40
0.500000
50
0.000000
51
90.000000
0
LINE
8
0
10
37.300000
20
35.100000
30
0.0
11
37.300000
21
24.200000
31
0.0
0
ARC
8
0
10
36.300000
20
24.200000
30
0.0
40
1.000000
50
270.000000
51
0.000000
0
LINE
8
0
10
36.300000
20
23.200000
30
0.0
11
30.700000
21
23.200000
31
0.0
0
ARC
8
0
10
30.700000
20
23.700000
30
0.0
40
0.500000
50
183.822554
51
270.000000
0
ARC
8
0
10
29.203337
20
23.600000
30
0.0
40
1.000000
50
3.822554
51
90.000000
0
LINE
8
0
10
29.203337
20
24.600000
30
0.0
11
13.796663
21
24.600000
31
0.0
0
ARC
8
0
10
13.796663
20
23.600000
30
0.0
40
1.000000
50
90.000000
51
176.177446
0
LINE
8
0
10
28.500000
20
23.400000
30
0.0
11
14.500000
21
23.400000
31
0.0
0
ARC
8
0
10
28.500000
20
22.900000
30
0.0
40
0.500000
50
0.000000
51
90.000000
0
LINE
8
0
10
29.000000
20
22.500000
30
0.0
11
29.000000
21
22.900000
31
0.0
0
ARC
8
0
10
29.500000
20
22.500000
30
0.0
40
0.500000
50
180.000000
51
270.000000
0
LINE
8
0
10
31.000000
20
22.000000
30
0.0
11
29.500000
21
22.000000
31
0.0
0
ARC
8
0
10
31.000000
20
21.500000
30
0.0
40
0.500000
50
0.000000
51
90.000000
0
LINE
8
0
10
31.500000
20
19.500000
30
0.0
11
31.500000
21
21.500000
31
0.0
0
ARC
8
0
10
31.000000
20
19.500000
30
0.0
40
0.500000
50
270.000000
51
0.000000
0
LINE
8
0
10
29.500000
20
19.000000
30
0.0
11
31.000000
21
19.000000
31
0.0
0
ARC
8
0
10
29.500000
20
18.500000
30
0.0
40
0.500000
50
90.000000
51
180.000000
0
LINE
8
0
10
29.000000
20
18.300000
30
0.0
11
29.000000
21
18.500000
31
0.0
0
ARC
8
0
10
29.500000
20
18.300000
30
0.0
40
0.500000
50
180.000000
51
270.000000
0
LINE
8
0
10
32.800000
20
17.800000
30
0.0
11
29.500000
21
17.800000
31
0.0
0
ARC
8
0
10
32.800000
20
18.300000
30
0.0
40
0.500000
50
270.000000
51
0.000000
0
LINE
8
0
10
33.300000
20
18.500000
30
0.0
11
33.300000
21
18.300000
31
0.0
0
ARC
8
0
10
32.800000
20
18.500000
30
0.0
40
0.500000
50
0.000000
51
90.000000
0
LINE
8
0
10
32.700000
20
19.000000
30
0.0
11
32.800000
21
19.000000
31
0.0
0
LINE
8
0
10
32.700000
20
21.000000
30
0.0
11
32.700000
21
19.000000
31
0.0
0
ARC
8
0
10
33.700000
20
21.000000
30
0.0
40
1.000000
50
90.000000
51
180.000000
0
LINE
8
0
10
36.300000
20
22.000000
30
0.0
11
33.700000
21
22.000000
31
0.0
0
ARC
8
0
10
36.300000
20
21.000000
30
0.0
40
1.000000
50
0.000000
51
90.000000
0
LINE
8
0
10
37.300000
20
8.500000
30
0.0
11
37.300000
21
21.000000
31
0.0
0
ARC
8
0
10
36.800000
20
8.500000
30
0.0
40
0.500000
50
270.000000
51
0.000000
0
LINE
8
0
10
35.700000
20
8.000000
30
0.0
11
36.800000
21
8.000000
31
0.0
0
ARC
8
0
10
35.700000
20
7.500000
30
0.0
40
0.500000
50
90.000000
51
180.000000
0
LINE
8
0
10
35.200000
20
6.000000
30
0.0
11
35.200000
21
7.500000
31
0.0
0
ARC
8
0
10
35.700000
20
6.000000
30
0.0
40
0.500000
50
180.000000
51
0.000000
0
LINE
8
0
10
36.200000
20
6.250000
30
0.0
11
36.200000
21
6.000000
31
0.0
0
ARC
8
0
10
36.700000
20
6.250000
30
0.0
40
0.500000
50
90.000000
51
180.000000
0
LINE
8
0
10
37.000000
20
6.750000
30
0.0
11
36.700000
21
6.750000
31
0.0
0
ARC
8
0
10
37.000000
20
6.250000
30
0.0
40
0.500000
50
0.000000
51
90.000000
0
LINE
8
0
10
37.500000
20
1.750000
30
0.0
11
37.500000
21
6.250000
31
0.0
0
ARC
8
0
10
37.000000
20
1.750000
30
0.0
40
0.500000
50
270.000000
51
0.000000
0
LINE
8
0
10
36.700000
20
1.250000
30
0.0
11
37.000000
21
1.250000
31
0.0
0
ARC
8
0
10
36.700000
20
1.750000
30
0.0
40
0.500000
50
180.000000
51
270.000000
0
LINE
8
0
10
36.200000
20
2.000000
30
0.0
11
36.200000
21
1.750000
31
0.0
0
ARC
8
0
10
35.700000
20
2.000000
30
0.0
40
0.500000
50
0.000000
51
180.000000
0
LINE
8
0
10
35.200000
20
0.500000
30
0.0
11
35.200000
21
2.000000
31
0.0
0
ARC
8
0
10
35.700000
20
0.500000
30
0.0
40
0.500000
50
180.000000
51
270.000000
0
LINE
8
0
10
37.500000
20
0.000000
30
0.0
11
35.700000
21
0.000000
31
0.0
0
ARC
8
0
10
37.500000
20
1.000000
30
0.0
40
1.000000
50
270.000000
51
0.000000
0
LINE
8
0
10
38.500000
20
52.800000
30
0.0
11
38.500000
21
1.000000
31
0.0
0
ARC
8
0
10
37.500000
20
52.800000
30
0.0
40
1.000000
50
0.000000
51
90.000000
0
LINE
8
0
10
16.750000
20
53.800000
30
0.0
11
37.500000
21
53.800000
31
0.0
0
ARC
8
0
10
16.750000
20
53.550000
30
0.0
40
0.250000
50
90.000000
51
180.000000
0
LINE
8
0
10
16.500000
20
53.100000
30
0.0
11
16.500000
21
53.550000
31
0.0
0
ARC
8
0
10
17.000000
20
53.100000
30
0.0
40
0.500000
50
180.000000
51
270.000000
0
ARC
8
0
10
17.000000
20
52.100000
30
0.0
40
0.500000
50
0.000000
51
90.000000
0
LINE
8
0
10
17.500000
20
37.800000
30
0.0
11
17.500000
21
52.100000
31
0.0
0
ARC
8
0
10
16.500000
20
37.800000
30
0.0
40
1.000000
50
270.000000
51
0.000000
0
LINE
8
0
10
2.200000
20
36.800000
30
0.0
11
16.500000
21
36.800000
31
0.0
0
ARC
8
0
10
2.200000
20
37.800000
30
0.0
40
1.000000
50
180.000000
51
270.000000
0
LINE
8
0
10
1.200000
20
52.100000
30
0.0
11
1.200000
21
37.800000
31
0.0
0
ARC
8
0
10
1.700000
20
52.100000
30
0.0
40
0.500000
50
90.000000
51
180.000000
0
LINE
8
0
10
5.000000
20
52.600000
30
0.0
11
1.700000
21
52.600000
31
0.0
0
ARC
8
0
10
5.000000
20
53.100000
30
0.0
40
0.500000
50
270.000000
51
0.000000
0
LINE
8
0
10
5.500000
20
53.550000
30
0.0
11
5.500000
21
53.100000
31
0.0
0
ARC
8
0
10
5.250000
20
53.550000
30
0.0
40
0.250000
50
0.000000
51
90.000000
0
LINE
8
0
10
1.000000
20
53.800000
30
0.0
11
5.250000
21
53.800000
31
0.0
0
ARC
8
0
10
1.000000
20
52.800000
30
0.0
40
1.000000
50
90.000000
51
180.000000
0
LINE
8
0
10
0.000000
20
18.300000
30
0.0
11
0.000000
21
52.800000
31
0.0
0
ARC
8
0
10
0.500000
20
18.300000
30
0.0
40
0.500000
50
180.000000
51
270.000000
0
LINE
8
0
10
0.700000
20
17.800000
30
0.0
11
0.500000
21
17.800000
31
0.0
0
ARC
8
0
10
0.700000
20
18.300000
30
0.0
40
0.500000
50
270.000000
51
0.000000
0
LINE
8
0
10
1.200000
20
22.899988
30
0.0
11
1.200000
21
18.300000
31
0.0
0
ARC
8
0
10
1.700000
20
22.899988
30
0.0
40
0.500000
50
90.000000
51
180.000000
0
LINE
8
0
10
9.300000
20
23.399988
30
0.0
11
1.700000
21
23.399988
31
0.0
0
ARC
8
0
10
9.300000
20
22.399988
30
0.0
40
1.000000
50
0.000000
51
90.000000
0
LINE
8
0
10
10.300000
20
18.300000
30
0.0
11
10.300000
21
22.399988
31
0.0
0
ARC
8
0
10
10.800000
20
18.300000
30
0.0
40
0.500000
50
180.000000
51
270.000000
0
LINE
8
0
10
13.500000
20
17.800000
30
0.0
11
10.800000
21
17.800000
31
0.0
0
ARC
8
0
10
13.500000
20
18.300000
30
0.0
40
0.500000
50
270.000000
51
0.000000
0
LINE
8
0
10
14.000000
20
18.500000
30
0.0
11
14.000000
21
18.300000
31
0.0
0
ARC
8
0
10
13.500000
20
18.500000
30
0.0
40
0.500000
50
0.000000
51
90.000000
0
LINE
8
0
10
12.000000
20
19.000000
30
0.0
11
13.500000
21
19.000000
31
0.0
0
ARC
8
0
10
12.000000
20
19.500000
30
0.0
40
0.500000
50
180.000000
51
270.000000
0
LINE
8
0
10
11.500000
20
21.500000
30
0.0
11
11.500000
21
19.500000
31
0.0
0
ARC
8
0
10
12.000000
20
21.500000
30
0.0
40
0.500000
50
90.000000
51
180.000000
0
LINE
8
0
10
13.500000
20
22.000000
30
0.0
11
12.000000
21
22.000000
31
0.0
0
ARC
8
0
10
13.500000
20
22.500000
30
0.0
40
0.500000
50
270.000000
51
0.000000
0
LINE
8
0
10
14.000000
20
22.900000
30
0.0
11
14.000000
21
22.500000
31
0.0
0
ARC
8
0
10
14.500000
20
22.900000
30
0.0
40
0.500000
50
90.000000
51
180.000000
0
ATTDEF
8
0
10
9.350000
20
36.800000
30
0.0
40
3.5
1

3

2
VC_START
70
0
0
ATTDEF
8
0
10
12.150000
20
17.800000
30
0.0
40
3.5
1

3

2
VC_END
70
0
0
ATTDEF
8
0
10
38.500000
20
0.000000
30
0.0
40
3.5
1

3

2
FRONT_VIEW
70
0
0
ATTDEF
8
0
10
38.500000
20
0.000000
30
0.0
40
3.5
1

3

2
OPTI:1500.000000,1,0,3000.000000,6900.000000,500.000000,0,0.000000,0
70
0
0
ATTDEF
8
0
10
38.500000
20
0.000000
30
0.0
40
3.5
1

3

2
GLASS_MIN:0.000000
70
0
0
ATTDEF
8
0
10
38.500000
20
0.000000
30
0.0
40
3.5
1

3

2
GLASS_MAX:0.000000
70
0
0
ATTDEF
8
0
10
38.500000
20
0.000000
30
0.0
40
3.5
1

3

2
JX:0.000000
70
0
0
ATTDEF
8
0
10
38.500000
20
0.000000
30
0.0
40
3.5
1

3

2
WX:0.000000
70
0
0
ATTDEF
8
0
10
38.500000
20
0.000000
30
0.0
40
3.5
1

3

2
JY:0.000000
70
0
0
ATTDEF
8
0
10
38.500000
20
0.000000
30
0.0
40
3.5
1

3

2
WY:0.000000
70
0
0
ATTDEF
8
0
10
38.500000
20
0.000000
30
0.0
40
3.5
1

3

2
FP_LCS_ORIG
70
0
0
ATTDEF
8
0
10
28.500000
20
0.000000
30
0.0
40
3.5
1

3

2
FP_LCS_HOT
70
0
0
ATTDEF
8
0
10
38.500000
20
10.000000
30
0.0
40
3.5
1

3

2
FP_LCS_INTERN
70
0
0
ATTDEF
8
0
10
0.000000
20
0.000000
30
0.0
40
3.5
1

3

2
BL01:6200.000,,1
70
0
0
ATTDEF
8
0
10
0.000000
20
0.000000
30
0.0
40
3.5
1

3

2
DESC:Hoja vent. de abrir-banderola para vidrio simple encapsulado
70
0
0
ATTDEF
8
0
10
0.000000
20
0.000000
30
0.0
40
3.5
1

3

2
DENS:0.737000
70
0
0
ATTDEF
8
0
10
0.000000
20
0.000000
30
0.0
40
3.5
1

3

2
TDEV:0.000000
70
0
0
ATTDEF
8
0
10
0.000000
20
0.000000
30
0.0
40
3.5
1

3

2
TDEV2:0.000000
70
0
0
ATTDEF
8
0
10
0.000000
20
0.000000
30
0.0
40
3.5
1

3

2
TDEV3:0.000000
70
0
0
ATTDEF
8
0
10
0.000000
20
0.000000
30
0.0
40
3.5
1

3

2
TDEV4:0.000000
70
0
0
ATTDEF
8
0
10
0.000000
20
0.000000
30
0.0
40
3.5
1

3

2
TDEV5:0.000000
70
0
0
ATTDEF
8
0
10
0.000000
20
0.000000
30
0.0
40
3.5
1

3

2
PANE_WIDTH:0
70
0
0
ATTDEF
8
0
10
0.000000
20
0.000000
30
0.0
40
3.5
1

3

2
MIN_VETRO:0
70
0
0
ATTDEF
8
0
10
0.000000
20
0.000000
30
0.0
40
3.5
1

3

2
MAX_VETRO:0
70
0
0
ATTDEF
8
0
10
0.000000
20
0.000000
30
0.0
40
3.5
1

3

2
JX:0
70
0
0
ATTDEF
8
0
10
0.000000
20
0.000000
30
0.0
40
3.5
1

3

2
WX:0
70
0
0
ATTDEF
8
0
10
0.000000
20
0.000000
30
0.0
40
3.5
1

3

2
JY:0
70
0
0
ATTDEF
8
0
10
0.000000
20
0.000000
30
0.0
40
3.5
1

3

2
WY:0
70
0
0
ENDSEC
0
EOF
