0
SECTION
2
ENTITIES
0
LINE
8
0
10
112.066987
20
1.269615
30
0.0
11
112.655662
21
0.250000
31
0.0
0
ARC
8
0
10
113.088675
20
0.500000
30
0.0
40
0.500000
50
210.000000
51
270.000000
0
ARC
8
0
10
112.500000
20
1.519615
30
0.0
40
0.500000
50
120.000000
51
210.000000
0
LINE
8
0
10
113.088675
20
0.000000
30
0.0
11
113.800000
21
0.000000
31
0.0
0
LINE
8
0
10
112.700000
20
2.212436
30
0.0
11
112.250000
21
1.952628
31
0.0
0
ARC
8
0
10
113.800000
20
0.200000
30
0.0
40
0.200000
50
270.000000
51
0.000000
0
ARC
8
0
10
112.600000
20
2.385641
30
0.0
40
0.200000
50
300.000000
51
0.000000
0
LINE
8
0
10
114.000000
20
0.200000
30
0.0
11
114.000000
21
60.500000
31
0.0
0
LINE
8
0
10
112.800000
20
4.950000
30
0.0
11
112.800000
21
2.385641
31
0.0
0
ARC
8
0
10
113.500000
20
60.500000
30
0.0
40
0.500000
50
0.000000
51
90.000000
0
ARC
8
0
10
111.050000
20
4.950000
30
0.0
40
1.750000
50
0.000000
51
180.000000
0
LINE
8
0
10
113.500000
20
61.000000
30
0.0
11
112.500000
21
61.000000
31
0.0
0
LINE
8
0
10
109.300000
20
1.453939
30
0.0
11
109.300000
21
4.950000
31
0.0
0
ARC
8
0
10
112.500000
20
60.500000
30
0.0
40
0.500000
50
90.000000
51
180.000000
0
ARC
8
0
10
109.800000
20
1.453939
30
0.0
40
0.500000
50
180.000000
51
252.542397
0
LINE
8
0
10
112.000000
20
60.500000
30
0.0
11
112.000000
21
31.000000
31
0.0
0
ARC
8
0
10
109.500000
20
0.500000
30
0.0
40
0.500000
50
270.000000
51
72.542397
0
ARC
8
0
10
109.000000
20
31.000000
30
0.0
40
3.000000
50
270.000000
51
0.000000
0
LINE
8
0
10
103.600000
20
0.000000
30
0.0
11
109.500000
21
0.000000
31
0.0
0
LINE
8
0
10
109.000000
20
28.000000
30
0.0
11
88.500000
21
28.000000
31
0.0
0
ARC
8
0
10
103.600000
20
0.600000
30
0.0
40
0.600000
50
90.000000
51
270.000000
0
ARC
8
0
10
88.500000
20
31.000000
30
0.0
40
3.000000
50
180.000000
51
270.000000
0
LINE
8
0
10
107.100000
20
1.200000
30
0.0
11
103.600000
21
1.200000
31
0.0
0
LINE
8
0
10
85.500000
20
31.000000
30
0.0
11
85.500000
21
52.012719
31
0.0
0
ARC
8
0
10
107.100000
20
2.200000
30
0.0
40
1.000000
50
270.000000
51
0.000000
0
ARC
8
0
10
86.500000
20
52.012719
30
0.0
40
1.000000
50
111.000000
51
180.000000
0
LINE
8
0
10
108.100000
20
6.200000
30
0.0
11
108.100000
21
2.200000
31
0.0
0
LINE
8
0
10
86.141632
20
52.946299
30
0.0
11
92.679184
21
55.455831
31
0.0
0
ARC
8
0
10
107.600000
20
6.200000
30
0.0
40
0.500000
50
0.000000
51
90.000000
0
ARC
8
0
10
92.500000
20
55.922621
30
0.0
40
0.500000
50
291.000000
51
0.000000
0
LINE
8
0
10
6.400000
20
6.700000
30
0.0
11
107.600000
21
6.700000
31
0.0
0
LINE
8
0
10
93.000000
20
55.922621
30
0.0
11
93.000000
21
60.500000
31
0.0
0
ARC
8
0
10
6.400000
20
6.200000
30
0.0
40
0.500000
50
90.000000
51
180.000000
0
ARC
8
0
10
92.500000
20
60.500000
30
0.0
40
0.500000
50
0.000000
51
90.000000
0
LINE
8
0
10
5.900000
20
2.200000
30
0.0
11
5.900000
21
6.200000
31
0.0
0
LINE
8
0
10
92.500000
20
61.000000
30
0.0
11
91.700000
21
61.000000
31
0.0
0
ARC
8
0
10
6.900000
20
2.200000
30
0.0
40
1.000000
50
180.000000
51
270.000000
0
ARC
8
0
10
91.700000
20
60.500000
30
0.0
40
0.500000
50
90.000000
51
180.000000
0
LINE
8
0
10
10.400000
20
1.200000
30
0.0
11
6.900000
21
1.200000
31
0.0
0
LINE
8
0
10
91.200000
20
60.500000
30
0.0
11
91.200000
21
57.159726
31
0.0
0
ARC
8
0
10
10.400000
20
0.600000
30
0.0
40
0.600000
50
270.000000
51
90.000000
0
ARC
8
0
10
90.700000
20
57.159726
30
0.0
40
0.500000
50
291.000000
51
0.000000
0
LINE
8
0
10
4.500000
20
0.000000
30
0.0
11
10.400000
21
0.000000
31
0.0
0
LINE
8
0
10
90.879184
20
56.692936
30
0.0
11
84.858368
21
54.381762
31
0.0
0
ARC
8
0
10
4.500000
20
0.500000
30
0.0
40
0.500000
50
107.457603
51
270.000000
0
ARC
8
0
10
84.500000
20
55.315342
30
0.0
40
1.000000
50
249.000000
51
291.000000
0
ARC
8
0
10
4.200000
20
1.453939
30
0.0
40
0.500000
50
287.457603
51
0.000000
0
LINE
8
0
10
84.141632
20
54.381762
30
0.0
11
78.120816
21
56.692936
31
0.0
0
LINE
8
0
10
4.700000
20
4.950000
30
0.0
11
4.700000
21
1.453939
31
0.0
0
ARC
8
0
10
78.300000
20
57.159726
30
0.0
40
0.500000
50
180.000000
51
249.000000
0
ARC
8
0
10
2.950000
20
4.950000
30
0.0
40
1.750000
50
0.000000
51
180.000000
0
LINE
8
0
10
77.800000
20
57.159726
30
0.0
11
77.800000
21
60.500000
31
0.0
0
LINE
8
0
10
1.200000
20
2.385641
30
0.0
11
1.200000
21
4.950000
31
0.0
0
ARC
8
0
10
77.300000
20
60.500000
30
0.0
40
0.500000
50
0.000000
51
90.000000
0
ARC
8
0
10
1.400000
20
2.385641
30
0.0
40
0.200000
50
180.000000
51
240.000000
0
LINE
8
0
10
77.300000
20
61.000000
30
0.0
11
76.500000
21
61.000000
31
0.0
0
LINE
8
0
10
1.750000
20
1.952628
30
0.0
11
1.300000
21
2.212436
31
0.0
0
ARC
8
0
10
76.500000
20
60.500000
30
0.0
40
0.500000
50
90.000000
51
180.000000
0
ARC
8
0
10
1.500000
20
1.519615
30
0.0
40
0.500000
50
330.000000
51
60.000000
0
LINE
8
0
10
76.000000
20
60.500000
30
0.0
11
76.000000
21
55.922621
31
0.0
0
LINE
8
0
10
1.344338
20
0.250000
30
0.0
11
1.933013
21
1.269615
31
0.0
0
ARC
8
0
10
76.500000
20
55.922621
30
0.0
40
0.500000
50
180.000000
51
249.000000
0
ARC
8
0
10
0.911325
20
0.500000
30
0.0
40
0.500000
50
270.000000
51
330.000000
0
LINE
8
0
10
76.320816
20
55.455831
30
0.0
11
82.858368
21
52.946299
31
0.0
0
LINE
8
0
10
0.200000
20
0.000000
30
0.0
11
0.911325
21
0.000000
31
0.0
0
ARC
8
0
10
82.500000
20
52.012719
30
0.0
40
1.000000
50
0.000000
51
69.000000
0
ARC
8
0
10
0.200000
20
0.200000
30
0.0
40
0.200000
50
180.000000
51
270.000000
0
LINE
8
0
10
83.500000
20
52.012719
30
0.0
11
83.500000
21
31.000000
31
0.0
0
LINE
8
0
10
0.000000
20
60.500000
30
0.0
11
0.000000
21
0.200000
31
0.0
0
ARC
8
0
10
80.500000
20
31.000000
30
0.0
40
3.000000
50
270.000000
51
0.000000
0
ARC
8
0
10
0.500000
20
60.500000
30
0.0
40
0.500000
50
90.000000
51
180.000000
0
LINE
8
0
10
80.500000
20
28.000000
30
0.0
11
33.500000
21
28.000000
31
0.0
0
LINE
8
0
10
1.500000
20
61.000000
30
0.0
11
0.500000
21
61.000000
31
0.0
0
ARC
8
0
10
33.500000
20
31.000000
30
0.0
40
3.000000
50
180.000000
51
270.000000
0
ARC
8
0
10
1.500000
20
60.500000
30
0.0
40
0.500000
50
0.000000
51
90.000000
0
LINE
8
0
10
30.500000
20
31.000000
30
0.0
11
30.500000
21
52.012719
31
0.0
0
LINE
8
0
10
2.000000
20
31.000000
30
0.0
11
2.000000
21
60.500000
31
0.0
0
ARC
8
0
10
31.500000
20
52.012719
30
0.0
40
1.000000
50
111.000000
51
180.000000
0
ARC
8
0
10
5.000000
20
31.000000
30
0.0
40
3.000000
50
180.000000
51
270.000000
0
LINE
8
0
10
31.141632
20
52.946299
30
0.0
11
37.679184
21
55.455831
31
0.0
0
LINE
8
0
10
25.500000
20
28.000000
30
0.0
11
5.000000
21
28.000000
31
0.0
0
ARC
8
0
10
37.500000
20
55.922621
30
0.0
40
0.500000
50
291.000000
51
0.000000
0
ARC
8
0
10
25.500000
20
31.000000
30
0.0
40
3.000000
50
270.000000
51
0.000000
0
LINE
8
0
10
38.000000
20
55.922621
30
0.0
11
38.000000
21
60.500000
31
0.0
0
LINE
8
0
10
28.500000
20
52.012719
30
0.0
11
28.500000
21
31.000000
31
0.0
0
ARC
8
0
10
37.500000
20
60.500000
30
0.0
40
0.500000
50
0.000000
51
90.000000
0
ARC
8
0
10
27.500000
20
52.012719
30
0.0
40
1.000000
50
0.000000
51
69.000000
0
LINE
8
0
10
37.500000
20
61.000000
30
0.0
11
36.700000
21
61.000000
31
0.0
0
LINE
8
0
10
21.320816
20
55.455831
30
0.0
11
27.858368
21
52.946299
31
0.0
0
ARC
8
0
10
36.700000
20
60.500000
30
0.0
40
0.500000
50
90.000000
51
180.000000
0
ARC
8
0
10
21.500000
20
55.922621
30
0.0
40
0.500000
50
180.000000
51
249.000000
0
LINE
8
0
10
36.200000
20
60.500000
30
0.0
11
36.200000
21
57.159726
31
0.0
0
LINE
8
0
10
21.000000
20
60.500000
30
0.0
11
21.000000
21
55.922621
31
0.0
0
ARC
8
0
10
35.700000
20
57.159726
30
0.0
40
0.500000
50
291.000000
51
0.000000
0
ARC
8
0
10
21.500000
20
60.500000
30
0.0
40
0.500000
50
90.000000
51
180.000000
0
LINE
8
0
10
35.879184
20
56.692936
30
0.0
11
29.858368
21
54.381762
31
0.0
0
LINE
8
0
10
22.300000
20
61.000000
30
0.0
11
21.500000
21
61.000000
31
0.0
0
ARC
8
0
10
29.500000
20
55.315342
30
0.0
40
1.000000
50
249.000000
51
291.000000
0
ARC
8
0
10
22.300000
20
60.500000
30
0.0
40
0.500000
50
0.000000
51
90.000000
0
LINE
8
0
10
29.141632
20
54.381762
30
0.0
11
23.120816
21
56.692936
31
0.0
0
LINE
8
0
10
22.800000
20
57.159726
30
0.0
11
22.800000
21
60.500000
31
0.0
0
ARC
8
0
10
23.300000
20
57.159726
30
0.0
40
0.500000
50
180.000000
51
249.000000
0
ARC
8
0
10
89.583305
20
25.000002
30
0.0
40
1.000000
50
90.000000
51
196.440515
0
LINE
8
0
10
89.583305
20
26.000002
30
0.0
11
111.000000
21
25.999997
31
0.0
0
ARC
8
0
10
84.500000
20
23.499997
30
0.0
40
4.300000
50
309.318701
51
16.440515
0
ARC
8
0
10
111.000000
20
24.999997
30
0.0
40
1.000000
50
0.000000
51
90.000000
0
ARC
8
0
10
86.590990
20
20.947007
30
0.0
40
1.000000
50
180.000000
51
309.318701
0
LINE
8
0
10
112.000000
20
24.999997
30
0.0
11
112.000000
21
9.700000
31
0.0
0
LINE
8
0
10
85.590990
20
21.909007
30
0.0
11
85.590990
21
20.947007
31
0.0
0
ARC
8
0
10
111.000000
20
9.700000
30
0.0
40
1.000000
50
270.000000
51
0.000000
0
ARC
8
0
10
86.090990
20
21.909007
30
0.0
40
0.500000
50
90.000000
51
180.000000
0
LINE
8
0
10
111.000000
20
8.700000
30
0.0
11
3.000000
21
8.700000
31
0.0
0
LINE
8
0
10
86.410688
20
22.409007
30
0.0
11
86.090990
21
22.409007
31
0.0
0
ARC
8
0
10
3.000000
20
9.700000
30
0.0
40
1.000000
50
180.000000
51
270.000000
0
ARC
8
0
10
86.410688
20
22.909007
30
0.0
40
0.500000
50
270.000000
51
342.812770
0
LINE
8
0
10
2.000000
20
9.700000
30
0.0
11
2.000000
21
24.999997
31
0.0
0
ARC
8
0
10
84.500000
20
23.499997
30
0.0
40
2.500000
50
342.812770
51
17.187230
0
ARC
8
0
10
3.000000
20
24.999997
30
0.0
40
1.000000
50
90.000000
51
180.000000
0
ARC
8
0
10
86.410688
20
24.090987
30
0.0
40
0.500000
50
17.187230
51
90.000000
0
LINE
8
0
10
3.000000
20
25.999997
30
0.0
11
24.419896
21
25.999997
31
0.0
0
LINE
8
0
10
86.090990
20
24.590987
30
0.0
11
86.410688
21
24.590987
31
0.0
0
ARC
8
0
10
24.416695
20
25.000002
30
0.0
40
1.000000
50
343.559479
51
90.000000
0
ARC
8
0
10
86.090990
20
25.090987
30
0.0
40
0.500000
50
180.000000
51
270.000000
0
ARC
8
0
10
29.500000
20
23.499997
30
0.0
40
4.300000
50
163.559479
51
230.681299
0
LINE
8
0
10
85.590990
20
25.410686
30
0.0
11
85.590990
21
25.090987
31
0.0
0
ARC
8
0
10
27.409010
20
20.947007
30
0.0
40
1.000000
50
230.681299
51
0.000000
0
ARC
8
0
10
85.090990
20
25.410686
30
0.0
40
0.500000
50
0.000000
51
72.812770
0
LINE
8
0
10
28.409010
20
20.947007
30
0.0
11
28.409010
21
21.909007
31
0.0
0
ARC
8
0
10
84.500000
20
23.499997
30
0.0
40
2.500000
50
72.812770
51
107.187230
0
ARC
8
0
10
27.909010
20
21.909007
30
0.0
40
0.500000
50
0.000000
51
90.000000
0
ARC
8
0
10
83.909010
20
25.410686
30
0.0
40
0.500000
50
107.187230
51
180.000000
0
LINE
8
0
10
27.909010
20
22.409007
30
0.0
11
27.589312
21
22.409007
31
0.0
0
LINE
8
0
10
83.409010
20
25.090987
30
0.0
11
83.409010
21
25.410686
31
0.0
0
ARC
8
0
10
27.589312
20
22.909007
30
0.0
40
0.500000
50
197.187230
51
270.000000
0
ARC
8
0
10
82.909010
20
25.090987
30
0.0
40
0.500000
50
270.000000
51
0.000000
0
ARC
8
0
10
29.500000
20
23.499997
30
0.0
40
2.500000
50
162.812770
51
197.187230
0
LINE
8
0
10
82.589312
20
24.590987
30
0.0
11
82.909010
21
24.590987
31
0.0
0
ARC
8
0
10
27.589312
20
24.090987
30
0.0
40
0.500000
50
90.000000
51
162.812770
0
ARC
8
0
10
82.589312
20
24.090987
30
0.0
40
0.500000
50
90.000000
51
162.812770
0
LINE
8
0
10
27.589312
20
24.590987
30
0.0
11
27.909010
21
24.590987
31
0.0
0
ARC
8
0
10
84.500000
20
23.499997
30
0.0
40
2.500000
50
162.812770
51
197.187230
0
ARC
8
0
10
27.909010
20
25.090987
30
0.0
40
0.500000
50
270.000000
51
0.000000
0
ARC
8
0
10
82.589312
20
22.909007
30
0.0
40
0.500000
50
197.187230
51
270.000000
0
LINE
8
0
10
28.409010
20
25.090987
30
0.0
11
28.409010
21
25.410686
31
0.0
0
LINE
8
0
10
82.909010
20
22.409007
30
0.0
11
82.589312
21
22.409007
31
0.0
0
ARC
8
0
10
28.909010
20
25.410686
30
0.0
40
0.500000
50
107.187230
51
180.000000
0
ARC
8
0
10
82.909010
20
21.909007
30
0.0
40
0.500000
50
0.000000
51
90.000000
0
ARC
8
0
10
29.500000
20
23.499997
30
0.0
40
2.500000
50
72.812770
51
107.187230
0
LINE
8
0
10
83.409010
20
20.947007
30
0.0
11
83.409010
21
21.909007
31
0.0
0
ARC
8
0
10
30.090990
20
25.410686
30
0.0
40
0.500000
50
0.000000
51
72.812770
0
ARC
8
0
10
82.409010
20
20.947007
30
0.0
40
1.000000
50
230.681299
51
0.000000
0
LINE
8
0
10
30.590990
20
25.410686
30
0.0
11
30.590990
21
25.090987
31
0.0
0
ARC
8
0
10
84.500000
20
23.499997
30
0.0
40
4.300000
50
163.559479
51
230.681299
0
ARC
8
0
10
31.090990
20
25.090987
30
0.0
40
0.500000
50
180.000000
51
270.000000
0
ARC
8
0
10
79.416695
20
25.000002
30
0.0
40
1.000000
50
343.559479
51
90.000000
0
LINE
8
0
10
31.090990
20
24.590987
30
0.0
11
31.410688
21
24.590987
31
0.0
0
LINE
8
0
10
34.580446
20
25.999998
30
0.0
11
79.416695
21
26.000002
31
0.0
0
ARC
8
0
10
31.410688
20
24.090987
30
0.0
40
0.500000
50
17.187230
51
90.000000
0
ARC
8
0
10
34.583305
20
25.000002
30
0.0
40
1.000000
50
90.000000
51
196.440515
0
ARC
8
0
10
29.500000
20
23.499997
30
0.0
40
2.500000
50
342.812770
51
17.187230
0
ARC
8
0
10
29.500000
20
23.499997
30
0.0
40
4.300000
50
309.318701
51
16.440515
0
ARC
8
0
10
31.410688
20
22.909007
30
0.0
40
0.500000
50
270.000000
51
342.812770
0
ARC
8
0
10
31.590990
20
20.947007
30
0.0
40
1.000000
50
180.000000
51
309.318701
0
LINE
8
0
10
31.410688
20
22.409007
30
0.0
11
31.090990
21
22.409007
31
0.0
0
LINE
8
0
10
30.590990
20
21.909007
30
0.0
11
30.590990
21
20.947007
31
0.0
0
ARC
8
0
10
31.090990
20
21.909007
30
0.0
40
0.500000
50
90.000000
51
180.000000
0
ATTDEF
8
0
10
21.900000
20
61.000000
30
0.0
40
3.5
1

3

2
VC_START
70
0
0
ATTDEF
8
0
10
7.450000
20
0.000000
30
0.0
40
3.5
1

3

2
VC_END
70
0
0
ATTDEF
8
0
10
0.000000
20
0.000000
30
0.0
40
3.5
1

3

2
REAR_VIEW
70
0
0
ATTDEF
8
0
10
0.000000
20
0.000000
30
0.0
40
3.5
1

3

2
OPTI:500.000000,1,0,3000.000000,6900.000000,500.000000,0,0.000000,0
70
0
0
ATTDEF
8
0
10
0.000000
20
0.000000
30
0.0
40
3.5
1

3

2
GLASS_MIN:0.000000
70
0
0
ATTDEF
8
0
10
0.000000
20
0.000000
30
0.0
40
3.5
1

3

2
GLASS_MAX:0.000000
70
0
0
ATTDEF
8
0
10
0.000000
20
0.000000
30
0.0
40
3.5
1

3

2
JX:0.000000
70
0
0
ATTDEF
8
0
10
0.000000
20
0.000000
30
0.0
40
3.5
1

3

2
WX:0.000000
70
0
0
ATTDEF
8
0
10
0.000000
20
0.000000
30
0.0
40
3.5
1

3

2
JY:0.000000
70
0
0
ATTDEF
8
0
10
0.000000
20
0.000000
30
0.0
40
3.5
1

3

2
WY:0.000000
70
0
0
ATTDEF
8
0
10
0.000000
20
0.000000
30
0.0
40
3.5
1

3

2
FP_LCS_ORIG
70
0
0
ATTDEF
8
0
10
10.000000
20
0.000000
30
0.0
40
3.5
1

3

2
FP_LCS_HOT
70
0
0
ATTDEF
8
0
10
0.000000
20
10.000000
30
0.0
40
3.5
1

3

2
FP_LCS_INTERN
70
0
0
ATTDEF
8
0
10
0.000000
20
0.000000
30
0.0
40
3.5
1

3

2
BL01:6200.000,,1
70
0
0
ATTDEF
8
0
10
0.000000
20
0.000000
30
0.0
40
3.5
1

3

2
DESC:Dintel Corrediza Alzante New X
70
0
0
ATTDEF
8
0
10
0.000000
20
0.000000
30
0.0
40
3.5
1

3

2
DENS:2.613
70
0
0
ATTDEF
8
0
10
0.000000
20
0.000000
30
0.0
40
3.5
1

3

2
TDEV:0
70
0
0
ATTDEF
8
0
10
0.000000
20
0.000000
30
0.0
40
3.5
1

3

2
TDEV2:0
70
0
0
ATTDEF
8
0
10
0.000000
20
0.000000
30
0.0
40
3.5
1

3

2
TDEV3:0
70
0
0
ATTDEF
8
0
10
0.000000
20
0.000000
30
0.0
40
3.5
1

3

2
TDEV4:0
70
0
0
ATTDEF
8
0
10
0.000000
20
0.000000
30
0.0
40
3.5
1

3

2
TDEV5:0
70
0
0
ATTDEF
8
0
10
0.000000
20
0.000000
30
0.0
40
3.5
1

3

2
PANE_WIDTH:0
70
0
0
ATTDEF
8
0
10
0.000000
20
0.000000
30
0.0
40
3.5
1

3

2
MIN_VETRO:0
70
0
0
ATTDEF
8
0
10
0.000000
20
0.000000
30
0.0
40
3.5
1

3

2
MAX_VETRO:0
70
0
0
ATTDEF
8
0
10
0.000000
20
0.000000
30
0.0
40
3.5
1

3

2
JX:0
70
0
0
ATTDEF
8
0
10
0.000000
20
0.000000
30
0.0
40
3.5
1

3

2
WX:0
70
0
0
ATTDEF
8
0
10
0.000000
20
0.000000
30
0.0
40
3.5
1

3

2
JY:0
70
0
0
ATTDEF
8
0
10
0.000000
20
0.000000
30
0.0
40
3.5
1

3

2
WY:0
70
0
0
ENDSEC
0
EOF
