0
SECTION
2
ENTITIES
0
LINE
8
0
10
6.500000
20
52.800000
30
0.0
11
6.000000
21
52.800000
31
0.0
0
ARC
8
0
10
6.500000
20
53.300000
30
0.0
40
0.500000
50
270.000000
51
0.000000
0
ARC
8
0
10
6.000000
20
53.300000
30
0.0
40
0.500000
50
180.000000
51
270.000000
0
LINE
8
0
10
7.000000
20
55.500000
30
0.0
11
7.000000
21
53.300000
31
0.0
0
LINE
8
0
10
5.500000
20
53.300000
30
0.0
11
5.500000
21
55.500000
31
0.0
0
ARC
8
0
10
7.500000
20
55.500000
30
0.0
40
0.500000
50
90.000000
51
180.000000
0
ARC
8
0
10
5.000000
20
55.500000
30
0.0
40
0.500000
50
0.000000
51
90.000000
0
LINE
8
0
10
8.900000
20
56.000000
30
0.0
11
7.500000
21
56.000000
31
0.0
0
LINE
8
0
10
5.000000
20
56.000000
30
0.0
11
2.500000
21
56.000000
31
0.0
0
ARC
8
0
10
8.900000
20
55.500000
30
0.0
40
0.500000
50
0.000000
51
90.000000
0
ARC
8
0
10
2.500000
20
55.500000
30
0.0
40
0.500000
50
90.000000
51
180.000000
0
LINE
8
0
10
9.400000
20
53.300000
30
0.0
11
9.400000
21
55.500000
31
0.0
0
LINE
8
0
10
2.000000
20
55.500000
30
0.0
11
2.000000
21
21.000000
31
0.0
0
ARC
8
0
10
9.900000
20
53.300000
30
0.0
40
0.500000
50
180.000000
51
270.000000
0
ARC
8
0
10
2.500000
20
21.000000
30
0.0
40
0.500000
50
180.000000
51
270.000000
0
LINE
8
0
10
10.400000
20
52.800000
30
0.0
11
9.900000
21
52.800000
31
0.0
0
LINE
8
0
10
2.500000
20
20.500000
30
0.0
11
5.000000
21
20.500000
31
0.0
0
ARC
8
0
10
10.400000
20
53.300000
30
0.0
40
0.500000
50
270.000000
51
0.000000
0
ARC
8
0
10
5.000000
20
21.000000
30
0.0
40
0.500000
50
270.000000
51
0.000000
0
LINE
8
0
10
10.900000
20
55.500000
30
0.0
11
10.900000
21
53.300000
31
0.0
0
LINE
8
0
10
5.500000
20
21.000000
30
0.0
11
5.500000
21
22.700000
31
0.0
0
ARC
8
0
10
11.400000
20
55.500000
30
0.0
40
0.500000
50
90.000000
51
180.000000
0
ARC
8
0
10
6.500000
20
22.700000
30
0.0
40
1.000000
50
90.000000
51
180.000000
0
LINE
8
0
10
32.600000
20
56.000000
30
0.0
11
11.400000
21
56.000000
31
0.0
0
LINE
8
0
10
6.500000
20
23.700000
30
0.0
11
8.900000
21
23.700000
31
0.0
0
ARC
8
0
10
32.600000
20
55.500000
30
0.0
40
0.500000
50
0.000000
51
90.000000
0
ARC
8
0
10
8.900000
20
24.200000
30
0.0
40
0.500000
50
270.000000
51
0.000000
0
LINE
8
0
10
33.100000
20
53.300000
30
0.0
11
33.100000
21
55.500000
31
0.0
0
LINE
8
0
10
9.400000
20
24.200000
30
0.0
11
9.400000
21
25.700000
31
0.0
0
ARC
8
0
10
33.600000
20
53.300000
30
0.0
40
0.500000
50
180.000000
51
270.000000
0
ARC
8
0
10
9.900000
20
25.700000
30
0.0
40
0.500000
50
90.000000
51
180.000000
0
LINE
8
0
10
34.100000
20
52.800000
30
0.0
11
33.600000
21
52.800000
31
0.0
0
LINE
8
0
10
9.900000
20
26.200000
30
0.0
11
10.400000
21
26.200000
31
0.0
0
ARC
8
0
10
34.100000
20
53.300000
30
0.0
40
0.500000
50
270.000000
51
0.000000
0
ARC
8
0
10
10.400000
20
25.700000
30
0.0
40
0.500000
50
0.000000
51
90.000000
0
LINE
8
0
10
34.600000
20
55.500000
30
0.0
11
34.600000
21
53.300000
31
0.0
0
LINE
8
0
10
10.900000
20
25.700000
30
0.0
11
10.900000
21
23.200000
31
0.0
0
ARC
8
0
10
35.100000
20
55.500000
30
0.0
40
0.500000
50
90.000000
51
180.000000
0
ARC
8
0
10
9.900000
20
23.200000
30
0.0
40
1.000000
50
270.000000
51
0.000000
0
LINE
8
0
10
36.500000
20
56.000000
30
0.0
11
35.100000
21
56.000000
31
0.0
0
LINE
8
0
10
9.900000
20
22.200000
30
0.0
11
7.500000
21
22.200000
31
0.0
0
ARC
8
0
10
36.500000
20
55.500000
30
0.0
40
0.500000
50
0.000000
51
90.000000
0
ARC
8
0
10
7.500000
20
21.700000
30
0.0
40
0.500000
50
90.000000
51
180.000000
0
LINE
8
0
10
37.000000
20
53.300000
30
0.0
11
37.000000
21
55.500000
31
0.0
0
LINE
8
0
10
7.000000
20
21.700000
30
0.0
11
7.000000
21
20.500000
31
0.0
0
ARC
8
0
10
37.500000
20
53.300000
30
0.0
40
0.500000
50
180.000000
51
270.000000
0
ARC
8
0
10
5.500000
20
20.500000
30
0.0
40
1.500000
50
270.000000
51
0.000000
0
LINE
8
0
10
38.000000
20
52.800000
30
0.0
11
37.500000
21
52.800000
31
0.0
0
LINE
8
0
10
5.500000
20
19.000000
30
0.0
11
3.000000
21
19.000000
31
0.0
0
ARC
8
0
10
38.000000
20
53.300000
30
0.0
40
0.500000
50
270.000000
51
0.000000
0
ARC
8
0
10
3.000000
20
18.000000
30
0.0
40
1.000000
50
90.000000
51
180.000000
0
LINE
8
0
10
38.500000
20
55.500000
30
0.0
11
38.500000
21
53.300000
31
0.0
0
LINE
8
0
10
2.000000
20
18.000000
30
0.0
11
2.000000
21
13.200000
31
0.0
0
ARC
8
0
10
39.000000
20
55.500000
30
0.0
40
0.500000
50
90.000000
51
180.000000
0
ARC
8
0
10
3.000000
20
13.200000
30
0.0
40
1.000000
50
180.000000
51
270.000000
0
LINE
8
0
10
41.500000
20
56.000000
30
0.0
11
39.000000
21
56.000000
31
0.0
0
LINE
8
0
10
3.000000
20
12.200000
30
0.0
11
9.200000
21
12.200000
31
0.0
0
ARC
8
0
10
41.500000
20
55.500000
30
0.0
40
0.500000
50
0.000000
51
90.000000
0
ARC
8
0
10
9.200000
20
12.700000
30
0.0
40
0.500000
50
270.000000
51
0.000000
0
LINE
8
0
10
42.000000
20
21.000000
30
0.0
11
42.000000
21
55.500000
31
0.0
0
LINE
8
0
10
9.700000
20
12.700000
30
0.0
11
9.700000
21
13.200000
31
0.0
0
ARC
8
0
10
41.500000
20
21.000000
30
0.0
40
0.500000
50
270.000000
51
0.000000
0
ARC
8
0
10
10.200000
20
13.200000
30
0.0
40
0.500000
50
90.000000
51
180.000000
0
LINE
8
0
10
39.000000
20
20.500000
30
0.0
11
41.500000
21
20.500000
31
0.0
0
LINE
8
0
10
10.200000
20
13.700000
30
0.0
11
10.400000
21
13.700000
31
0.0
0
ARC
8
0
10
39.000000
20
21.000000
30
0.0
40
0.500000
50
180.000000
51
270.000000
0
ARC
8
0
10
10.400000
20
13.200000
30
0.0
40
0.500000
50
0.000000
51
90.000000
0
LINE
8
0
10
38.500000
20
22.700000
30
0.0
11
38.500000
21
21.000000
31
0.0
0
LINE
8
0
10
10.900000
20
13.200000
30
0.0
11
10.900000
21
9.900000
31
0.0
0
ARC
8
0
10
37.500000
20
22.700000
30
0.0
40
1.000000
50
0.000000
51
90.000000
0
ARC
8
0
10
10.400000
20
9.900000
30
0.0
40
0.500000
50
270.000000
51
0.000000
0
LINE
8
0
10
35.100000
20
23.700000
30
0.0
11
37.500000
21
23.700000
31
0.0
0
LINE
8
0
10
10.400000
20
9.400000
30
0.0
11
10.200000
21
9.400000
31
0.0
0
ARC
8
0
10
35.100000
20
24.200000
30
0.0
40
0.500000
50
180.000000
51
270.000000
0
ARC
8
0
10
10.200000
20
9.900000
30
0.0
40
0.500000
50
180.000000
51
270.000000
0
LINE
8
0
10
34.600000
20
25.700000
30
0.0
11
34.600000
21
24.200000
31
0.0
0
LINE
8
0
10
9.700000
20
9.900000
30
0.0
11
9.700000
21
10.200000
31
0.0
0
ARC
8
0
10
34.100000
20
25.700000
30
0.0
40
0.500000
50
0.000000
51
90.000000
0
ARC
8
0
10
9.200000
20
10.200000
30
0.0
40
0.500000
50
0.000000
51
90.000000
0
LINE
8
0
10
33.600000
20
26.200000
30
0.0
11
34.100000
21
26.200000
31
0.0
0
LINE
8
0
10
9.200000
20
10.700000
30
0.0
11
9.000000
21
10.700000
31
0.0
0
ARC
8
0
10
33.600000
20
25.700000
30
0.0
40
0.500000
50
90.000000
51
180.000000
0
ARC
8
0
10
9.000000
20
10.200000
30
0.0
40
0.500000
50
90.000000
51
180.000000
0
LINE
8
0
10
33.100000
20
23.200000
30
0.0
11
33.100000
21
25.700000
31
0.0
0
LINE
8
0
10
8.500000
20
10.200000
30
0.0
11
8.500000
21
3.700000
31
0.0
0
ARC
8
0
10
34.100000
20
23.200000
30
0.0
40
1.000000
50
180.000000
51
270.000000
0
ARC
8
0
10
9.000000
20
3.700000
30
0.0
40
0.500000
50
180.000000
51
270.000000
0
LINE
8
0
10
36.500000
20
22.200000
30
0.0
11
34.100000
21
22.200000
31
0.0
0
LINE
8
0
10
9.000000
20
3.200000
30
0.0
11
9.200000
21
3.200000
31
0.0
0
ARC
8
0
10
36.500000
20
21.700000
30
0.0
40
0.500000
50
0.000000
51
90.000000
0
ARC
8
0
10
9.200000
20
3.700000
30
0.0
40
0.500000
50
270.000000
51
0.000000
0
LINE
8
0
10
37.000000
20
20.500000
30
0.0
11
37.000000
21
21.700000
31
0.0
0
LINE
8
0
10
9.700000
20
3.700000
30
0.0
11
9.700000
21
3.900000
31
0.0
0
ARC
8
0
10
38.500000
20
20.500000
30
0.0
40
1.500000
50
180.000000
51
270.000000
0
ARC
8
0
10
10.200000
20
3.900000
30
0.0
40
0.500000
50
90.000000
51
180.000000
0
LINE
8
0
10
41.000000
20
19.000000
30
0.0
11
38.500000
21
19.000000
31
0.0
0
LINE
8
0
10
10.200000
20
4.400000
30
0.0
11
10.400000
21
4.400000
31
0.0
0
ARC
8
0
10
41.000000
20
18.000000
30
0.0
40
1.000000
50
0.000000
51
90.000000
0
ARC
8
0
10
10.400000
20
3.900000
30
0.0
40
0.500000
50
0.000000
51
90.000000
0
LINE
8
0
10
42.000000
20
13.200000
30
0.0
11
42.000000
21
18.000000
31
0.0
0
LINE
8
0
10
10.900000
20
3.900000
30
0.0
11
10.900000
21
3.000000
31
0.0
0
ARC
8
0
10
41.000000
20
13.200000
30
0.0
40
1.000000
50
270.000000
51
0.000000
0
ARC
8
0
10
9.900000
20
3.000000
30
0.0
40
1.000000
50
270.000000
51
0.000000
0
LINE
8
0
10
34.800000
20
12.200000
30
0.0
11
41.000000
21
12.200000
31
0.0
0
LINE
8
0
10
9.900000
20
2.000000
30
0.0
11
8.000000
21
2.000000
31
0.0
0
ARC
8
0
10
34.800000
20
12.700000
30
0.0
40
0.500000
50
180.000000
51
270.000000
0
ARC
8
0
10
8.000000
20
3.000000
30
0.0
40
1.000000
50
180.000000
51
270.000000
0
LINE
8
0
10
34.300000
20
13.200000
30
0.0
11
34.300000
21
12.700000
31
0.0
0
LINE
8
0
10
7.000000
20
3.000000
30
0.0
11
7.000000
21
6.200000
31
0.0
0
ARC
8
0
10
33.800000
20
13.200000
30
0.0
40
0.500000
50
0.000000
51
90.000000
0
ARC
8
0
10
7.000000
20
6.700000
30
0.0
40
0.500000
50
90.000000
51
270.000000
0
LINE
8
0
10
33.600000
20
13.700000
30
0.0
11
33.800000
21
13.700000
31
0.0
0
LINE
8
0
10
7.000000
20
7.200000
30
0.0
11
7.000000
21
9.500000
31
0.0
0
ARC
8
0
10
33.600000
20
13.200000
30
0.0
40
0.500000
50
90.000000
51
180.000000
0
ARC
8
0
10
6.000000
20
9.500000
30
0.0
40
1.000000
50
0.000000
51
90.000000
0
LINE
8
0
10
33.100000
20
9.900000
30
0.0
11
33.100000
21
13.200000
31
0.0
0
LINE
8
0
10
6.000000
20
10.500000
30
0.0
11
3.000000
21
10.500000
31
0.0
0
ARC
8
0
10
33.600000
20
9.900000
30
0.0
40
0.500000
50
180.000000
51
270.000000
0
ARC
8
0
10
3.000000
20
9.500000
30
0.0
40
1.000000
50
90.000000
51
180.000000
0
LINE
8
0
10
33.800000
20
9.400000
30
0.0
11
33.600000
21
9.400000
31
0.0
0
LINE
8
0
10
2.000000
20
9.500000
30
0.0
11
2.000000
21
3.000000
31
0.0
0
ARC
8
0
10
33.800000
20
9.900000
30
0.0
40
0.500000
50
270.000000
51
0.000000
0
LINE
8
0
10
2.000000
20
3.000000
30
0.0
11
1.295452
21
0.370590
31
0.0
0
LINE
8
0
10
34.300000
20
10.200000
30
0.0
11
34.300000
21
9.900000
31
0.0
0
ARC
8
0
10
0.812489
20
0.500000
30
0.0
40
0.500000
50
270.000000
51
345.000000
0
ARC
8
0
10
34.800000
20
10.200000
30
0.0
40
0.500000
50
90.000000
51
180.000000
0
LINE
8
0
10
0.812489
20
0.000000
30
0.0
11
0.500000
21
0.000000
31
0.0
0
LINE
8
0
10
35.000000
20
10.700000
30
0.0
11
34.800000
21
10.700000
31
0.0
0
ARC
8
0
10
0.500000
20
0.500000
30
0.0
40
0.500000
50
180.000000
51
270.000000
0
ARC
8
0
10
35.000000
20
10.200000
30
0.0
40
0.500000
50
0.000000
51
90.000000
0
LINE
8
0
10
0.000000
20
0.500000
30
0.0
11
0.000000
21
94.500000
31
0.0
0
LINE
8
0
10
35.500000
20
3.700000
30
0.0
11
35.500000
21
10.200000
31
0.0
0
ARC
8
0
10
0.500000
20
94.500000
30
0.0
40
0.500000
50
90.000000
51
180.000000
0
ARC
8
0
10
35.000000
20
3.700000
30
0.0
40
0.500000
50
270.000000
51
0.000000
0
LINE
8
0
10
0.500000
20
95.000000
30
0.0
11
4.300000
21
95.000000
31
0.0
0
LINE
8
0
10
34.800000
20
3.200000
30
0.0
11
35.000000
21
3.200000
31
0.0
0
ARC
8
0
10
4.300000
20
94.800000
30
0.0
40
0.200000
50
0.000000
51
90.000000
0
ARC
8
0
10
34.800000
20
3.700000
30
0.0
40
0.500000
50
180.000000
51
270.000000
0
LINE
8
0
10
4.500000
20
94.800000
30
0.0
11
4.500000
21
93.700000
31
0.0
0
LINE
8
0
10
34.300000
20
3.900000
30
0.0
11
34.300000
21
3.700000
31
0.0
0
ARC
8
0
10
4.300000
20
93.700000
30
0.0
40
0.200000
50
270.000000
51
0.000000
0
ARC
8
0
10
33.800000
20
3.900000
30
0.0
40
0.500000
50
0.000000
51
90.000000
0
LINE
8
0
10
4.300000
20
93.500000
30
0.0
11
2.200000
21
93.500000
31
0.0
0
LINE
8
0
10
33.600000
20
4.400000
30
0.0
11
33.800000
21
4.400000
31
0.0
0
ARC
8
0
10
2.200000
20
93.000000
30
0.0
40
0.500000
50
90.000000
51
180.000000
0
ARC
8
0
10
33.600000
20
3.900000
30
0.0
40
0.500000
50
90.000000
51
180.000000
0
LINE
8
0
10
1.700000
20
93.000000
30
0.0
11
1.700000
21
75.000000
31
0.0
0
LINE
8
0
10
33.100000
20
3.000000
30
0.0
11
33.100000
21
3.900000
31
0.0
0
ARC
8
0
10
2.200000
20
75.000000
30
0.0
40
0.500000
50
180.000000
51
270.000000
0
ARC
8
0
10
34.100000
20
3.000000
30
0.0
40
1.000000
50
180.000000
51
270.000000
0
LINE
8
0
10
2.200000
20
74.500000
30
0.0
11
41.800000
21
74.500000
31
0.0
0
LINE
8
0
10
36.000000
20
2.000000
30
0.0
11
34.100000
21
2.000000
31
0.0
0
ARC
8
0
10
41.800000
20
75.000000
30
0.0
40
0.500000
50
270.000000
51
0.000000
0
ARC
8
0
10
36.000000
20
3.000000
30
0.0
40
1.000000
50
270.000000
51
0.000000
0
LINE
8
0
10
42.300000
20
75.000000
30
0.0
11
42.300000
21
93.000000
31
0.0
0
LINE
8
0
10
37.000000
20
6.200000
30
0.0
11
37.000000
21
3.000000
31
0.0
0
ARC
8
0
10
41.800000
20
93.000000
30
0.0
40
0.500000
50
0.000000
51
90.000000
0
ARC
8
0
10
37.000000
20
6.700000
30
0.0
40
0.500000
50
270.000000
51
90.000000
0
LINE
8
0
10
41.800000
20
93.500000
30
0.0
11
39.700000
21
93.500000
31
0.0
0
LINE
8
0
10
37.000000
20
9.500000
30
0.0
11
37.000000
21
7.200000
31
0.0
0
ARC
8
0
10
39.700000
20
93.700000
30
0.0
40
0.200000
50
180.000000
51
270.000000
0
ARC
8
0
10
38.000000
20
9.500000
30
0.0
40
1.000000
50
90.000000
51
180.000000
0
LINE
8
0
10
39.500000
20
93.700000
30
0.0
11
39.500000
21
94.800000
31
0.0
0
LINE
8
0
10
41.000000
20
10.500000
30
0.0
11
38.000000
21
10.500000
31
0.0
0
ARC
8
0
10
39.700000
20
94.800000
30
0.0
40
0.200000
50
90.000000
51
180.000000
0
ARC
8
0
10
41.000000
20
9.500000
30
0.0
40
1.000000
50
0.000000
51
90.000000
0
LINE
8
0
10
39.700000
20
95.000000
30
0.0
11
43.500000
21
95.000000
31
0.0
0
LINE
8
0
10
42.000000
20
3.000000
30
0.0
11
42.000000
21
9.500000
31
0.0
0
ARC
8
0
10
43.500000
20
94.500000
30
0.0
40
0.500000
50
0.000000
51
90.000000
0
LINE
8
0
10
42.704548
20
0.370590
30
0.0
11
42.000000
21
3.000000
31
0.0
0
LINE
8
0
10
44.000000
20
94.500000
30
0.0
11
44.000000
21
0.500000
31
0.0
0
ARC
8
0
10
43.187511
20
0.500000
30
0.0
40
0.500000
50
195.000000
51
270.000000
0
ARC
8
0
10
43.500000
20
0.500000
30
0.0
40
0.500000
50
270.000000
51
0.000000
0
LINE
8
0
10
43.500000
20
0.000000
30
0.0
11
43.187511
21
0.000000
31
0.0
0
LINE
8
0
10
41.800000
20
72.500000
30
0.0
11
2.200000
21
72.500000
31
0.0
0
ARC
8
0
10
41.800000
20
72.000000
30
0.0
40
0.500000
50
0.000000
51
90.000000
0
ARC
8
0
10
2.200000
20
72.000000
30
0.0
40
0.500000
50
90.000000
51
180.000000
0
LINE
8
0
10
42.300000
20
71.000000
30
0.0
11
42.300000
21
72.000000
31
0.0
0
LINE
8
0
10
1.700000
20
72.000000
30
0.0
11
1.700000
21
71.000000
31
0.0
0
ARC
8
0
10
41.800000
20
71.000000
30
0.0
40
0.500000
50
270.000000
51
0.000000
0
ARC
8
0
10
2.200000
20
71.000000
30
0.0
40
0.500000
50
180.000000
51
270.000000
0
LINE
8
0
10
40.800000
20
70.500000
30
0.0
11
41.800000
21
70.500000
31
0.0
0
LINE
8
0
10
2.200000
20
70.500000
30
0.0
11
3.200000
21
70.500000
31
0.0
0
ARC
8
0
10
40.800000
20
70.000000
30
0.0
40
0.500000
50
90.000000
51
180.000000
0
ARC
8
0
10
3.200000
20
70.000000
30
0.0
40
0.500000
50
0.000000
51
90.000000
0
LINE
8
0
10
40.300000
20
69.500000
30
0.0
11
40.300000
21
70.000000
31
0.0
0
LINE
8
0
10
3.700000
20
70.000000
30
0.0
11
3.700000
21
69.500000
31
0.0
0
ARC
8
0
10
40.800000
20
69.500000
30
0.0
40
0.500000
50
180.000000
51
270.000000
0
ARC
8
0
10
3.200000
20
69.500000
30
0.0
40
0.500000
50
270.000000
51
0.000000
0
LINE
8
0
10
41.800000
20
69.000000
30
0.0
11
40.800000
21
69.000000
31
0.0
0
LINE
8
0
10
3.200000
20
69.000000
30
0.0
11
2.200000
21
69.000000
31
0.0
0
ARC
8
0
10
41.800000
20
68.500000
30
0.0
40
0.500000
50
0.000000
51
90.000000
0
ARC
8
0
10
2.200000
20
68.500000
30
0.0
40
0.500000
50
90.000000
51
180.000000
0
LINE
8
0
10
42.300000
20
58.500000
30
0.0
11
42.300000
21
68.500000
31
0.0
0
LINE
8
0
10
1.700000
20
68.500000
30
0.0
11
1.700000
21
58.500000
31
0.0
0
ARC
8
0
10
41.800000
20
58.500000
30
0.0
40
0.500000
50
270.000000
51
0.000000
0
ARC
8
0
10
2.200000
20
58.500000
30
0.0
40
0.500000
50
180.000000
51
270.000000
0
LINE
8
0
10
2.200000
20
58.000000
30
0.0
11
41.800000
21
58.000000
31
0.0
0
ATTDEF
8
0
10
0.000000
20
0.000000
30
0.0
40
3.5
1

3

2
FRONT_VIEW
70
0
0
ATTDEF
8
0
10
0.000000
20
0.000000
30
0.0
40
3.5
1

3

2
OPTI:500.000000,1,0,3000.000000,6900.000000,500.000000,0,0.000000,0
70
0
0
ATTDEF
8
0
10
0.000000
20
0.000000
30
0.0
40
3.5
1

3

2
GLASS_MIN:0.000000
70
0
0
ATTDEF
8
0
10
0.000000
20
0.000000
30
0.0
40
3.5
1

3

2
GLASS_MAX:0.000000
70
0
0
ATTDEF
8
0
10
0.000000
20
0.000000
30
0.0
40
3.5
1

3

2
WX:0.000000
70
0
0
ATTDEF
8
0
10
0.000000
20
0.000000
30
0.0
40
3.5
1

3

2
JY:0.000000
70
0
0
ATTDEF
8
0
10
0.000000
20
0.000000
30
0.0
40
3.5
1

3

2
WY:0.000000
70
0
0
ATTDEF
8
0
10
22.000000
20
74.500000
30
0.0
40
3.5
1

3

2
VC_START
70
0
0
ATTDEF
8
0
10
0.656244
20
0.000000
30
0.0
40
3.5
1

3

2
VC_END
70
0
0
ATTDEF
8
0
10
0.000000
20
0.000000
30
0.0
40
3.5
1

3

2
FP_LCS_ORIG
70
0
0
ATTDEF
8
0
10
10.000000
20
0.000000
30
0.0
40
3.5
1

3

2
FP_LCS_HOT
70
0
0
ATTDEF
8
0
10
0.000000
20
10.000000
30
0.0
40
3.5
1

3

2
FP_LCS_INTERN
70
0
0
ATTDEF
8
0
10
0.000000
20
0.000000
30
0.0
40
3.5
1

3

2
BL01:6200.000,,1
70
0
0
ATTDEF
8
0
10
0.000000
20
0.000000
30
0.0
40
3.5
1

3

2
DESC:Hoja Corrediza Alzante New X
70
0
0
ATTDEF
8
0
10
0.000000
20
0.000000
30
0.0
40
3.5
1

3

2
DENS:1.792
70
0
0
ATTDEF
8
0
10
0.000000
20
0.000000
30
0.0
40
3.5
1

3

2
TDEV:0
70
0
0
ATTDEF
8
0
10
0.000000
20
0.000000
30
0.0
40
3.5
1

3

2
TDEV2:0
70
0
0
ATTDEF
8
0
10
0.000000
20
0.000000
30
0.0
40
3.5
1

3

2
TDEV3:0
70
0
0
ATTDEF
8
0
10
0.000000
20
0.000000
30
0.0
40
3.5
1

3

2
TDEV4:0
70
0
0
ATTDEF
8
0
10
0.000000
20
0.000000
30
0.0
40
3.5
1

3

2
TDEV5:0
70
0
0
ATTDEF
8
0
10
0.000000
20
0.000000
30
0.0
40
3.5
1

3

2
PANE_WIDTH:0
70
0
0
ATTDEF
8
0
10
0.000000
20
0.000000
30
0.0
40
3.5
1

3

2
MIN_VETRO:0
70
0
0
ATTDEF
8
0
10
0.000000
20
0.000000
30
0.0
40
3.5
1

3

2
MAX_VETRO:0
70
0
0
ATTDEF
8
0
10
0.000000
20
0.000000
30
0.0
40
3.5
1

3

2
JX:0
70
0
0
ATTDEF
8
0
10
0.000000
20
0.000000
30
0.0
40
3.5
1

3

2
WX:0
70
0
0
ATTDEF
8
0
10
0.000000
20
0.000000
30
0.0
40
3.5
1

3

2
JY:0
70
0
0
ATTDEF
8
0
10
0.000000
20
0.000000
30
0.0
40
3.5
1

3

2
WY:0
70
0
0
ENDSEC
0
EOF
