0
SECTION
2
ENTITIES
0
LINE
8
0
10
41.000000
20
12.000000
30
0.0
11
107.000000
21
12.000000
31
0.0
0
ARC
8
0
10
41.000000
20
11.000000
30
0.0
40
1.000000
50
90.000000
51
180.000000
0
LINE
8
0
10
107.000000
20
52.600000
30
0.0
11
41.000000
21
52.600000
31
0.0
0
LINE
8
0
10
40.000000
20
0.500000
30
0.0
11
40.000000
21
11.000000
31
0.0
0
ARC
8
0
10
41.000000
20
53.600000
30
0.0
40
1.000000
50
180.000000
51
270.000000
0
ARC
8
0
10
39.500000
20
0.500000
30
0.0
40
0.500000
50
270.000000
51
0.000000
0
LINE
8
0
10
40.000000
20
53.600000
30
0.0
11
40.000000
21
77.500000
31
0.0
0
LINE
8
0
10
36.700000
20
0.000000
30
0.0
11
39.500000
21
0.000000
31
0.0
0
ARC
8
0
10
39.500000
20
77.500000
30
0.0
40
0.500000
50
0.000000
51
90.000000
0
ARC
8
0
10
36.700000
20
1.000000
30
0.0
40
1.000000
50
180.000000
51
270.000000
0
LINE
8
0
10
39.500000
20
78.000000
30
0.0
11
28.500000
21
78.000000
31
0.0
0
LINE
8
0
10
35.700000
20
2.200000
30
0.0
11
35.700000
21
1.000000
31
0.0
0
ARC
8
0
10
28.500000
20
77.500000
30
0.0
40
0.500000
50
90.000000
51
180.000000
0
ARC
8
0
10
36.200000
20
2.200000
30
0.0
40
0.500000
50
90.000000
51
180.000000
0
LINE
8
0
10
28.000000
20
77.500000
30
0.0
11
28.000000
21
77.100000
31
0.0
0
LINE
8
0
10
36.600000
20
2.700000
30
0.0
11
36.200000
21
2.700000
31
0.0
0
ARC
8
0
10
28.500000
20
77.100000
30
0.0
40
0.500000
50
180.000000
51
270.000000
0
ARC
8
0
10
36.600000
20
2.200000
30
0.0
40
0.500000
50
0.000000
51
90.000000
0
LINE
8
0
10
28.500000
20
76.600000
30
0.0
11
38.100000
21
76.600000
31
0.0
0
LINE
8
0
10
37.100000
20
1.900000
30
0.0
11
37.100000
21
2.200000
31
0.0
0
ARC
8
0
10
38.100000
20
76.100000
30
0.0
40
0.500000
50
0.000000
51
90.000000
0
ARC
8
0
10
37.600000
20
1.900000
30
0.0
40
0.500000
50
180.000000
51
270.000000
0
LINE
8
0
10
38.600000
20
76.100000
30
0.0
11
38.600000
21
59.100000
31
0.0
0
LINE
8
0
10
38.100000
20
1.400000
30
0.0
11
37.600000
21
1.400000
31
0.0
0
ARC
8
0
10
37.600000
20
59.100000
30
0.0
40
1.000000
50
270.000000
51
0.000000
0
ARC
8
0
10
38.100000
20
1.900000
30
0.0
40
0.500000
50
270.000000
51
0.000000
0
LINE
8
0
10
37.600000
20
58.100000
30
0.0
11
2.400000
21
58.100000
31
0.0
0
LINE
8
0
10
38.600000
20
8.300000
30
0.0
11
38.600000
21
1.900000
31
0.0
0
ARC
8
0
10
2.400000
20
59.100000
30
0.0
40
1.000000
50
180.000000
51
270.000000
0
ARC
8
0
10
38.100000
20
8.300000
30
0.0
40
0.500000
50
0.000000
51
90.000000
0
LINE
8
0
10
1.400000
20
59.100000
30
0.0
11
1.400000
21
76.100000
31
0.0
0
LINE
8
0
10
37.600000
20
8.800000
30
0.0
11
38.100000
21
8.800000
31
0.0
0
ARC
8
0
10
1.900000
20
76.100000
30
0.0
40
0.500000
50
90.000000
51
180.000000
0
ARC
8
0
10
37.600000
20
8.300000
30
0.0
40
0.500000
50
90.000000
51
180.000000
0
LINE
8
0
10
1.900000
20
76.600000
30
0.0
11
11.500000
21
76.600000
31
0.0
0
LINE
8
0
10
37.100000
20
8.000000
30
0.0
11
37.100000
21
8.300000
31
0.0
0
ARC
8
0
10
11.500000
20
77.100000
30
0.0
40
0.500000
50
270.000000
51
0.000000
0
ARC
8
0
10
36.600000
20
8.000000
30
0.0
40
0.500000
50
270.000000
51
0.000000
0
LINE
8
0
10
12.000000
20
77.100000
30
0.0
11
12.000000
21
77.500000
31
0.0
0
LINE
8
0
10
36.200000
20
7.500000
30
0.0
11
36.600000
21
7.500000
31
0.0
0
ARC
8
0
10
11.500000
20
77.500000
30
0.0
40
0.500000
50
0.000000
51
90.000000
0
ARC
8
0
10
36.200000
20
8.000000
30
0.0
40
0.500000
50
180.000000
51
270.000000
0
LINE
8
0
10
11.500000
20
78.000000
30
0.0
11
0.500000
21
78.000000
31
0.0
0
LINE
8
0
10
35.700000
20
11.400000
30
0.0
11
35.700000
21
8.000000
31
0.0
0
ARC
8
0
10
0.500000
20
77.500000
30
0.0
40
0.500000
50
90.000000
51
180.000000
0
ARC
8
0
10
36.200000
20
11.400000
30
0.0
40
0.500000
50
90.000000
51
180.000000
0
LINE
8
0
10
0.000000
20
77.500000
30
0.0
11
0.000000
21
0.500000
31
0.0
0
LINE
8
0
10
36.600000
20
11.900000
30
0.0
11
36.200000
21
11.900000
31
0.0
0
ARC
8
0
10
0.500000
20
0.500000
30
0.0
40
0.500000
50
180.000000
51
270.000000
0
ARC
8
0
10
36.600000
20
11.400000
30
0.0
40
0.500000
50
0.000000
51
90.000000
0
LINE
8
0
10
0.500000
20
0.000000
30
0.0
11
3.300000
21
0.000000
31
0.0
0
LINE
8
0
10
37.100000
20
10.600000
30
0.0
11
37.100000
21
11.400000
31
0.0
0
ARC
8
0
10
3.300000
20
1.000000
30
0.0
40
1.000000
50
270.000000
51
0.000000
0
ARC
8
0
10
37.600000
20
10.600000
30
0.0
40
0.500000
50
180.000000
51
270.000000
0
LINE
8
0
10
4.300000
20
1.000000
30
0.0
11
4.300000
21
2.200000
31
0.0
0
LINE
8
0
10
38.100000
20
10.100000
30
0.0
11
37.600000
21
10.100000
31
0.0
0
ARC
8
0
10
3.800000
20
2.200000
30
0.0
40
0.500000
50
0.000000
51
90.000000
0
ARC
8
0
10
38.100000
20
10.600000
30
0.0
40
0.500000
50
270.000000
51
0.000000
0
LINE
8
0
10
3.800000
20
2.700000
30
0.0
11
3.400000
21
2.700000
31
0.0
0
LINE
8
0
10
38.600000
20
35.500000
30
0.0
11
38.600000
21
10.600000
31
0.0
0
ARC
8
0
10
3.400000
20
2.200000
30
0.0
40
0.500000
50
90.000000
51
180.000000
0
ARC
8
0
10
38.100000
20
35.500000
30
0.0
40
0.500000
50
0.000000
51
90.000000
0
LINE
8
0
10
2.900000
20
2.200000
30
0.0
11
2.900000
21
1.900000
31
0.0
0
LINE
8
0
10
35.188163
20
36.000000
30
0.0
11
38.100000
21
36.000000
31
0.0
0
ARC
8
0
10
2.400000
20
1.900000
30
0.0
40
0.500000
50
270.000000
51
0.000000
0
ARC
8
0
10
35.188163
20
36.500000
30
0.0
40
0.500000
50
250.000000
51
270.000000
0
LINE
8
0
10
2.400000
20
1.400000
30
0.0
11
1.900000
21
1.400000
31
0.0
0
LINE
8
0
10
32.352523
20
37.000000
30
0.0
11
35.017153
21
36.030154
31
0.0
0
ARC
8
0
10
1.900000
20
1.900000
30
0.0
40
0.500000
50
180.000000
51
270.000000
0
LINE
8
0
10
28.050000
20
37.000000
30
0.0
11
32.352523
21
37.000000
31
0.0
0
LINE
8
0
10
1.400000
20
1.900000
30
0.0
11
1.400000
21
8.300000
31
0.0
0
ARC
8
0
10
28.050000
20
37.500000
30
0.0
40
0.500000
50
180.000000
51
270.000000
0
ARC
8
0
10
1.900000
20
8.300000
30
0.0
40
0.500000
50
90.000000
51
180.000000
0
LINE
8
0
10
27.550000
20
38.500000
30
0.0
11
27.550000
21
37.500000
31
0.0
0
LINE
8
0
10
1.900000
20
8.800000
30
0.0
11
2.400000
21
8.800000
31
0.0
0
ARC
8
0
10
28.050000
20
38.500000
30
0.0
40
0.500000
50
90.000000
51
180.000000
0
ARC
8
0
10
2.400000
20
8.300000
30
0.0
40
0.500000
50
0.000000
51
90.000000
0
LINE
8
0
10
29.550000
20
39.000000
30
0.0
11
28.050000
21
39.000000
31
0.0
0
LINE
8
0
10
2.900000
20
8.300000
30
0.0
11
2.900000
21
8.000000
31
0.0
0
ARC
8
0
10
29.550000
20
39.500000
30
0.0
40
0.500000
50
270.000000
51
0.000000
0
ARC
8
0
10
3.400000
20
8.000000
30
0.0
40
0.500000
50
180.000000
51
270.000000
0
LINE
8
0
10
30.050000
20
41.500000
30
0.0
11
30.050000
21
39.500000
31
0.0
0
LINE
8
0
10
3.400000
20
7.500000
30
0.0
11
3.800000
21
7.500000
31
0.0
0
ARC
8
0
10
29.550000
20
41.500000
30
0.0
40
0.500000
50
0.000000
51
90.000000
0
ARC
8
0
10
3.800000
20
8.000000
30
0.0
40
0.500000
50
270.000000
51
0.000000
0
LINE
8
0
10
28.050000
20
42.000000
30
0.0
11
29.550000
21
42.000000
31
0.0
0
LINE
8
0
10
4.300000
20
8.000000
30
0.0
11
4.300000
21
11.400000
31
0.0
0
ARC
8
0
10
28.050000
20
42.500000
30
0.0
40
0.500000
50
180.000000
51
270.000000
0
ARC
8
0
10
3.800000
20
11.400000
30
0.0
40
0.500000
50
0.000000
51
90.000000
0
LINE
8
0
10
27.550000
20
43.800000
30
0.0
11
27.550000
21
42.500000
31
0.0
0
LINE
8
0
10
3.800000
20
11.900000
30
0.0
11
3.400000
21
11.900000
31
0.0
0
ARC
8
0
10
27.050000
20
43.800000
30
0.0
40
0.500000
50
0.000000
51
90.000000
0
ARC
8
0
10
3.400000
20
11.400000
30
0.0
40
0.500000
50
90.000000
51
180.000000
0
LINE
8
0
10
12.950000
20
44.300000
30
0.0
11
27.050000
21
44.300000
31
0.0
0
LINE
8
0
10
2.900000
20
11.400000
30
0.0
11
2.900000
21
10.600000
31
0.0
0
ARC
8
0
10
12.950000
20
43.800000
30
0.0
40
0.500000
50
90.000000
51
180.000000
0
ARC
8
0
10
2.400000
20
10.600000
30
0.0
40
0.500000
50
270.000000
51
0.000000
0
LINE
8
0
10
12.450000
20
42.500000
30
0.0
11
12.450000
21
43.800000
31
0.0
0
LINE
8
0
10
2.400000
20
10.100000
30
0.0
11
1.900000
21
10.100000
31
0.0
0
ARC
8
0
10
11.950000
20
42.500000
30
0.0
40
0.500000
50
270.000000
51
0.000000
0
ARC
8
0
10
1.900000
20
10.600000
30
0.0
40
0.500000
50
180.000000
51
270.000000
0
LINE
8
0
10
10.450000
20
42.000000
30
0.0
11
11.950000
21
42.000000
31
0.0
0
LINE
8
0
10
1.400000
20
10.600000
30
0.0
11
1.400000
21
35.500000
31
0.0
0
ARC
8
0
10
10.450000
20
41.500000
30
0.0
40
0.500000
50
90.000000
51
180.000000
0
ARC
8
0
10
1.900000
20
35.500000
30
0.0
40
0.500000
50
90.000000
51
180.000000
0
LINE
8
0
10
9.950000
20
39.500000
30
0.0
11
9.950000
21
41.500000
31
0.0
0
LINE
8
0
10
1.900000
20
36.000000
30
0.0
11
4.811837
21
36.000000
31
0.0
0
ARC
8
0
10
10.450000
20
39.500000
30
0.0
40
0.500000
50
180.000000
51
270.000000
0
ARC
8
0
10
4.811837
20
36.500000
30
0.0
40
0.500000
50
270.000000
51
290.000000
0
LINE
8
0
10
11.950000
20
39.000000
30
0.0
11
10.450000
21
39.000000
31
0.0
0
LINE
8
0
10
4.982847
20
36.030154
30
0.0
11
7.647477
21
37.000000
31
0.0
0
ARC
8
0
10
11.950000
20
38.500000
30
0.0
40
0.500000
50
0.000000
51
90.000000
0
LINE
8
0
10
7.647477
20
37.000000
30
0.0
11
11.950000
21
37.000000
31
0.0
0
LINE
8
0
10
12.450000
20
37.500000
30
0.0
11
12.450000
21
38.500000
31
0.0
0
ARC
8
0
10
11.950000
20
37.500000
30
0.0
40
0.500000
50
270.000000
51
0.000000
0
ARC
8
0
10
41.000000
20
14.800000
30
0.0
40
1.000000
50
180.000000
51
270.000000
0
LINE
8
0
10
40.000000
20
14.800000
30
0.0
11
40.000000
21
49.800000
31
0.0
0
LINE
8
0
10
107.000000
20
13.800000
30
0.0
11
41.000000
21
13.800000
31
0.0
0
ARC
8
0
10
41.000000
20
49.800000
30
0.0
40
1.000000
50
90.000000
51
180.000000
0
LINE
8
0
10
41.000000
20
50.800000
30
0.0
11
107.000000
21
50.800000
31
0.0
0
LINE
8
0
10
28.950000
20
43.900000
30
0.0
11
28.950000
21
44.700000
31
0.0
0
ARC
8
0
10
27.950000
20
44.700000
30
0.0
40
1.000000
50
0.000000
51
90.000000
0
ARC
8
0
10
29.450000
20
43.900000
30
0.0
40
0.500000
50
180.000000
51
270.000000
0
LINE
8
0
10
27.950000
20
45.700000
30
0.0
11
12.050000
21
45.700000
31
0.0
0
LINE
8
0
10
30.450000
20
43.400000
30
0.0
11
29.450000
21
43.400000
31
0.0
0
ARC
8
0
10
12.050000
20
44.700000
30
0.0
40
1.000000
50
90.000000
51
180.000000
0
ARC
8
0
10
30.450000
20
42.400000
30
0.0
40
1.000000
50
0.000000
51
90.000000
0
LINE
8
0
10
11.050000
20
44.700000
30
0.0
11
11.050000
21
43.900000
31
0.0
0
LINE
8
0
10
31.450000
20
39.518548
30
0.0
11
31.450000
21
42.400000
31
0.0
0
ARC
8
0
10
10.550000
20
43.900000
30
0.0
40
0.500000
50
270.000000
51
0.000000
0
ARC
8
0
10
32.450000
20
39.518548
30
0.0
40
1.000000
50
180.000000
51
250.000000
0
LINE
8
0
10
10.550000
20
43.400000
30
0.0
11
9.550000
21
43.400000
31
0.0
0
LINE
8
0
10
35.264011
20
37.430154
30
0.0
11
32.107980
21
38.578855
31
0.0
0
ARC
8
0
10
9.550000
20
42.400000
30
0.0
40
1.000000
50
90.000000
51
180.000000
0
ARC
8
0
10
35.435021
20
37.900000
30
0.0
40
0.500000
50
250.000000
51
270.000000
0
LINE
8
0
10
8.550000
20
42.400000
30
0.0
11
8.550000
21
39.518548
31
0.0
0
LINE
8
0
10
37.600000
20
37.400000
30
0.0
11
35.435021
21
37.400000
31
0.0
0
ARC
8
0
10
7.550000
20
39.518548
30
0.0
40
1.000000
50
290.000000
51
0.000000
0
ARC
8
0
10
37.600000
20
38.400000
30
0.0
40
1.000000
50
270.000000
51
0.000000
0
LINE
8
0
10
7.892020
20
38.578855
30
0.0
11
4.735989
21
37.430154
31
0.0
0
LINE
8
0
10
38.600000
20
52.992893
30
0.0
11
38.600000
21
38.400000
31
0.0
0
ARC
8
0
10
4.564979
20
37.900000
30
0.0
40
0.500000
50
270.000000
51
290.000000
0
ARC
8
0
10
38.100000
20
52.992893
30
0.0
40
0.500000
50
0.000000
51
45.000000
0
LINE
8
0
10
4.564979
20
37.400000
30
0.0
11
2.400000
21
37.400000
31
0.0
0
LINE
8
0
10
38.246447
20
53.553553
30
0.0
11
38.453553
21
53.346447
31
0.0
0
ARC
8
0
10
2.400000
20
38.400000
30
0.0
40
1.000000
50
180.000000
51
270.000000
0
ARC
8
0
10
38.600000
20
53.907107
30
0.0
40
0.500000
50
180.000000
51
225.000000
0
LINE
8
0
10
1.400000
20
38.400000
30
0.0
11
1.400000
21
52.992893
31
0.0
0
LINE
8
0
10
38.100000
20
56.200000
30
0.0
11
38.100000
21
53.907107
31
0.0
0
ARC
8
0
10
1.900000
20
52.992893
30
0.0
40
0.500000
50
135.000000
51
180.000000
0
ARC
8
0
10
37.600000
20
56.200000
30
0.0
40
0.500000
50
0.000000
51
90.000000
0
LINE
8
0
10
1.546447
20
53.346447
30
0.0
11
1.753553
21
53.553553
31
0.0
0
LINE
8
0
10
2.400000
20
56.700000
30
0.0
11
37.600000
21
56.700000
31
0.0
0
ARC
8
0
10
1.400000
20
53.907107
30
0.0
40
0.500000
50
315.000000
51
0.000000
0
ARC
8
0
10
2.400000
20
56.200000
30
0.0
40
0.500000
50
90.000000
51
180.000000
0
LINE
8
0
10
1.900000
20
53.907107
30
0.0
11
1.900000
21
56.200000
31
0.0
0
ARC
8
0
10
107.000000
20
14.800000
30
0.0
40
2.800000
50
270.000000
51
0.000000
0
LINE
8
0
10
109.800000
20
14.800000
30
0.0
11
109.800000
21
49.800000
31
0.0
0
ARC
8
0
10
107.000000
20
49.800000
30
0.0
40
2.800000
50
0.000000
51
90.000000
0
ARC
8
0
10
107.000000
20
14.800000
30
0.0
40
1.000000
50
270.000000
51
0.000000
0
LINE
8
0
10
108.000000
20
49.800000
30
0.0
11
108.000000
21
14.800000
31
0.0
0
ARC
8
0
10
107.000000
20
49.800000
30
0.0
40
1.000000
50
0.000000
51
90.000000
0
ATTDEF
8
0
10
20.000000
20
58.100000
30
0.0
40
3.5
1

3

2
VC_START
70
0
0
ATTDEF
8
0
10
1.900000
20
0.000000
30
0.0
40
3.5
1

3

2
VC_END
70
0
0
ATTDEF
8
0
10
0.000000
20
0.000000
30
0.0
40
3.5
1

3

2
REAR_VIEW
70
0
0
ATTDEF
8
0
10
0.000000
20
0.000000
30
0.0
40
3.5
1

3

2
OPTI:500.000000,1,0,3000.000000,6900.000000,500.000000,0,0.000000,0
70
0
0
ATTDEF
8
0
10
0.000000
20
0.000000
30
0.0
40
3.5
1

3

2
GLASS_MIN:0.000000
70
0
0
ATTDEF
8
0
10
0.000000
20
0.000000
30
0.0
40
3.5
1

3

2
GLASS_MAX:0.000000
70
0
0
ATTDEF
8
0
10
0.000000
20
0.000000
30
0.0
40
3.5
1

3

2
JX:0.000000
70
0
0
ATTDEF
8
0
10
0.000000
20
0.000000
30
0.0
40
3.5
1

3

2
WX:0.000000
70
0
0
ATTDEF
8
0
10
0.000000
20
0.000000
30
0.0
40
3.5
1

3

2
JY:0.000000
70
0
0
ATTDEF
8
0
10
0.000000
20
0.000000
30
0.0
40
3.5
1

3

2
WY:0.000000
70
0
0
ATTDEF
8
0
10
109.800000
20
0.000000
30
0.0
40
3.5
1

3

2
FP_LCS_ORIG
70
0
0
ATTDEF
8
0
10
99.800000
20
0.000000
30
0.0
40
3.5
1

3

2
FP_LCS_HOT
70
0
0
ATTDEF
8
0
10
109.800000
20
10.000000
30
0.0
40
3.5
1

3

2
FP_LCS_INTERN
70
0
0
ATTDEF
8
0
10
0.000000
20
0.000000
30
0.0
40
3.5
1

3

2
BL01:6200.000,,1
70
0
0
ATTDEF
8
0
10
0.000000
20
0.000000
30
0.0
40
3.5
1

3

2
DESC:Parante central reforzado
70
0
0
ATTDEF
8
0
10
0.000000
20
0.000000
30
0.0
40
3.5
1

3

2
DENS:1.974
70
0
0
ATTDEF
8
0
10
0.000000
20
0.000000
30
0.0
40
3.5
1

3

2
TDEV:0
70
0
0
ATTDEF
8
0
10
0.000000
20
0.000000
30
0.0
40
3.5
1

3

2
TDEV2:0
70
0
0
ATTDEF
8
0
10
0.000000
20
0.000000
30
0.0
40
3.5
1

3

2
TDEV3:0
70
0
0
ATTDEF
8
0
10
0.000000
20
0.000000
30
0.0
40
3.5
1

3

2
TDEV4:0
70
0
0
ATTDEF
8
0
10
0.000000
20
0.000000
30
0.0
40
3.5
1

3

2
TDEV5:0
70
0
0
ATTDEF
8
0
10
0.000000
20
0.000000
30
0.0
40
3.5
1

3

2
PANE_WIDTH:0
70
0
0
ATTDEF
8
0
10
0.000000
20
0.000000
30
0.0
40
3.5
1

3

2
MIN_VETRO:0
70
0
0
ATTDEF
8
0
10
0.000000
20
0.000000
30
0.0
40
3.5
1

3

2
MAX_VETRO:0
70
0
0
ATTDEF
8
0
10
0.000000
20
0.000000
30
0.0
40
3.5
1

3

2
JX:0
70
0
0
ATTDEF
8
0
10
0.000000
20
0.000000
30
0.0
40
3.5
1

3

2
WX:0
70
0
0
ATTDEF
8
0
10
0.000000
20
0.000000
30
0.0
40
3.5
1

3

2
JY:0
70
0
0
ATTDEF
8
0
10
0.000000
20
0.000000
30
0.0
40
3.5
1

3

2
WY:0
70
0
0
ENDSEC
0
EOF
