0
SECTION
2
ENTITIES
0
ARC
8
0
10
71.213205
20
18.018250
30
0.0
40
1.200000
50
60.000000
51
90.000000
0
LINE
8
0
10
71.213205
20
19.218250
30
0.0
11
69.715036
21
19.218250
31
0.0
0
ARC
8
0
10
69.715036
20
19.518250
30
0.0
40
0.300000
50
215.000000
51
270.000000
0
LINE
8
0
10
69.469290
20
19.346177
30
0.0
11
67.826849
21
21.691827
31
0.0
0
ARC
8
0
10
67.007697
20
21.118250
30
0.0
40
1.000000
50
35.000000
51
90.000000
0
LINE
8
0
10
67.007697
20
22.118250
30
0.0
11
61.192303
21
22.118250
31
0.0
0
ARC
8
0
10
61.192303
20
21.118250
30
0.0
40
1.000000
50
90.000000
51
145.000000
0
LINE
8
0
10
60.373151
20
21.691827
30
0.0
11
58.730710
21
19.346177
31
0.0
0
ARC
8
0
10
58.484964
20
19.518250
30
0.0
40
0.300000
50
270.000000
51
325.000000
0
LINE
8
0
10
58.484964
20
19.218250
30
0.0
11
56.986795
21
19.218250
31
0.0
0
ARC
8
0
10
56.986795
20
18.018250
30
0.0
40
1.200000
50
90.000000
51
120.000000
0
LINE
8
0
10
56.386795
20
19.057481
30
0.0
11
54.806410
21
18.145045
31
0.0
0
ARC
8
0
10
54.706410
20
18.318250
30
0.0
40
0.200000
50
270.000000
51
300.000000
0
LINE
8
0
10
54.706410
20
18.118250
30
0.0
11
54.500000
21
18.118250
31
0.0
0
ARC
8
0
10
54.500000
20
18.518250
30
0.0
40
0.400000
50
180.000000
51
270.000000
0
LINE
8
0
10
54.100000
20
18.518250
30
0.0
11
54.100000
21
19.018250
31
0.0
0
ARC
8
0
10
54.200000
20
19.018250
30
0.0
40
0.100000
50
90.000000
51
180.000000
0
LINE
8
0
10
54.200000
20
19.118250
30
0.0
11
54.200000
21
19.493250
31
0.0
0
ARC
8
0
10
54.400000
20
19.493250
30
0.0
40
0.200000
50
90.000000
51
180.000000
0
LINE
8
0
10
54.400000
20
19.693250
30
0.0
11
54.511806
21
19.693250
31
0.0
0
LINE
8
0
10
54.596355
20
19.674500
30
0.0
11
54.511806
21
19.693250
31
0.0
0
ARC
8
0
10
54.850000
20
20.218250
30
0.0
40
0.600000
50
244.992167
51
0.000000
0
ARC
8
0
10
54.850000
20
20.218250
30
0.0
40
0.600000
50
0.000000
51
115.007833
0
LINE
8
0
10
54.511806
20
20.743250
30
0.0
11
54.596355
21
20.762000
31
0.0
0
LINE
8
0
10
54.511806
20
20.743250
30
0.0
11
54.400000
21
20.743250
31
0.0
0
ARC
8
0
10
54.400000
20
20.943250
30
0.0
40
0.200000
50
180.000000
51
270.000000
0
LINE
8
0
10
54.200000
20
20.943250
30
0.0
11
54.200000
21
21.318250
31
0.0
0
ARC
8
0
10
54.200000
20
21.418250
30
0.0
40
0.100000
50
180.000000
51
270.000000
0
LINE
8
0
10
54.100000
20
21.418250
30
0.0
11
54.100000
21
21.918250
31
0.0
0
ARC
8
0
10
54.500000
20
21.918250
30
0.0
40
0.400000
50
90.000000
51
180.000000
0
LINE
8
0
10
54.500000
20
22.318250
30
0.0
11
54.706410
21
22.318250
31
0.0
0
ARC
8
0
10
54.706410
20
22.118250
30
0.0
40
0.200000
50
60.000000
51
90.000000
0
LINE
8
0
10
54.806410
20
22.291455
30
0.0
11
55.800000
21
21.717806
31
0.0
0
LINE
8
0
10
55.800000
20
21.717806
30
0.0
11
56.386795
21
21.379020
31
0.0
0
ARC
8
0
10
56.986795
20
22.418250
30
0.0
40
1.200000
50
240.000000
51
270.000000
0
LINE
8
0
10
56.986795
20
21.218250
30
0.0
11
57.443830
21
21.218250
31
0.0
0
ARC
8
0
10
57.443830
20
21.518250
30
0.0
40
0.300000
50
270.000000
51
325.000000
0
LINE
8
0
10
57.689575
20
21.346177
30
0.0
11
59.481309
21
23.905039
31
0.0
0
ARC
8
0
10
59.890885
20
23.618250
30
0.0
40
0.500000
50
90.000000
51
145.000000
0
LINE
8
0
10
59.890885
20
24.118250
30
0.0
11
64.830056
21
24.118250
31
0.0
0
LINE
8
0
10
64.830056
20
24.118250
30
0.0
11
68.309115
21
24.118250
31
0.0
0
ARC
8
0
10
68.309115
20
23.618250
30
0.0
40
0.500000
50
35.000000
51
90.000000
0
LINE
8
0
10
68.718691
20
23.905039
30
0.0
11
70.510425
21
21.346177
31
0.0
0
ARC
8
0
10
70.756170
20
21.518250
30
0.0
40
0.300000
50
215.000000
51
270.000000
0
LINE
8
0
10
70.756170
20
21.218250
30
0.0
11
71.213205
21
21.218250
31
0.0
0
ARC
8
0
10
71.213205
20
22.418250
30
0.0
40
1.200000
50
270.000000
51
300.000000
0
LINE
8
0
10
71.813205
20
21.379020
30
0.0
11
72.400000
21
21.717806
31
0.0
0
LINE
8
0
10
72.400000
20
21.717806
30
0.0
11
73.393590
21
22.291455
31
0.0
0
ARC
8
0
10
73.493590
20
22.118250
30
0.0
40
0.200000
50
90.000000
51
120.000000
0
LINE
8
0
10
73.493590
20
22.318250
30
0.0
11
73.700000
21
22.318250
31
0.0
0
ARC
8
0
10
73.700000
20
21.918250
30
0.0
40
0.400000
50
0.000000
51
90.000000
0
LINE
8
0
10
74.100000
20
21.918250
30
0.0
11
74.100000
21
21.418250
31
0.0
0
ARC
8
0
10
74.000000
20
21.418250
30
0.0
40
0.100000
50
270.000000
51
0.000000
0
LINE
8
0
10
74.000000
20
21.318250
30
0.0
11
74.000000
21
20.943250
31
0.0
0
ARC
8
0
10
73.800000
20
20.943250
30
0.0
40
0.200000
50
270.000000
51
0.000000
0
LINE
8
0
10
73.800000
20
20.743250
30
0.0
11
73.688194
21
20.743250
31
0.0
0
LINE
8
0
10
73.603645
20
20.762000
30
0.0
11
73.688194
21
20.743250
31
0.0
0
ARC
8
0
10
73.350000
20
20.218250
30
0.0
40
0.600000
50
64.992167
51
180.000000
0
ARC
8
0
10
73.350000
20
20.218250
30
0.0
40
0.600000
50
180.000000
51
295.007833
0
LINE
8
0
10
73.688194
20
19.693250
30
0.0
11
73.603645
21
19.674500
31
0.0
0
LINE
8
0
10
73.688194
20
19.693250
30
0.0
11
73.800000
21
19.693250
31
0.0
0
ARC
8
0
10
73.800000
20
19.493250
30
0.0
40
0.200000
50
0.000000
51
90.000000
0
LINE
8
0
10
74.000000
20
19.493250
30
0.0
11
74.000000
21
19.118250
31
0.0
0
ARC
8
0
10
74.000000
20
19.018250
30
0.0
40
0.100000
50
0.000000
51
90.000000
0
LINE
8
0
10
74.100000
20
19.018250
30
0.0
11
74.100000
21
18.518250
31
0.0
0
ARC
8
0
10
73.700000
20
18.518250
30
0.0
40
0.400000
50
270.000000
51
0.000000
0
LINE
8
0
10
73.700000
20
18.118250
30
0.0
11
73.493590
21
18.118250
31
0.0
0
ARC
8
0
10
73.493590
20
18.318250
30
0.0
40
0.200000
50
240.000000
51
270.000000
0
LINE
8
0
10
73.393590
20
18.145045
30
0.0
11
72.400000
21
18.718695
31
0.0
0
LINE
8
0
10
72.400000
20
18.718695
30
0.0
11
71.813205
21
19.057481
31
0.0
0
ARC
8
0
10
71.213205
20
12.718251
30
0.0
40
1.200000
50
270.000000
51
300.000000
0
LINE
8
0
10
71.213205
20
11.518251
30
0.0
11
69.715036
21
11.518251
31
0.0
0
ARC
8
0
10
69.715036
20
11.218251
30
0.0
40
0.300000
50
90.000000
51
145.000000
0
LINE
8
0
10
69.469290
20
11.390324
30
0.0
11
67.826849
21
9.044674
31
0.0
0
ARC
8
0
10
67.007697
20
9.618251
30
0.0
40
1.000000
50
270.000000
51
325.000000
0
LINE
8
0
10
67.007697
20
8.618251
30
0.0
11
61.192303
21
8.618251
31
0.0
0
ARC
8
0
10
61.192303
20
9.618251
30
0.0
40
1.000000
50
215.000000
51
270.000000
0
LINE
8
0
10
60.373151
20
9.044674
30
0.0
11
58.730710
21
11.390324
31
0.0
0
ARC
8
0
10
58.484964
20
11.218251
30
0.0
40
0.300000
50
35.000000
51
90.000000
0
LINE
8
0
10
58.484964
20
11.518251
30
0.0
11
56.986795
21
11.518251
31
0.0
0
ARC
8
0
10
56.986795
20
12.718251
30
0.0
40
1.200000
50
240.000000
51
270.000000
0
LINE
8
0
10
56.386795
20
11.679020
30
0.0
11
54.806410
21
12.591456
31
0.0
0
ARC
8
0
10
54.706410
20
12.418251
30
0.0
40
0.200000
50
60.000000
51
90.000000
0
LINE
8
0
10
54.706410
20
12.618251
30
0.0
11
54.500000
21
12.618251
31
0.0
0
ARC
8
0
10
54.500000
20
12.218251
30
0.0
40
0.400000
50
90.000000
51
180.000000
0
LINE
8
0
10
54.100000
20
12.218251
30
0.0
11
54.100000
21
11.718251
31
0.0
0
ARC
8
0
10
54.200000
20
11.718251
30
0.0
40
0.100000
50
180.000000
51
270.000000
0
LINE
8
0
10
54.200000
20
11.618251
30
0.0
11
54.200000
21
11.243251
31
0.0
0
ARC
8
0
10
54.400000
20
11.243251
30
0.0
40
0.200000
50
180.000000
51
270.000000
0
LINE
8
0
10
54.400000
20
11.043251
30
0.0
11
54.511806
21
11.043251
31
0.0
0
LINE
8
0
10
54.511806
20
11.043251
30
0.0
11
54.596355
21
11.062001
31
0.0
0
ARC
8
0
10
54.850000
20
10.518251
30
0.0
40
0.600000
50
0.000000
51
115.007833
0
ARC
8
0
10
54.850000
20
10.518251
30
0.0
40
0.600000
50
244.992167
51
0.000000
0
LINE
8
0
10
54.596355
20
9.974501
30
0.0
11
54.511806
21
9.993251
31
0.0
0
LINE
8
0
10
54.511806
20
9.993251
30
0.0
11
54.400000
21
9.993251
31
0.0
0
ARC
8
0
10
54.400000
20
9.793251
30
0.0
40
0.200000
50
90.000000
51
180.000000
0
LINE
8
0
10
54.200000
20
9.793251
30
0.0
11
54.200000
21
9.418251
31
0.0
0
ARC
8
0
10
54.200000
20
9.318251
30
0.0
40
0.100000
50
90.000000
51
180.000000
0
LINE
8
0
10
54.100000
20
9.318251
30
0.0
11
54.100000
21
8.818251
31
0.0
0
ARC
8
0
10
54.500000
20
8.818251
30
0.0
40
0.400000
50
180.000000
51
270.000000
0
LINE
8
0
10
54.500000
20
8.418251
30
0.0
11
54.706410
21
8.418251
31
0.0
0
ARC
8
0
10
54.706410
20
8.618251
30
0.0
40
0.200000
50
270.000000
51
300.000000
0
LINE
8
0
10
54.806410
20
8.445046
30
0.0
11
55.800000
21
9.018695
31
0.0
0
LINE
8
0
10
55.800000
20
9.018695
30
0.0
11
56.386795
21
9.357481
31
0.0
0
ARC
8
0
10
56.986795
20
8.318251
30
0.0
40
1.200000
50
90.000000
51
120.000000
0
LINE
8
0
10
56.986795
20
9.518251
30
0.0
11
57.443830
21
9.518251
31
0.0
0
ARC
8
0
10
57.443830
20
9.218251
30
0.0
40
0.300000
50
35.000000
51
90.000000
0
LINE
8
0
10
57.689575
20
9.390324
30
0.0
11
59.481309
21
6.831462
31
0.0
0
ARC
8
0
10
59.890885
20
7.118251
30
0.0
40
0.500000
50
215.000000
51
270.000000
0
LINE
8
0
10
59.890885
20
6.618251
30
0.0
11
64.830056
21
6.618251
31
0.0
0
LINE
8
0
10
64.830056
20
6.618251
30
0.0
11
68.309115
21
6.618251
31
0.0
0
ARC
8
0
10
68.309115
20
7.118251
30
0.0
40
0.500000
50
270.000000
51
325.000000
0
LINE
8
0
10
68.718691
20
6.831462
30
0.0
11
70.510425
21
9.390324
31
0.0
0
ARC
8
0
10
70.756170
20
9.218251
30
0.0
40
0.300000
50
90.000000
51
145.000000
0
LINE
8
0
10
70.756170
20
9.518251
30
0.0
11
71.213205
21
9.518251
31
0.0
0
ARC
8
0
10
71.213205
20
8.318251
30
0.0
40
1.200000
50
60.000000
51
90.000000
0
LINE
8
0
10
71.813205
20
9.357481
30
0.0
11
72.400000
21
9.018695
31
0.0
0
LINE
8
0
10
72.400000
20
9.018695
30
0.0
11
73.393590
21
8.445046
31
0.0
0
ARC
8
0
10
73.493590
20
8.618251
30
0.0
40
0.200000
50
240.000000
51
270.000000
0
LINE
8
0
10
73.493590
20
8.418251
30
0.0
11
73.700000
21
8.418251
31
0.0
0
ARC
8
0
10
73.700000
20
8.818251
30
0.0
40
0.400000
50
270.000000
51
0.000000
0
LINE
8
0
10
74.100000
20
8.818251
30
0.0
11
74.100000
21
9.318251
31
0.0
0
ARC
8
0
10
74.000000
20
9.318251
30
0.0
40
0.100000
50
0.000000
51
90.000000
0
LINE
8
0
10
74.000000
20
9.418251
30
0.0
11
74.000000
21
9.793251
31
0.0
0
ARC
8
0
10
73.800000
20
9.793251
30
0.0
40
0.200000
50
0.000000
51
90.000000
0
LINE
8
0
10
73.800000
20
9.993251
30
0.0
11
73.688194
21
9.993251
31
0.0
0
LINE
8
0
10
73.688194
20
9.993251
30
0.0
11
73.603645
21
9.974501
31
0.0
0
ARC
8
0
10
73.350000
20
10.518251
30
0.0
40
0.600000
50
180.000000
51
295.007833
0
ARC
8
0
10
73.350000
20
10.518251
30
0.0
40
0.600000
50
64.992167
51
180.000000
0
LINE
8
0
10
73.603645
20
11.062001
30
0.0
11
73.688194
21
11.043251
31
0.0
0
LINE
8
0
10
73.688194
20
11.043251
30
0.0
11
73.800000
21
11.043251
31
0.0
0
ARC
8
0
10
73.800000
20
11.243251
30
0.0
40
0.200000
50
270.000000
51
0.000000
0
LINE
8
0
10
74.000000
20
11.243251
30
0.0
11
74.000000
21
11.618251
31
0.0
0
ARC
8
0
10
74.000000
20
11.718251
30
0.0
40
0.100000
50
270.000000
51
0.000000
0
LINE
8
0
10
74.100000
20
11.718251
30
0.0
11
74.100000
21
12.218251
31
0.0
0
ARC
8
0
10
73.700000
20
12.218251
30
0.0
40
0.400000
50
0.000000
51
90.000000
0
LINE
8
0
10
73.700000
20
12.618251
30
0.0
11
73.493590
21
12.618251
31
0.0
0
ARC
8
0
10
73.493590
20
12.418251
30
0.0
40
0.200000
50
90.000000
51
120.000000
0
LINE
8
0
10
73.393590
20
12.591456
30
0.0
11
72.400000
21
12.017806
31
0.0
0
LINE
8
0
10
72.400000
20
12.017806
30
0.0
11
71.813205
21
11.679020
31
0.0
0
LINE
8
0
10
33.400000
20
22.700000
30
0.0
11
37.500000
21
22.700000
31
0.0
0
ARC
8
0
10
37.500000
20
22.200000
30
0.0
40
0.500000
50
0.000000
51
90.000000
0
LINE
8
0
10
38.000000
20
22.200000
30
0.0
11
38.000000
21
21.200000
31
0.0
0
ARC
8
0
10
38.500000
20
21.200000
30
0.0
40
0.500000
50
180.000000
51
270.000000
0
LINE
8
0
10
38.500000
20
20.700000
30
0.0
11
39.000000
21
20.700000
31
0.0
0
ARC
8
0
10
39.000000
20
21.200000
30
0.0
40
0.500000
50
270.000000
51
0.000000
0
LINE
8
0
10
39.500000
20
21.200000
30
0.0
11
39.500000
21
22.200000
31
0.0
0
ARC
8
0
10
40.000000
20
22.200000
30
0.0
40
0.500000
50
90.000000
51
180.000000
0
LINE
8
0
10
40.000000
20
22.700000
30
0.0
11
51.300000
21
22.700000
31
0.0
0
ARC
8
0
10
51.300000
20
21.700000
30
0.0
40
1.000000
50
0.000000
51
90.000000
0
LINE
8
0
10
52.300000
20
21.700000
30
0.0
11
52.300000
21
9.200000
31
0.0
0
ARC
8
0
10
51.300000
20
9.200000
30
0.0
40
1.000000
50
270.000000
51
0.000000
0
LINE
8
0
10
51.300000
20
8.200000
30
0.0
11
2.000000
21
8.200000
31
0.0
0
ARC
8
0
10
2.000000
20
8.700000
30
0.0
40
0.500000
50
180.000000
51
270.000000
0
LINE
8
0
10
1.500000
20
8.700000
30
0.0
11
1.500000
21
22.200000
31
0.0
0
ARC
8
0
10
2.000000
20
22.200000
30
0.0
40
0.500000
50
90.000000
51
180.000000
0
LINE
8
0
10
2.000000
20
22.700000
30
0.0
11
3.000000
21
22.700000
31
0.0
0
ARC
8
0
10
3.000000
20
23.200000
30
0.0
40
0.500000
50
270.000000
51
0.000000
0
LINE
8
0
10
3.500000
20
23.200000
30
0.0
11
3.500000
21
24.000000
31
0.0
0
ARC
8
0
10
4.000000
20
24.000000
30
0.0
40
0.500000
50
90.000000
51
180.000000
0
LINE
8
0
10
4.000000
20
24.500000
30
0.0
11
32.400000
21
24.500000
31
0.0
0
ARC
8
0
10
32.400000
20
24.000000
30
0.0
40
0.500000
50
0.000000
51
90.000000
0
LINE
8
0
10
32.900000
20
24.000000
30
0.0
11
32.900000
21
23.200000
31
0.0
0
ARC
8
0
10
33.400000
20
23.200000
30
0.0
40
0.500000
50
180.000000
51
270.000000
0
ARC
8
0
10
56.336563
20
21.649063
30
0.0
40
0.200000
50
354.949637
51
54.949637
0
LINE
8
0
10
56.535787
20
21.631457
30
0.0
11
56.520539
21
21.458924
31
0.0
0
ARC
8
0
10
56.719763
20
21.441318
30
0.0
40
0.200000
50
174.949637
51
294.949637
0
LINE
8
0
10
56.804127
20
21.259982
30
0.0
11
57.287246
21
21.484747
31
0.0
0
ARC
8
0
10
57.181790
20
21.711417
30
0.0
40
0.250000
50
294.949637
51
334.949637
0
LINE
8
0
10
57.408274
20
21.605563
30
0.0
11
58.420649
21
23.771635
31
0.0
0
ARC
8
0
10
58.148868
20
23.898660
30
0.0
40
0.300000
50
334.949637
51
90.000000
0
LINE
8
0
10
58.149132
20
24.198660
30
0.0
11
56.624273
21
24.200000
31
0.0
0
ARC
8
0
10
56.624054
20
23.950000
30
0.0
40
0.250000
50
90.000000
51
157.135547
0
ARC
8
0
10
56.163340
20
24.144276
30
0.0
40
0.250000
50
202.864465
51
337.135547
0
ARC
8
0
10
55.702627
20
23.950000
30
0.0
40
0.250000
50
22.864465
51
90.000000
0
LINE
8
0
10
55.702627
20
24.200000
30
0.0
11
35.700000
21
24.200000
31
0.0
0
ARC
8
0
10
35.700000
20
25.200000
30
0.0
40
1.000000
50
180.000000
51
270.000000
0
LINE
8
0
10
34.700000
20
25.200000
30
0.0
11
34.700000
21
45.950000
31
0.0
0
ARC
8
0
10
34.950000
20
45.950000
30
0.0
40
0.250000
50
90.000000
51
180.000000
0
LINE
8
0
10
34.950000
20
46.200000
30
0.0
11
36.250000
21
46.200000
31
0.0
0
ARC
8
0
10
36.250000
20
46.450000
30
0.0
40
0.250000
50
270.000000
51
0.000000
0
LINE
8
0
10
36.500000
20
46.450000
30
0.0
11
36.500000
21
47.500000
31
0.0
0
ARC
8
0
10
36.000000
20
47.500000
30
0.0
40
0.500000
50
0.000000
51
90.000000
0
LINE
8
0
10
36.000000
20
48.000000
30
0.0
11
34.693154
21
48.000000
31
0.0
0
LINE
8
0
10
34.649742
20
48.003798
30
0.0
11
34.693154
21
48.000000
31
0.0
0
LINE
8
0
10
34.649742
20
48.003798
30
0.0
11
29.043412
21
48.992345
31
0.0
0
LINE
8
0
10
29.043412
20
48.992345
30
0.0
11
29.000000
21
48.996143
31
0.0
0
LINE
8
0
10
28.956588
20
48.992345
30
0.0
11
23.350258
21
48.003798
31
0.0
0
LINE
8
0
10
23.306846
20
48.000000
30
0.0
11
23.350258
21
48.003798
31
0.0
0
LINE
8
0
10
23.306846
20
48.000000
30
0.0
11
22.000000
21
48.000000
31
0.0
0
ARC
8
0
10
22.000000
20
47.500000
30
0.0
40
0.500000
50
90.000000
51
180.000000
0
LINE
8
0
10
21.500000
20
47.500000
30
0.0
11
21.500000
21
39.500000
31
0.0
0
ARC
8
0
10
22.000000
20
39.500000
30
0.0
40
0.500000
50
180.000000
51
270.000000
0
LINE
8
0
10
22.000000
20
39.000000
30
0.0
11
22.400000
21
39.000000
31
0.0
0
ARC
8
0
10
22.400000
20
39.500000
30
0.0
40
0.500000
50
270.000000
51
0.000000
0
LINE
8
0
10
22.900000
20
39.500000
30
0.0
11
22.900000
21
45.613709
31
0.0
0
ARC
8
0
10
23.900000
20
45.613709
30
0.0
40
1.000000
50
100.000000
51
180.000000
0
LINE
8
0
10
23.726352
20
46.598516
30
0.0
11
28.956588
21
47.520748
31
0.0
0
LINE
8
0
10
29.043412
20
47.520748
30
0.0
11
28.956588
21
47.520748
31
0.0
0
LINE
8
0
10
29.043412
20
47.520748
30
0.0
11
31.247296
21
47.132144
31
0.0
0
ARC
8
0
10
30.900000
20
45.162528
30
0.0
40
2.000000
50
0.000000
51
80.000000
0
LINE
8
0
10
32.900000
20
45.162528
30
0.0
11
32.900000
21
27.000000
31
0.0
0
ARC
8
0
10
31.900000
20
27.000000
30
0.0
40
1.000000
50
270.000000
51
0.000000
0
LINE
8
0
10
31.900000
20
26.000000
30
0.0
11
1.000000
21
26.000000
31
0.0
0
ARC
8
0
10
1.000000
20
25.000000
30
0.0
40
1.000000
50
90.000000
51
180.000000
0
LINE
8
0
10
0.000000
20
25.000000
30
0.0
11
0.000000
21
0.500000
31
0.0
0
ARC
8
0
10
0.500000
20
0.500000
30
0.0
40
0.500000
50
180.000000
51
270.000000
0
LINE
8
0
10
0.500000
20
0.000000
30
0.0
11
0.911325
21
0.000000
31
0.0
0
ARC
8
0
10
0.911325
20
0.500000
30
0.0
40
0.500000
50
270.000000
51
330.000000
0
LINE
8
0
10
1.344338
20
0.250000
30
0.0
11
1.933013
21
1.269615
31
0.0
0
ARC
8
0
10
1.500000
20
1.519615
30
0.0
40
0.500000
50
330.000000
51
60.000000
0
LINE
8
0
10
1.750000
20
1.952628
30
0.0
11
1.450000
21
2.125833
31
0.0
0
ARC
8
0
10
1.700000
20
2.558846
30
0.0
40
0.500000
50
180.000000
51
240.000000
0
LINE
8
0
10
1.200000
20
2.558846
30
0.0
11
1.200000
21
4.950000
31
0.0
0
ARC
8
0
10
2.950000
20
4.950000
30
0.0
40
1.750000
50
0.000000
51
180.000000
0
LINE
8
0
10
4.700000
20
4.950000
30
0.0
11
4.700000
21
1.453939
31
0.0
0
ARC
8
0
10
4.200000
20
1.453939
30
0.0
40
0.500000
50
287.457603
51
0.000000
0
ARC
8
0
10
4.500000
20
0.500000
30
0.0
40
0.500000
50
107.457603
51
270.000000
0
LINE
8
0
10
4.500000
20
0.000000
30
0.0
11
10.400000
21
-0.000000
31
0.0
0
ARC
8
0
10
10.400000
20
0.600000
30
0.0
40
0.600000
50
270.000000
51
90.000000
0
LINE
8
0
10
10.400000
20
1.200000
30
0.0
11
6.400000
21
1.200000
31
0.0
0
ARC
8
0
10
6.400000
20
1.700000
30
0.0
40
0.500000
50
180.000000
51
270.000000
0
LINE
8
0
10
5.900000
20
1.700000
30
0.0
11
5.900000
21
6.200000
31
0.0
0
ARC
8
0
10
6.400000
20
6.200000
30
0.0
40
0.500000
50
90.000000
51
180.000000
0
LINE
8
0
10
6.400000
20
6.700000
30
0.0
11
55.702627
21
6.700000
31
0.0
0
ARC
8
0
10
55.702627
20
6.950000
30
0.0
40
0.250000
50
270.000000
51
337.135568
0
ARC
8
0
10
56.163340
20
6.755724
30
0.0
40
0.250000
50
22.864453
51
157.135568
0
ARC
8
0
10
56.624054
20
6.950000
30
0.0
40
0.250000
50
202.864453
51
270.000000
0
LINE
8
0
10
56.624273
20
6.700000
30
0.0
11
58.149132
21
6.701341
31
0.0
0
ARC
8
0
10
58.148868
20
7.001341
30
0.0
40
0.300000
50
270.000000
51
25.050363
0
LINE
8
0
10
58.420649
20
7.128365
30
0.0
11
57.408274
21
9.294437
31
0.0
0
ARC
8
0
10
57.181790
20
9.188583
30
0.0
40
0.250000
50
25.050363
51
65.050363
0
LINE
8
0
10
57.287246
20
9.415253
30
0.0
11
56.804127
21
9.640018
31
0.0
0
ARC
8
0
10
56.719763
20
9.458682
30
0.0
40
0.200000
50
65.050363
51
185.050363
0
LINE
8
0
10
56.520539
20
9.441076
30
0.0
11
56.535787
21
9.268543
31
0.0
0
ARC
8
0
10
56.336563
20
9.250937
30
0.0
40
0.200000
50
305.050363
51
5.050363
0
LINE
8
0
10
56.451422
20
9.087208
30
0.0
11
54.887148
21
7.989841
31
0.0
0
ARC
8
0
10
54.600000
20
8.399164
30
0.0
40
0.500000
50
180.000000
51
305.050363
0
LINE
8
0
10
54.100000
20
8.399164
30
0.0
11
54.100000
21
12.700000
31
0.0
0
ARC
8
0
10
54.400000
20
12.700000
30
0.0
40
0.300000
50
90.000000
51
180.000000
0
LINE
8
0
10
54.400000
20
13.000000
30
0.0
11
54.700000
21
13.000000
31
0.0
0
LINE
8
0
10
54.700000
20
13.000000
30
0.0
11
56.295798
21
12.025921
31
0.0
0
ARC
8
0
10
56.400000
20
12.196631
30
0.0
40
0.200000
50
238.600000
51
0.000000
0
LINE
8
0
10
56.600000
20
12.196631
30
0.0
11
56.600000
21
13.199855
31
0.0
0
ARC
8
0
10
56.100000
20
13.199855
30
0.0
40
0.500000
50
0.000000
51
58.600000
0
LINE
8
0
10
56.360505
20
13.626631
30
0.0
11
54.771687
21
14.596449
31
0.0
0
ARC
8
0
10
55.292696
20
15.450000
30
0.0
40
1.000000
50
121.400000
51
238.600000
0
LINE
8
0
10
54.771687
20
16.303551
30
0.0
11
56.360505
21
17.273370
31
0.0
0
ARC
8
0
10
56.100000
20
17.700145
30
0.0
40
0.500000
50
301.400000
51
0.000000
0
LINE
8
0
10
56.600000
20
17.700145
30
0.0
11
56.600000
21
18.703369
31
0.0
0
ARC
8
0
10
56.400000
20
18.703369
30
0.0
40
0.200000
50
0.000000
51
121.400000
0
LINE
8
0
10
56.295798
20
18.874080
30
0.0
11
54.700000
21
17.900000
31
0.0
0
LINE
8
0
10
54.700000
20
17.900000
30
0.0
11
54.400000
21
17.900000
31
0.0
0
ARC
8
0
10
54.400000
20
18.200000
30
0.0
40
0.300000
50
180.000000
51
270.000000
0
LINE
8
0
10
54.100000
20
18.200000
30
0.0
11
54.100000
21
22.500836
31
0.0
0
ARC
8
0
10
54.600000
20
22.500836
30
0.0
40
0.500000
50
54.949637
51
180.000000
0
LINE
8
0
10
54.887148
20
22.910160
30
0.0
11
56.451422
21
21.812793
31
0.0
0
LINE
8
0
10
81.600000
20
24.500000
30
0.0
11
110.000000
21
24.500000
31
0.0
0
ARC
8
0
10
110.000000
20
24.000000
30
0.0
40
0.500000
50
0.000000
51
90.000000
0
LINE
8
0
10
110.500000
20
24.000000
30
0.0
11
110.500000
21
23.200000
31
0.0
0
ARC
8
0
10
111.000000
20
23.200000
30
0.0
40
0.500000
50
180.000000
51
270.000000
0
LINE
8
0
10
111.000000
20
22.700000
30
0.0
11
112.000000
21
22.700000
31
0.0
0
ARC
8
0
10
112.000000
20
22.200000
30
0.0
40
0.500000
50
0.000000
51
90.000000
0
LINE
8
0
10
112.500000
20
22.200000
30
0.0
11
112.500000
21
8.700000
31
0.0
0
ARC
8
0
10
112.000000
20
8.700000
30
0.0
40
0.500000
50
270.000000
51
0.000000
0
LINE
8
0
10
112.000000
20
8.200000
30
0.0
11
76.400000
21
8.200000
31
0.0
0
ARC
8
0
10
76.400000
20
8.700000
30
0.0
40
0.500000
50
180.000000
51
270.000000
0
LINE
8
0
10
75.900000
20
8.700000
30
0.0
11
75.900000
21
22.200000
31
0.0
0
ARC
8
0
10
76.400000
20
22.200000
30
0.0
40
0.500000
50
90.000000
51
180.000000
0
LINE
8
0
10
76.400000
20
22.700000
30
0.0
11
80.600000
21
22.700000
31
0.0
0
ARC
8
0
10
80.600000
20
23.200000
30
0.0
40
0.500000
50
270.000000
51
0.000000
0
LINE
8
0
10
81.100000
20
23.200000
30
0.0
11
81.100000
21
24.000000
31
0.0
0
ARC
8
0
10
81.600000
20
24.000000
30
0.0
40
0.500000
50
90.000000
51
180.000000
0
ARC
8
0
10
71.575946
20
6.950000
30
0.0
40
0.250000
50
270.000000
51
337.135547
0
ARC
8
0
10
72.036660
20
6.755724
30
0.0
40
0.250000
50
22.864432
51
157.135547
0
ARC
8
0
10
72.497373
20
6.950000
30
0.0
40
0.250000
50
202.864432
51
270.000000
0
LINE
8
0
10
107.600000
20
6.700000
30
0.0
11
72.497373
21
6.700000
31
0.0
0
ARC
8
0
10
107.600000
20
6.200000
30
0.0
40
0.500000
50
0.000000
51
90.000000
0
LINE
8
0
10
108.100000
20
1.700000
30
0.0
11
108.100000
21
6.200000
31
0.0
0
ARC
8
0
10
107.600000
20
1.700000
30
0.0
40
0.500000
50
270.000000
51
0.000000
0
LINE
8
0
10
103.600000
20
1.200000
30
0.0
11
107.600000
21
1.200000
31
0.0
0
ARC
8
0
10
103.600000
20
0.600000
30
0.0
40
0.600000
50
90.000000
51
270.000000
0
LINE
8
0
10
109.500000
20
0.000000
30
0.0
11
103.600000
21
-0.000000
31
0.0
0
ARC
8
0
10
109.500000
20
0.500000
30
0.0
40
0.500000
50
270.000000
51
72.542397
0
ARC
8
0
10
109.800000
20
1.453939
30
0.0
40
0.500000
50
180.000000
51
252.542397
0
LINE
8
0
10
109.300000
20
4.950000
30
0.0
11
109.300000
21
1.453939
31
0.0
0
ARC
8
0
10
111.050000
20
4.950000
30
0.0
40
1.750000
50
0.000000
51
180.000000
0
LINE
8
0
10
112.800000
20
2.558846
30
0.0
11
112.800000
21
4.950000
31
0.0
0
ARC
8
0
10
112.300000
20
2.558846
30
0.0
40
0.500000
50
300.000000
51
0.000000
0
LINE
8
0
10
112.250000
20
1.952628
30
0.0
11
112.550000
21
2.125833
31
0.0
0
ARC
8
0
10
112.500000
20
1.519615
30
0.0
40
0.500000
50
120.000000
51
210.000000
0
LINE
8
0
10
112.655662
20
0.250000
30
0.0
11
112.066987
21
1.269615
31
0.0
0
ARC
8
0
10
113.088675
20
0.500000
30
0.0
40
0.500000
50
210.000000
51
270.000000
0
LINE
8
0
10
113.500000
20
0.000000
30
0.0
11
113.088675
21
0.000000
31
0.0
0
ARC
8
0
10
113.500000
20
0.500000
30
0.0
40
0.500000
50
270.000000
51
0.000000
0
LINE
8
0
10
114.000000
20
49.500000
30
0.0
11
114.000000
21
0.500000
31
0.0
0
ARC
8
0
10
113.500000
20
49.500000
30
0.0
40
0.500000
50
0.000000
51
90.000000
0
LINE
8
0
10
113.100000
20
50.000000
30
0.0
11
113.500000
21
50.000000
31
0.0
0
ARC
8
0
10
113.100000
20
49.500000
30
0.0
40
0.500000
50
90.000000
51
180.000000
0
LINE
8
0
10
112.600000
20
27.000000
30
0.0
11
112.600000
21
49.500000
31
0.0
0
ARC
8
0
10
111.600000
20
27.000000
30
0.0
40
1.000000
50
270.000000
51
0.000000
0
LINE
8
0
10
82.100000
20
26.000000
30
0.0
11
111.600000
21
26.000000
31
0.0
0
ARC
8
0
10
82.100000
20
27.000000
30
0.0
40
1.000000
50
180.000000
51
270.000000
0
LINE
8
0
10
81.100000
20
45.212528
30
0.0
11
81.100000
21
27.000000
31
0.0
0
ARC
8
0
10
83.100000
20
45.212528
30
0.0
40
2.000000
50
100.000000
51
180.000000
0
LINE
8
0
10
84.956588
20
47.570748
30
0.0
11
82.752704
21
47.182144
31
0.0
0
LINE
8
0
10
85.043412
20
47.570748
30
0.0
11
84.956588
21
47.570748
31
0.0
0
LINE
8
0
10
90.273648
20
46.648516
30
0.0
11
85.043412
21
47.570748
31
0.0
0
ARC
8
0
10
90.100000
20
45.663709
30
0.0
40
1.000000
50
0.000000
51
80.000000
0
LINE
8
0
10
91.100000
20
39.500000
30
0.0
11
91.100000
21
45.663709
31
0.0
0
ARC
8
0
10
91.600000
20
39.500000
30
0.0
40
0.500000
50
180.000000
51
270.000000
0
LINE
8
0
10
92.000000
20
39.000000
30
0.0
11
91.600000
21
39.000000
31
0.0
0
ARC
8
0
10
92.000000
20
39.500000
30
0.0
40
0.500000
50
270.000000
51
0.000000
0
LINE
8
0
10
92.500000
20
47.500000
30
0.0
11
92.500000
21
39.500000
31
0.0
0
ARC
8
0
10
92.000000
20
47.500000
30
0.0
40
0.500000
50
0.000000
51
90.000000
0
LINE
8
0
10
90.693154
20
48.000000
30
0.0
11
92.000000
21
48.000000
31
0.0
0
LINE
8
0
10
90.649742
20
48.003798
30
0.0
11
90.693154
21
48.000000
31
0.0
0
LINE
8
0
10
85.043412
20
48.992345
30
0.0
11
90.649742
21
48.003798
31
0.0
0
LINE
8
0
10
85.043412
20
48.992345
30
0.0
11
84.956588
21
48.992345
31
0.0
0
LINE
8
0
10
79.350258
20
48.003798
30
0.0
11
84.956588
21
48.992345
31
0.0
0
LINE
8
0
10
79.306846
20
48.000000
30
0.0
11
79.350258
21
48.003798
31
0.0
0
LINE
8
0
10
78.000000
20
48.000000
30
0.0
11
79.306846
21
48.000000
31
0.0
0
ARC
8
0
10
78.000000
20
47.500000
30
0.0
40
0.500000
50
90.000000
51
180.000000
0
LINE
8
0
10
77.500000
20
46.450000
30
0.0
11
77.500000
21
47.500000
31
0.0
0
ARC
8
0
10
77.750000
20
46.450000
30
0.0
40
0.250000
50
180.000000
51
270.000000
0
LINE
8
0
10
79.050000
20
46.200000
30
0.0
11
77.750000
21
46.200000
31
0.0
0
ARC
8
0
10
79.050000
20
45.950000
30
0.0
40
0.250000
50
0.000000
51
90.000000
0
LINE
8
0
10
79.300000
20
25.200000
30
0.0
11
79.300000
21
45.950000
31
0.0
0
ARC
8
0
10
78.300000
20
25.200000
30
0.0
40
1.000000
50
270.000000
51
0.000000
0
LINE
8
0
10
72.497373
20
24.200000
30
0.0
11
78.300000
21
24.200000
31
0.0
0
ARC
8
0
10
72.497373
20
23.950000
30
0.0
40
0.250000
50
90.000000
51
157.135535
0
ARC
8
0
10
72.036660
20
24.144276
30
0.0
40
0.250000
50
202.864453
51
337.135535
0
ARC
8
0
10
71.575946
20
23.950000
30
0.0
40
0.250000
50
22.864453
51
90.000000
0
LINE
8
0
10
70.050868
20
24.198660
30
0.0
11
71.575727
21
24.200000
31
0.0
0
ARC
8
0
10
70.051132
20
23.898660
30
0.0
40
0.300000
50
90.000000
51
205.050363
0
LINE
8
0
10
70.791726
20
21.605563
30
0.0
11
69.779351
21
23.771635
31
0.0
0
ARC
8
0
10
71.018210
20
21.711417
30
0.0
40
0.250000
50
205.050363
51
245.050363
0
LINE
8
0
10
71.395873
20
21.259982
30
0.0
11
70.912754
21
21.484747
31
0.0
0
ARC
8
0
10
71.480237
20
21.441318
30
0.0
40
0.200000
50
245.050363
51
5.050363
0
LINE
8
0
10
71.664213
20
21.631457
30
0.0
11
71.679461
21
21.458924
31
0.0
0
ARC
8
0
10
71.863437
20
21.649063
30
0.0
40
0.200000
50
125.050363
51
185.050363
0
LINE
8
0
10
73.312852
20
22.910160
30
0.0
11
71.748578
21
21.812793
31
0.0
0
ARC
8
0
10
73.600000
20
22.500836
30
0.0
40
0.500000
50
0.000000
51
125.050363
0
LINE
8
0
10
74.100000
20
18.200000
30
0.0
11
74.100000
21
22.500836
31
0.0
0
ARC
8
0
10
73.800000
20
18.200000
30
0.0
40
0.300000
50
270.000000
51
0.000000
0
LINE
8
0
10
73.570272
20
17.900000
30
0.0
11
73.800000
21
17.900000
31
0.0
0
ARC
8
0
10
73.570272
20
18.150000
30
0.0
40
0.250000
50
238.600000
51
270.000000
0
LINE
8
0
10
71.904202
20
18.874080
30
0.0
11
73.440019
21
17.936613
31
0.0
0
ARC
8
0
10
71.800000
20
18.703369
30
0.0
40
0.200000
50
58.600000
51
180.000000
0
LINE
8
0
10
71.600000
20
17.700145
30
0.0
11
71.600000
21
18.703369
31
0.0
0
ARC
8
0
10
72.100000
20
17.700145
30
0.0
40
0.500000
50
180.000000
51
238.600000
0
LINE
8
0
10
73.428313
20
16.303551
30
0.0
11
71.839495
21
17.273370
31
0.0
0
ARC
8
0
10
72.907304
20
15.450000
30
0.0
40
1.000000
50
301.400000
51
58.600000
0
LINE
8
0
10
71.839495
20
13.626631
30
0.0
11
73.428313
21
14.596449
31
0.0
0
ARC
8
0
10
72.100000
20
13.199855
30
0.0
40
0.500000
50
121.400000
51
180.000000
0
LINE
8
0
10
71.600000
20
12.196631
30
0.0
11
71.600000
21
13.199855
31
0.0
0
ARC
8
0
10
71.800000
20
12.196631
30
0.0
40
0.200000
50
180.000000
51
301.400000
0
LINE
8
0
10
73.440019
20
12.963388
30
0.0
11
71.904202
21
12.025921
31
0.0
0
ARC
8
0
10
73.570272
20
12.750000
30
0.0
40
0.250000
50
90.000000
51
121.400000
0
LINE
8
0
10
73.800000
20
13.000000
30
0.0
11
73.570272
21
13.000000
31
0.0
0
ARC
8
0
10
73.800000
20
12.700000
30
0.0
40
0.300000
50
0.000000
51
90.000000
0
LINE
8
0
10
74.100000
20
8.399164
30
0.0
11
74.100000
21
12.700000
31
0.0
0
ARC
8
0
10
73.600000
20
8.399164
30
0.0
40
0.500000
50
234.949637
51
0.000000
0
LINE
8
0
10
71.748578
20
9.087208
30
0.0
11
73.312852
21
7.989841
31
0.0
0
ARC
8
0
10
71.863437
20
9.250937
30
0.0
40
0.200000
50
174.949637
51
234.949637
0
LINE
8
0
10
71.679461
20
9.441076
30
0.0
11
71.664213
21
9.268543
31
0.0
0
ARC
8
0
10
71.480237
20
9.458682
30
0.0
40
0.200000
50
354.949637
51
114.949637
0
LINE
8
0
10
70.912754
20
9.415253
30
0.0
11
71.395873
21
9.640018
31
0.0
0
ARC
8
0
10
71.018210
20
9.188583
30
0.0
40
0.250000
50
114.949637
51
154.949637
0
LINE
8
0
10
69.779351
20
7.128365
30
0.0
11
70.791726
21
9.294437
31
0.0
0
ARC
8
0
10
70.051132
20
7.001341
30
0.0
40
0.300000
50
154.949637
51
270.000000
0
LINE
8
0
10
71.575727
20
6.700000
30
0.0
11
70.050868
21
6.701341
31
0.0
0
LINE
8
0
10
29.000000
20
48.996143
30
0.0
11
28.956588
21
48.992345
31
0.0
0
ATTDEF
8
0
10
1.000000
20
26.000000
30
0.0
40
3.5
1

3

2
VC_START
70
0
0
ATTDEF
8
0
10
7.450000
20
0.000000
30
0.0
40
3.5
1

3

2
VC_END
70
0
0
ATTDEF
8
0
10
0.000000
20
0.000000
30
0.0
40
3.5
1

3

2
FP_LCS_ORIG
70
0
0
ATTDEF
8
0
10
10.000000
20
0.000000
30
0.0
40
3.5
1

3

2
FP_LCS_HOT
70
0
0
ATTDEF
8
0
10
0.000000
20
10.000000
30
0.0
40
3.5
1

3

2
FP_LCS_INTERN
70
0
0
ATTDEF
8
0
10
0.000000
20
0.000000
30
0.0
40
3.5
1

3

2
DESC:Marco corrediza (ext 8423+int 8424)
70
0
0
ATTDEF
8
0
10
0.000000
20
0.000000
30
0.0
40
3.5
1

3

2
DENS:1.954
70
0
0
ATTDEF
8
0
10
0.000000
20
0.000000
30
0.0
40
3.5
1

3

2
TDEV:0
70
0
0
ATTDEF
8
0
10
0.000000
20
0.000000
30
0.0
40
3.5
1

3

2
TDEV2:0
70
0
0
ATTDEF
8
0
10
0.000000
20
0.000000
30
0.0
40
3.5
1

3

2
TDEV3:0
70
0
0
ATTDEF
8
0
10
0.000000
20
0.000000
30
0.0
40
3.5
1

3

2
TDEV4:0
70
0
0
ATTDEF
8
0
10
0.000000
20
0.000000
30
0.0
40
3.5
1

3

2
TDEV5:0
70
0
0
ATTDEF
8
0
10
0.000000
20
0.000000
30
0.0
40
3.5
1

3

2
PANE_WIDTH:0
70
0
0
ATTDEF
8
0
10
0.000000
20
0.000000
30
0.0
40
3.5
1

3

2
MIN_VETRO:0
70
0
0
ATTDEF
8
0
10
0.000000
20
0.000000
30
0.0
40
3.5
1

3

2
MAX_VETRO:0
70
0
0
ATTDEF
8
0
10
0.000000
20
0.000000
30
0.0
40
3.5
1

3

2
JX:0
70
0
0
ATTDEF
8
0
10
0.000000
20
0.000000
30
0.0
40
3.5
1

3

2
WX:0
70
0
0
ATTDEF
8
0
10
0.000000
20
0.000000
30
0.0
40
3.5
1

3

2
JY:0
70
0
0
ATTDEF
8
0
10
0.000000
20
0.000000
30
0.0
40
3.5
1

3

2
WY:0
70
0
0
ENDSEC
0
EOF
