0
SECTION
2
ENTITIES
0
LINE
8
0
10
0.000000
20
22.000053
30
0.0
11
5.190104
21
22.000053
31
0.0
0
LINE
8
0
10
5.190104
20
22.000053
30
0.0
11
5.190104
21
20.242874
31
0.0
0
LINE
8
0
10
5.190104
20
20.242874
30
0.0
11
3.990104
21
19.550053
31
0.0
0
LINE
8
0
10
3.990104
20
19.550053
30
0.0
11
3.990104
21
20.800053
31
0.0
0
LINE
8
0
10
3.990104
20
20.800053
30
0.0
11
1.400000
21
20.800053
31
0.0
0
LINE
8
0
10
1.400000
20
20.800053
30
0.0
11
1.400000
21
14.300053
31
0.0
0
LINE
8
0
10
1.400000
20
14.300053
30
0.0
11
3.990104
21
14.300053
31
0.0
0
LINE
8
0
10
3.990104
20
14.300053
30
0.0
11
3.990104
21
15.550053
31
0.0
0
LINE
8
0
10
3.990104
20
15.550053
30
0.0
11
5.190104
21
14.857233
31
0.0
0
LINE
8
0
10
5.190104
20
14.857233
30
0.0
11
5.190104
21
13.100053
31
0.0
0
LINE
8
0
10
5.190104
20
13.100053
30
0.0
11
1.700000
21
13.100053
31
0.0
0
ARC
8
0
10
1.700000
20
12.600053
30
0.0
40
0.500000
50
90.000000
51
180.000000
0
LINE
8
0
10
1.200000
20
12.600053
30
0.0
11
1.200000
21
7.700000
31
0.0
0
ARC
8
0
10
1.700000
20
7.700000
30
0.0
40
0.500000
50
180.000000
51
270.000000
0
LINE
8
0
10
1.700000
20
7.200000
30
0.0
11
4.600000
21
7.200000
31
0.0
0
LINE
8
0
10
4.600000
20
7.200000
30
0.0
11
4.600000
21
5.000945
31
0.0
0
LINE
8
0
10
4.600000
20
5.000945
30
0.0
11
13.600000
21
5.000945
31
0.0
0
ARC
8
0
10
13.600000
20
4.000945
30
0.0
40
1.000000
50
360.000000
51
90.000000
0
LINE
8
0
10
14.600000
20
4.000945
30
0.0
11
14.600000
21
3.353623
31
0.0
0
ARC
8
0
10
15.600000
20
3.353623
30
0.0
40
1.000000
50
180.000000
51
225.933285
0
LINE
8
0
10
14.904504
20
2.635092
30
0.0
11
16.200481
21
1.380663
31
0.0
0
ARC
8
0
10
16.450481
20
1.813675
30
0.0
40
0.500000
50
240.000000
51
300.000000
0
LINE
8
0
10
16.700481
20
1.380663
30
0.0
11
18.500000
21
2.419616
31
0.0
0
ARC
8
0
10
18.800000
20
1.900000
30
0.0
40
0.600000
50
300.009380
51
120.000000
0
LINE
8
0
10
19.100000
20
1.380385
30
0.0
11
16.941154
21
0.133975
31
0.0
0
ARC
8
0
10
16.441154
20
1.000000
30
0.0
40
1.000000
50
240.000000
51
300.000000
0
LINE
8
0
10
15.941154
20
0.133975
30
0.0
11
14.095742
21
1.721407
31
0.0
0
ARC
8
0
10
15.400000
20
3.237624
30
0.0
40
2.000000
50
180.000000
51
229.297716
0
LINE
8
0
10
13.400000
20
3.237624
30
0.0
11
13.400000
21
3.800945
31
0.0
0
LINE
8
0
10
13.400000
20
3.800945
30
0.0
11
4.600000
21
3.800945
31
0.0
0
LINE
8
0
10
4.600000
20
3.800945
30
0.0
11
4.600000
21
1.000000
31
0.0
0
ARC
8
0
10
4.100000
20
1.000000
30
0.0
40
0.500000
50
263.922352
51
360.000000
0
ARC
8
0
10
3.994123
20
1.000000
30
0.0
40
0.500000
50
210.018367
51
276.077648
0
LINE
8
0
10
3.561191
20
0.749861
30
0.0
11
2.550000
21
2.500000
31
0.0
0
LINE
8
0
10
2.550000
20
2.500000
30
0.0
11
3.400000
21
3.000000
31
0.0
0
LINE
8
0
10
3.400000
20
3.000000
30
0.0
11
3.400000
21
5.000945
31
0.0
0
LINE
8
0
10
3.400000
20
5.000945
30
0.0
11
3.400000
21
6.000000
31
0.0
0
LINE
8
0
10
3.400000
20
6.000000
30
0.0
11
1.900000
21
6.000000
31
0.0
0
LINE
8
0
10
1.900000
20
6.000000
30
0.0
11
1.900000
21
5.200000
31
0.0
0
ARC
8
0
10
1.700000
20
5.200000
30
0.0
40
0.200000
50
270.000000
51
360.000000
0
LINE
8
0
10
1.700000
20
5.000000
30
0.0
11
1.100000
21
5.000000
31
0.0
0
ARC
8
0
10
1.100000
20
5.200000
30
0.0
40
0.200000
50
180.000000
51
270.000000
0
LINE
8
0
10
0.900000
20
5.200000
30
0.0
11
0.900000
21
6.000000
31
0.0
0
LINE
8
0
10
0.900000
20
6.000000
30
0.0
11
0.000000
21
6.000000
31
0.0
0
LINE
8
0
10
0.000000
20
6.000000
30
0.0
11
0.000000
21
22.000053
31
0.0
0
ATTDEF
8
0
10
0.000000
20
0.000000
30
0.0
40
3.5
1

3

2
DENS:0.000000
70
0
0
ATTDEF
8
0
10
0.000000
20
0.000000
30
0.0
40
3.5
1

3

2
GLASS_MIN:0.000000
70
0
0
ATTDEF
8
0
10
0.000000
20
0.000000
30
0.0
40
3.5
1

3

2
GLASS_MAX:0.000000
70
0
0
ATTDEF
8
0
10
0.000000
20
0.000000
30
0.0
40
3.5
1

3

2
DESC:6220
70
0
0
ATTDEF
8
0
10
0.000000
20
0.000000
30
0.0
40
3.5
1

3

2
BL01:6500.000000,,1
70
0
0
ATTDEF
8
0
10
0.000000
20
0.000000
30
0.0
40
3.5
1

3

2
HW_START
70
0
0
ATTDEF
8
0
10
19.400000
20
22.000053
30
0.0
40
3.5
1

3

2
HW_END
70
0
0
ATTDEF
8
0
10
0.000000
20
22.000053
30
0.0
40
3.5
1

3

2
VC_START
70
0
0
ATTDEF
8
0
10
1.400000
20
5.000000
30
0.0
40
3.5
1

3

2
VC_END
70
0
0
ATTDEF
8
0
10
0.000000
20
0.000000
30
0.0
40
3.5
1

3

2
FP_LCS_ORIG
70
0
0
ATTDEF
8
0
10
10.000000
20
0.000000
30
0.0
40
3.5
1

3

2
FP_LCS_HOT
70
0
0
ATTDEF
8
0
10
0.000000
20
10.000000
30
0.0
40
3.5
1

3

2
FP_LCS_INTERN
70
0
0
ATTDEF
8
0
10
0.000000
20
0.000000
30
0.0
40
3.5
1

3

2
PANE_WIDTH:39.800000
70
0
0
ENDSEC
0
EOF
