0
SECTION
2
ENTITIES
0
LINE
8
0
10
15.900590
20
25.246962
30
0.0
11
15.900590
21
13.248667
31
0.0
0
LINE
8
0
10
15.900590
20
13.248667
30
0.0
11
15.900590
21
1.250373
31
0.0
0
LINE
8
0
10
15.900590
20
1.250373
30
0.0
11
35.900590
21
1.250373
31
0.0
0
LINE
8
0
10
35.900590
20
1.250373
30
0.0
11
35.900590
21
13.248667
31
0.0
0
LINE
8
0
10
35.900590
20
13.248667
30
0.0
11
35.900590
21
25.246962
31
0.0
0
LINE
8
0
10
35.900590
20
25.246962
30
0.0
11
15.900590
21
25.246962
31
0.0
0
LINE
8
0
10
8.340000
20
5.498667
30
0.0
11
9.500000
21
5.498667
31
0.0
0
ARC
8
0
10
9.500000
20
4.498667
30
0.0
40
1.000000
50
360.000000
51
90.000000
0
LINE
8
0
10
10.500000
20
4.498667
30
0.0
11
10.500000
21
2.250373
31
0.0
0
ARC
8
0
10
11.500000
20
2.250373
30
0.0
40
1.000000
50
180.000000
51
270.000000
0
LINE
8
0
10
11.500000
20
1.250373
30
0.0
11
13.500590
21
1.250373
31
0.0
0
ARC
8
0
10
13.500590
20
2.250373
30
0.0
40
1.000000
50
270.000000
51
360.000000
0
LINE
8
0
10
14.500590
20
2.250373
30
0.0
11
14.500590
21
13.248667
31
0.0
0
LINE
8
0
10
14.500590
20
13.248667
30
0.0
11
14.500590
21
24.246962
31
0.0
0
ARC
8
0
10
13.500590
20
24.246962
30
0.0
40
1.000000
50
360.000000
51
90.000000
0
LINE
8
0
10
13.500590
20
25.246962
30
0.0
11
11.500000
21
25.246962
31
0.0
0
ARC
8
0
10
11.500000
20
24.246962
30
0.0
40
1.000000
50
90.000000
51
180.000000
0
LINE
8
0
10
10.500000
20
24.246962
30
0.0
11
10.500000
21
21.998667
31
0.0
0
ARC
8
0
10
9.500000
20
21.998667
30
0.0
40
1.000000
50
270.000000
51
360.000000
0
LINE
8
0
10
9.500000
20
20.998667
30
0.0
11
8.340000
21
20.998667
31
0.0
0
ARC
8
0
10
8.340000
20
21.588667
30
0.0
40
0.590000
50
180.000000
51
270.000000
0
ARC
8
0
10
8.340000
20
21.608667
30
0.0
40
0.590000
50
90.000000
51
180.000000
0
LINE
8
0
10
8.340000
20
22.198667
30
0.0
11
9.000000
21
22.198667
31
0.0
0
LINE
8
0
10
9.000000
20
22.198667
30
0.0
11
9.000000
21
23.398667
31
0.0
0
LINE
8
0
10
9.000000
20
23.398667
30
0.0
11
6.499410
21
23.398667
31
0.0
0
LINE
8
0
10
6.499410
20
23.398667
30
0.0
11
6.499410
21
24.662214
31
0.0
0
LINE
8
0
10
6.499410
20
24.662214
30
0.0
11
4.000590
21
24.236618
31
0.0
0
LINE
8
0
10
4.000590
20
24.236618
30
0.0
11
4.000590
21
23.398667
31
0.0
0
LINE
8
0
10
4.000590
20
23.398667
30
0.0
11
1.500000
21
23.398667
31
0.0
0
LINE
8
0
10
1.500000
20
23.398667
30
0.0
11
1.500000
21
22.198667
31
0.0
0
LINE
8
0
10
1.500000
20
22.198667
30
0.0
11
2.160000
21
22.198667
31
0.0
0
ARC
8
0
10
2.160000
20
21.608667
30
0.0
40
0.590000
50
360.000000
51
90.000000
0
ARC
8
0
10
2.160000
20
21.588667
30
0.0
40
0.590000
50
270.000000
51
360.000000
0
LINE
8
0
10
2.160000
20
20.998667
30
0.0
11
1.000000
21
20.998667
31
0.0
0
ARC
8
0
10
1.000000
20
21.998667
30
0.0
40
1.000000
50
180.000000
51
270.000000
0
LINE
8
0
10
0.000000
20
21.998667
30
0.0
11
0.000000
21
22.994062
31
0.0
0
ARC
8
0
10
2.000000
20
22.994062
30
0.0
40
2.000000
50
102.541621
51
180.000000
0
ARC
8
0
10
15.680372
20
-38.502665
30
0.0
40
65.000000
50
89.805883
51
102.541621
0
LINE
8
0
10
15.900590
20
26.496962
30
0.0
11
52.000590
21
26.496962
31
0.0
0
LINE
8
0
10
52.000590
20
26.496962
30
0.0
11
52.000590
21
24.346962
31
0.0
0
ARC
8
0
10
51.250590
20
24.346962
30
0.0
40
0.750000
50
270.000000
51
360.000000
0
LINE
8
0
10
51.250590
20
23.596962
30
0.0
11
50.750590
21
23.596962
31
0.0
0
LINE
8
0
10
50.750590
20
23.596962
30
0.0
11
50.750590
21
25.246962
31
0.0
0
LINE
8
0
10
50.750590
20
25.246962
30
0.0
11
37.300590
21
25.246962
31
0.0
0
LINE
8
0
10
37.300590
20
25.246962
30
0.0
11
37.300590
21
13.248667
31
0.0
0
LINE
8
0
10
37.300590
20
13.248667
30
0.0
11
37.300590
21
1.250373
31
0.0
0
LINE
8
0
10
37.300590
20
1.250373
30
0.0
11
50.750590
21
1.250373
31
0.0
0
LINE
8
0
10
50.750590
20
1.250373
30
0.0
11
50.750590
21
2.900373
31
0.0
0
LINE
8
0
10
50.750590
20
2.900373
30
0.0
11
51.250590
21
2.900373
31
0.0
0
ARC
8
0
10
51.250590
20
2.150373
30
0.0
40
0.750000
50
360.000000
51
90.000000
0
LINE
8
0
10
52.000590
20
2.150373
30
0.0
11
52.000590
21
0.000373
31
0.0
0
LINE
8
0
10
52.000590
20
0.000373
30
0.0
11
15.900590
21
0.000373
31
0.0
0
ARC
8
0
10
15.680372
20
65.000000
30
0.0
40
65.000000
50
257.458379
51
270.194117
0
ARC
8
0
10
2.000000
20
3.503273
30
0.0
40
2.000000
50
180.000000
51
257.458379
0
LINE
8
0
10
0.000000
20
3.503273
30
0.0
11
0.000000
21
4.498667
31
0.0
0
ARC
8
0
10
1.000000
20
4.498667
30
0.0
40
1.000000
50
90.000000
51
180.000000
0
LINE
8
0
10
1.000000
20
5.498667
30
0.0
11
2.160000
21
5.498667
31
0.0
0
ARC
8
0
10
2.160000
20
4.908667
30
0.0
40
0.590000
50
360.000000
51
90.000000
0
LINE
8
0
10
2.750000
20
4.908667
30
0.0
11
2.750000
21
4.888667
31
0.0
0
ARC
8
0
10
2.160000
20
4.888667
30
0.0
40
0.590000
50
270.000000
51
360.000000
0
LINE
8
0
10
2.160000
20
4.298667
30
0.0
11
1.500000
21
4.298667
31
0.0
0
LINE
8
0
10
1.500000
20
4.298667
30
0.0
11
1.500000
21
3.098667
31
0.0
0
LINE
8
0
10
1.500000
20
3.098667
30
0.0
11
4.000590
21
3.098667
31
0.0
0
LINE
8
0
10
4.000590
20
3.098667
30
0.0
11
4.000590
21
2.260717
31
0.0
0
LINE
8
0
10
4.000590
20
2.260717
30
0.0
11
6.499410
21
1.835120
31
0.0
0
LINE
8
0
10
6.499410
20
1.835120
30
0.0
11
6.499410
21
3.098667
31
0.0
0
LINE
8
0
10
6.499410
20
3.098667
30
0.0
11
9.000000
21
3.098667
31
0.0
0
LINE
8
0
10
9.000000
20
3.098667
30
0.0
11
9.000000
21
4.298667
31
0.0
0
LINE
8
0
10
9.000000
20
4.298667
30
0.0
11
8.340000
21
4.298667
31
0.0
0
ARC
8
0
10
8.340000
20
4.888667
30
0.0
40
0.590000
50
180.000000
51
270.000000
0
LINE
8
0
10
7.750000
20
4.888667
30
0.0
11
7.750000
21
4.908667
31
0.0
0
ARC
8
0
10
8.340000
20
4.908667
30
0.0
40
0.590000
50
90.000000
51
180.000000
0
ATTDEF
8
0
10
37.300590
20
13.248667
30
0.0
40
3.5
1

3

2
HC_START
70
0
0
ATTDEF
8
0
10
14.700000
20
12.396962
30
0.0
40
3.5
1

3

2
HC_END
70
0
0
ATTDEF
8
0
10
0.000000
20
26.496962
30
0.0
40
3.5
1

3

2
JY:0.000000
70
0
0
ATTDEF
8
0
10
0.000000
20
26.496962
30
0.0
40
3.5
1

3

2
WY:0.000000
70
0
0
ATTDEF
8
0
10
0.000000
20
0.000000
30
0.0
40
3.5
1

3

2
MIN_VETRO:0
70
0
0
ATTDEF
8
0
10
0.000000
20
0.000000
30
0.0
40
3.5
1

3

2
MAX_VETRO:0
70
0
0
ATTDEF
8
0
10
0.000000
20
0.000000
30
0.0
40
3.5
1

3

2
JY:0
70
0
0
ATTDEF
8
0
10
0.000000
20
0.000000
30
0.0
40
3.5
1

3

2
WY:0
70
0
0
ATTDEF
8
0
10
0.000000
20
26.496962
30
0.0
40
3.5
1

3

2
DESC:Hoja Lateral y Central DVH
70
0
0
ATTDEF
8
0
10
0.000000
20
26.496962
30
0.0
40
3.5
1

3

2
DENS:0.621000
70
0
0
ATTDEF
8
0
10
0.000000
20
26.496962
30
0.0
40
3.5
1

3

2
TDEV:0.000000
70
0
0
ATTDEF
8
0
10
0.000000
20
26.496962
30
0.0
40
3.5
1

3

2
TDEV2:0.000000
70
0
0
ATTDEF
8
0
10
0.000000
20
26.496962
30
0.0
40
3.5
1

3

2
TDEV3:0.000000
70
0
0
ATTDEF
8
0
10
0.000000
20
26.496962
30
0.0
40
3.5
1

3

2
TDEV4:0.000000
70
0
0
ATTDEF
8
0
10
0.000000
20
26.496962
30
0.0
40
3.5
1

3

2
TDEV5:0.000000
70
0
0
ATTDEF
8
0
10
0.000000
20
26.496962
30
0.0
40
3.5
1

3

2
REAR_VIEW
70
0
0
ATTDEF
8
0
10
0.000000
20
26.496962
30
0.0
40
3.5
1

3

2
BL01:6200.000000,,1
70
0
0
ATTDEF
8
0
10
0.000000
20
26.496962
30
0.0
40
3.5
1

3

2
OPTI:1500.000000,1,0,3000.000000,6200.000000,500.000000,0,0.000000,0
70
0
0
ATTDEF
8
0
10
0.000000
20
26.496962
30
0.0
40
3.5
1

3

2
PANE_WIDTH:20.700000
70
0
0
ATTDEF
8
0
10
0.000000
20
26.496962
30
0.0
40
3.5
1

3

2
GLASS_MIN:0.000000
70
0
0
ATTDEF
8
0
10
0.000000
20
26.496962
30
0.0
40
3.5
1

3

2
GLASS_MAX:0.000000
70
0
0
ATTDEF
8
0
10
0.000000
20
26.496962
30
0.0
40
3.5
1

3

2
JX:0.000000
70
0
0
ATTDEF
8
0
10
0.000000
20
26.496962
30
0.0
40
3.5
1

3

2
WX:0.000000
70
0
0
ATTDEF
8
0
10
0.000000
20
26.496962
30
0.0
40
3.5
1

3

2
JY:0.000000
70
0
0
ATTDEF
8
0
10
0.000000
20
26.496962
30
0.0
40
3.5
1

3

2
WY:0.000000
70
0
0
ATTDEF
8
0
10
0.000000
20
26.496962
30
0.0
40
3.5
1

3

2
FP_LCS_ORIG
70
0
0
ATTDEF
8
0
10
0.000000
20
16.496962
30
0.0
40
3.5
1

3

2
FP_LCS_HOT
70
0
0
ATTDEF
8
0
10
10.000000
20
26.496962
30
0.0
40
3.5
1

3

2
FP_LCS_INTERN
70
0
0
ENDSEC
0
EOF
