0
SECTION
2
ENTITIES
0
ARC
8
0
10
5.760000
20
31.988289
30
0.0
40
0.590000
50
270.000000
51
360.000000
0
ARC
8
0
10
5.760000
20
32.008289
30
0.0
40
0.590000
50
360.000000
51
90.000000
0
LINE
8
0
10
5.760000
20
32.598289
30
0.0
11
4.600000
21
32.598289
31
0.0
0
ARC
8
0
10
4.600000
20
31.598289
30
0.0
40
1.000000
50
90.000000
51
180.000000
0
LINE
8
0
10
3.600000
20
31.598289
30
0.0
11
3.600000
21
29.798289
31
0.0
0
ARC
8
0
10
4.600000
20
29.798289
30
0.0
40
1.000000
50
180.000000
51
270.000000
0
LINE
8
0
10
4.600000
20
28.798289
30
0.0
11
6.800000
21
28.798289
31
0.0
0
ARC
8
0
10
6.800000
20
27.798289
30
0.0
40
1.000000
50
360.000000
51
90.000000
0
ARC
8
0
10
6.810000
20
27.790000
30
0.0
40
0.990000
50
270.000000
51
360.000000
0
LINE
8
0
10
6.810000
20
26.800000
30
0.0
11
1.000000
21
26.800000
31
0.0
0
ARC
8
0
10
1.000000
20
25.800000
30
0.0
40
1.000000
50
90.000000
51
180.000000
0
LINE
8
0
10
0.000000
20
25.800000
30
0.0
11
0.000000
21
1.000000
31
0.0
0
ARC
8
0
10
1.000000
20
1.000000
30
0.0
40
1.000000
50
180.000000
51
270.000000
0
LINE
8
0
10
1.000000
20
0.000000
30
0.0
11
37.798574
21
0.000000
31
0.0
0
LINE
8
0
10
37.798574
20
0.000000
30
0.0
11
37.798574
21
2.300000
31
0.0
0
ARC
8
0
10
37.048574
20
2.300000
30
0.0
40
0.750000
50
360.000000
51
90.000000
0
LINE
8
0
10
37.048574
20
3.050000
30
0.0
11
36.548574
21
3.050000
31
0.0
0
LINE
8
0
10
36.548574
20
3.050000
30
0.0
11
36.548574
21
1.400000
31
0.0
0
LINE
8
0
10
36.548574
20
1.400000
30
0.0
11
22.648574
21
1.400000
31
0.0
0
LINE
8
0
10
22.648574
20
1.400000
30
0.0
11
22.648574
21
25.400000
31
0.0
0
LINE
8
0
10
22.648574
20
25.400000
30
0.0
11
36.548574
21
25.400000
31
0.0
0
LINE
8
0
10
36.548574
20
25.400000
30
0.0
11
36.548574
21
23.750000
31
0.0
0
LINE
8
0
10
36.548574
20
23.750000
30
0.0
11
37.048574
21
23.750000
31
0.0
0
ARC
8
0
10
37.048574
20
24.500000
30
0.0
40
0.750000
50
270.000000
51
360.000000
0
LINE
8
0
10
37.798574
20
24.500000
30
0.0
11
37.798574
21
26.800000
31
0.0
0
LINE
8
0
10
37.798574
20
26.800000
30
0.0
11
10.790000
21
26.800000
31
0.0
0
ARC
8
0
10
10.790000
20
27.790000
30
0.0
40
0.990000
50
180.000000
51
270.000000
0
ARC
8
0
10
10.800000
20
27.798289
30
0.0
40
1.000000
50
90.000000
51
180.000000
0
LINE
8
0
10
10.800000
20
28.798289
30
0.0
11
13.500000
21
28.798289
31
0.0
0
ARC
8
0
10
13.500000
20
29.298289
30
0.0
40
0.500000
50
270.000000
51
360.000000
0
LINE
8
0
10
14.000000
20
29.298289
30
0.0
11
14.000000
21
29.765843
31
0.0
0
ARC
8
0
10
15.000000
20
29.765843
30
0.0
40
1.000000
50
97.542625
51
180.000000
0
LINE
8
0
10
14.868736
20
30.757191
30
0.0
11
21.253668
21
31.602616
31
0.0
0
ARC
8
0
10
21.188036
20
32.098289
30
0.0
40
0.500000
50
277.542625
51
90.000000
0
LINE
8
0
10
21.188036
20
32.598289
30
0.0
11
13.295914
21
32.598289
31
0.0
0
LINE
8
0
10
13.295914
20
32.598289
30
0.0
11
11.940000
21
32.598289
31
0.0
0
ARC
8
0
10
11.940000
20
32.008289
30
0.0
40
0.590000
50
90.000000
51
180.000000
0
ARC
8
0
10
11.940000
20
31.988289
30
0.0
40
0.590000
50
180.000000
51
270.000000
0
LINE
8
0
10
11.940000
20
31.398289
30
0.0
11
12.600000
21
31.398289
31
0.0
0
LINE
8
0
10
12.600000
20
31.398289
30
0.0
11
12.600000
21
30.198289
31
0.0
0
LINE
8
0
10
12.600000
20
30.198289
30
0.0
11
5.100000
21
30.198289
31
0.0
0
LINE
8
0
10
5.100000
20
30.198289
30
0.0
11
5.100000
21
31.398289
31
0.0
0
LINE
8
0
10
5.100000
20
31.398289
30
0.0
11
5.760000
21
31.398289
31
0.0
0
LINE
8
0
10
1.400000
20
25.400000
30
0.0
11
1.400000
21
1.400000
31
0.0
0
LINE
8
0
10
1.400000
20
1.400000
30
0.0
11
21.248574
21
1.400000
31
0.0
0
LINE
8
0
10
21.248574
20
1.400000
30
0.0
11
21.248574
21
25.400000
31
0.0
0
LINE
8
0
10
21.248574
20
25.400000
30
0.0
11
1.400000
21
25.400000
31
0.0
0
ATTDEF
8
0
10
22.648574
20
13.400000
30
0.0
40
3.5
1

3

2
HC_START
70
0
0
ATTDEF
8
0
10
0.000000
20
25.800000
30
0.0
40
3.5
1

3

2
HC_END
70
0
0
ATTDEF
8
0
10
0.000000
20
32.598289
30
0.0
40
3.5
1

3

2
REAR_VIEW
70
0
0
ATTDEF
8
0
10
0.000000
20
32.598289
30
0.0
40
3.5
1

3

2
OPTI:1500.000000,1,0,3000.000000,6200.000000,500.000000,0,0.000000,0
70
0
0
ATTDEF
8
0
10
0.000000
20
32.598289
30
0.0
40
3.5
1

3

2
GLASS_MIN:0.000000
70
0
0
ATTDEF
8
0
10
0.000000
20
32.598289
30
0.0
40
3.5
1

3

2
GLASS_MAX:0.000000
70
0
0
ATTDEF
8
0
10
0.000000
20
32.598289
30
0.0
40
3.5
1

3

2
JX:0.000000
70
0
0
ATTDEF
8
0
10
0.000000
20
32.598289
30
0.0
40
3.5
1

3

2
WX:0.000000
70
0
0
ATTDEF
8
0
10
0.000000
20
32.598289
30
0.0
40
3.5
1

3

2
JY:0.000000
70
0
0
ATTDEF
8
0
10
0.000000
20
32.598289
30
0.0
40
3.5
1

3

2
WY:0.000000
70
0
0
ATTDEF
8
0
10
0.000000
20
32.598289
30
0.0
40
3.5
1

3

2
FP_LCS_ORIG
70
0
0
ATTDEF
8
0
10
0.000000
20
22.598289
30
0.0
40
3.5
1

3

2
FP_LCS_HOT
70
0
0
ATTDEF
8
0
10
10.000000
20
32.598289
30
0.0
40
3.5
1

3

2
FP_LCS_INTERN
70
0
0
ATTDEF
8
0
10
0.000000
20
0.000000
30
0.0
40
3.5
1

3

2
BL01:6200.000,,1
70
0
0
ATTDEF
8
0
10
0.000000
20
0.000000
30
0.0
40
3.5
1

3

2
DESC:Cruce Hoja Corrediza DVH
70
0
0
ATTDEF
8
0
10
0.000000
20
0.000000
30
0.0
40
3.5
1

3

2
DENS:0.783
70
0
0
ATTDEF
8
0
10
0.000000
20
0.000000
30
0.0
40
3.5
1

3

2
TDEV:0
70
0
0
ATTDEF
8
0
10
0.000000
20
0.000000
30
0.0
40
3.5
1

3

2
TDEV2:0
70
0
0
ATTDEF
8
0
10
0.000000
20
0.000000
30
0.0
40
3.5
1

3

2
TDEV3:0
70
0
0
ATTDEF
8
0
10
0.000000
20
0.000000
30
0.0
40
3.5
1

3

2
TDEV4:0
70
0
0
ATTDEF
8
0
10
0.000000
20
0.000000
30
0.0
40
3.5
1

3

2
TDEV5:0
70
0
0
ATTDEF
8
0
10
0.000000
20
0.000000
30
0.0
40
3.5
1

3

2
MIN_VETRO:0
70
0
0
ATTDEF
8
0
10
0.000000
20
0.000000
30
0.0
40
3.5
1

3

2
MAX_VETRO:0
70
0
0
ATTDEF
8
0
10
0.000000
20
0.000000
30
0.0
40
3.5
1

3

2
JX:0
70
0
0
ATTDEF
8
0
10
0.000000
20
0.000000
30
0.0
40
3.5
1

3

2
WX:0
70
0
0
ATTDEF
8
0
10
0.000000
20
0.000000
30
0.0
40
3.5
1

3

2
JY:0
70
0
0
ATTDEF
8
0
10
0.000000
20
0.000000
30
0.0
40
3.5
1

3

2
WY:0
70
0
0
ATTDEF
8
0
10
0.000000
20
0.000000
30
0.0
40
3.5
1

3

2
PANE_WIDTH:20.700000
70
0
0
ENDSEC
0
EOF
