0
SECTION
2
ENTITIES
0
LINE
8
0
10
6.400000
20
6.699410
30
0.0
11
26.150000
21
6.699410
31
0.0
0
LINE
8
0
10
26.150000
20
6.699410
30
0.0
11
26.650000
21
6.199410
31
0.0
0
LINE
8
0
10
26.650000
20
6.199410
30
0.0
11
27.150000
21
6.699410
31
0.0
0
LINE
8
0
10
27.150000
20
6.699410
30
0.0
11
27.650000
21
6.699410
31
0.0
0
LINE
8
0
10
27.650000
20
6.699410
30
0.0
11
28.150000
21
6.699410
31
0.0
0
LINE
8
0
10
28.150000
20
6.699410
30
0.0
11
28.650000
21
6.199410
31
0.0
0
LINE
8
0
10
28.650000
20
6.199410
30
0.0
11
29.150000
21
6.699410
31
0.0
0
LINE
8
0
10
29.150000
20
6.699410
30
0.0
11
38.600000
21
6.699410
31
0.0
0
ARC
8
0
10
38.600000
20
6.199410
30
0.0
40
0.500000
50
0.000000
51
90.000000
0
LINE
8
0
10
39.100000
20
6.199410
30
0.0
11
39.100000
21
1.200000
31
0.0
0
LINE
8
0
10
39.100000
20
1.200000
30
0.0
11
37.898294
21
1.200000
31
0.0
0
LINE
8
0
10
37.898294
20
1.200000
30
0.0
11
38.591115
21
0.000000
31
0.0
0
LINE
8
0
10
38.591115
20
0.000000
30
0.0
11
40.998294
21
0.000000
31
0.0
0
LINE
8
0
10
40.998294
20
0.000000
30
0.0
11
40.998294
21
1.000000
31
0.0
0
LINE
8
0
10
40.998294
20
1.000000
30
0.0
11
40.300000
21
1.000000
31
0.0
0
LINE
8
0
10
40.300000
20
1.000000
30
0.0
11
40.300000
21
1.893930
31
0.0
0
LINE
8
0
10
40.300000
20
1.893930
30
0.0
11
40.998294
21
4.500000
31
0.0
0
LINE
8
0
10
40.998294
20
4.500000
30
0.0
11
40.998294
21
5.000000
31
0.0
0
ARC
8
0
10
40.498294
20
5.000000
30
0.0
40
0.500000
50
0.000000
51
90.000000
0
LINE
8
0
10
40.498294
20
5.500000
30
0.0
11
40.300000
21
5.500000
31
0.0
0
LINE
8
0
10
40.300000
20
5.500000
30
0.0
11
40.300000
21
6.199410
31
0.0
0
ARC
8
0
10
40.800000
20
6.199410
30
0.0
40
0.500000
50
90.000000
51
180.000000
0
LINE
8
0
10
40.800000
20
6.699410
30
0.0
11
43.300000
21
6.699410
31
0.0
0
ARC
8
0
10
43.300000
20
6.199410
30
0.0
40
0.500000
50
0.000000
51
90.000000
0
LINE
8
0
10
43.800000
20
6.199410
30
0.0
11
43.800000
21
3.100000
31
0.0
0
LINE
8
0
10
43.800000
20
3.100000
30
0.0
11
43.076894
21
2.682515
31
0.0
0
ARC
8
0
10
43.326894
20
2.249502
30
0.0
40
0.500000
50
120.000000
51
210.000000
0
LINE
8
0
10
42.893881
20
1.999502
30
0.0
11
43.903957
21
0.250000
31
0.0
0
ARC
8
0
10
44.336969
20
0.500000
30
0.0
40
0.500000
50
210.000000
51
270.000000
0
LINE
8
0
10
44.336969
20
0.000000
30
0.0
11
45.000000
21
0.000000
31
0.0
0
LINE
8
0
10
45.000000
20
0.000000
30
0.0
11
45.000000
21
20.949410
31
0.0
0
LINE
8
0
10
45.000000
20
20.949410
30
0.0
11
29.150000
21
20.949410
31
0.0
0
LINE
8
0
10
29.150000
20
20.949410
30
0.0
11
28.650000
21
21.449410
31
0.0
0
LINE
8
0
10
28.650000
20
21.449410
30
0.0
11
28.150000
21
20.949410
31
0.0
0
LINE
8
0
10
28.150000
20
20.949410
30
0.0
11
27.650000
21
20.949410
31
0.0
0
LINE
8
0
10
27.650000
20
20.949410
30
0.0
11
27.150000
21
20.949410
31
0.0
0
LINE
8
0
10
27.150000
20
20.949410
30
0.0
11
26.650000
21
21.449410
31
0.0
0
LINE
8
0
10
26.650000
20
21.449410
30
0.0
11
26.150000
21
20.949410
31
0.0
0
LINE
8
0
10
26.150000
20
20.949410
30
0.0
11
3.750000
21
20.949410
31
0.0
0
ARC
8
0
10
3.750000
20
22.949410
30
0.0
40
2.000000
50
180.000000
51
270.000000
0
LINE
8
0
10
1.750000
20
22.949410
30
0.0
11
1.750000
21
35.049410
31
0.0
0
ARC
8
0
10
2.750000
20
35.049410
30
0.0
40
1.000000
50
90.000000
51
180.000000
0
LINE
8
0
10
2.750000
20
36.049410
30
0.0
11
5.100105
21
36.049410
31
0.0
0
LINE
8
0
10
5.100105
20
36.049410
30
0.0
11
5.100105
21
37.806589
31
0.0
0
LINE
8
0
10
5.100105
20
37.806589
30
0.0
11
3.900105
21
38.499410
31
0.0
0
LINE
8
0
10
3.900105
20
38.499410
30
0.0
11
3.900105
21
37.249410
31
0.0
0
LINE
8
0
10
3.900105
20
37.249410
30
0.0
11
1.400000
21
37.249410
31
0.0
0
LINE
8
0
10
1.400000
20
37.249410
30
0.0
11
1.400000
21
43.749410
31
0.0
0
LINE
8
0
10
1.400000
20
43.749410
30
0.0
11
3.900105
21
43.749410
31
0.0
0
LINE
8
0
10
3.900105
20
43.749410
30
0.0
11
3.900105
21
42.499410
31
0.0
0
LINE
8
0
10
3.900105
20
42.499410
30
0.0
11
5.100105
21
43.192230
31
0.0
0
LINE
8
0
10
5.100105
20
43.192230
30
0.0
11
5.100105
21
44.949410
31
0.0
0
LINE
8
0
10
5.100105
20
44.949410
30
0.0
11
0.000000
21
44.949410
31
0.0
0
LINE
8
0
10
0.000000
20
44.949410
30
0.0
11
0.000000
21
0.000000
31
0.0
0
LINE
8
0
10
0.000000
20
0.000000
30
0.0
11
0.663031
21
0.000000
31
0.0
0
ARC
8
0
10
0.663031
20
0.500000
30
0.0
40
0.500000
50
270.000000
51
330.000000
0
LINE
8
0
10
1.096043
20
0.250000
30
0.0
11
2.106119
21
1.999502
31
0.0
0
ARC
8
0
10
1.673106
20
2.249502
30
0.0
40
0.500000
50
330.000000
51
60.000000
0
LINE
8
0
10
1.923106
20
2.682515
30
0.0
11
1.200000
21
3.100000
31
0.0
0
LINE
8
0
10
1.200000
20
3.100000
30
0.0
11
1.200000
21
6.199410
31
0.0
0
ARC
8
0
10
1.700000
20
6.199410
30
0.0
40
0.500000
50
90.000000
51
180.000000
0
LINE
8
0
10
1.700000
20
6.699410
30
0.0
11
4.200000
21
6.699410
31
0.0
0
ARC
8
0
10
4.200000
20
6.199410
30
0.0
40
0.500000
50
0.000000
51
90.000000
0
LINE
8
0
10
4.700000
20
6.199410
30
0.0
11
4.700000
21
5.500000
31
0.0
0
LINE
8
0
10
4.700000
20
5.500000
30
0.0
11
4.501706
21
5.500000
31
0.0
0
ARC
8
0
10
4.501706
20
5.000000
30
0.0
40
0.500000
50
90.000000
51
180.000000
0
LINE
8
0
10
4.001706
20
5.000000
30
0.0
11
4.001706
21
4.500000
31
0.0
0
LINE
8
0
10
4.001706
20
4.500000
30
0.0
11
4.700000
21
1.893930
31
0.0
0
LINE
8
0
10
4.700000
20
1.893930
30
0.0
11
4.700000
21
1.000000
31
0.0
0
LINE
8
0
10
4.700000
20
1.000000
30
0.0
11
4.001706
21
1.000000
31
0.0
0
LINE
8
0
10
4.001706
20
1.000000
30
0.0
11
4.001706
21
0.000000
31
0.0
0
LINE
8
0
10
4.001706
20
0.000000
30
0.0
11
6.408885
21
0.000000
31
0.0
0
LINE
8
0
10
6.408885
20
0.000000
30
0.0
11
7.101706
21
1.200000
31
0.0
0
LINE
8
0
10
7.101706
20
1.200000
30
0.0
11
5.900000
21
1.200000
31
0.0
0
LINE
8
0
10
5.900000
20
1.200000
30
0.0
11
5.900000
21
6.199410
31
0.0
0
ARC
8
0
10
6.400000
20
6.199410
30
0.0
40
0.500000
50
90.000000
51
180.000000
0
ARC
8
0
10
42.200000
20
8.599410
30
0.0
40
0.500000
50
180.000000
51
270.000000
0
LINE
8
0
10
41.700000
20
8.599410
30
0.0
11
41.700000
21
9.299410
31
0.0
0
LINE
8
0
10
41.700000
20
9.299410
30
0.0
11
40.500000
21
9.299410
31
0.0
0
LINE
8
0
10
40.500000
20
9.299410
30
0.0
11
40.500000
21
8.099410
31
0.0
0
LINE
8
0
10
40.500000
20
8.099410
30
0.0
11
4.500000
21
8.099410
31
0.0
0
LINE
8
0
10
4.500000
20
8.099410
30
0.0
11
4.500000
21
9.299410
31
0.0
0
LINE
8
0
10
4.500000
20
9.299410
30
0.0
11
3.300000
21
9.299410
31
0.0
0
LINE
8
0
10
3.300000
20
9.299410
30
0.0
11
3.300000
21
8.599410
31
0.0
0
ARC
8
0
10
2.800000
20
8.599410
30
0.0
40
0.500000
50
270.000000
51
0.000000
0
LINE
8
0
10
2.800000
20
8.099410
30
0.0
11
1.900000
21
8.099410
31
0.0
0
ARC
8
0
10
1.900000
20
8.599410
30
0.0
40
0.500000
50
180.000000
51
270.000000
0
LINE
8
0
10
1.400000
20
8.599410
30
0.0
11
1.400000
21
18.599410
31
0.0
0
ARC
8
0
10
1.900000
20
18.599410
30
0.0
40
0.500000
50
90.000000
51
180.000000
0
LINE
8
0
10
1.900000
20
19.099410
30
0.0
11
2.800000
21
19.099410
31
0.0
0
ARC
8
0
10
2.800000
20
18.599410
30
0.0
40
0.500000
50
0.000000
51
90.000000
0
LINE
8
0
10
3.300000
20
18.599410
30
0.0
11
3.300000
21
17.899410
31
0.0
0
LINE
8
0
10
3.300000
20
17.899410
30
0.0
11
4.500000
21
17.899410
31
0.0
0
LINE
8
0
10
4.500000
20
17.899410
30
0.0
11
4.500000
21
19.099410
31
0.0
0
LINE
8
0
10
4.500000
20
19.099410
30
0.0
11
40.500000
21
19.099410
31
0.0
0
LINE
8
0
10
40.500000
20
19.099410
30
0.0
11
40.500000
21
17.899410
31
0.0
0
LINE
8
0
10
40.500000
20
17.899410
30
0.0
11
41.700000
21
17.899410
31
0.0
0
LINE
8
0
10
41.700000
20
17.899410
30
0.0
11
41.700000
21
18.599410
31
0.0
0
ARC
8
0
10
42.200000
20
18.599410
30
0.0
40
0.500000
50
90.000000
51
180.000000
0
LINE
8
0
10
42.200000
20
19.099410
30
0.0
11
43.100000
21
19.099410
31
0.0
0
ARC
8
0
10
43.100000
20
18.599410
30
0.0
40
0.500000
50
0.000000
51
90.000000
0
LINE
8
0
10
43.600000
20
18.599410
30
0.0
11
43.600000
21
8.599410
31
0.0
0
ARC
8
0
10
43.100000
20
8.599410
30
0.0
40
0.500000
50
270.000000
51
0.000000
0
LINE
8
0
10
43.100000
20
8.099410
30
0.0
11
42.200000
21
8.099410
31
0.0
0
ATTDEF
8
0
10
45.000000
20
20.949410
30
0.0
40
3.5
1

3

2
VC_START
70
0
0
ATTDEF
8
0
10
39.794705
20
0.000000
30
0.0
40
3.5
1

3

2
VC_END
70
0
0
ATTDEF
8
0
10
0.000000
20
0.000000
30
0.0
40
3.5
1

3

2
REAR_VIEW
70
0
0
ATTDEF
8
0
10
0.000000
20
0.000000
30
0.0
40
3.5
1

3

2
OPTI:1500.000000,1,0,3000.000000,6200.000000,500.000000,0,0.000000,0
70
0
0
ATTDEF
8
0
10
0.000000
20
0.000000
30
0.0
40
3.5
1

3

2
GLASS_MIN:0.000000
70
0
0
ATTDEF
8
0
10
0.000000
20
0.000000
30
0.0
40
3.5
1

3

2
GLASS_MAX:0.000000
70
0
0
ATTDEF
8
0
10
0.000000
20
0.000000
30
0.0
40
3.5
1

3

2
JX:0.000000
70
0
0
ATTDEF
8
0
10
0.000000
20
0.000000
30
0.0
40
3.5
1

3

2
WX:0.000000
70
0
0
ATTDEF
8
0
10
0.000000
20
0.000000
30
0.0
40
3.5
1

3

2
JY:0.000000
70
0
0
ATTDEF
8
0
10
0.000000
20
0.000000
30
0.0
40
3.5
1

3

2
WY:0.000000
70
0
0
ATTDEF
8
0
10
0.000000
20
0.000000
30
0.0
40
3.5
1

3

2
FP_LCS_ORIG
70
0
0
ATTDEF
8
0
10
10.000000
20
0.000000
30
0.0
40
3.5
1

3

2
FP_LCS_HOT
70
0
0
ATTDEF
8
0
10
0.000000
20
10.000000
30
0.0
40
3.5
1

3

2
FP_LCS_INTERN
70
0
0
ATTDEF
8
0
10
0.000000
20
0.000000
30
0.0
40
3.5
1

3

2
BL01:6200.000,,1
70
0
0
ATTDEF
8
0
10
0.000000
20
0.000000
30
0.0
40
3.5
1

3

2
DESC:Marco Batiente
70
0
0
ATTDEF
8
0
10
0.000000
20
0.000000
30
0.0
40
3.5
1

3

2
DENS:0.726
70
0
0
ATTDEF
8
0
10
0.000000
20
0.000000
30
0.0
40
3.5
1

3

2
TDEV:0
70
0
0
ATTDEF
8
0
10
0.000000
20
0.000000
30
0.0
40
3.5
1

3

2
TDEV2:0
70
0
0
ATTDEF
8
0
10
0.000000
20
0.000000
30
0.0
40
3.5
1

3

2
TDEV3:0
70
0
0
ATTDEF
8
0
10
0.000000
20
0.000000
30
0.0
40
3.5
1

3

2
TDEV4:0
70
0
0
ATTDEF
8
0
10
0.000000
20
0.000000
30
0.0
40
3.5
1

3

2
TDEV5:0
70
0
0
ATTDEF
8
0
10
0.000000
20
0.000000
30
0.0
40
3.5
1

3

2
PANE_WIDTH:0
70
0
0
ATTDEF
8
0
10
0.000000
20
0.000000
30
0.0
40
3.5
1

3

2
MIN_VETRO:0
70
0
0
ATTDEF
8
0
10
0.000000
20
0.000000
30
0.0
40
3.5
1

3

2
MAX_VETRO:0
70
0
0
ATTDEF
8
0
10
0.000000
20
0.000000
30
0.0
40
3.5
1

3

2
JX:0
70
0
0
ATTDEF
8
0
10
0.000000
20
0.000000
30
0.0
40
3.5
1

3

2
WX:0
70
0
0
ATTDEF
8
0
10
0.000000
20
0.000000
30
0.0
40
3.5
1

3

2
JY:0
70
0
0
ATTDEF
8
0
10
0.000000
20
0.000000
30
0.0
40
3.5
1

3

2
WY:0
70
0
0
ENDSEC
0
EOF
