0
SECTION
2
ENTITIES
0
LINE
8
0
10
21.913848
20
23.661639
30
0.0
11
23.658412
21
26.453526
31
0.0
0
ARC
8
0
10
24.506460
20
25.923607
30
0.0
40
1.000000
50
90.000000
51
148.000000
0
LINE
8
0
10
24.506460
20
26.923607
30
0.0
11
24.792820
21
26.923607
31
0.0
0
ARC
8
0
10
24.792820
20
28.123607
30
0.0
40
1.200000
50
270.000000
51
300.000000
0
LINE
8
0
10
25.392820
20
27.084376
30
0.0
11
27.100000
21
28.070017
31
0.0
0
ARC
8
0
10
27.300000
20
27.723607
30
0.0
40
0.400000
50
0.000000
51
120.000000
0
LINE
8
0
10
27.700000
20
27.723607
30
0.0
11
27.700000
21
24.323607
31
0.0
0
ARC
8
0
10
27.300000
20
24.323607
30
0.0
40
0.400000
50
240.000000
51
0.000000
0
LINE
8
0
10
27.100000
20
23.977197
30
0.0
11
25.160770
21
25.096812
31
0.0
0
ARC
8
0
10
25.060770
20
24.923607
30
0.0
40
0.200000
50
60.000000
51
148.000000
0
LINE
8
0
10
24.891160
20
25.029591
30
0.0
11
22.911604
21
21.861639
31
0.0
0
ARC
8
0
10
22.572385
20
22.073607
30
0.0
40
0.400000
50
270.000000
51
328.000000
0
LINE
8
0
10
22.572385
20
21.673607
30
0.0
11
16.827615
21
21.673607
31
0.0
0
ARC
8
0
10
16.827615
20
22.073607
30
0.0
40
0.400000
50
212.000000
51
270.000000
0
LINE
8
0
10
16.488396
20
21.861639
30
0.0
11
14.508840
21
25.029591
31
0.0
0
ARC
8
0
10
14.339230
20
24.923607
30
0.0
40
0.200000
50
32.000000
51
120.000000
0
LINE
8
0
10
14.239230
20
25.096812
30
0.0
11
12.300000
21
23.977197
31
0.0
0
ARC
8
0
10
12.100000
20
24.323607
30
0.0
40
0.400000
50
180.000000
51
300.000000
0
LINE
8
0
10
11.700000
20
24.323607
30
0.0
11
11.700000
21
27.723607
31
0.0
0
ARC
8
0
10
12.100000
20
27.723607
30
0.0
40
0.400000
50
60.000000
51
180.000000
0
LINE
8
0
10
12.300000
20
28.070017
30
0.0
11
14.007180
21
27.084376
31
0.0
0
ARC
8
0
10
14.607180
20
28.123607
30
0.0
40
1.200000
50
240.000000
51
270.000000
0
LINE
8
0
10
14.607180
20
26.923607
30
0.0
11
14.893540
21
26.923607
31
0.0
0
ARC
8
0
10
14.893540
20
25.923607
30
0.0
40
1.000000
50
32.000000
51
90.000000
0
LINE
8
0
10
15.741588
20
26.453526
30
0.0
11
17.486152
21
23.661639
31
0.0
0
ARC
8
0
10
17.825371
20
23.873607
30
0.0
40
0.400000
50
212.000000
51
270.000000
0
LINE
8
0
10
17.825371
20
23.473607
30
0.0
11
21.574629
21
23.473607
31
0.0
0
ARC
8
0
10
21.574629
20
23.873607
30
0.0
40
0.400000
50
270.000000
51
328.000000
0
LINE
8
0
10
21.913848
20
126.338361
30
0.0
11
23.658412
21
123.546474
31
0.0
0
ARC
8
0
10
24.506460
20
124.076393
30
0.0
40
1.000000
50
212.000000
51
270.000000
0
LINE
8
0
10
24.506460
20
123.076393
30
0.0
11
24.792820
21
123.076393
31
0.0
0
ARC
8
0
10
24.792820
20
121.876393
30
0.0
40
1.200000
50
60.000000
51
90.000000
0
LINE
8
0
10
25.392820
20
122.915624
30
0.0
11
27.100000
21
121.929983
31
0.0
0
ARC
8
0
10
27.300000
20
122.276393
30
0.0
40
0.400000
50
240.000000
51
0.000000
0
LINE
8
0
10
27.700000
20
122.276393
30
0.0
11
27.700000
21
125.676393
31
0.0
0
ARC
8
0
10
27.300000
20
125.676393
30
0.0
40
0.400000
50
0.000000
51
120.000000
0
LINE
8
0
10
27.100000
20
126.022803
30
0.0
11
25.160770
21
124.903188
31
0.0
0
ARC
8
0
10
25.060770
20
125.076393
30
0.0
40
0.200000
50
212.000000
51
300.000000
0
LINE
8
0
10
24.891160
20
124.970409
30
0.0
11
22.911604
21
128.138361
31
0.0
0
ARC
8
0
10
22.572385
20
127.926393
30
0.0
40
0.400000
50
32.000000
51
90.000000
0
LINE
8
0
10
22.572385
20
128.326393
30
0.0
11
16.827615
21
128.326393
31
0.0
0
ARC
8
0
10
16.827615
20
127.926393
30
0.0
40
0.400000
50
90.000000
51
148.000000
0
LINE
8
0
10
16.488396
20
128.138361
30
0.0
11
14.508840
21
124.970409
31
0.0
0
ARC
8
0
10
14.339230
20
125.076393
30
0.0
40
0.200000
50
240.000000
51
328.000000
0
LINE
8
0
10
14.239230
20
124.903188
30
0.0
11
12.300000
21
126.022803
31
0.0
0
ARC
8
0
10
12.100000
20
125.676393
30
0.0
40
0.400000
50
60.000000
51
180.000000
0
LINE
8
0
10
11.700000
20
125.676393
30
0.0
11
11.700000
21
122.276393
31
0.0
0
ARC
8
0
10
12.100000
20
122.276393
30
0.0
40
0.400000
50
180.000000
51
300.000000
0
LINE
8
0
10
12.300000
20
121.929983
30
0.0
11
14.007180
21
122.915624
31
0.0
0
ARC
8
0
10
14.607180
20
121.876393
30
0.0
40
1.200000
50
90.000000
51
120.000000
0
LINE
8
0
10
14.607180
20
123.076393
30
0.0
11
14.893540
21
123.076393
31
0.0
0
ARC
8
0
10
14.893540
20
124.076393
30
0.0
40
1.000000
50
270.000000
51
328.000000
0
LINE
8
0
10
15.741588
20
123.546474
30
0.0
11
17.486152
21
126.338361
31
0.0
0
ARC
8
0
10
17.825371
20
126.126393
30
0.0
40
0.400000
50
90.000000
51
148.000000
0
LINE
8
0
10
17.825371
20
126.526393
30
0.0
11
21.574629
21
126.526393
31
0.0
0
ARC
8
0
10
21.574629
20
126.126393
30
0.0
40
0.400000
50
32.000000
51
90.000000
0
ARC
8
0
10
34.200000
20
124.200000
30
0.0
40
2.000000
50
128.942441
51
160.528779
0
ARC
8
0
10
32.785786
20
124.700000
30
0.0
40
0.500000
50
160.528779
51
340.528779
0
ARC
8
0
10
34.200000
20
124.200000
30
0.0
40
1.000000
50
19.471221
51
160.528779
0
ARC
8
0
10
35.614214
20
124.700000
30
0.0
40
0.500000
50
199.471221
51
19.471221
0
ARC
8
0
10
34.200000
20
124.200000
30
0.0
40
2.000000
50
19.471221
51
51.057559
0
ARC
8
0
10
35.614214
20
125.950000
30
0.0
40
0.250000
50
90.000000
51
231.057559
0
LINE
8
0
10
35.614214
20
126.200000
30
0.0
11
37.700000
21
126.200000
31
0.0
0
ARC
8
0
10
37.700000
20
125.200000
30
0.0
40
1.000000
50
0.000000
51
90.000000
0
LINE
8
0
10
38.700000
20
125.200000
30
0.0
11
38.700000
21
120.329910
31
0.0
0
ARC
8
0
10
37.700000
20
120.329910
30
0.0
40
1.000000
50
337.181670
51
0.000000
0
ARC
8
0
10
43.000000
20
118.100000
30
0.0
40
4.750000
50
157.181670
51
222.305623
0
ARC
8
0
10
40.411522
20
115.744202
30
0.0
40
1.250000
50
222.305623
51
0.000000
0
LINE
8
0
10
41.661522
20
115.744202
30
0.0
11
41.661522
21
116.261522
31
0.0
0
ARC
8
0
10
41.161522
20
116.261522
30
0.0
40
0.500000
50
0.000000
51
90.000000
0
LINE
8
0
10
41.161522
20
116.761522
30
0.0
11
40.644803
21
116.761522
31
0.0
0
ARC
8
0
10
40.644803
20
117.261522
30
0.0
40
0.500000
50
199.596319
51
270.000000
0
ARC
8
0
10
43.000000
20
118.100000
30
0.0
40
3.000000
50
160.403681
51
199.596319
0
ARC
8
0
10
40.644803
20
118.938478
30
0.0
40
0.500000
50
90.000000
51
160.403681
0
LINE
8
0
10
40.644803
20
119.438478
30
0.0
11
41.161522
21
119.438478
31
0.0
0
ARC
8
0
10
41.161522
20
119.938478
30
0.0
40
0.500000
50
270.000000
51
0.000000
0
LINE
8
0
10
41.661522
20
119.938478
30
0.0
11
41.661522
21
120.455197
31
0.0
0
ARC
8
0
10
42.161522
20
120.455197
30
0.0
40
0.500000
50
109.596319
51
180.000000
0
ARC
8
0
10
43.000000
20
118.100000
30
0.0
40
3.000000
50
70.403681
51
109.596319
0
ARC
8
0
10
43.838478
20
120.455197
30
0.0
40
0.500000
50
0.000000
51
70.403681
0
LINE
8
0
10
44.338478
20
120.455197
30
0.0
11
44.338478
21
119.938478
31
0.0
0
ARC
8
0
10
44.838478
20
119.938478
30
0.0
40
0.500000
50
180.000000
51
270.000000
0
LINE
8
0
10
44.838478
20
119.438478
30
0.0
11
45.355197
21
119.438478
31
0.0
0
ARC
8
0
10
45.355197
20
118.938478
30
0.0
40
0.500000
50
19.596319
51
90.000000
0
ARC
8
0
10
43.000000
20
118.100000
30
0.0
40
3.000000
50
340.403681
51
19.596319
0
ARC
8
0
10
45.355197
20
117.261522
30
0.0
40
0.500000
50
270.000000
51
340.403681
0
LINE
8
0
10
45.355197
20
116.761522
30
0.0
11
44.838478
21
116.761522
31
0.0
0
ARC
8
0
10
44.838478
20
116.261522
30
0.0
40
0.500000
50
90.000000
51
180.000000
0
LINE
8
0
10
44.338478
20
116.261522
30
0.0
11
44.338478
21
115.744202
31
0.0
0
ARC
8
0
10
45.588478
20
115.744202
30
0.0
40
1.250000
50
180.000000
51
317.694377
0
ARC
8
0
10
43.000000
20
118.100000
30
0.0
40
4.750000
50
317.694377
51
21.420962
0
ARC
8
0
10
48.352803
20
120.200000
30
0.0
40
1.000000
50
90.000000
51
201.420962
0
LINE
8
0
10
48.352803
20
121.200000
30
0.0
11
57.200000
21
121.200000
31
0.0
0
ARC
8
0
10
57.200000
20
120.200000
30
0.0
40
1.000000
50
0.000000
51
90.000000
0
LINE
8
0
10
58.200000
20
120.200000
30
0.0
11
58.200000
21
29.800000
31
0.0
0
ARC
8
0
10
57.200000
20
29.800000
30
0.0
40
1.000000
50
270.000000
51
0.000000
0
LINE
8
0
10
57.200000
20
28.800000
30
0.0
11
48.352803
21
28.800000
31
0.0
0
ARC
8
0
10
48.352803
20
29.800000
30
0.0
40
1.000000
50
158.579038
51
270.000000
0
ARC
8
0
10
43.000000
20
31.900000
30
0.0
40
4.750000
50
338.579038
51
42.305623
0
ARC
8
0
10
45.588478
20
34.255798
30
0.0
40
1.250000
50
42.305623
51
180.000000
0
LINE
8
0
10
44.338478
20
34.255798
30
0.0
11
44.338478
21
33.738478
31
0.0
0
ARC
8
0
10
44.838478
20
33.738478
30
0.0
40
0.500000
50
180.000000
51
270.000000
0
LINE
8
0
10
44.838478
20
33.238478
30
0.0
11
45.355197
21
33.238478
31
0.0
0
ARC
8
0
10
45.355197
20
32.738478
30
0.0
40
0.500000
50
19.596319
51
90.000000
0
ARC
8
0
10
43.000000
20
31.900000
30
0.0
40
3.000000
50
340.403681
51
19.596319
0
ARC
8
0
10
45.355197
20
31.061522
30
0.0
40
0.500000
50
270.000000
51
340.403681
0
LINE
8
0
10
45.355197
20
30.561522
30
0.0
11
44.838478
21
30.561522
31
0.0
0
ARC
8
0
10
44.838478
20
30.061522
30
0.0
40
0.500000
50
90.000000
51
180.000000
0
LINE
8
0
10
44.338478
20
30.061522
30
0.0
11
44.338478
21
29.544803
31
0.0
0
ARC
8
0
10
43.838478
20
29.544803
30
0.0
40
0.500000
50
289.596319
51
0.000000
0
ARC
8
0
10
43.000000
20
31.900000
30
0.0
40
3.000000
50
250.403681
51
289.596319
0
ARC
8
0
10
42.161522
20
29.544803
30
0.0
40
0.500000
50
180.000000
51
250.403681
0
LINE
8
0
10
41.661522
20
29.544803
30
0.0
11
41.661522
21
30.061522
31
0.0
0
ARC
8
0
10
41.161522
20
30.061522
30
0.0
40
0.500000
50
0.000000
51
90.000000
0
LINE
8
0
10
41.161522
20
30.561522
30
0.0
11
40.644803
21
30.561522
31
0.0
0
ARC
8
0
10
40.644803
20
31.061522
30
0.0
40
0.500000
50
199.596319
51
270.000000
0
ARC
8
0
10
43.000000
20
31.900000
30
0.0
40
3.000000
50
160.403681
51
199.596319
0
ARC
8
0
10
40.644803
20
32.738478
30
0.0
40
0.500000
50
90.000000
51
160.403681
0
LINE
8
0
10
40.644803
20
33.238478
30
0.0
11
41.161522
21
33.238478
31
0.0
0
ARC
8
0
10
41.161522
20
33.738478
30
0.0
40
0.500000
50
270.000000
51
0.000000
0
LINE
8
0
10
41.661522
20
33.738478
30
0.0
11
41.661522
21
34.255798
31
0.0
0
ARC
8
0
10
40.411522
20
34.255798
30
0.0
40
1.250000
50
0.000000
51
137.694377
0
ARC
8
0
10
43.000000
20
31.900000
30
0.0
40
4.750000
50
137.694377
51
202.818330
0
ARC
8
0
10
37.700000
20
29.670090
30
0.0
40
1.000000
50
0.000000
51
22.818330
0
LINE
8
0
10
38.700000
20
29.670090
30
0.0
11
38.700000
21
24.800000
31
0.0
0
ARC
8
0
10
37.700000
20
24.800000
30
0.0
40
1.000000
50
270.000000
51
0.000000
0
LINE
8
0
10
37.700000
20
23.800000
30
0.0
11
30.500000
21
23.800000
31
0.0
0
ARC
8
0
10
30.500000
20
24.800000
30
0.0
40
1.000000
50
180.000000
51
270.000000
0
LINE
8
0
10
29.500000
20
24.800000
30
0.0
11
29.500000
21
125.200000
31
0.0
0
ARC
8
0
10
30.500000
20
125.200000
30
0.0
40
1.000000
50
90.000000
51
180.000000
0
LINE
8
0
10
30.500000
20
126.200000
30
0.0
11
32.785786
21
126.200000
31
0.0
0
ARC
8
0
10
32.785786
20
125.950000
30
0.0
40
0.250000
50
308.942441
51
90.000000
0
ARC
8
0
10
26.700000
20
118.429432
30
0.0
40
1.000000
50
0.000000
51
58.600000
0
LINE
8
0
10
27.700000
20
31.570568
30
0.0
11
27.700000
21
118.429432
31
0.0
0
ARC
8
0
10
26.700000
20
31.570568
30
0.0
40
1.000000
50
301.400000
51
0.000000
0
LINE
8
0
10
25.678990
20
29.775765
30
0.0
11
27.221010
21
30.717017
31
0.0
0
ARC
8
0
10
26.200000
20
28.922214
30
0.0
40
1.000000
50
121.400000
51
180.000000
0
LINE
8
0
10
25.200000
20
27.496631
30
0.0
11
25.200000
21
28.922214
31
0.0
0
ARC
8
0
10
25.400000
20
27.496631
30
0.0
40
0.200000
50
180.000000
51
301.400000
0
LINE
8
0
10
27.100000
20
28.300000
30
0.0
11
25.504202
21
27.325921
31
0.0
0
LINE
8
0
10
27.400000
20
28.300000
30
0.0
11
27.100000
21
28.300000
31
0.0
0
ARC
8
0
10
27.400000
20
28.000000
30
0.0
40
0.300000
50
0.000000
51
90.000000
0
LINE
8
0
10
27.700000
20
23.974538
30
0.0
11
27.700000
21
28.000000
31
0.0
0
ARC
8
0
10
27.200000
20
23.974538
30
0.0
40
0.500000
50
234.949637
51
0.000000
0
LINE
8
0
10
25.741117
20
24.387207
30
0.0
11
26.912852
21
23.565214
31
0.0
0
ARC
8
0
10
25.855977
20
24.550937
30
0.0
40
0.200000
50
174.949637
51
234.949637
0
LINE
8
0
10
25.672001
20
24.741076
30
0.0
11
25.656753
21
24.568543
31
0.0
0
ARC
8
0
10
25.472777
20
24.758682
30
0.0
40
0.200000
50
354.949637
51
114.949637
0
LINE
8
0
10
24.905294
20
24.715253
30
0.0
11
25.388413
21
24.940018
31
0.0
0
ARC
8
0
10
25.010750
20
24.488583
30
0.0
40
0.250000
50
114.949637
51
154.949637
0
LINE
8
0
10
23.771891
20
22.428365
30
0.0
11
24.784266
21
24.594437
31
0.0
0
ARC
8
0
10
24.043671
20
22.301340
30
0.0
40
0.300000
50
154.949637
51
270.000000
0
LINE
8
0
10
25.568266
20
22.000000
30
0.0
11
24.043408
21
22.001340
31
0.0
0
ARC
8
0
10
25.568486
20
22.250000
30
0.0
40
0.250000
50
270.000000
51
337.135547
0
ARC
8
0
10
26.029199
20
22.055724
30
0.0
40
0.250000
50
22.864465
51
157.135547
0
ARC
8
0
10
26.489913
20
22.250000
30
0.0
40
0.250000
50
202.864465
51
270.000000
0
LINE
8
0
10
41.500000
20
22.000000
30
0.0
11
26.489913
21
22.000000
31
0.0
0
LINE
8
0
10
42.500000
20
23.000000
30
0.0
11
41.500000
21
22.000000
31
0.0
0
LINE
8
0
10
42.500000
20
24.000000
30
0.0
11
42.500000
21
23.000000
31
0.0
0
LINE
8
0
10
41.000000
20
24.000000
30
0.0
11
42.500000
21
24.000000
31
0.0
0
ARC
8
0
10
41.000000
20
24.500000
30
0.0
40
0.500000
50
180.000000
51
270.000000
0
LINE
8
0
10
40.500000
20
26.500000
30
0.0
11
40.500000
21
24.500000
31
0.0
0
ARC
8
0
10
41.000000
20
26.500000
30
0.0
40
0.500000
50
90.000000
51
180.000000
0
LINE
8
0
10
58.000000
20
27.000000
30
0.0
11
41.000000
21
27.000000
31
0.0
0
ARC
8
0
10
58.000000
20
26.500000
30
0.0
40
0.500000
50
0.000000
51
90.000000
0
LINE
8
0
10
58.500000
20
24.500000
30
0.0
11
58.500000
21
26.500000
31
0.0
0
ARC
8
0
10
58.000000
20
24.500000
30
0.0
40
0.500000
50
270.000000
51
0.000000
0
LINE
8
0
10
56.500000
20
24.000000
30
0.0
11
58.000000
21
24.000000
31
0.0
0
LINE
8
0
10
56.500000
20
23.000000
30
0.0
11
56.500000
21
24.000000
31
0.0
0
LINE
8
0
10
57.500000
20
22.000000
30
0.0
11
56.500000
21
23.000000
31
0.0
0
LINE
8
0
10
60.000000
20
22.000000
30
0.0
11
57.500000
21
22.000000
31
0.0
0
LINE
8
0
10
60.000000
20
128.000000
30
0.0
11
60.000000
21
22.000000
31
0.0
0
LINE
8
0
10
57.500000
20
128.000000
30
0.0
11
60.000000
21
128.000000
31
0.0
0
LINE
8
0
10
56.500000
20
127.000000
30
0.0
11
57.500000
21
128.000000
31
0.0
0
LINE
8
0
10
56.500000
20
126.000000
30
0.0
11
56.500000
21
127.000000
31
0.0
0
LINE
8
0
10
58.000000
20
126.000000
30
0.0
11
56.500000
21
126.000000
31
0.0
0
ARC
8
0
10
58.000000
20
125.500000
30
0.0
40
0.500000
50
0.000000
51
90.000000
0
LINE
8
0
10
58.500000
20
123.500000
30
0.0
11
58.500000
21
125.500000
31
0.0
0
ARC
8
0
10
58.000000
20
123.500000
30
0.0
40
0.500000
50
270.000000
51
0.000000
0
LINE
8
0
10
41.000000
20
123.000000
30
0.0
11
58.000000
21
123.000000
31
0.0
0
ARC
8
0
10
41.000000
20
123.500000
30
0.0
40
0.500000
50
180.000000
51
270.000000
0
LINE
8
0
10
40.500000
20
125.500000
30
0.0
11
40.500000
21
123.500000
31
0.0
0
ARC
8
0
10
41.000000
20
125.500000
30
0.0
40
0.500000
50
90.000000
51
180.000000
0
LINE
8
0
10
42.500000
20
126.000000
30
0.0
11
41.000000
21
126.000000
31
0.0
0
LINE
8
0
10
42.500000
20
127.000000
30
0.0
11
42.500000
21
126.000000
31
0.0
0
LINE
8
0
10
41.500000
20
128.000000
30
0.0
11
42.500000
21
127.000000
31
0.0
0
LINE
8
0
10
26.489913
20
128.000000
30
0.0
11
41.500000
21
128.000000
31
0.0
0
ARC
8
0
10
26.489913
20
127.750000
30
0.0
40
0.250000
50
90.000000
51
157.135535
0
ARC
8
0
10
26.029199
20
127.944276
30
0.0
40
0.250000
50
202.864453
51
337.135535
0
ARC
8
0
10
25.568486
20
127.750000
30
0.0
40
0.250000
50
22.864453
51
90.000000
0
LINE
8
0
10
24.043408
20
127.998660
30
0.0
11
25.568266
21
128.000000
31
0.0
0
ARC
8
0
10
24.043671
20
127.698660
30
0.0
40
0.300000
50
90.000000
51
205.050363
0
LINE
8
0
10
24.784266
20
125.405563
30
0.0
11
23.771891
21
127.571635
31
0.0
0
ARC
8
0
10
25.010750
20
125.511417
30
0.0
40
0.250000
50
205.050363
51
245.050363
0
LINE
8
0
10
25.388413
20
125.059982
30
0.0
11
24.905294
21
125.284747
31
0.0
0
ARC
8
0
10
25.472777
20
125.241318
30
0.0
40
0.200000
50
245.050363
51
5.050363
0
LINE
8
0
10
25.656753
20
125.431457
30
0.0
11
25.672001
21
125.258924
31
0.0
0
ARC
8
0
10
25.855977
20
125.449063
30
0.0
40
0.200000
50
125.050363
51
185.050363
0
LINE
8
0
10
26.912852
20
126.434786
30
0.0
11
25.741117
21
125.612793
31
0.0
0
ARC
8
0
10
27.200000
20
126.025462
30
0.0
40
0.500000
50
0.000000
51
125.050363
0
LINE
8
0
10
27.700000
20
122.000000
30
0.0
11
27.700000
21
126.025462
31
0.0
0
ARC
8
0
10
27.400000
20
122.000000
30
0.0
40
0.300000
50
270.000000
51
0.000000
0
LINE
8
0
10
27.100000
20
121.700000
30
0.0
11
27.400000
21
121.700000
31
0.0
0
LINE
8
0
10
25.504202
20
122.674079
30
0.0
11
27.100000
21
121.700000
31
0.0
0
ARC
8
0
10
25.400000
20
122.503369
30
0.0
40
0.200000
50
58.600000
51
180.000000
0
LINE
8
0
10
25.200000
20
121.077786
30
0.0
11
25.200000
21
122.503369
31
0.0
0
ARC
8
0
10
26.200000
20
121.077786
30
0.0
40
1.000000
50
180.000000
51
238.600000
0
LINE
8
0
10
27.221010
20
119.282983
30
0.0
11
25.678990
21
120.224235
31
0.0
0
LINE
8
0
10
1.800000
20
24.800000
30
0.0
11
1.800000
21
125.200000
31
0.0
0
ARC
8
0
10
2.800000
20
125.200000
30
0.0
40
1.000000
50
90.000000
51
180.000000
0
LINE
8
0
10
2.800000
20
126.200000
30
0.0
11
8.900000
21
126.200000
31
0.0
0
ARC
8
0
10
8.900000
20
125.200000
30
0.0
40
1.000000
50
0.000000
51
90.000000
0
LINE
8
0
10
9.900000
20
125.200000
30
0.0
11
9.900000
21
24.800000
31
0.0
0
ARC
8
0
10
8.900000
20
24.800000
30
0.0
40
1.000000
50
270.000000
51
0.000000
0
LINE
8
0
10
8.900000
20
23.800000
30
0.0
11
2.800000
21
23.800000
31
0.0
0
ARC
8
0
10
2.800000
20
24.800000
30
0.0
40
1.000000
50
180.000000
51
270.000000
0
ARC
8
0
10
12.700000
20
118.429432
30
0.0
40
1.000000
50
121.400000
51
180.000000
0
LINE
8
0
10
12.178990
20
119.282983
30
0.0
11
13.721010
21
120.224235
31
0.0
0
ARC
8
0
10
13.200000
20
121.077786
30
0.0
40
1.000000
50
301.400000
51
0.000000
0
LINE
8
0
10
14.200000
20
121.077786
30
0.0
11
14.200000
21
122.503369
31
0.0
0
ARC
8
0
10
14.000000
20
122.503369
30
0.0
40
0.200000
50
0.000000
51
121.400000
0
LINE
8
0
10
13.895798
20
122.674079
30
0.0
11
12.300000
21
121.700000
31
0.0
0
LINE
8
0
10
12.300000
20
121.700000
30
0.0
11
12.000000
21
121.700000
31
0.0
0
ARC
8
0
10
12.000000
20
122.000000
30
0.0
40
0.300000
50
180.000000
51
270.000000
0
LINE
8
0
10
11.700000
20
122.000000
30
0.0
11
11.700000
21
126.025462
31
0.0
0
ARC
8
0
10
12.200000
20
126.025462
30
0.0
40
0.500000
50
54.949637
51
180.000000
0
LINE
8
0
10
12.487148
20
126.434786
30
0.0
11
13.658883
21
125.612793
31
0.0
0
ARC
8
0
10
13.544023
20
125.449063
30
0.0
40
0.200000
50
354.949637
51
54.949637
0
LINE
8
0
10
13.743247
20
125.431457
30
0.0
11
13.727999
21
125.258924
31
0.0
0
ARC
8
0
10
13.927223
20
125.241318
30
0.0
40
0.200000
50
174.949637
51
294.949637
0
LINE
8
0
10
14.011587
20
125.059982
30
0.0
11
14.494706
21
125.284747
31
0.0
0
ARC
8
0
10
14.389250
20
125.511417
30
0.0
40
0.250000
50
294.949637
51
334.949637
0
LINE
8
0
10
14.615734
20
125.405563
30
0.0
11
15.628109
21
127.571635
31
0.0
0
ARC
8
0
10
15.356329
20
127.698660
30
0.0
40
0.300000
50
334.949637
51
90.000000
0
LINE
8
0
10
15.356592
20
127.998660
30
0.0
11
13.831734
21
128.000000
31
0.0
0
ARC
8
0
10
13.831514
20
127.750000
30
0.0
40
0.250000
50
90.000000
51
157.135547
0
ARC
8
0
10
13.370801
20
127.944276
30
0.0
40
0.250000
50
202.864465
51
337.135547
0
ARC
8
0
10
12.910087
20
127.750000
30
0.0
40
0.250000
50
22.864465
51
90.000000
0
LINE
8
0
10
12.910087
20
128.000000
30
0.0
11
2.800000
21
128.000000
31
0.0
0
ARC
8
0
10
2.800000
20
129.000000
30
0.0
40
1.000000
50
180.000000
51
270.000000
0
LINE
8
0
10
1.800000
20
129.000000
30
0.0
11
1.800000
21
147.500000
31
0.0
0
ARC
8
0
10
2.800000
20
147.500000
30
0.0
40
1.000000
50
90.000000
51
180.000000
0
LINE
8
0
10
2.800000
20
148.500000
30
0.0
11
5.800000
21
148.500000
31
0.0
0
ARC
8
0
10
5.800000
20
147.500000
30
0.0
40
1.000000
50
0.000000
51
90.000000
0
LINE
8
0
10
6.800000
20
147.500000
30
0.0
11
6.800000
21
142.600000
31
0.0
0
ARC
8
0
10
8.300000
20
142.600000
30
0.0
40
1.500000
50
180.000000
51
270.000000
0
LINE
8
0
10
8.300000
20
141.100000
30
0.0
11
11.500000
21
141.100000
31
0.0
0
ARC
8
0
10
11.500000
20
141.600000
30
0.0
40
0.500000
50
270.000000
51
0.000000
0
LINE
8
0
10
12.000000
20
141.600000
30
0.0
11
12.000000
21
142.714915
31
0.0
0
ARC
8
0
10
11.500000
20
142.714915
30
0.0
40
0.500000
50
0.000000
51
60.000000
0
LINE
8
0
10
11.750000
20
143.147927
30
0.0
11
11.100000
21
143.523205
31
0.0
0
ARC
8
0
10
11.000000
20
143.350000
30
0.0
40
0.200000
50
60.000000
51
180.000000
0
LINE
8
0
10
10.800000
20
143.350000
30
0.0
11
10.800000
21
142.800000
31
0.0
0
ARC
8
0
10
10.300000
20
142.800000
30
0.0
40
0.500000
50
270.000000
51
0.000000
0
LINE
8
0
10
10.300000
20
142.300000
30
0.0
11
8.800000
21
142.300000
31
0.0
0
ARC
8
0
10
8.800000
20
142.800000
30
0.0
40
0.500000
50
180.000000
51
270.000000
0
LINE
8
0
10
8.300000
20
142.800000
30
0.0
11
8.300000
21
148.300000
31
0.0
0
ARC
8
0
10
8.800000
20
148.300000
30
0.0
40
0.500000
50
90.000000
51
180.000000
0
LINE
8
0
10
8.800000
20
148.800000
30
0.0
11
10.300000
21
148.800000
31
0.0
0
ARC
8
0
10
10.300000
20
148.300000
30
0.0
40
0.500000
50
0.000000
51
90.000000
0
LINE
8
0
10
10.800000
20
148.300000
30
0.0
11
10.800000
21
147.750000
31
0.0
0
ARC
8
0
10
11.000000
20
147.750000
30
0.0
40
0.200000
50
180.000000
51
300.000000
0
LINE
8
0
10
11.100000
20
147.576795
30
0.0
11
11.750000
21
147.952073
31
0.0
0
ARC
8
0
10
11.500000
20
148.385085
30
0.0
40
0.500000
50
300.000000
51
0.000000
0
LINE
8
0
10
12.000000
20
148.385085
30
0.0
11
12.000000
21
149.500000
31
0.0
0
ARC
8
0
10
11.500000
20
149.500000
30
0.0
40
0.500000
50
0.000000
51
90.000000
0
LINE
8
0
10
11.500000
20
150.000000
30
0.0
11
0.500000
21
150.000000
31
0.0
0
ARC
8
0
10
0.500000
20
149.500000
30
0.0
40
0.500000
50
90.000000
51
180.000000
0
LINE
8
0
10
0.000000
20
149.500000
30
0.0
11
0.000000
21
0.500000
31
0.0
0
ARC
8
0
10
0.500000
20
0.500000
30
0.0
40
0.500000
50
180.000000
51
270.000000
0
LINE
8
0
10
0.500000
20
0.000000
30
0.0
11
11.500000
21
0.000000
31
0.0
0
ARC
8
0
10
11.500000
20
0.500000
30
0.0
40
0.500000
50
270.000000
51
0.000000
0
LINE
8
0
10
12.000000
20
0.500000
30
0.0
11
12.000000
21
1.614915
31
0.0
0
ARC
8
0
10
11.500000
20
1.614915
30
0.0
40
0.500000
50
0.000000
51
60.000000
0
LINE
8
0
10
11.750000
20
2.047927
30
0.0
11
11.100000
21
2.423205
31
0.0
0
ARC
8
0
10
11.000000
20
2.250000
30
0.0
40
0.200000
50
60.000000
51
180.000000
0
LINE
8
0
10
10.800000
20
2.250000
30
0.0
11
10.800000
21
1.700000
31
0.0
0
ARC
8
0
10
10.300000
20
1.700000
30
0.0
40
0.500000
50
270.000000
51
0.000000
0
LINE
8
0
10
10.300000
20
1.200000
30
0.0
11
8.800000
21
1.200000
31
0.0
0
ARC
8
0
10
8.800000
20
1.700000
30
0.0
40
0.500000
50
180.000000
51
270.000000
0
LINE
8
0
10
8.300000
20
1.700000
30
0.0
11
8.300000
21
7.200000
31
0.0
0
ARC
8
0
10
8.800000
20
7.200000
30
0.0
40
0.500000
50
90.000000
51
180.000000
0
LINE
8
0
10
8.800000
20
7.700000
30
0.0
11
10.300000
21
7.700000
31
0.0
0
ARC
8
0
10
10.300000
20
7.200000
30
0.0
40
0.500000
50
0.000000
51
90.000000
0
LINE
8
0
10
10.800000
20
7.200000
30
0.0
11
10.800000
21
6.650000
31
0.0
0
ARC
8
0
10
11.000000
20
6.650000
30
0.0
40
0.200000
50
180.000000
51
300.000000
0
LINE
8
0
10
11.100000
20
6.476795
30
0.0
11
11.750000
21
6.852073
31
0.0
0
ARC
8
0
10
11.500000
20
7.285085
30
0.0
40
0.500000
50
300.000000
51
0.000000
0
LINE
8
0
10
12.000000
20
7.285085
30
0.0
11
12.000000
21
8.400000
31
0.0
0
ARC
8
0
10
11.500000
20
8.400000
30
0.0
40
0.500000
50
0.000000
51
90.000000
0
LINE
8
0
10
11.500000
20
8.900000
30
0.0
11
8.300000
21
8.900000
31
0.0
0
ARC
8
0
10
8.300000
20
7.400000
30
0.0
40
1.500000
50
90.000000
51
180.000000
0
LINE
8
0
10
6.800000
20
7.400000
30
0.0
11
6.800000
21
2.500000
31
0.0
0
ARC
8
0
10
5.800000
20
2.500000
30
0.0
40
1.000000
50
270.000000
51
0.000000
0
LINE
8
0
10
5.800000
20
1.500000
30
0.0
11
2.800000
21
1.500000
31
0.0
0
ARC
8
0
10
2.800000
20
2.500000
30
0.0
40
1.000000
50
180.000000
51
270.000000
0
LINE
8
0
10
1.800000
20
2.500000
30
0.0
11
1.800000
21
21.000000
31
0.0
0
ARC
8
0
10
2.800000
20
21.000000
30
0.0
40
1.000000
50
90.000000
51
180.000000
0
LINE
8
0
10
2.800000
20
22.000000
30
0.0
11
12.910087
21
22.000000
31
0.0
0
ARC
8
0
10
12.910087
20
22.250000
30
0.0
40
0.250000
50
270.000000
51
337.135535
0
ARC
8
0
10
13.370801
20
22.055724
30
0.0
40
0.250000
50
22.864453
51
157.135535
0
ARC
8
0
10
13.831514
20
22.250000
30
0.0
40
0.250000
50
202.864453
51
270.000000
0
LINE
8
0
10
13.831734
20
22.000000
30
0.0
11
15.356592
21
22.001340
31
0.0
0
ARC
8
0
10
15.356329
20
22.301340
30
0.0
40
0.300000
50
270.000000
51
25.050363
0
LINE
8
0
10
15.628109
20
22.428365
30
0.0
11
14.615734
21
24.594437
31
0.0
0
ARC
8
0
10
14.389250
20
24.488583
30
0.0
40
0.250000
50
25.050363
51
65.050363
0
LINE
8
0
10
14.494706
20
24.715253
30
0.0
11
14.011587
21
24.940018
31
0.0
0
ARC
8
0
10
13.927223
20
24.758682
30
0.0
40
0.200000
50
65.050363
51
185.050363
0
LINE
8
0
10
13.727999
20
24.741076
30
0.0
11
13.743247
21
24.568543
31
0.0
0
ARC
8
0
10
13.544023
20
24.550937
30
0.0
40
0.200000
50
305.050363
51
5.050363
0
LINE
8
0
10
13.658883
20
24.387207
30
0.0
11
12.487148
21
23.565214
31
0.0
0
ARC
8
0
10
12.200000
20
23.974538
30
0.0
40
0.500000
50
180.000000
51
305.050363
0
LINE
8
0
10
11.700000
20
23.974538
30
0.0
11
11.700000
21
28.000000
31
0.0
0
ARC
8
0
10
12.000000
20
28.000000
30
0.0
40
0.300000
50
90.000000
51
180.000000
0
LINE
8
0
10
12.000000
20
28.300000
30
0.0
11
12.300000
21
28.300000
31
0.0
0
LINE
8
0
10
12.300000
20
28.300000
30
0.0
11
13.895798
21
27.325921
31
0.0
0
ARC
8
0
10
14.000000
20
27.496631
30
0.0
40
0.200000
50
238.600000
51
0.000000
0
LINE
8
0
10
14.200000
20
27.496631
30
0.0
11
14.200000
21
28.922214
31
0.0
0
ARC
8
0
10
13.200000
20
28.922214
30
0.0
40
1.000000
50
0.000000
51
58.600000
0
LINE
8
0
10
13.721010
20
29.775765
30
0.0
11
12.178990
21
30.717017
31
0.0
0
ARC
8
0
10
12.700000
20
31.570568
30
0.0
40
1.000000
50
180.000000
51
238.600000
0
LINE
8
0
10
11.700000
20
31.570568
30
0.0
11
11.700000
21
118.429432
31
0.0
0
ATTDEF
8
0
10
0.000000
20
0.000000
30
0.0
40
3.5
1

3

2
MIN_VETRO:0
70
0
0
ATTDEF
8
0
10
0.000000
20
0.000000
30
0.0
40
3.5
1

3

2
MAX_VETRO:0
70
0
0
ATTDEF
8
0
10
0.000000
20
0.000000
30
0.0
40
3.5
1

3

2
JY:0
70
0
0
ATTDEF
8
0
10
0.000000
20
0.000000
30
0.0
40
3.5
1

3

2
WY:0
70
0
0
ATTDEF
8
0
10
0.000000
20
0.000000
30
0.0
40
3.5
1

3

2
DESC:Travesafio puerta de rebatir (ext 8411 +int 7552)
70
0
0
ATTDEF
8
0
10
0.000000
20
0.000000
30
0.0
40
3.5
1

3

2
DENS:3.364000
70
0
0
ATTDEF
8
0
10
0.000000
20
0.000000
30
0.0
40
3.5
1

3

2
TDEV:0.000000
70
0
0
ATTDEF
8
0
10
0.000000
20
0.000000
30
0.0
40
3.5
1

3

2
TDEV2:0.000000
70
0
0
ATTDEF
8
0
10
0.000000
20
0.000000
30
0.0
40
3.5
1

3

2
TDEV3:0.000000
70
0
0
ATTDEF
8
0
10
0.000000
20
0.000000
30
0.0
40
3.5
1

3

2
TDEV4:0.000000
70
0
0
ATTDEF
8
0
10
0.000000
20
0.000000
30
0.0
40
3.5
1

3

2
TDEV5:0.000000
70
0
0
ATTDEF
8
0
10
0.000000
20
0.000000
30
0.0
40
3.5
1

3

2
FRONT_VIEW
70
0
0
ATTDEF
8
0
10
0.000000
20
0.000000
30
0.0
40
3.5
1

3

2
BL01:6500.000000,,1
70
0
0
ATTDEF
8
0
10
0.000000
20
0.000000
30
0.0
40
3.5
1

3

2
OPTI:500.000000,1,0,3000.000000,6500.000000,500.000000,0,0.000000,0
70
0
0
ATTDEF
8
0
10
0.000000
20
0.000000
30
0.0
40
3.5
1

3

2
PANE_WIDTH:48.000000
70
0
0
ATTDEF
8
0
10
0.000000
20
0.000000
30
0.0
40
3.5
1

3

2
GLASS_MIN:0.000000
70
0
0
ATTDEF
8
0
10
0.000000
20
0.000000
30
0.0
40
3.5
1

3

2
GLASS_MAX:0.000000
70
0
0
ATTDEF
8
0
10
0.000000
20
0.000000
30
0.0
40
3.5
1

3

2
JX:0.000000
70
0
0
ATTDEF
8
0
10
0.000000
20
0.000000
30
0.0
40
3.5
1

3

2
WX:0.000000
70
0
0
ATTDEF
8
0
10
0.000000
20
0.000000
30
0.0
40
3.5
1

3

2
JY:0.000000
70
0
0
ATTDEF
8
0
10
0.000000
20
0.000000
30
0.0
40
3.5
1

3

2
WY:0.000000
70
0
0
ATTDEF
8
0
10
5.800000
20
148.500000
30
0.0
40
3.5
1

3

2
VC_START
70
0
0
ATTDEF
8
0
10
5.800000
20
1.500000
30
0.0
40
3.5
1

3

2
VC_END
70
0
0
ATTDEF
8
0
10
0.000000
20
0.000000
30
0.0
40
3.5
1

3

2
FP_LCS_ORIG
70
0
0
ATTDEF
8
0
10
10.000000
20
0.000000
30
0.0
40
3.5
1

3

2
FP_LCS_HOT
70
0
0
ATTDEF
8
0
10
0.000000
20
10.000000
30
0.0
40
3.5
1

3

2
FP_LCS_INTERN
70
0
0
ENDSEC
0
EOF
