0
SECTION
2
ENTITIES
0
LINE
8
0
10
21.913848
20
19.161639
30
0.0
11
23.658412
21
21.953526
31
0.0
0
ARC
8
0
10
24.506460
20
21.423607
30
0.0
40
1.000000
50
90.000000
51
148.000000
0
LINE
8
0
10
24.506460
20
22.423607
30
0.0
11
24.792820
21
22.423607
31
0.0
0
ARC
8
0
10
24.792820
20
23.623607
30
0.0
40
1.200000
50
270.000000
51
300.000000
0
LINE
8
0
10
25.392820
20
22.584376
30
0.0
11
27.100000
21
23.570017
31
0.0
0
ARC
8
0
10
27.300000
20
23.223607
30
0.0
40
0.400000
50
0.000000
51
120.000000
0
LINE
8
0
10
27.700000
20
23.223607
30
0.0
11
27.700000
21
19.823607
31
0.0
0
ARC
8
0
10
27.300000
20
19.823607
30
0.0
40
0.400000
50
240.000000
51
0.000000
0
LINE
8
0
10
27.100000
20
19.477197
30
0.0
11
25.160770
21
20.596812
31
0.0
0
ARC
8
0
10
25.060770
20
20.423607
30
0.0
40
0.200000
50
60.000000
51
148.000000
0
LINE
8
0
10
24.891160
20
20.529591
30
0.0
11
22.911604
21
17.361639
31
0.0
0
ARC
8
0
10
22.572385
20
17.573607
30
0.0
40
0.400000
50
270.000000
51
328.000000
0
LINE
8
0
10
22.572385
20
17.173607
30
0.0
11
16.827615
21
17.173607
31
0.0
0
ARC
8
0
10
16.827615
20
17.573607
30
0.0
40
0.400000
50
212.000000
51
270.000000
0
LINE
8
0
10
16.488396
20
17.361639
30
0.0
11
14.508840
21
20.529591
31
0.0
0
ARC
8
0
10
14.339230
20
20.423607
30
0.0
40
0.200000
50
32.000000
51
120.000000
0
LINE
8
0
10
14.239230
20
20.596812
30
0.0
11
12.300000
21
19.477197
31
0.0
0
ARC
8
0
10
12.100000
20
19.823607
30
0.0
40
0.400000
50
180.000000
51
300.000000
0
LINE
8
0
10
11.700000
20
19.823607
30
0.0
11
11.700000
21
23.223607
31
0.0
0
ARC
8
0
10
12.100000
20
23.223607
30
0.0
40
0.400000
50
60.000000
51
180.000000
0
LINE
8
0
10
12.300000
20
23.570017
30
0.0
11
14.007180
21
22.584376
31
0.0
0
ARC
8
0
10
14.607180
20
23.623607
30
0.0
40
1.200000
50
240.000000
51
270.000000
0
LINE
8
0
10
14.607180
20
22.423607
30
0.0
11
14.893540
21
22.423607
31
0.0
0
ARC
8
0
10
14.893540
20
21.423607
30
0.0
40
1.000000
50
32.000000
51
90.000000
0
LINE
8
0
10
15.741588
20
21.953526
30
0.0
11
17.486152
21
19.161639
31
0.0
0
ARC
8
0
10
17.825371
20
19.373607
30
0.0
40
0.400000
50
212.000000
51
270.000000
0
LINE
8
0
10
17.825371
20
18.973607
30
0.0
11
21.574629
21
18.973607
31
0.0
0
ARC
8
0
10
21.574629
20
19.373607
30
0.0
40
0.400000
50
270.000000
51
328.000000
0
LINE
8
0
10
21.913848
20
51.838361
30
0.0
11
23.658412
21
49.046474
31
0.0
0
ARC
8
0
10
24.506460
20
49.576393
30
0.0
40
1.000000
50
212.000000
51
270.000000
0
LINE
8
0
10
24.506460
20
48.576393
30
0.0
11
24.792820
21
48.576393
31
0.0
0
ARC
8
0
10
24.792820
20
47.376393
30
0.0
40
1.200000
50
60.000000
51
90.000000
0
LINE
8
0
10
25.392820
20
48.415624
30
0.0
11
27.100000
21
47.429983
31
0.0
0
ARC
8
0
10
27.300000
20
47.776393
30
0.0
40
0.400000
50
240.000000
51
0.000000
0
LINE
8
0
10
27.700000
20
47.776393
30
0.0
11
27.700000
21
51.176393
31
0.0
0
ARC
8
0
10
27.300000
20
51.176393
30
0.0
40
0.400000
50
0.000000
51
120.000000
0
LINE
8
0
10
27.100000
20
51.522803
30
0.0
11
25.160770
21
50.403188
31
0.0
0
ARC
8
0
10
25.060770
20
50.576393
30
0.0
40
0.200000
50
212.000000
51
300.000000
0
LINE
8
0
10
24.891160
20
50.470409
30
0.0
11
22.911604
21
53.638361
31
0.0
0
ARC
8
0
10
22.572385
20
53.426393
30
0.0
40
0.400000
50
32.000000
51
90.000000
0
LINE
8
0
10
22.572385
20
53.826393
30
0.0
11
16.827615
21
53.826393
31
0.0
0
ARC
8
0
10
16.827615
20
53.426393
30
0.0
40
0.400000
50
90.000000
51
148.000000
0
LINE
8
0
10
16.488396
20
53.638361
30
0.0
11
14.508840
21
50.470409
31
0.0
0
ARC
8
0
10
14.339230
20
50.576393
30
0.0
40
0.200000
50
240.000000
51
328.000000
0
LINE
8
0
10
14.239230
20
50.403188
30
0.0
11
12.300000
21
51.522803
31
0.0
0
ARC
8
0
10
12.100000
20
51.176393
30
0.0
40
0.400000
50
60.000000
51
180.000000
0
LINE
8
0
10
11.700000
20
51.176393
30
0.0
11
11.700000
21
47.776393
31
0.0
0
ARC
8
0
10
12.100000
20
47.776393
30
0.0
40
0.400000
50
180.000000
51
300.000000
0
LINE
8
0
10
12.300000
20
47.429983
30
0.0
11
14.007180
21
48.415624
31
0.0
0
ARC
8
0
10
14.607180
20
47.376393
30
0.0
40
1.200000
50
90.000000
51
120.000000
0
LINE
8
0
10
14.607180
20
48.576393
30
0.0
11
14.893540
21
48.576393
31
0.0
0
ARC
8
0
10
14.893540
20
49.576393
30
0.0
40
1.000000
50
270.000000
51
328.000000
0
LINE
8
0
10
15.741588
20
49.046474
30
0.0
11
17.486152
21
51.838361
31
0.0
0
ARC
8
0
10
17.825371
20
51.626393
30
0.0
40
0.400000
50
90.000000
51
148.000000
0
LINE
8
0
10
17.825371
20
52.026393
30
0.0
11
21.574629
21
52.026393
31
0.0
0
ARC
8
0
10
21.574629
20
51.626393
30
0.0
40
0.400000
50
32.000000
51
90.000000
0
LINE
8
0
10
30.000000
20
52.000000
30
0.0
11
32.885786
21
52.000000
31
0.0
0
ARC
8
0
10
32.885786
20
51.750000
30
0.0
40
0.250000
50
308.942441
51
90.000000
0
ARC
8
0
10
34.300000
20
50.000000
30
0.0
40
2.000000
50
128.942441
51
160.528779
0
ARC
8
0
10
32.885786
20
50.500000
30
0.0
40
0.500000
50
160.528779
51
340.528779
0
ARC
8
0
10
34.300000
20
50.000000
30
0.0
40
1.000000
50
19.471221
51
160.528779
0
ARC
8
0
10
35.714214
20
50.500000
30
0.0
40
0.500000
50
199.471221
51
19.471221
0
ARC
8
0
10
34.300000
20
50.000000
30
0.0
40
2.000000
50
19.471221
51
51.057559
0
ARC
8
0
10
35.714214
20
51.750000
30
0.0
40
0.250000
50
90.000000
51
231.057559
0
LINE
8
0
10
35.714214
20
52.000000
30
0.0
11
38.500000
21
52.000000
31
0.0
0
ARC
8
0
10
38.500000
20
51.500000
30
0.0
40
0.500000
50
0.000000
51
90.000000
0
LINE
8
0
10
39.000000
20
51.500000
30
0.0
11
39.000000
21
48.000000
31
0.0
0
ARC
8
0
10
40.000000
20
48.000000
30
0.0
40
1.000000
50
180.000000
51
270.000000
0
LINE
8
0
10
40.000000
20
47.000000
30
0.0
11
58.000000
21
47.000000
31
0.0
0
ARC
8
0
10
58.000000
20
46.500000
30
0.0
40
0.500000
50
0.000000
51
90.000000
0
LINE
8
0
10
58.500000
20
46.500000
30
0.0
11
58.500000
21
42.000000
31
0.0
0
ARC
8
0
10
58.000000
20
42.000000
30
0.0
40
0.500000
50
270.000000
51
0.000000
0
LINE
8
0
10
58.000000
20
41.500000
30
0.0
11
57.500000
21
41.500000
31
0.0
0
ARC
8
0
10
57.500000
20
41.000000
30
0.0
40
0.500000
50
90.000000
51
180.000000
0
LINE
8
0
10
57.000000
20
41.000000
30
0.0
11
57.000000
21
40.500000
31
0.0
0
ARC
8
0
10
57.500000
20
40.500000
30
0.0
40
0.500000
50
180.000000
51
270.000000
0
LINE
8
0
10
57.500000
20
40.000000
30
0.0
11
58.000000
21
40.000000
31
0.0
0
ARC
8
0
10
58.000000
20
39.500000
30
0.0
40
0.500000
50
0.000000
51
90.000000
0
LINE
8
0
10
58.500000
20
39.500000
30
0.0
11
58.500000
21
25.500000
31
0.0
0
ARC
8
0
10
58.000000
20
25.500000
30
0.0
40
0.500000
50
270.000000
51
0.000000
0
LINE
8
0
10
58.000000
20
25.000000
30
0.0
11
54.000000
21
25.000000
31
0.0
0
ARC
8
0
10
54.000000
20
24.500000
30
0.0
40
0.500000
50
90.000000
51
180.000000
0
LINE
8
0
10
53.500000
20
24.500000
30
0.0
11
53.500000
21
24.000000
31
0.0
0
ARC
8
0
10
53.000000
20
24.000000
30
0.0
40
0.500000
50
270.000000
51
0.000000
0
LINE
8
0
10
53.000000
20
23.500000
30
0.0
11
50.700000
21
23.500000
31
0.0
0
ARC
8
0
10
50.700000
20
24.000000
30
0.0
40
0.500000
50
180.000000
51
270.000000
0
LINE
8
0
10
50.200000
20
24.000000
30
0.0
11
50.200000
21
24.500000
31
0.0
0
ARC
8
0
10
49.700000
20
24.500000
30
0.0
40
0.500000
50
0.000000
51
90.000000
0
LINE
8
0
10
49.700000
20
25.000000
30
0.0
11
32.700000
21
25.000000
31
0.0
0
ARC
8
0
10
32.700000
20
24.500000
30
0.0
40
0.500000
50
90.000000
51
180.000000
0
LINE
8
0
10
32.200000
20
24.500000
30
0.0
11
32.200000
21
24.000000
31
0.0
0
ARC
8
0
10
31.700000
20
24.000000
30
0.0
40
0.500000
50
270.000000
51
0.000000
0
LINE
8
0
10
31.700000
20
23.500000
30
0.0
11
30.000000
21
23.500000
31
0.0
0
ARC
8
0
10
30.000000
20
24.000000
30
0.0
40
0.500000
50
180.000000
51
270.000000
0
LINE
8
0
10
29.500000
20
24.000000
30
0.0
11
29.500000
21
39.500000
31
0.0
0
ARC
8
0
10
30.000000
20
39.500000
30
0.0
40
0.500000
50
90.000000
51
180.000000
0
LINE
8
0
10
30.000000
20
40.000000
30
0.0
11
30.500000
21
40.000000
31
0.0
0
ARC
8
0
10
30.500000
20
40.500000
30
0.0
40
0.500000
50
270.000000
51
0.000000
0
LINE
8
0
10
31.000000
20
40.500000
30
0.0
11
31.000000
21
41.000000
31
0.0
0
ARC
8
0
10
30.500000
20
41.000000
30
0.0
40
0.500000
50
0.000000
51
90.000000
0
LINE
8
0
10
30.500000
20
41.500000
30
0.0
11
30.000000
21
41.500000
31
0.0
0
ARC
8
0
10
30.000000
20
42.000000
30
0.0
40
0.500000
50
180.000000
51
270.000000
0
LINE
8
0
10
29.500000
20
42.000000
30
0.0
11
29.500000
21
51.500000
31
0.0
0
ARC
8
0
10
30.000000
20
51.500000
30
0.0
40
0.500000
50
90.000000
51
180.000000
0
ARC
8
0
10
33.200000
20
18.500000
30
0.0
40
0.500000
50
0.000000
51
90.000000
0
LINE
8
0
10
31.700000
20
19.000000
30
0.0
11
33.200000
21
19.000000
31
0.0
0
ARC
8
0
10
31.700000
20
19.500000
30
0.0
40
0.500000
50
180.000000
51
270.000000
0
LINE
8
0
10
31.200000
20
21.500000
30
0.0
11
31.200000
21
19.500000
31
0.0
0
ARC
8
0
10
31.700000
20
21.500000
30
0.0
40
0.500000
50
90.000000
51
180.000000
0
LINE
8
0
10
33.200000
20
22.000000
30
0.0
11
31.700000
21
22.000000
31
0.0
0
ARC
8
0
10
33.200000
20
22.500000
30
0.0
40
0.500000
50
270.000000
51
0.000000
0
LINE
8
0
10
33.700000
20
23.000000
30
0.0
11
33.700000
21
22.500000
31
0.0
0
ARC
8
0
10
34.200000
20
23.000000
30
0.0
40
0.500000
50
90.000000
51
180.000000
0
LINE
8
0
10
48.200000
20
23.500000
30
0.0
11
34.200000
21
23.500000
31
0.0
0
ARC
8
0
10
48.200000
20
23.000000
30
0.0
40
0.500000
50
0.000000
51
90.000000
0
LINE
8
0
10
48.700000
20
22.500000
30
0.0
11
48.700000
21
23.000000
31
0.0
0
ARC
8
0
10
49.200000
20
22.500000
30
0.0
40
0.500000
50
180.000000
51
270.000000
0
LINE
8
0
10
50.700000
20
22.000000
30
0.0
11
49.200000
21
22.000000
31
0.0
0
ARC
8
0
10
50.700000
20
21.500000
30
0.0
40
0.500000
50
0.000000
51
90.000000
0
LINE
8
0
10
51.200000
20
19.500000
30
0.0
11
51.200000
21
21.500000
31
0.0
0
ARC
8
0
10
50.700000
20
19.500000
30
0.0
40
0.500000
50
270.000000
51
0.000000
0
LINE
8
0
10
49.200000
20
19.000000
30
0.0
11
50.700000
21
19.000000
31
0.0
0
ARC
8
0
10
49.200000
20
18.500000
30
0.0
40
0.500000
50
90.000000
51
180.000000
0
LINE
8
0
10
48.700000
20
18.000000
30
0.0
11
48.700000
21
18.500000
31
0.0
0
ARC
8
0
10
49.200000
20
18.000000
30
0.0
40
0.500000
50
180.000000
51
270.000000
0
LINE
8
0
10
50.700000
20
17.500000
30
0.0
11
49.200000
21
17.500000
31
0.0
0
ARC
8
0
10
50.700000
20
17.000000
30
0.0
40
0.500000
50
0.000000
51
90.000000
0
LINE
8
0
10
51.200000
20
16.000000
30
0.0
11
51.200000
21
17.000000
31
0.0
0
ARC
8
0
10
51.700000
20
16.000000
30
0.0
40
0.500000
50
180.000000
51
270.000000
0
LINE
8
0
10
54.500000
20
15.500000
30
0.0
11
51.700000
21
15.500000
31
0.0
0
ARC
8
0
10
54.500000
20
16.000000
30
0.0
40
0.500000
50
270.000000
51
0.000000
0
LINE
8
0
10
55.000000
20
17.500000
30
0.0
11
55.000000
21
16.000000
31
0.0
0
ARC
8
0
10
54.500000
20
17.500000
30
0.0
40
0.500000
50
0.000000
51
180.000000
0
ARC
8
0
10
53.500000
20
17.500000
30
0.0
40
0.500000
50
270.000000
51
0.000000
0
LINE
8
0
10
53.200000
20
17.000000
30
0.0
11
53.500000
21
17.000000
31
0.0
0
ARC
8
0
10
53.200000
20
17.500000
30
0.0
40
0.500000
50
180.000000
51
270.000000
0
LINE
8
0
10
52.700000
20
21.500000
30
0.0
11
52.700000
21
17.500000
31
0.0
0
ARC
8
0
10
53.200000
20
21.500000
30
0.0
40
0.500000
50
90.000000
51
180.000000
0
LINE
8
0
10
53.500000
20
22.000000
30
0.0
11
53.200000
21
22.000000
31
0.0
0
ARC
8
0
10
53.500000
20
21.500000
30
0.0
40
0.500000
50
0.000000
51
90.000000
0
ARC
8
0
10
54.500000
20
21.500000
30
0.0
40
0.500000
50
180.000000
51
0.000000
0
LINE
8
0
10
55.000000
20
23.000000
30
0.0
11
55.000000
21
21.500000
31
0.0
0
ARC
8
0
10
55.500000
20
23.000000
30
0.0
40
0.500000
50
90.000000
51
180.000000
0
LINE
8
0
10
59.500000
20
23.500000
30
0.0
11
55.500000
21
23.500000
31
0.0
0
ARC
8
0
10
59.500000
20
24.000000
30
0.0
40
0.500000
50
270.000000
51
0.000000
0
LINE
8
0
10
60.000000
20
53.500000
30
0.0
11
60.000000
21
24.000000
31
0.0
0
LINE
8
0
10
57.500000
20
53.500000
30
0.0
11
60.000000
21
53.500000
31
0.0
0
LINE
8
0
10
56.500000
20
52.500000
30
0.0
11
57.500000
21
53.500000
31
0.0
0
LINE
8
0
10
56.500000
20
51.500000
30
0.0
11
56.500000
21
52.500000
31
0.0
0
LINE
8
0
10
58.000000
20
51.500000
30
0.0
11
56.500000
21
51.500000
31
0.0
0
ARC
8
0
10
58.000000
20
51.000000
30
0.0
40
0.500000
50
0.000000
51
90.000000
0
LINE
8
0
10
58.500000
20
49.000000
30
0.0
11
58.500000
21
51.000000
31
0.0
0
ARC
8
0
10
58.000000
20
49.000000
30
0.0
40
0.500000
50
270.000000
51
0.000000
0
LINE
8
0
10
41.000000
20
48.500000
30
0.0
11
58.000000
21
48.500000
31
0.0
0
ARC
8
0
10
41.000000
20
49.000000
30
0.0
40
0.500000
50
180.000000
51
270.000000
0
LINE
8
0
10
40.500000
20
51.000000
30
0.0
11
40.500000
21
49.000000
31
0.0
0
ARC
8
0
10
41.000000
20
51.000000
30
0.0
40
0.500000
50
90.000000
51
180.000000
0
LINE
8
0
10
42.500000
20
51.500000
30
0.0
11
41.000000
21
51.500000
31
0.0
0
LINE
8
0
10
42.500000
20
52.500000
30
0.0
11
42.500000
21
51.500000
31
0.0
0
LINE
8
0
10
41.500000
20
53.500000
30
0.0
11
42.500000
21
52.500000
31
0.0
0
LINE
8
0
10
26.489913
20
53.500000
30
0.0
11
41.500000
21
53.500000
31
0.0
0
ARC
8
0
10
26.489913
20
53.250000
30
0.0
40
0.250000
50
90.000000
51
157.135535
0
ARC
8
0
10
26.029199
20
53.444276
30
0.0
40
0.250000
50
202.864453
51
337.135535
0
ARC
8
0
10
25.568486
20
53.250000
30
0.0
40
0.250000
50
22.864453
51
90.000000
0
LINE
8
0
10
24.043408
20
53.498660
30
0.0
11
25.568266
21
53.500000
31
0.0
0
ARC
8
0
10
24.043671
20
53.198660
30
0.0
40
0.300000
50
90.000000
51
205.050363
0
LINE
8
0
10
24.784266
20
50.905563
30
0.0
11
23.771891
21
53.071635
31
0.0
0
ARC
8
0
10
25.010750
20
51.011417
30
0.0
40
0.250000
50
205.050363
51
245.050363
0
LINE
8
0
10
25.388413
20
50.559982
30
0.0
11
24.905294
21
50.784747
31
0.0
0
ARC
8
0
10
25.472777
20
50.741318
30
0.0
40
0.200000
50
245.050363
51
5.050363
0
LINE
8
0
10
25.656753
20
50.931457
30
0.0
11
25.672001
21
50.758924
31
0.0
0
ARC
8
0
10
25.855977
20
50.949063
30
0.0
40
0.200000
50
125.050363
51
185.050363
0
LINE
8
0
10
26.912852
20
51.934786
30
0.0
11
25.741117
21
51.112793
31
0.0
0
ARC
8
0
10
27.200000
20
51.525462
30
0.0
40
0.500000
50
0.000000
51
125.050363
0
LINE
8
0
10
27.700000
20
47.500000
30
0.0
11
27.700000
21
51.525462
31
0.0
0
ARC
8
0
10
27.400000
20
47.500000
30
0.0
40
0.300000
50
270.000000
51
0.000000
0
LINE
8
0
10
27.100000
20
47.200000
30
0.0
11
27.400000
21
47.200000
31
0.0
0
LINE
8
0
10
25.504202
20
48.174079
30
0.0
11
27.100000
21
47.200000
31
0.0
0
ARC
8
0
10
25.400000
20
48.003369
30
0.0
40
0.200000
50
58.600000
51
180.000000
0
LINE
8
0
10
25.200000
20
46.577786
30
0.0
11
25.200000
21
48.003369
31
0.0
0
ARC
8
0
10
26.200000
20
46.577786
30
0.0
40
1.000000
50
180.000000
51
238.600000
0
LINE
8
0
10
27.221010
20
44.782983
30
0.0
11
25.678990
21
45.724235
31
0.0
0
ARC
8
0
10
26.700000
20
43.929432
30
0.0
40
1.000000
50
0.000000
51
58.600000
0
LINE
8
0
10
27.700000
20
27.070568
30
0.0
11
27.700000
21
43.929432
31
0.0
0
ARC
8
0
10
26.700000
20
27.070568
30
0.0
40
1.000000
50
301.400000
51
0.000000
0
LINE
8
0
10
25.678990
20
25.275765
30
0.0
11
27.221010
21
26.217017
31
0.0
0
ARC
8
0
10
26.200000
20
24.422214
30
0.0
40
1.000000
50
121.400000
51
180.000000
0
LINE
8
0
10
25.200000
20
22.996631
30
0.0
11
25.200000
21
24.422214
31
0.0
0
ARC
8
0
10
25.400000
20
22.996631
30
0.0
40
0.200000
50
180.000000
51
301.400000
0
LINE
8
0
10
27.100000
20
23.800000
30
0.0
11
25.504202
21
22.825921
31
0.0
0
LINE
8
0
10
27.400000
20
23.800000
30
0.0
11
27.100000
21
23.800000
31
0.0
0
ARC
8
0
10
27.400000
20
23.500000
30
0.0
40
0.300000
50
0.000000
51
90.000000
0
LINE
8
0
10
27.700000
20
19.474538
30
0.0
11
27.700000
21
23.500000
31
0.0
0
ARC
8
0
10
27.200000
20
19.474538
30
0.0
40
0.500000
50
234.949637
51
0.000000
0
LINE
8
0
10
25.741117
20
19.887207
30
0.0
11
26.912852
21
19.065214
31
0.0
0
ARC
8
0
10
25.855977
20
20.050937
30
0.0
40
0.200000
50
174.949637
51
234.949637
0
LINE
8
0
10
25.672001
20
20.241076
30
0.0
11
25.656753
21
20.068543
31
0.0
0
ARC
8
0
10
25.472777
20
20.258682
30
0.0
40
0.200000
50
354.949637
51
114.949637
0
LINE
8
0
10
24.905294
20
20.215253
30
0.0
11
25.388413
21
20.440018
31
0.0
0
ARC
8
0
10
25.010750
20
19.988583
30
0.0
40
0.250000
50
114.949637
51
154.949637
0
LINE
8
0
10
23.771891
20
17.928365
30
0.0
11
24.784266
21
20.094437
31
0.0
0
ARC
8
0
10
24.043671
20
17.801340
30
0.0
40
0.300000
50
154.949637
51
270.000000
0
LINE
8
0
10
25.568266
20
17.500000
30
0.0
11
24.043408
21
17.501340
31
0.0
0
ARC
8
0
10
25.568486
20
17.750000
30
0.0
40
0.250000
50
270.000000
51
337.135547
0
ARC
8
0
10
26.029199
20
17.555724
30
0.0
40
0.250000
50
22.864465
51
157.135547
0
ARC
8
0
10
26.489913
20
17.750000
30
0.0
40
0.250000
50
202.864465
51
270.000000
0
LINE
8
0
10
33.200000
20
17.500000
30
0.0
11
26.489913
21
17.500000
31
0.0
0
ARC
8
0
10
33.200000
20
18.000000
30
0.0
40
0.500000
50
270.000000
51
0.000000
0
LINE
8
0
10
33.700000
20
18.500000
30
0.0
11
33.700000
21
18.000000
31
0.0
0
LINE
8
0
10
2.000000
20
52.000000
30
0.0
11
9.400000
21
52.000000
31
0.0
0
ARC
8
0
10
9.400000
20
51.500000
30
0.0
40
0.500000
50
0.000000
51
90.000000
0
LINE
8
0
10
9.900000
20
51.500000
30
0.0
11
9.900000
21
42.500000
31
0.0
0
ARC
8
0
10
9.400000
20
42.500000
30
0.0
40
0.500000
50
270.000000
51
0.000000
0
LINE
8
0
10
9.400000
20
42.000000
30
0.0
11
8.900000
21
42.000000
31
0.0
0
ARC
8
0
10
8.900000
20
41.500000
30
0.0
40
0.500000
50
90.000000
51
180.000000
0
LINE
8
0
10
8.400000
20
41.500000
30
0.0
11
8.400000
21
41.000000
31
0.0
0
ARC
8
0
10
8.900000
20
41.000000
30
0.0
40
0.500000
50
180.000000
51
270.000000
0
LINE
8
0
10
8.900000
20
40.500000
30
0.0
11
9.400000
21
40.500000
31
0.0
0
ARC
8
0
10
9.400000
20
40.000000
30
0.0
40
0.500000
50
0.000000
51
90.000000
0
LINE
8
0
10
9.900000
20
40.000000
30
0.0
11
9.900000
21
31.000000
31
0.0
0
ARC
8
0
10
9.400000
20
31.000000
30
0.0
40
0.500000
50
270.000000
51
0.000000
0
LINE
8
0
10
9.400000
20
30.500000
30
0.0
11
8.900000
21
30.500000
31
0.0
0
ARC
8
0
10
8.900000
20
30.000000
30
0.0
40
0.500000
50
90.000000
51
180.000000
0
LINE
8
0
10
8.400000
20
30.000000
30
0.0
11
8.400000
21
29.500000
31
0.0
0
ARC
8
0
10
8.900000
20
29.500000
30
0.0
40
0.500000
50
180.000000
51
270.000000
0
LINE
8
0
10
8.900000
20
29.000000
30
0.0
11
9.400000
21
29.000000
31
0.0
0
ARC
8
0
10
9.400000
20
28.500000
30
0.0
40
0.500000
50
0.000000
51
90.000000
0
LINE
8
0
10
9.900000
20
28.500000
30
0.0
11
9.900000
21
19.500000
31
0.0
0
ARC
8
0
10
9.400000
20
19.500000
30
0.0
40
0.500000
50
270.000000
51
0.000000
0
LINE
8
0
10
9.400000
20
19.000000
30
0.0
11
2.000000
21
19.000000
31
0.0
0
ARC
8
0
10
2.000000
20
19.500000
30
0.0
40
0.500000
50
180.000000
51
270.000000
0
LINE
8
0
10
1.500000
20
19.500000
30
0.0
11
1.500000
21
28.500000
31
0.0
0
ARC
8
0
10
2.000000
20
28.500000
30
0.0
40
0.500000
50
90.000000
51
180.000000
0
LINE
8
0
10
2.000000
20
29.000000
30
0.0
11
2.500000
21
29.000000
31
0.0
0
ARC
8
0
10
2.500000
20
29.500000
30
0.0
40
0.500000
50
270.000000
51
0.000000
0
LINE
8
0
10
3.000000
20
29.500000
30
0.0
11
3.000000
21
30.000000
31
0.0
0
ARC
8
0
10
2.500000
20
30.000000
30
0.0
40
0.500000
50
0.000000
51
90.000000
0
LINE
8
0
10
2.500000
20
30.500000
30
0.0
11
2.000000
21
30.500000
31
0.0
0
ARC
8
0
10
2.000000
20
31.000000
30
0.0
40
0.500000
50
180.000000
51
270.000000
0
LINE
8
0
10
1.500000
20
31.000000
30
0.0
11
1.500000
21
40.000000
31
0.0
0
ARC
8
0
10
2.000000
20
40.000000
30
0.0
40
0.500000
50
90.000000
51
180.000000
0
LINE
8
0
10
2.000000
20
40.500000
30
0.0
11
2.500000
21
40.500000
31
0.0
0
ARC
8
0
10
2.500000
20
41.000000
30
0.0
40
0.500000
50
270.000000
51
0.000000
0
LINE
8
0
10
3.000000
20
41.000000
30
0.0
11
3.000000
21
41.500000
31
0.0
0
ARC
8
0
10
2.500000
20
41.500000
30
0.0
40
0.500000
50
0.000000
51
90.000000
0
LINE
8
0
10
2.500000
20
42.000000
30
0.0
11
2.000000
21
42.000000
31
0.0
0
ARC
8
0
10
2.000000
20
42.500000
30
0.0
40
0.500000
50
180.000000
51
270.000000
0
LINE
8
0
10
1.500000
20
42.500000
30
0.0
11
1.500000
21
51.500000
31
0.0
0
ARC
8
0
10
2.000000
20
51.500000
30
0.0
40
0.500000
50
90.000000
51
180.000000
0
LINE
8
0
10
0.000000
20
75.000000
30
0.0
11
0.000000
21
0.500000
31
0.0
0
ARC
8
0
10
0.500000
20
0.500000
30
0.0
40
0.500000
50
180.000000
51
270.000000
0
LINE
8
0
10
0.500000
20
0.000000
30
0.0
11
4.700000
21
0.000000
31
0.0
0
ARC
8
0
10
4.700000
20
0.500000
30
0.0
40
0.500000
50
270.000000
51
0.000000
0
LINE
8
0
10
5.200000
20
0.500000
30
0.0
11
5.200000
21
1.614915
31
0.0
0
ARC
8
0
10
4.700000
20
1.614915
30
0.0
40
0.500000
50
0.000000
51
60.000000
0
LINE
8
0
10
4.950000
20
2.047927
30
0.0
11
4.300000
21
2.423205
31
0.0
0
ARC
8
0
10
4.200000
20
2.250000
30
0.0
40
0.200000
50
60.000000
51
180.000000
0
LINE
8
0
10
4.000000
20
2.250000
30
0.0
11
4.000000
21
1.700000
31
0.0
0
ARC
8
0
10
3.500000
20
1.700000
30
0.0
40
0.500000
50
270.000000
51
0.000000
0
LINE
8
0
10
3.500000
20
1.200000
30
0.0
11
2.000000
21
1.200000
31
0.0
0
ARC
8
0
10
2.000000
20
1.700000
30
0.0
40
0.500000
50
180.000000
51
270.000000
0
LINE
8
0
10
1.500000
20
1.700000
30
0.0
11
1.500000
21
7.200000
31
0.0
0
ARC
8
0
10
2.000000
20
7.200000
30
0.0
40
0.500000
50
90.000000
51
180.000000
0
LINE
8
0
10
2.000000
20
7.700000
30
0.0
11
3.500000
21
7.700000
31
0.0
0
ARC
8
0
10
3.500000
20
7.200000
30
0.0
40
0.500000
50
0.000000
51
90.000000
0
LINE
8
0
10
4.000000
20
7.200000
30
0.0
11
4.000000
21
6.650000
31
0.0
0
ARC
8
0
10
4.200000
20
6.650000
30
0.0
40
0.200000
50
180.000000
51
300.000000
0
LINE
8
0
10
4.300000
20
6.476795
30
0.0
11
4.950000
21
6.852073
31
0.0
0
ARC
8
0
10
4.700000
20
7.285085
30
0.0
40
0.500000
50
300.000000
51
0.000000
0
LINE
8
0
10
5.200000
20
7.285085
30
0.0
11
5.200000
21
8.400000
31
0.0
0
ARC
8
0
10
4.700000
20
8.400000
30
0.0
40
0.500000
50
0.000000
51
90.000000
0
LINE
8
0
10
4.700000
20
8.900000
30
0.0
11
2.500000
21
8.900000
31
0.0
0
ARC
8
0
10
2.500000
20
9.900000
30
0.0
40
1.000000
50
180.000000
51
270.000000
0
LINE
8
0
10
1.500000
20
9.900000
30
0.0
11
1.500000
21
16.500000
31
0.0
0
ARC
8
0
10
2.500000
20
16.500000
30
0.0
40
1.000000
50
90.000000
51
180.000000
0
LINE
8
0
10
2.500000
20
17.500000
30
0.0
11
12.910087
21
17.500000
31
0.0
0
ARC
8
0
10
12.910087
20
17.750000
30
0.0
40
0.250000
50
270.000000
51
337.135535
0
ARC
8
0
10
13.370801
20
17.555724
30
0.0
40
0.250000
50
22.864453
51
157.135535
0
ARC
8
0
10
13.831514
20
17.750000
30
0.0
40
0.250000
50
202.864453
51
270.000000
0
LINE
8
0
10
13.831734
20
17.500000
30
0.0
11
15.356592
21
17.501340
31
0.0
0
ARC
8
0
10
15.356329
20
17.801340
30
0.0
40
0.300000
50
270.000000
51
25.050363
0
LINE
8
0
10
15.628109
20
17.928365
30
0.0
11
14.615734
21
20.094437
31
0.0
0
ARC
8
0
10
14.389250
20
19.988583
30
0.0
40
0.250000
50
25.050363
51
65.050363
0
LINE
8
0
10
14.494706
20
20.215253
30
0.0
11
14.011587
21
20.440018
31
0.0
0
ARC
8
0
10
13.927223
20
20.258682
30
0.0
40
0.200000
50
65.050363
51
185.050363
0
LINE
8
0
10
13.727999
20
20.241076
30
0.0
11
13.743247
21
20.068543
31
0.0
0
ARC
8
0
10
13.544023
20
20.050937
30
0.0
40
0.200000
50
305.050363
51
5.050363
0
LINE
8
0
10
13.658883
20
19.887207
30
0.0
11
12.487148
21
19.065214
31
0.0
0
ARC
8
0
10
12.200000
20
19.474538
30
0.0
40
0.500000
50
180.000000
51
305.050363
0
LINE
8
0
10
11.700000
20
19.474538
30
0.0
11
11.700000
21
23.500000
31
0.0
0
ARC
8
0
10
12.000000
20
23.500000
30
0.0
40
0.300000
50
90.000000
51
180.000000
0
LINE
8
0
10
12.000000
20
23.800000
30
0.0
11
12.300000
21
23.800000
31
0.0
0
LINE
8
0
10
12.300000
20
23.800000
30
0.0
11
13.895798
21
22.825921
31
0.0
0
ARC
8
0
10
14.000000
20
22.996631
30
0.0
40
0.200000
50
238.600000
51
0.000000
0
LINE
8
0
10
14.200000
20
22.996631
30
0.0
11
14.200000
21
24.422214
31
0.0
0
ARC
8
0
10
13.200000
20
24.422214
30
0.0
40
1.000000
50
0.000000
51
58.600000
0
LINE
8
0
10
13.721010
20
25.275765
30
0.0
11
12.178990
21
26.217017
31
0.0
0
ARC
8
0
10
12.700000
20
27.070568
30
0.0
40
1.000000
50
180.000000
51
238.600000
0
LINE
8
0
10
11.700000
20
27.070568
30
0.0
11
11.700000
21
43.929432
31
0.0
0
ARC
8
0
10
12.700000
20
43.929432
30
0.0
40
1.000000
50
121.400000
51
180.000000
0
LINE
8
0
10
12.178990
20
44.782983
30
0.0
11
13.721010
21
45.724235
31
0.0
0
ARC
8
0
10
13.200000
20
46.577786
30
0.0
40
1.000000
50
301.400000
51
0.000000
0
LINE
8
0
10
14.200000
20
46.577786
30
0.0
11
14.200000
21
48.003369
31
0.0
0
ARC
8
0
10
14.000000
20
48.003369
30
0.0
40
0.200000
50
0.000000
51
121.400000
0
LINE
8
0
10
13.895798
20
48.174079
30
0.0
11
12.300000
21
47.200000
31
0.0
0
LINE
8
0
10
12.300000
20
47.200000
30
0.0
11
12.000000
21
47.200000
31
0.0
0
ARC
8
0
10
12.000000
20
47.500000
30
0.0
40
0.300000
50
180.000000
51
270.000000
0
LINE
8
0
10
11.700000
20
47.500000
30
0.0
11
11.700000
21
51.525462
31
0.0
0
ARC
8
0
10
12.200000
20
51.525462
30
0.0
40
0.500000
50
54.949637
51
180.000000
0
LINE
8
0
10
12.487148
20
51.934786
30
0.0
11
13.658883
21
51.112793
31
0.0
0
ARC
8
0
10
13.544023
20
50.949063
30
0.0
40
0.200000
50
354.949637
51
54.949637
0
LINE
8
0
10
13.743247
20
50.931457
30
0.0
11
13.727999
21
50.758924
31
0.0
0
ARC
8
0
10
13.927223
20
50.741318
30
0.0
40
0.200000
50
174.949637
51
294.949637
0
LINE
8
0
10
14.011587
20
50.559982
30
0.0
11
14.494706
21
50.784747
31
0.0
0
ARC
8
0
10
14.389250
20
51.011417
30
0.0
40
0.250000
50
294.949637
51
334.949637
0
LINE
8
0
10
14.615734
20
50.905563
30
0.0
11
15.628109
21
53.071635
31
0.0
0
ARC
8
0
10
15.356329
20
53.198660
30
0.0
40
0.300000
50
334.949637
51
90.000000
0
LINE
8
0
10
15.356592
20
53.498660
30
0.0
11
13.831734
21
53.500000
31
0.0
0
ARC
8
0
10
13.831514
20
53.250000
30
0.0
40
0.250000
50
90.000000
51
157.135547
0
ARC
8
0
10
13.370801
20
53.444276
30
0.0
40
0.250000
50
202.864465
51
337.135547
0
ARC
8
0
10
12.910087
20
53.250000
30
0.0
40
0.250000
50
22.864465
51
90.000000
0
LINE
8
0
10
12.910087
20
53.500000
30
0.0
11
2.800000
21
53.500000
31
0.0
0
ARC
8
0
10
2.800000
20
54.500000
30
0.0
40
1.000000
50
180.000000
51
270.000000
0
LINE
8
0
10
1.800000
20
54.500000
30
0.0
11
1.800000
21
73.000000
31
0.0
0
ARC
8
0
10
2.800000
20
73.000000
30
0.0
40
1.000000
50
90.000000
51
180.000000
0
LINE
8
0
10
2.800000
20
74.000000
30
0.0
11
5.800000
21
74.000000
31
0.0
0
ARC
8
0
10
5.800000
20
73.000000
30
0.0
40
1.000000
50
0.000000
51
90.000000
0
LINE
8
0
10
6.800000
20
73.000000
30
0.0
11
6.800000
21
68.100000
31
0.0
0
ARC
8
0
10
8.300000
20
68.100000
30
0.0
40
1.500000
50
180.000000
51
270.000000
0
LINE
8
0
10
8.300000
20
66.600000
30
0.0
11
11.500000
21
66.600000
31
0.0
0
ARC
8
0
10
11.500000
20
67.100000
30
0.0
40
0.500000
50
270.000000
51
0.000000
0
LINE
8
0
10
12.000000
20
67.100000
30
0.0
11
12.000000
21
68.214915
31
0.0
0
ARC
8
0
10
11.500000
20
68.214915
30
0.0
40
0.500000
50
0.000000
51
60.000000
0
LINE
8
0
10
11.750000
20
68.647927
30
0.0
11
11.100000
21
69.023205
31
0.0
0
ARC
8
0
10
11.000000
20
68.850000
30
0.0
40
0.200000
50
60.000000
51
180.000000
0
LINE
8
0
10
10.800000
20
68.850000
30
0.0
11
10.800000
21
68.300000
31
0.0
0
ARC
8
0
10
10.300000
20
68.300000
30
0.0
40
0.500000
50
270.000000
51
0.000000
0
LINE
8
0
10
10.300000
20
67.800000
30
0.0
11
8.800000
21
67.800000
31
0.0
0
ARC
8
0
10
8.800000
20
68.300000
30
0.0
40
0.500000
50
180.000000
51
270.000000
0
LINE
8
0
10
8.300000
20
68.300000
30
0.0
11
8.300000
21
73.800000
31
0.0
0
ARC
8
0
10
8.800000
20
73.800000
30
0.0
40
0.500000
50
90.000000
51
180.000000
0
LINE
8
0
10
8.800000
20
74.300000
30
0.0
11
10.300000
21
74.300000
31
0.0
0
ARC
8
0
10
10.300000
20
73.800000
30
0.0
40
0.500000
50
0.000000
51
90.000000
0
LINE
8
0
10
10.800000
20
73.800000
30
0.0
11
10.800000
21
73.250000
31
0.0
0
ARC
8
0
10
11.000000
20
73.250000
30
0.0
40
0.200000
50
180.000000
51
300.000000
0
LINE
8
0
10
11.100000
20
73.076795
30
0.0
11
11.750000
21
73.452073
31
0.0
0
ARC
8
0
10
11.500000
20
73.885085
30
0.0
40
0.500000
50
300.000000
51
0.000000
0
LINE
8
0
10
12.000000
20
73.885085
30
0.0
11
12.000000
21
75.000000
31
0.0
0
ARC
8
0
10
11.500000
20
75.000000
30
0.0
40
0.500000
50
0.000000
51
90.000000
0
LINE
8
0
10
11.500000
20
75.500000
30
0.0
11
0.500000
21
75.500000
31
0.0
0
ARC
8
0
10
0.500000
20
75.000000
30
0.0
40
0.500000
50
90.000000
51
180.000000
0
ATTDEF
8
0
10
7.855044
20
53.500000
30
0.0
40
3.5
1

3

2
VC_START
70
0
0
ATTDEF
8
0
10
7.705044
20
17.500000
30
0.0
40
3.5
1

3

2
VC_END
70
0
0
ATTDEF
8
0
10
0.000000
20
0.000000
30
0.0
40
3.5
1

3

2
MIN_VETRO:0
70
0
0
ATTDEF
8
0
10
0.000000
20
0.000000
30
0.0
40
3.5
1

3

2
MAX_VETRO:0
70
0
0
ATTDEF
8
0
10
0.000000
20
0.000000
30
0.0
40
3.5
1

3

2
JY:0
70
0
0
ATTDEF
8
0
10
0.000000
20
0.000000
30
0.0
40
3.5
1

3

2
WY:0
70
0
0
ATTDEF
8
0
10
0.000000
20
0.000000
30
0.0
40
3.5
1

3

2
DESC:
70
0
0
ATTDEF
8
0
10
0.000000
20
0.000000
30
0.0
40
3.5
1

3

2
DENS:0.000000
70
0
0
ATTDEF
8
0
10
0.000000
20
0.000000
30
0.0
40
3.5
1

3

2
TDEV:0.000000
70
0
0
ATTDEF
8
0
10
0.000000
20
0.000000
30
0.0
40
3.5
1

3

2
TDEV2:0.000000
70
0
0
ATTDEF
8
0
10
0.000000
20
0.000000
30
0.0
40
3.5
1

3

2
TDEV3:0.000000
70
0
0
ATTDEF
8
0
10
0.000000
20
0.000000
30
0.0
40
3.5
1

3

2
TDEV4:0.000000
70
0
0
ATTDEF
8
0
10
0.000000
20
0.000000
30
0.0
40
3.5
1

3

2
TDEV5:0.000000
70
0
0
ATTDEF
8
0
10
0.000000
20
0.000000
30
0.0
40
3.5
1

3

2
FRONT_VIEW
70
0
0
ATTDEF
8
0
10
0.000000
20
0.000000
30
0.0
40
3.5
1

3

2
BL01:6500.000000,,1
70
0
0
ATTDEF
8
0
10
0.000000
20
0.000000
30
0.0
40
3.5
1

3

2
OPTI:500.000000,1,0,3000.000000,6500.000000,500.000000,0,0.000000,0
70
0
0
ATTDEF
8
0
10
0.000000
20
0.000000
30
0.0
40
3.5
1

3

2
PANE_WIDTH:48.000000
70
0
0
ATTDEF
8
0
10
0.000000
20
0.000000
30
0.0
40
3.5
1

3

2
GLASS_MIN:0.000000
70
0
0
ATTDEF
8
0
10
0.000000
20
0.000000
30
0.0
40
3.5
1

3

2
GLASS_MAX:0.000000
70
0
0
ATTDEF
8
0
10
0.000000
20
0.000000
30
0.0
40
3.5
1

3

2
JX:0.000000
70
0
0
ATTDEF
8
0
10
0.000000
20
0.000000
30
0.0
40
3.5
1

3

2
WX:0.000000
70
0
0
ATTDEF
8
0
10
0.000000
20
0.000000
30
0.0
40
3.5
1

3

2
JY:0.000000
70
0
0
ATTDEF
8
0
10
0.000000
20
0.000000
30
0.0
40
3.5
1

3

2
WY:0.000000
70
0
0
ATTDEF
8
0
10
0.000000
20
0.000000
30
0.0
40
3.5
1

3

2
FP_LCS_ORIG
70
0
0
ATTDEF
8
0
10
10.000000
20
0.000000
30
0.0
40
3.5
1

3

2
FP_LCS_HOT
70
0
0
ATTDEF
8
0
10
0.000000
20
10.000000
30
0.0
40
3.5
1

3

2
FP_LCS_INTERN
70
0
0
ENDSEC
0
EOF
