0
SECTION
2
ENTITIES
0
LINE
8
0
10
-90.152411
20
20.636165
30
0.0
11
-90.152411
21
18.036165
31
0.0
0
LINE
8
0
10
-90.152411
20
18.036165
30
0.0
11
-88.852411
21
18.036165
31
0.0
0
LINE
8
0
10
-88.852411
20
18.036165
30
0.0
11
-88.852411
21
19.336165
31
0.0
0
LINE
8
0
10
-88.852411
20
19.336165
30
0.0
11
-79.152411
21
19.336165
31
0.0
0
LINE
8
0
10
-79.152411
20
19.336165
30
0.0
11
-79.152411
21
20.636165
31
0.0
0
LINE
8
0
10
-79.152411
20
20.636165
30
0.0
11
-79.752411
21
20.636165
31
0.0
0
LINE
8
0
10
-79.752411
20
20.636165
30
0.0
11
-79.752411
21
34.236165
31
0.0
0
LINE
8
0
10
-81.052411
20
20.636165
30
0.0
11
-81.052411
21
34.053462
31
0.0
0
LINE
8
0
10
-79.752411
20
34.236165
30
0.0
11
-90.226630
21
70.764109
31
0.0
0
LINE
8
0
10
-81.052411
20
34.053462
30
0.0
11
-91.526630
21
70.581406
31
0.0
0
LINE
8
0
10
-90.226630
20
70.764109
30
0.0
11
-90.226630
21
77.864109
31
0.0
0
LINE
8
0
10
-90.226630
20
77.864109
30
0.0
11
-87.626633
21
77.867691
31
0.0
0
LINE
8
0
10
-87.626633
20
77.867691
30
0.0
11
-87.626633
21
81.007691
31
0.0
0
LINE
8
0
10
-87.626633
20
81.007691
30
0.0
11
-88.626633
21
81.007691
31
0.0
0
LINE
8
0
10
-88.626633
20
81.007691
30
0.0
11
-88.828423
21
79.166037
31
0.0
0
LINE
8
0
10
-88.828423
20
79.166037
30
0.0
11
-90.226630
21
79.166037
31
0.0
0
LINE
8
0
10
-90.226630
20
79.166037
30
0.0
11
-90.226630
21
85.916037
31
0.0
0
LINE
8
0
10
-90.226630
20
85.916037
30
0.0
11
-91.526630
21
85.916037
31
0.0
0
LINE
8
0
10
-91.526630
20
85.916037
30
0.0
11
-91.526630
21
70.581406
31
0.0
0
LINE
8
0
10
-81.052411
20
20.636165
30
0.0
11
-90.152411
21
20.636165
31
0.0
0
ATTDEF
8
0
10
-79.152411
20
18.036165
30
0.0
40
3.5
1

3

2
FRONT_VIEW
70
0
0
ATTDEF
8
0
10
-79.152411
20
18.036165
30
0.0
40
3.5
1

3

2
OPTI:500.000000,1,0,3000.000000,6900.000000,500.000000,0,0.000000,0
70
0
0
ATTDEF
8
0
10
-79.152411
20
18.036165
30
0.0
40
3.5
1

3

2
GLASS_MIN:0.000000
70
0
0
ATTDEF
8
0
10
-79.152411
20
18.036165
30
0.0
40
3.5
1

3

2
GLASS_MAX:0.000000
70
0
0
ATTDEF
8
0
10
-79.152411
20
18.036165
30
0.0
40
3.5
1

3

2
JX:0.000000
70
0
0
ATTDEF
8
0
10
-79.152411
20
18.036165
30
0.0
40
3.5
1

3

2
WX:0.000000
70
0
0
ATTDEF
8
0
10
-79.152411
20
18.036165
30
0.0
40
3.5
1

3

2
JY:0.000000
70
0
0
ATTDEF
8
0
10
-79.152411
20
18.036165
30
0.0
40
3.5
1

3

2
WY:0.000000
70
0
0
ATTDEF
8
0
10
0.000000
20
0.000000
30
0.0
40
3.5
1

3

2
BL01:6200.000,,1
70
0
0
ATTDEF
8
0
10
0.000000
20
0.000000
30
0.0
40
3.5
1

3

2
DESC:Tabilla Postigo
70
0
0
ATTDEF
8
0
10
0.000000
20
0.000000
30
0.0
40
3.5
1

3

2
DENS:0.27
70
0
0
ATTDEF
8
0
10
0.000000
20
0.000000
30
0.0
40
3.5
1

3

2
TDEV:0
70
0
0
ATTDEF
8
0
10
0.000000
20
0.000000
30
0.0
40
3.5
1

3

2
TDEV2:0
70
0
0
ATTDEF
8
0
10
0.000000
20
0.000000
30
0.0
40
3.5
1

3

2
TDEV3:0
70
0
0
ATTDEF
8
0
10
0.000000
20
0.000000
30
0.0
40
3.5
1

3

2
TDEV4:0
70
0
0
ATTDEF
8
0
10
0.000000
20
0.000000
30
0.0
40
3.5
1

3

2
TDEV5:0
70
0
0
ATTDEF
8
0
10
0.000000
20
0.000000
30
0.0
40
3.5
1

3

2
PANE_WIDTH:0
70
0
0
ATTDEF
8
0
10
0.000000
20
0.000000
30
0.0
40
3.5
1

3

2
MIN_VETRO:0
70
0
0
ATTDEF
8
0
10
0.000000
20
0.000000
30
0.0
40
3.5
1

3

2
MAX_VETRO:0
70
0
0
ATTDEF
8
0
10
0.000000
20
0.000000
30
0.0
40
3.5
1

3

2
JX:0
70
0
0
ATTDEF
8
0
10
0.000000
20
0.000000
30
0.0
40
3.5
1

3

2
WX:0
70
0
0
ATTDEF
8
0
10
0.000000
20
0.000000
30
0.0
40
3.5
1

3

2
JY:0
70
0
0
ATTDEF
8
0
10
0.000000
20
0.000000
30
0.0
40
3.5
1

3

2
WY:0
70
0
0
ATTDEF
8
0
10
-87.626633
20
81.007691
30
0.0
40
3.5
1

3

2
VC_START
70
0
0
ATTDEF
8
0
10
-90.226630
20
85.916037
30
0.0
40
3.5
1

3

2
VC_END
70
0
0
ATTDEF
8
0
10
-91.526630
20
85.916037
30
0.0
40
3.5
1

3

2
FP_LCS_ORIG
70
0
0
ATTDEF
8
0
10
-81.526630
20
85.916037
30
0.0
40
3.5
1

3

2
FP_LCS_HOT
70
0
0
ATTDEF
8
0
10
-91.526630
20
75.916037
30
0.0
40
3.5
1

3

2
FP_LCS_INTERN
70
0
0
ENDSEC
0
EOF
