0
SECTION
2
ENTITIES
0
LINE
8
0
10
2071.656243
20
1373.591855
30
0.0
11
2071.656243
21
1370.991855
31
0.0
0
LINE
8
0
10
2071.656243
20
1370.991855
30
0.0
11
2072.956243
21
1370.991855
31
0.0
0
LINE
8
0
10
2072.956243
20
1370.991855
30
0.0
11
2072.956243
21
1372.291855
31
0.0
0
LINE
8
0
10
2072.956243
20
1372.291855
30
0.0
11
2082.656243
21
1372.291855
31
0.0
0
LINE
8
0
10
2082.656243
20
1372.291855
30
0.0
11
2082.656243
21
1373.591855
31
0.0
0
LINE
8
0
10
2082.656243
20
1373.591855
30
0.0
11
2082.056243
21
1373.591855
31
0.0
0
LINE
8
0
10
2082.056243
20
1373.591855
30
0.0
11
2082.056243
21
1387.191855
31
0.0
0
LINE
8
0
10
2082.056243
20
1387.191855
30
0.0
11
2071.582024
21
1423.719799
31
0.0
0
LINE
8
0
10
2071.582024
20
1423.719799
30
0.0
11
2071.582024
21
1430.819799
31
0.0
0
LINE
8
0
10
2071.582024
20
1430.819799
30
0.0
11
2074.182021
21
1430.823381
31
0.0
0
LINE
8
0
10
2074.182021
20
1430.823381
30
0.0
11
2074.182021
21
1433.963381
31
0.0
0
LINE
8
0
10
2074.182021
20
1433.963381
30
0.0
11
2073.182021
21
1433.963381
31
0.0
0
LINE
8
0
10
2073.182021
20
1433.963381
30
0.0
11
2072.980232
21
1432.121727
31
0.0
0
LINE
8
0
10
2072.980232
20
1432.121727
30
0.0
11
2071.582024
21
1432.121727
31
0.0
0
LINE
8
0
10
2071.582024
20
1432.121727
30
0.0
11
2071.582024
21
1438.871727
31
0.0
0
LINE
8
0
10
2071.582024
20
1438.871727
30
0.0
11
2070.282024
21
1438.871727
31
0.0
0
LINE
8
0
10
2070.282024
20
1438.871727
30
0.0
11
2070.282024
21
1423.537096
31
0.0
0
LINE
8
0
10
2080.756243
20
1387.009152
30
0.0
11
2070.282024
21
1423.537096
31
0.0
0
LINE
8
0
10
2080.756243
20
1373.591855
30
0.0
11
2080.756243
21
1387.009152
31
0.0
0
LINE
8
0
10
2080.756243
20
1373.591855
30
0.0
11
2071.656243
21
1373.591855
31
0.0
0
ATTDEF
8
0
10
2082.656243
20
1370.991855
30
0.0
40
3.5
1

3

2
FRONT_VIEW
70
0
0
ATTDEF
8
0
10
2082.656243
20
1370.991855
30
0.0
40
3.5
1

3

2
OPTI:500.000000,1,0,3000.000000,6900.000000,500.000000,0,0.000000,0
70
0
0
ATTDEF
8
0
10
2082.656243
20
1370.991855
30
0.0
40
3.5
1

3

2
GLASS_MIN:0.000000
70
0
0
ATTDEF
8
0
10
2082.656243
20
1370.991855
30
0.0
40
3.5
1

3

2
GLASS_MAX:0.000000
70
0
0
ATTDEF
8
0
10
2082.656243
20
1370.991855
30
0.0
40
3.5
1

3

2
JX:0.000000
70
0
0
ATTDEF
8
0
10
2082.656243
20
1370.991855
30
0.0
40
3.5
1

3

2
WX:0.000000
70
0
0
ATTDEF
8
0
10
2082.656243
20
1370.991855
30
0.0
40
3.5
1

3

2
JY:0.000000
70
0
0
ATTDEF
8
0
10
2082.656243
20
1370.991855
30
0.0
40
3.5
1

3

2
WY:0.000000
70
0
0
ATTDEF
8
0
10
2072.956243
20
1370.991855
30
0.0
40
3.5
1

3

2
VC_START
70
0
0
ATTDEF
8
0
10
2071.582024
20
1432.121727
30
0.0
40
3.5
1

3

2
VC_END
70
0
0
ATTDEF
8
0
10
2070.282024
20
1438.871727
30
0.0
40
3.5
1

3

2
FP_LCS_ORIG
70
0
0
ATTDEF
8
0
10
2080.282024
20
1438.871727
30
0.0
40
3.5
1

3

2
FP_LCS_HOT
70
0
0
ATTDEF
8
0
10
2070.282024
20
1428.871727
30
0.0
40
3.5
1

3

2
FP_LCS_INTERN
70
0
0
ATTDEF
8
0
10
0.000000
20
0.000000
30
0.0
40
3.5
1

3

2
BL01:6200.000,,1
70
0
0
ATTDEF
8
0
10
0.000000
20
0.000000
30
0.0
40
3.5
1

3

2
DESC:Tabilla Postigo
70
0
0
ATTDEF
8
0
10
0.000000
20
0.000000
30
0.0
40
3.5
1

3

2
DENS:0.27
70
0
0
ATTDEF
8
0
10
0.000000
20
0.000000
30
0.0
40
3.5
1

3

2
TDEV:0
70
0
0
ATTDEF
8
0
10
0.000000
20
0.000000
30
0.0
40
3.5
1

3

2
TDEV2:0
70
0
0
ATTDEF
8
0
10
0.000000
20
0.000000
30
0.0
40
3.5
1

3

2
TDEV3:0
70
0
0
ATTDEF
8
0
10
0.000000
20
0.000000
30
0.0
40
3.5
1

3

2
TDEV4:0
70
0
0
ATTDEF
8
0
10
0.000000
20
0.000000
30
0.0
40
3.5
1

3

2
TDEV5:0
70
0
0
ATTDEF
8
0
10
0.000000
20
0.000000
30
0.0
40
3.5
1

3

2
PANE_WIDTH:0
70
0
0
ATTDEF
8
0
10
0.000000
20
0.000000
30
0.0
40
3.5
1

3

2
MIN_VETRO:0
70
0
0
ATTDEF
8
0
10
0.000000
20
0.000000
30
0.0
40
3.5
1

3

2
MAX_VETRO:0
70
0
0
ATTDEF
8
0
10
0.000000
20
0.000000
30
0.0
40
3.5
1

3

2
JX:0
70
0
0
ATTDEF
8
0
10
0.000000
20
0.000000
30
0.0
40
3.5
1

3

2
WX:0
70
0
0
ATTDEF
8
0
10
0.000000
20
0.000000
30
0.0
40
3.5
1

3

2
JY:0
70
0
0
ATTDEF
8
0
10
0.000000
20
0.000000
30
0.0
40
3.5
1

3

2
WY:0
70
0
0
ENDSEC
0
EOF
