0
SECTION
2
ENTITIES
0
LINE
8
0
10
67.150000
20
51.200000
30
0.0
11
78.550000
21
51.200000
31
0.0
0
ARC
8
0
10
67.150000
20
50.200000
30
0.0
40
1.000000
50
90.000000
51
180.000000
0
ARC
8
0
10
78.569662
20
51.846939
30
0.0
40
0.647238
50
268.259172
51
346.878012
0
LINE
8
0
10
66.150000
20
49.100000
30
0.0
11
66.150000
21
50.200000
31
0.0
0
LINE
8
0
10
79.200000
20
51.700000
30
0.0
11
79.200000
21
53.300000
31
0.0
0
ARC
8
0
10
65.650000
20
49.100000
30
0.0
40
0.500000
50
270.000000
51
0.000000
0
ARC
8
0
10
78.700000
20
53.300000
30
0.0
40
0.500000
50
0.000000
51
90.000000
0
LINE
8
0
10
61.200000
20
48.600000
30
0.0
11
65.650000
21
48.600000
31
0.0
0
LINE
8
0
10
78.700000
20
53.800000
30
0.0
11
77.700000
21
53.800000
31
0.0
0
LINE
8
0
10
60.900000
20
48.300000
30
0.0
11
61.200000
21
48.600000
31
0.0
0
ARC
8
0
10
77.700000
20
54.300000
30
0.0
40
0.500000
50
180.000000
51
270.000000
0
LINE
8
0
10
60.600000
20
48.600000
30
0.0
11
60.900000
21
48.300000
31
0.0
0
LINE
8
0
10
77.200000
20
54.300000
30
0.0
11
77.200000
21
54.700000
31
0.0
0
LINE
8
0
10
56.150000
20
48.600000
30
0.0
11
60.600000
21
48.600000
31
0.0
0
ARC
8
0
10
77.700000
20
54.700000
30
0.0
40
0.500000
50
90.000000
51
180.000000
0
ARC
8
0
10
56.150000
20
49.100000
30
0.0
40
0.500000
50
180.000000
51
270.000000
0
LINE
8
0
10
77.700000
20
55.200000
30
0.0
11
78.700000
21
55.200000
31
0.0
0
LINE
8
0
10
55.650000
20
50.200000
30
0.0
11
55.650000
21
49.100000
31
0.0
0
ARC
8
0
10
78.700000
20
55.700000
30
0.0
40
0.500000
50
270.000000
51
0.000000
0
ARC
8
0
10
54.650000
20
50.200000
30
0.0
40
1.000000
50
0.000000
51
90.000000
0
LINE
8
0
10
79.200000
20
55.700000
30
0.0
11
79.200000
21
62.700000
31
0.0
0
LINE
8
0
10
44.700000
20
51.200000
30
0.0
11
54.650000
21
51.200000
31
0.0
0
ARC
8
0
10
78.700000
20
62.700000
30
0.0
40
0.500000
50
0.000000
51
90.000000
0
ARC
8
0
10
44.700000
20
51.700000
30
0.0
40
0.500000
50
180.000000
51
270.000000
0
LINE
8
0
10
78.700000
20
63.200000
30
0.0
11
77.700000
21
63.200000
31
0.0
0
LINE
8
0
10
44.200000
20
53.800000
30
0.0
11
44.200000
21
51.700000
31
0.0
0
ARC
8
0
10
77.700000
20
63.700000
30
0.0
40
0.500000
50
180.000000
51
270.000000
0
ARC
8
0
10
44.200000
20
54.300000
30
0.0
40
0.500000
50
270.000000
51
0.000000
0
LINE
8
0
10
77.200000
20
63.700000
30
0.0
11
77.200000
21
68.100000
31
0.0
0
LINE
8
0
10
44.700000
20
54.700000
30
0.0
11
44.700000
21
54.300000
31
0.0
0
ARC
8
0
10
76.700000
20
68.100000
30
0.0
40
0.500000
50
0.000000
51
90.000000
0
ARC
8
0
10
44.200000
20
54.700000
30
0.0
40
0.500000
50
0.000000
51
90.000000
0
LINE
8
0
10
76.700000
20
68.600000
30
0.0
11
74.800000
21
68.600000
31
0.0
0
LINE
8
0
10
44.200000
20
63.200000
30
0.0
11
44.200000
21
55.200000
31
0.0
0
ARC
8
0
10
74.800000
20
68.100000
30
0.0
40
0.500000
50
90.000000
51
180.000000
0
ARC
8
0
10
44.200000
20
63.700000
30
0.0
40
0.500000
50
270.000000
51
0.000000
0
LINE
8
0
10
74.300000
20
68.100000
30
0.0
11
74.300000
21
67.700000
31
0.0
0
LINE
8
0
10
44.700000
20
64.100000
30
0.0
11
44.700000
21
63.700000
31
0.0
0
ARC
8
0
10
73.800000
20
67.700000
30
0.0
40
0.500000
50
270.000000
51
0.000000
0
ARC
8
0
10
44.200000
20
64.100000
30
0.0
40
0.500000
50
0.000000
51
90.000000
0
LINE
8
0
10
73.800000
20
67.200000
30
0.0
11
72.100000
21
67.200000
31
0.0
0
LINE
8
0
10
44.200000
20
66.700000
30
0.0
11
44.200000
21
64.600000
31
0.0
0
ARC
8
0
10
72.100000
20
67.700000
30
0.0
40
0.500000
50
180.000000
51
270.000000
0
ARC
8
0
10
44.700000
20
66.700000
30
0.0
40
0.500000
50
90.000000
51
180.000000
0
LINE
8
0
10
71.600000
20
67.700000
30
0.0
11
71.600000
21
68.100000
31
0.0
0
LINE
8
0
10
49.700000
20
67.200000
30
0.0
11
44.700000
21
67.200000
31
0.0
0
ARC
8
0
10
72.100000
20
68.100000
30
0.0
40
0.500000
50
90.000000
51
180.000000
0
ARC
8
0
10
49.700000
20
67.700000
30
0.0
40
0.500000
50
270.000000
51
0.000000
0
LINE
8
0
10
72.100000
20
68.600000
30
0.0
11
72.900000
21
68.600000
31
0.0
0
LINE
8
0
10
50.200000
20
68.100000
30
0.0
11
50.200000
21
67.700000
31
0.0
0
LINE
8
0
10
72.900000
20
68.600000
30
0.0
11
72.900000
21
70.000000
31
0.0
0
ARC
8
0
10
49.700000
20
68.100000
30
0.0
40
0.500000
50
0.000000
51
90.000000
0
LINE
8
0
10
72.900000
20
70.000000
30
0.0
11
78.600000
21
70.000000
31
0.0
0
LINE
8
0
10
44.200000
20
68.600000
30
0.0
11
49.700000
21
68.600000
31
0.0
0
LINE
8
0
10
78.600000
20
70.000000
30
0.0
11
78.600000
21
64.600000
31
0.0
0
LINE
8
0
10
44.200000
20
70.400000
30
0.0
11
44.200000
21
68.600000
31
0.0
0
LINE
8
0
10
78.600000
20
64.600000
30
0.0
11
80.600000
21
64.600000
31
0.0
0
LINE
8
0
10
45.900000
20
70.400000
30
0.0
11
44.200000
21
70.400000
31
0.0
0
LINE
8
0
10
80.600000
20
64.600000
30
0.0
11
80.600000
21
26.500000
31
0.0
0
LINE
8
0
10
44.900000
20
71.400000
30
0.0
11
45.900000
21
70.400000
31
0.0
0
LINE
8
0
10
80.600000
20
26.500000
30
0.0
11
79.834444
21
26.500000
31
0.0
0
LINE
8
0
10
41.200000
20
71.400000
30
0.0
11
44.900000
21
71.400000
31
0.0
0
ARC
8
0
10
79.834444
20
27.000000
30
0.0
40
0.500000
50
210.000000
51
270.000000
0
LINE
8
0
10
41.200000
20
80.400000
30
0.0
11
41.200000
21
71.400000
31
0.0
0
LINE
8
0
10
79.401431
20
26.750000
30
0.0
11
78.366987
21
28.541710
31
0.0
0
LINE
8
0
10
32.900000
20
80.400000
30
0.0
11
41.200000
21
80.400000
31
0.0
0
ARC
8
0
10
78.800000
20
28.791710
30
0.0
40
0.500000
50
120.000000
51
210.000000
0
LINE
8
0
10
32.900000
20
79.000000
30
0.0
11
32.900000
21
80.400000
31
0.0
0
LINE
8
0
10
78.550000
20
29.224722
30
0.0
11
79.200000
21
29.600000
31
0.0
0
LINE
8
0
10
32.100000
20
79.000000
30
0.0
11
32.900000
21
79.000000
31
0.0
0
LINE
8
0
10
79.200000
20
29.600000
30
0.0
11
79.200000
21
32.700000
31
0.0
0
ARC
8
0
10
32.100000
20
78.500000
30
0.0
40
0.500000
50
90.000000
51
180.000000
0
ARC
8
0
10
78.700000
20
32.700000
30
0.0
40
0.500000
50
0.000000
51
90.000000
0
LINE
8
0
10
31.600000
20
78.100000
30
0.0
11
31.600000
21
78.500000
31
0.0
0
LINE
8
0
10
78.700000
20
33.200000
30
0.0
11
76.200000
21
33.200000
31
0.0
0
ARC
8
0
10
32.100000
20
78.100000
30
0.0
40
0.500000
50
180.000000
51
270.000000
0
ARC
8
0
10
76.200000
20
32.700000
30
0.0
40
0.500000
50
90.000000
51
180.000000
0
LINE
8
0
10
33.800000
20
77.600000
30
0.0
11
32.100000
21
77.600000
31
0.0
0
LINE
8
0
10
75.700000
20
32.700000
30
0.0
11
75.700000
21
32.000000
31
0.0
0
ARC
8
0
10
33.800000
20
78.100000
30
0.0
40
0.500000
50
270.000000
51
0.000000
0
LINE
8
0
10
75.700000
20
32.000000
30
0.0
11
75.900000
21
32.000000
31
0.0
0
LINE
8
0
10
34.300000
20
78.500000
30
0.0
11
34.300000
21
78.100000
31
0.0
0
ARC
8
0
10
75.900000
20
31.500000
30
0.0
40
0.500000
50
0.000000
51
90.000000
0
ARC
8
0
10
34.800000
20
78.500000
30
0.0
40
0.500000
50
90.000000
51
180.000000
0
LINE
8
0
10
76.400000
20
31.500000
30
0.0
11
76.400000
21
31.000000
31
0.0
0
LINE
8
0
10
39.300000
20
79.000000
30
0.0
11
34.800000
21
79.000000
31
0.0
0
LINE
8
0
10
76.400000
20
31.000000
30
0.0
11
75.700000
21
28.387564
31
0.0
0
ARC
8
0
10
39.300000
20
78.500000
30
0.0
40
0.500000
50
0.000000
51
90.000000
0
LINE
8
0
10
75.700000
20
28.387564
30
0.0
11
75.700000
21
27.500000
31
0.0
0
LINE
8
0
10
39.800000
20
75.500000
30
0.0
11
39.800000
21
78.500000
31
0.0
0
LINE
8
0
10
75.700000
20
27.500000
30
0.0
11
76.400000
21
27.500000
31
0.0
0
ARC
8
0
10
39.300000
20
75.500000
30
0.0
40
0.500000
50
270.000000
51
0.000000
0
LINE
8
0
10
76.400000
20
27.500000
30
0.0
11
76.400000
21
26.500000
31
0.0
0
LINE
8
0
10
37.700000
20
75.000000
30
0.0
11
39.300000
21
75.000000
31
0.0
0
LINE
8
0
10
76.400000
20
26.500000
30
0.0
11
73.992820
21
26.500000
31
0.0
0
ARC
8
0
10
37.700000
20
74.500000
30
0.0
40
0.500000
50
90.000000
51
180.000000
0
LINE
8
0
10
73.992820
20
26.500000
30
0.0
11
73.300000
21
27.700000
31
0.0
0
LINE
8
0
10
37.200000
20
74.100000
30
0.0
11
37.200000
21
74.500000
31
0.0
0
LINE
8
0
10
73.300000
20
27.700000
30
0.0
11
74.500000
21
27.700000
31
0.0
0
ARC
8
0
10
37.700000
20
74.100000
30
0.0
40
0.500000
50
180.000000
51
270.000000
0
LINE
8
0
10
74.500000
20
27.700000
30
0.0
11
74.500000
21
32.700000
31
0.0
0
LINE
8
0
10
39.300000
20
73.600000
30
0.0
11
37.700000
21
73.600000
31
0.0
0
ARC
8
0
10
74.000000
20
32.700000
30
0.0
40
0.500000
50
0.000000
51
90.000000
0
ARC
8
0
10
39.300000
20
73.100000
30
0.0
40
0.500000
50
0.000000
51
90.000000
0
LINE
8
0
10
74.000000
20
33.200000
30
0.0
11
62.400590
21
33.200000
31
0.0
0
LINE
8
0
10
39.800000
20
71.900000
30
0.0
11
39.800000
21
73.100000
31
0.0
0
LINE
8
0
10
62.400590
20
33.200000
30
0.0
11
61.900000
21
32.699410
31
0.0
0
ARC
8
0
10
39.300000
20
71.900000
30
0.0
40
0.500000
50
270.000000
51
0.000000
0
LINE
8
0
10
61.900000
20
32.699410
30
0.0
11
61.400000
21
33.200000
31
0.0
0
LINE
8
0
10
37.700000
20
71.400000
30
0.0
11
39.300000
21
71.400000
31
0.0
0
LINE
8
0
10
61.400000
20
33.200000
30
0.0
11
60.400000
21
33.200000
31
0.0
0
ARC
8
0
10
37.700000
20
70.900000
30
0.0
40
0.500000
50
90.000000
51
180.000000
0
LINE
8
0
10
60.400000
20
33.200000
30
0.0
11
59.900000
21
32.700000
31
0.0
0
LINE
8
0
10
37.200000
20
61.600000
30
0.0
11
37.200000
21
70.900000
31
0.0
0
LINE
8
0
10
59.900000
20
32.700000
30
0.0
11
59.400000
21
33.200000
31
0.0
0
LINE
8
0
10
27.150000
20
61.600000
30
0.0
11
37.200000
21
61.600000
31
0.0
0
LINE
8
0
10
59.400000
20
33.200000
30
0.0
11
41.500000
21
33.200000
31
0.0
0
ARC
8
0
10
27.150000
20
60.600000
30
0.0
40
1.000000
50
90.000000
51
180.000000
0
ARC
8
0
10
41.500000
20
32.700000
30
0.0
40
0.500000
50
90.000000
51
180.000000
0
LINE
8
0
10
26.150000
20
59.500000
30
0.0
11
26.150000
21
60.600000
31
0.0
0
LINE
8
0
10
41.000000
20
32.700000
30
0.0
11
41.000000
21
27.700000
31
0.0
0
ARC
8
0
10
25.650000
20
59.500000
30
0.0
40
0.500000
50
270.000000
51
0.000000
0
LINE
8
0
10
41.000000
20
27.700000
30
0.0
11
42.500000
21
27.700000
31
0.0
0
LINE
8
0
10
21.200000
20
59.000000
30
0.0
11
25.650000
21
59.000000
31
0.0
0
LINE
8
0
10
42.500000
20
27.700000
30
0.0
11
41.807180
21
26.500000
31
0.0
0
LINE
8
0
10
20.900000
20
58.700000
30
0.0
11
21.200000
21
59.000000
31
0.0
0
LINE
8
0
10
41.807180
20
26.500000
30
0.0
11
38.792820
21
26.500000
31
0.0
0
LINE
8
0
10
20.600000
20
59.000000
30
0.0
11
20.900000
21
58.700000
31
0.0
0
LINE
8
0
10
38.792820
20
26.500000
30
0.0
11
38.100000
21
27.700000
31
0.0
0
LINE
8
0
10
16.150000
20
59.000000
30
0.0
11
20.600000
21
59.000000
31
0.0
0
LINE
8
0
10
38.100000
20
27.700000
30
0.0
11
39.600000
21
27.700000
31
0.0
0
ARC
8
0
10
16.150000
20
59.500000
30
0.0
40
0.500000
50
180.000000
51
270.000000
0
LINE
8
0
10
39.600000
20
27.700000
30
0.0
11
39.600000
21
32.700000
31
0.0
0
LINE
8
0
10
15.650000
20
60.600000
30
0.0
11
15.650000
21
59.500000
31
0.0
0
ARC
8
0
10
39.100000
20
32.700000
30
0.0
40
0.500000
50
0.000000
51
90.000000
0
ARC
8
0
10
14.650000
20
60.600000
30
0.0
40
1.000000
50
0.000000
51
90.000000
0
LINE
8
0
10
39.100000
20
33.200000
30
0.0
11
22.400000
21
33.200000
31
0.0
0
LINE
8
0
10
4.700000
20
61.600000
30
0.0
11
14.650000
21
61.600000
31
0.0
0
LINE
8
0
10
22.400000
20
33.200000
30
0.0
11
21.900000
21
32.700000
31
0.0
0
LINE
8
0
10
4.700000
20
62.600000
30
0.0
11
4.700000
21
61.600000
31
0.0
0
LINE
8
0
10
21.900000
20
32.700000
30
0.0
11
21.400000
21
33.200000
31
0.0
0
ARC
8
0
10
4.200000
20
62.600000
30
0.0
40
0.500000
50
0.000000
51
90.000000
0
LINE
8
0
10
21.400000
20
33.200000
30
0.0
11
20.400000
21
33.200000
31
0.0
0
LINE
8
0
10
3.800000
20
63.100000
30
0.0
11
4.200000
21
63.100000
31
0.0
0
LINE
8
0
10
20.400000
20
33.200000
30
0.0
11
19.900000
21
32.699410
31
0.0
0
ARC
8
0
10
3.800000
20
62.600000
30
0.0
40
0.500000
50
90.000000
51
180.000000
0
LINE
8
0
10
19.900000
20
32.699410
30
0.0
11
19.399410
21
33.200000
31
0.0
0
LINE
8
0
10
3.300000
20
62.100000
30
0.0
11
3.300000
21
62.600000
31
0.0
0
LINE
8
0
10
19.399410
20
33.200000
30
0.0
11
6.600000
21
33.200000
31
0.0
0
ARC
8
0
10
2.800000
20
62.100000
30
0.0
40
0.500000
50
270.000000
51
0.000000
0
ARC
8
0
10
6.600000
20
32.700000
30
0.0
40
0.500000
50
90.000000
51
180.000000
0
LINE
8
0
10
1.900000
20
61.600000
30
0.0
11
2.800000
21
61.600000
31
0.0
0
LINE
8
0
10
6.100000
20
32.700000
30
0.0
11
6.100000
21
27.700000
31
0.0
0
ARC
8
0
10
1.900000
20
62.100000
30
0.0
40
0.500000
50
180.000000
51
270.000000
0
LINE
8
0
10
6.100000
20
27.700000
30
0.0
11
7.300000
21
27.700000
31
0.0
0
LINE
8
0
10
1.400000
20
79.200000
30
0.0
11
1.400000
21
62.100000
31
0.0
0
LINE
8
0
10
7.300000
20
27.700000
30
0.0
11
6.607180
21
26.500000
31
0.0
0
ARC
8
0
10
1.900000
20
79.200000
30
0.0
40
0.500000
50
24.753688
51
180.000000
0
LINE
8
0
10
6.607180
20
26.500000
30
0.0
11
4.200000
21
26.500000
31
0.0
0
LINE
8
0
10
3.745942
20
76.390641
30
0.0
11
2.354058
21
79.409359
31
0.0
0
LINE
8
0
10
4.200000
20
26.500000
30
0.0
11
4.200000
21
27.500000
31
0.0
0
ARC
8
0
10
4.200000
20
76.600000
30
0.0
40
0.500000
50
204.753688
51
0.000000
0
LINE
8
0
10
4.200000
20
27.500000
30
0.0
11
4.900000
21
27.500000
31
0.0
0
LINE
8
0
10
4.700000
20
77.600000
30
0.0
11
4.700000
21
76.600000
31
0.0
0
LINE
8
0
10
4.900000
20
27.500000
30
0.0
11
4.900000
21
28.387564
31
0.0
0
LINE
8
0
10
9.700000
20
77.600000
30
0.0
11
4.700000
21
77.600000
31
0.0
0
LINE
8
0
10
4.900000
20
28.387564
30
0.0
11
4.200000
21
31.000000
31
0.0
0
ARC
8
0
10
9.700000
20
78.100000
30
0.0
40
0.500000
50
270.000000
51
0.000000
0
LINE
8
0
10
4.200000
20
31.000000
30
0.0
11
4.200000
21
31.500000
31
0.0
0
LINE
8
0
10
10.200000
20
78.500000
30
0.0
11
10.200000
21
78.100000
31
0.0
0
ARC
8
0
10
4.700000
20
31.500000
30
0.0
40
0.500000
50
90.000000
51
180.000000
0
ARC
8
0
10
9.700000
20
78.500000
30
0.0
40
0.500000
50
0.000000
51
90.000000
0
LINE
8
0
10
4.700000
20
32.000000
30
0.0
11
4.900000
21
32.000000
31
0.0
0
LINE
8
0
10
4.200000
20
79.000000
30
0.0
11
9.700000
21
79.000000
31
0.0
0
LINE
8
0
10
4.900000
20
32.000000
30
0.0
11
4.900000
21
32.700000
31
0.0
0
LINE
8
0
10
4.200000
20
80.800000
30
0.0
11
4.200000
21
79.000000
31
0.0
0
ARC
8
0
10
4.400000
20
32.700000
30
0.0
40
0.500000
50
0.000000
51
90.000000
0
LINE
8
0
10
5.900000
20
80.800000
30
0.0
11
4.200000
21
80.800000
31
0.0
0
LINE
8
0
10
4.400000
20
33.200000
30
0.0
11
1.900000
21
33.200000
31
0.0
0
LINE
8
0
10
4.900000
20
81.800000
30
0.0
11
5.900000
21
80.800000
31
0.0
0
ARC
8
0
10
1.900000
20
32.700000
30
0.0
40
0.500000
50
90.000000
51
180.000000
0
LINE
8
0
10
1.700000
20
81.800000
30
0.0
11
4.900000
21
81.800000
31
0.0
0
LINE
8
0
10
1.400000
20
32.700000
30
0.0
11
1.400000
21
29.600000
31
0.0
0
ARC
8
0
10
1.700000
20
82.300000
30
0.0
40
0.500000
50
180.000000
51
270.000000
0
LINE
8
0
10
1.400000
20
29.600000
30
0.0
11
2.050000
21
29.224722
31
0.0
0
LINE
8
0
10
1.200000
20
90.900000
30
0.0
11
1.200000
21
82.300000
31
0.0
0
ARC
8
0
10
1.800000
20
28.791710
30
0.0
40
0.500000
50
330.000000
51
60.000000
0
LINE
8
0
10
2.233013
20
28.541710
30
0.0
11
1.198569
21
26.750000
31
0.0
0
LINE
8
0
10
0.000000
20
26.500000
30
0.0
11
0.000000
21
90.900000
31
0.0
0
ARC
8
0
10
0.765556
20
27.000000
30
0.0
40
0.500000
50
270.000000
51
330.000000
0
LINE
8
0
10
0.765556
20
26.500000
30
0.0
11
0.000000
21
26.500000
31
0.0
0
ARC
8
0
10
72.895922
20
35.600000
30
0.0
40
1.000000
50
165.366710
51
270.000000
0
ARC
8
0
10
68.300000
20
36.800000
30
0.0
40
3.750000
50
345.366710
51
40.214171
0
LINE
8
0
10
78.200000
20
34.600000
30
0.0
11
72.895922
21
34.600000
31
0.0
0
ARC
8
0
10
70.400000
20
38.575528
30
0.0
40
1.000000
50
40.214171
51
180.000000
0
ARC
8
0
10
78.200000
20
35.600000
30
0.0
40
1.000000
50
270.000000
51
0.000000
0
LINE
8
0
10
69.400000
20
38.575528
30
0.0
11
69.400000
21
37.961895
31
0.0
0
LINE
8
0
10
79.200000
20
48.800000
30
0.0
11
79.200000
21
35.600000
31
0.0
0
LINE
8
0
10
69.400000
20
37.961895
30
0.0
11
70.168154
21
37.961895
31
0.0
0
ARC
8
0
10
78.070698
20
48.662553
30
0.0
40
1.137635
50
6.939331
51
91.042495
0
ARC
8
0
10
68.300000
20
36.800000
30
0.0
40
2.200000
50
328.120531
51
31.879469
0
LINE
8
0
10
68.050000
20
49.800000
30
0.0
11
78.050000
21
49.800000
31
0.0
0
LINE
8
0
10
70.168154
20
35.638105
30
0.0
11
69.400000
21
35.638105
31
0.0
0
ARC
8
0
10
68.050000
20
49.300000
30
0.0
40
0.500000
50
90.000000
51
180.000000
0
LINE
8
0
10
69.400000
20
35.638105
30
0.0
11
69.400000
21
34.894744
31
0.0
0
LINE
8
0
10
67.550000
20
47.800000
30
0.0
11
67.550000
21
49.300000
31
0.0
0
ARC
8
0
10
68.300000
20
36.800000
30
0.0
40
2.200000
50
240.000000
51
300.000000
0
ARC
8
0
10
66.550000
20
47.800000
30
0.0
40
1.000000
50
270.000000
51
0.000000
0
LINE
8
0
10
67.200000
20
34.894744
30
0.0
11
67.200000
21
35.638105
31
0.0
0
LINE
8
0
10
55.250000
20
46.800000
30
0.0
11
66.550000
21
46.800000
31
0.0
0
LINE
8
0
10
67.200000
20
35.638105
30
0.0
11
66.431846
21
35.638105
31
0.0
0
ARC
8
0
10
55.250000
20
47.800000
30
0.0
40
1.000000
50
180.000000
51
270.000000
0
ARC
8
0
10
68.300000
20
36.800000
30
0.0
40
2.200000
50
148.120531
51
211.879469
0
LINE
8
0
10
54.250000
20
49.300000
30
0.0
11
54.250000
21
47.800000
31
0.0
0
LINE
8
0
10
66.431846
20
37.961895
30
0.0
11
67.200000
21
37.961895
31
0.0
0
ARC
8
0
10
53.750000
20
49.300000
30
0.0
40
0.500000
50
0.000000
51
90.000000
0
LINE
8
0
10
67.200000
20
37.961895
30
0.0
11
67.200000
21
38.575528
31
0.0
0
LINE
8
0
10
44.700000
20
49.800000
30
0.0
11
53.750000
21
49.800000
31
0.0
0
ARC
8
0
10
66.200000
20
38.575528
30
0.0
40
1.000000
50
0.000000
51
139.785829
0
ARC
8
0
10
44.700000
20
51.700000
30
0.0
40
1.900000
50
180.000000
51
270.000000
0
ARC
8
0
10
68.300000
20
36.800000
30
0.0
40
3.750000
50
139.785829
51
194.633290
0
LINE
8
0
10
42.800000
20
68.600000
30
0.0
11
42.800000
21
51.700000
31
0.0
0
ARC
8
0
10
63.704078
20
35.600000
30
0.0
40
1.000000
50
270.000000
51
14.633290
0
ARC
8
0
10
41.800000
20
68.600000
30
0.0
40
1.000000
50
0.000000
51
90.000000
0
LINE
8
0
10
63.704078
20
34.600000
30
0.0
11
16.895922
21
34.600000
31
0.0
0
LINE
8
0
10
39.600000
20
69.600000
30
0.0
11
41.800000
21
69.600000
31
0.0
0
ARC
8
0
10
16.895922
20
35.600000
30
0.0
40
1.000000
50
165.366710
51
270.000000
0
ARC
8
0
10
39.600000
20
68.600000
30
0.0
40
1.000000
50
90.000000
51
180.000000
0
ARC
8
0
10
12.300000
20
36.800000
30
0.0
40
3.750000
50
345.366710
51
40.214171
0
LINE
8
0
10
38.600000
20
60.700000
30
0.0
11
38.600000
21
68.600000
31
0.0
0
ARC
8
0
10
14.400000
20
38.575528
30
0.0
40
1.000000
50
40.214171
51
180.000000
0
ARC
8
0
10
38.100000
20
60.700000
30
0.0
40
0.500000
50
270.000000
51
0.000000
0
LINE
8
0
10
13.400000
20
38.575528
30
0.0
11
13.400000
21
37.961895
31
0.0
0
LINE
8
0
10
34.395922
20
60.200000
30
0.0
11
38.100000
21
60.200000
31
0.0
0
LINE
8
0
10
13.400000
20
37.961895
30
0.0
11
14.168154
21
37.961895
31
0.0
0
ARC
8
0
10
34.395922
20
59.200000
30
0.0
40
1.000000
50
90.000000
51
194.633290
0
ARC
8
0
10
12.300000
20
36.800000
30
0.0
40
2.200000
50
328.120531
51
31.879469
0
ARC
8
0
10
29.800000
20
58.000000
30
0.0
40
3.750000
50
319.785829
51
14.633290
0
LINE
8
0
10
14.168154
20
35.638105
30
0.0
11
13.400000
21
35.638105
31
0.0
0
ARC
8
0
10
31.900000
20
56.224472
30
0.0
40
1.000000
50
180.000000
51
319.785829
0
LINE
8
0
10
13.400000
20
35.638105
30
0.0
11
13.400000
21
34.894744
31
0.0
0
LINE
8
0
10
30.900000
20
56.838105
30
0.0
11
30.900000
21
56.224472
31
0.0
0
ARC
8
0
10
12.300000
20
36.800000
30
0.0
40
2.200000
50
240.000000
51
300.000000
0
LINE
8
0
10
31.668154
20
56.838105
30
0.0
11
30.900000
21
56.838105
31
0.0
0
LINE
8
0
10
11.200000
20
34.894744
30
0.0
11
11.200000
21
35.638105
31
0.0
0
ARC
8
0
10
29.800000
20
58.000000
30
0.0
40
2.200000
50
328.120531
51
31.879469
0
LINE
8
0
10
11.200000
20
35.638105
30
0.0
11
10.431846
21
35.638105
31
0.0
0
LINE
8
0
10
30.900000
20
59.161895
30
0.0
11
31.668154
21
59.161895
31
0.0
0
ARC
8
0
10
12.300000
20
36.800000
30
0.0
40
2.200000
50
148.120531
51
211.879469
0
LINE
8
0
10
30.900000
20
59.905256
30
0.0
11
30.900000
21
59.161895
31
0.0
0
LINE
8
0
10
10.431846
20
37.961895
30
0.0
11
11.200000
21
37.961895
31
0.0
0
ARC
8
0
10
29.800000
20
58.000000
30
0.0
40
2.200000
50
60.000000
51
120.000000
0
LINE
8
0
10
11.200000
20
37.961895
30
0.0
11
11.200000
21
38.575528
31
0.0
0
LINE
8
0
10
28.700000
20
59.161895
30
0.0
11
28.700000
21
59.905256
31
0.0
0
ARC
8
0
10
10.200000
20
38.575528
30
0.0
40
1.000000
50
0.000000
51
139.785829
0
LINE
8
0
10
27.931846
20
59.161895
30
0.0
11
28.700000
21
59.161895
31
0.0
0
ARC
8
0
10
12.300000
20
36.800000
30
0.0
40
3.750000
50
139.785829
51
194.633290
0
ARC
8
0
10
29.800000
20
58.000000
30
0.0
40
2.200000
50
148.120531
51
211.879469
0
ARC
8
0
10
7.704078
20
35.600000
30
0.0
40
1.000000
50
270.000000
51
14.633290
0
LINE
8
0
10
28.700000
20
56.838105
30
0.0
11
27.931846
21
56.838105
31
0.0
0
LINE
8
0
10
7.704078
20
34.600000
30
0.0
11
2.400000
21
34.600000
31
0.0
0
LINE
8
0
10
28.700000
20
56.224472
30
0.0
11
28.700000
21
56.838105
31
0.0
0
ARC
8
0
10
2.400000
20
35.600000
30
0.0
40
1.000000
50
180.000000
51
270.000000
0
ARC
8
0
10
27.700000
20
56.224472
30
0.0
40
1.000000
50
220.214171
51
0.000000
0
LINE
8
0
10
1.400000
20
35.600000
30
0.0
11
1.400000
21
59.200000
31
0.0
0
ARC
8
0
10
29.800000
20
58.000000
30
0.0
40
3.750000
50
197.811256
51
220.214171
0
ARC
8
0
10
2.273536
20
59.318745
30
0.0
40
0.881569
50
91.529828
51
187.741099
0
ARC
8
0
10
25.753705
20
56.700000
30
0.0
40
0.500000
50
17.811256
51
90.000000
0
LINE
8
0
10
2.250000
20
60.200000
30
0.0
11
13.750000
21
60.200000
31
0.0
0
LINE
8
0
10
15.250000
20
57.200000
30
0.0
11
25.753705
21
57.200000
31
0.0
0
ARC
8
0
10
13.750000
20
59.700000
30
0.0
40
0.500000
50
0.000000
51
90.000000
0
ARC
8
0
10
15.250000
20
58.200000
30
0.0
40
1.000000
50
180.000000
51
270.000000
0
LINE
8
0
10
14.250000
20
59.700000
30
0.0
11
14.250000
21
58.200000
31
0.0
0
LINE
8
0
10
0.000000
20
90.900000
30
0.0
11
1.200000
21
90.900000
31
0.0
0
ATTDEF
8
0
10
78.600000
20
70.000000
30
0.0
40
3.5
1

3

2
VC_START
70
0
0
ATTDEF
8
0
10
75.196410
20
26.500000
30
0.0
40
3.5
1

3

2
VC_END
70
0
0
LINE
8
0
10
71.239332
20
64.186080
30
0.0
11
72.100000
21
66.685641
31
0.0
0
LINE
8
0
10
72.100000
20
66.685641
30
0.0
11
71.300000
21
66.900000
31
0.0
0
LINE
8
0
10
71.300000
20
66.900000
30
0.0
11
71.300000
21
68.100000
31
0.0
0
ARC
8
0
10
71.300000
20
68.500000
30
0.0
40
0.400000
50
0.000000
51
270.000000
0
LINE
8
0
10
71.700000
20
68.500000
30
0.0
11
72.000000
21
68.500000
31
0.0
0
ARC
8
0
10
72.000000
20
69.000000
30
0.0
40
0.500000
50
270.000000
51
0.000000
0
LINE
8
0
10
72.500000
20
69.000000
30
0.0
11
72.500000
21
69.200000
31
0.0
0
ARC
8
0
10
72.000000
20
69.200000
30
0.0
40
0.500000
50
0.000000
51
90.000000
0
LINE
8
0
10
72.000000
20
69.700000
30
0.0
11
70.600000
21
69.700000
31
0.0
0
ARC
8
0
10
70.600000
20
69.200000
30
0.0
40
0.500000
50
90.000000
51
180.000000
0
LINE
8
0
10
70.100000
20
69.200000
30
0.0
11
70.100000
21
65.045701
31
0.0
0
ARC
8
0
10
68.800000
20
65.045701
30
0.0
40
1.300000
50
238.825220
51
0.000000
0
LINE
8
0
10
68.127054
20
63.933431
30
0.0
11
58.338683
21
69.855592
31
0.0
0
ARC
8
0
10
57.821032
20
69.000000
30
0.0
40
1.000000
50
58.825220
51
90.000000
0
LINE
8
0
10
57.821032
20
70.000000
30
0.0
11
44.500000
21
70.000000
31
0.0
0
LINE
8
0
10
44.500000
20
70.000000
30
0.0
11
44.500000
21
69.800000
31
0.0
0
ARC
8
0
10
45.500000
20
69.800000
30
0.0
40
1.000000
50
180.000000
51
270.000000
0
LINE
8
0
10
45.500000
20
68.800000
30
0.0
11
50.900000
21
68.800000
31
0.0
0
LINE
8
0
10
50.900000
20
68.800000
30
0.0
11
50.900000
21
67.400000
31
0.0
0
LINE
8
0
10
50.900000
20
67.400000
30
0.0
11
51.100000
21
67.400000
31
0.0
0
ARC
8
0
10
51.100000
20
68.400000
30
0.0
40
1.000000
50
270.000000
51
0.000000
0
LINE
8
0
10
52.100000
20
68.400000
30
0.0
11
52.100000
21
68.800000
31
0.0
0
LINE
8
0
10
52.100000
20
68.800000
30
0.0
11
57.486271
21
68.800000
31
0.0
0
ARC
8
0
10
57.486271
20
67.800000
30
0.0
40
1.000000
50
58.825220
51
90.000000
0
LINE
8
0
10
58.003921
20
68.655592
30
0.0
11
67.581410
21
62.861020
31
0.0
0
ARC
8
0
10
68.875536
20
65.000000
30
0.0
40
2.500000
50
238.825220
51
341.000000
0
LINE
8
0
10
31.239332
20
74.586080
30
0.0
11
32.100000
21
77.085641
31
0.0
0
LINE
8
0
10
32.100000
20
77.085641
30
0.0
11
31.300000
21
77.300000
31
0.0
0
LINE
8
0
10
31.300000
20
77.300000
30
0.0
11
31.300000
21
78.500000
31
0.0
0
ARC
8
0
10
31.300000
20
78.900000
30
0.0
40
0.400000
50
0.000000
51
270.000000
0
LINE
8
0
10
31.700000
20
78.900000
30
0.0
11
32.000000
21
78.900000
31
0.0
0
ARC
8
0
10
32.000000
20
79.400000
30
0.0
40
0.500000
50
270.000000
51
0.000000
0
LINE
8
0
10
32.500000
20
79.400000
30
0.0
11
32.500000
21
79.600000
31
0.0
0
ARC
8
0
10
32.000000
20
79.600000
30
0.0
40
0.500000
50
0.000000
51
90.000000
0
LINE
8
0
10
32.000000
20
80.100000
30
0.0
11
30.600000
21
80.100000
31
0.0
0
ARC
8
0
10
30.600000
20
79.600000
30
0.0
40
0.500000
50
90.000000
51
180.000000
0
LINE
8
0
10
30.100000
20
79.600000
30
0.0
11
30.100000
21
75.445701
31
0.0
0
ARC
8
0
10
28.800000
20
75.445701
30
0.0
40
1.300000
50
238.825220
51
0.000000
0
LINE
8
0
10
28.127054
20
74.333431
30
0.0
11
18.338683
21
80.255592
31
0.0
0
ARC
8
0
10
17.821032
20
79.400000
30
0.0
40
1.000000
50
58.825220
51
90.000000
0
LINE
8
0
10
17.821032
20
80.400000
30
0.0
11
4.500000
21
80.400000
31
0.0
0
LINE
8
0
10
4.500000
20
80.400000
30
0.0
11
4.500000
21
80.200000
31
0.0
0
ARC
8
0
10
5.500000
20
80.200000
30
0.0
40
1.000000
50
180.000000
51
270.000000
0
LINE
8
0
10
5.500000
20
79.200000
30
0.0
11
10.900000
21
79.200000
31
0.0
0
LINE
8
0
10
10.900000
20
79.200000
30
0.0
11
10.900000
21
77.800000
31
0.0
0
LINE
8
0
10
10.900000
20
77.800000
30
0.0
11
11.100000
21
77.800000
31
0.0
0
ARC
8
0
10
11.100000
20
78.800000
30
0.0
40
1.000000
50
270.000000
51
0.000000
0
LINE
8
0
10
12.100000
20
78.800000
30
0.0
11
12.100000
21
79.200000
31
0.0
0
LINE
8
0
10
12.100000
20
79.200000
30
0.0
11
17.486271
21
79.200000
31
0.0
0
ARC
8
0
10
17.486271
20
78.200000
30
0.0
40
1.000000
50
58.825220
51
90.000000
0
LINE
8
0
10
18.003921
20
79.055592
30
0.0
11
27.581410
21
73.261020
31
0.0
0
ARC
8
0
10
28.875536
20
75.400000
30
0.0
40
2.500000
50
238.825220
51
341.000000
0
ARC
8
0
10
79.654701
20
27.000000
30
0.0
40
0.500000
50
210.000000
51
270.000000
0
LINE
8
0
10
79.221688
20
26.750000
30
0.0
11
78.500000
21
28.000000
31
0.0
0
LINE
8
0
10
78.500000
20
28.000000
30
0.0
11
77.300000
21
28.000000
31
0.0
0
ARC
8
0
10
77.300000
20
27.500000
30
0.0
40
0.500000
50
90.000000
51
180.000000
0
LINE
8
0
10
76.800000
20
27.500000
30
0.0
11
76.800000
21
26.818535
31
0.0
0
ARC
8
0
10
77.300000
20
26.818535
30
0.0
40
0.500000
50
180.000000
51
245.000000
0
LINE
8
0
10
77.088691
20
26.365381
30
0.0
11
78.772618
21
25.580153
31
0.0
0
ARC
8
0
10
78.350000
20
24.673845
30
0.0
40
1.000000
50
0.000000
51
65.000000
0
LINE
8
0
10
79.350000
20
24.673845
30
0.0
11
79.350000
21
24.025833
31
0.0
0
ARC
8
0
10
78.350000
20
24.025833
30
0.0
40
1.000000
50
330.000000
51
0.000000
0
LINE
8
0
10
79.216025
20
23.525833
30
0.0
11
77.942115
21
21.319355
31
0.0
0
ARC
8
0
10
77.509102
20
21.569355
30
0.0
40
0.500000
50
250.000000
51
330.000000
0
LINE
8
0
10
77.338092
20
21.099509
30
0.0
11
74.202606
21
22.240732
31
0.0
0
ARC
8
0
10
74.100000
20
21.958825
30
0.0
40
0.300000
50
70.000000
51
232.000000
0
LINE
8
0
10
73.915302
20
21.722421
30
0.0
11
77.392169
21
19.005995
31
0.0
0
ARC
8
0
10
77.700000
20
19.400000
30
0.0
40
0.500000
50
232.000000
51
330.000000
0
LINE
8
0
10
78.133013
20
19.150000
30
0.0
11
78.883494
21
20.449871
31
0.0
0
ARC
8
0
10
79.100000
20
20.324871
30
0.0
40
0.250000
50
0.000000
51
150.000000
0
LINE
8
0
10
79.350000
20
20.324871
30
0.0
11
79.350000
21
11.475129
31
0.0
0
ARC
8
0
10
79.100000
20
11.475129
30
0.0
40
0.250000
50
210.000000
51
0.000000
0
LINE
8
0
10
78.883494
20
11.350129
30
0.0
11
78.133013
21
12.650000
31
0.0
0
ARC
8
0
10
77.700000
20
12.400000
30
0.0
40
0.500000
50
30.000000
51
180.000000
0
LINE
8
0
10
77.200000
20
12.400000
30
0.0
11
77.200000
21
10.000000
31
0.0
0
LINE
8
0
10
77.200000
20
10.000000
30
0.0
11
74.800000
21
10.000000
31
0.0
0
LINE
8
0
10
74.800000
20
10.000000
30
0.0
11
74.800000
21
8.100000
31
0.0
0
ARC
8
0
10
75.400000
20
8.100000
30
0.0
40
0.600000
50
180.000000
51
0.000000
0
LINE
8
0
10
76.000000
20
8.100000
30
0.0
11
76.000000
21
8.750000
31
0.0
0
LINE
8
0
10
76.000000
20
8.750000
30
0.0
11
77.200000
21
8.750000
31
0.0
0
LINE
8
0
10
77.200000
20
8.750000
30
0.0
11
77.200000
21
6.500000
31
0.0
0
LINE
8
0
10
77.200000
20
6.500000
30
0.0
11
78.682664
21
6.500000
31
0.0
0
ARC
8
0
10
15.600000
20
15.700000
30
0.0
40
63.750000
50
348.967105
51
351.702459
0
LINE
8
0
10
78.171739
20
3.500000
30
0.0
11
77.200000
21
3.500000
31
0.0
0
LINE
8
0
10
77.200000
20
3.500000
30
0.0
11
77.200000
21
1.250000
31
0.0
0
LINE
8
0
10
77.200000
20
1.250000
30
0.0
11
76.000000
21
1.250000
31
0.0
0
LINE
8
0
10
76.000000
20
1.250000
30
0.0
11
76.000000
21
1.900000
31
0.0
0
ARC
8
0
10
75.400000
20
1.900000
30
0.0
40
0.600000
50
0.000000
51
180.000000
0
LINE
8
0
10
74.800000
20
1.900000
30
0.0
11
74.800000
21
0.000000
31
0.0
0
LINE
8
0
10
74.800000
20
0.000000
30
0.0
11
77.092357
21
0.000000
31
0.0
0
ARC
8
0
10
77.092357
20
2.000000
30
0.0
40
2.000000
50
270.000000
51
347.440091
0
ARC
8
0
10
15.600000
20
15.700000
30
0.0
40
65.000000
50
347.440091
51
0.000000
0
LINE
8
0
10
80.600000
20
15.700000
30
0.0
11
80.600000
21
26.500000
31
0.0
0
LINE
8
0
10
80.600000
20
26.500000
30
0.0
11
79.654701
21
26.500000
31
0.0
0
ATTDEF
8
0
10
0.000000
20
0.000000
30
0.0
40
3.5
1

3

2
HW_START
70
0
0
ATTDEF
8
0
10
80.600000
20
90.900000
30
0.0
40
3.5
1

3

2
HW_END
70
0
0
ATTDEF
8
0
10
0.000000
20
0.000000
30
0.0
40
3.5
1

3

2
REAR_VIEW
70
0
0
ATTDEF
8
0
10
0.000000
20
0.000000
30
0.0
40
3.5
1

3

2
OPTI:500.000000,1,0,3000.000000,6900.000000,500.000000,0,0.000000,0
70
0
0
ATTDEF
8
0
10
0.000000
20
0.000000
30
0.0
40
3.5
1

3

2
GLASS_MIN:0.000000
70
0
0
ATTDEF
8
0
10
0.000000
20
0.000000
30
0.0
40
3.5
1

3

2
GLASS_MAX:0.000000
70
0
0
ATTDEF
8
0
10
0.000000
20
0.000000
30
0.0
40
3.5
1

3

2
JX:0.000000
70
0
0
ATTDEF
8
0
10
0.000000
20
0.000000
30
0.0
40
3.5
1

3

2
WX:0.000000
70
0
0
ATTDEF
8
0
10
0.000000
20
0.000000
30
0.0
40
3.5
1

3

2
JY:0.000000
70
0
0
ATTDEF
8
0
10
0.000000
20
0.000000
30
0.0
40
3.5
1

3

2
WY:0.000000
70
0
0
ATTDEF
8
0
10
0.000000
20
0.000000
30
0.0
40
3.5
1

3

2
FP_LCS_ORIG
70
0
0
ATTDEF
8
0
10
10.000000
20
0.000000
30
0.0
40
3.5
1

3

2
FP_LCS_HOT
70
0
0
ATTDEF
8
0
10
0.000000
20
10.000000
30
0.0
40
3.5
1

3

2
FP_LCS_INTERN
70
0
0
ATTDEF
8
0
10
0.000000
20
0.000000
30
0.0
40
3.5
1

3

2
BL01:6200.000,,1
70
0
0
ATTDEF
8
0
10
0.000000
20
0.000000
30
0.0
40
3.5
1

3

2
DESC:6296 - 6299 - 6299 - 6206
70
0
0
ATTDEF
8
0
10
0.000000
20
0.000000
30
0.0
40
3.5
1

3

2
DENS:0
70
0
0
ATTDEF
8
0
10
0.000000
20
0.000000
30
0.0
40
3.5
1

3

2
TDEV:0
70
0
0
ATTDEF
8
0
10
0.000000
20
0.000000
30
0.0
40
3.5
1

3

2
TDEV2:0
70
0
0
ATTDEF
8
0
10
0.000000
20
0.000000
30
0.0
40
3.5
1

3

2
TDEV3:0
70
0
0
ATTDEF
8
0
10
0.000000
20
0.000000
30
0.0
40
3.5
1

3

2
TDEV4:0
70
0
0
ATTDEF
8
0
10
0.000000
20
0.000000
30
0.0
40
3.5
1

3

2
TDEV5:0
70
0
0
ATTDEF
8
0
10
0.000000
20
0.000000
30
0.0
40
3.5
1

3

2
PANE_WIDTH:0
70
0
0
ATTDEF
8
0
10
0.000000
20
0.000000
30
0.0
40
3.5
1

3

2
MIN_VETRO:0
70
0
0
ATTDEF
8
0
10
0.000000
20
0.000000
30
0.0
40
3.5
1

3

2
MAX_VETRO:0
70
0
0
ATTDEF
8
0
10
0.000000
20
0.000000
30
0.0
40
3.5
1

3

2
JX:0
70
0
0
ATTDEF
8
0
10
0.000000
20
0.000000
30
0.0
40
3.5
1

3

2
WX:0
70
0
0
ATTDEF
8
0
10
0.000000
20
0.000000
30
0.0
40
3.5
1

3

2
JY:0
70
0
0
ATTDEF
8
0
10
0.000000
20
0.000000
30
0.0
40
3.5
1

3

2
WY:0
70
0
0
ENDSEC
0
EOF
