0
SECTION
2
ENTITIES
0
LINE
8
0
10
26.739332
20
1.686080
30
0.0
11
27.600000
21
4.185641
31
0.0
0
LINE
8
0
10
27.600000
20
4.185641
30
0.0
11
26.800000
21
4.400000
31
0.0
0
LINE
8
0
10
26.800000
20
4.400000
30
0.0
11
26.800000
21
5.600000
31
0.0
0
ARC
8
0
10
26.800000
20
6.000000
30
0.0
40
0.400000
50
0.000000
51
270.000000
0
LINE
8
0
10
27.200000
20
6.000000
30
0.0
11
27.500000
21
6.000000
31
0.0
0
ARC
8
0
10
27.500000
20
6.500000
30
0.0
40
0.500000
50
270.000000
51
0.000000
0
LINE
8
0
10
28.000000
20
6.500000
30
0.0
11
28.000000
21
6.700000
31
0.0
0
ARC
8
0
10
27.500000
20
6.700000
30
0.0
40
0.500000
50
0.000000
51
90.000000
0
LINE
8
0
10
27.500000
20
7.200000
30
0.0
11
26.100000
21
7.200000
31
0.0
0
ARC
8
0
10
26.100000
20
6.700000
30
0.0
40
0.500000
50
90.000000
51
180.000000
0
LINE
8
0
10
25.600000
20
6.700000
30
0.0
11
25.600000
21
2.545701
31
0.0
0
ARC
8
0
10
24.300000
20
2.545701
30
0.0
40
1.300000
50
238.825220
51
0.000000
0
LINE
8
0
10
23.627054
20
1.433431
30
0.0
11
13.838683
21
7.355592
31
0.0
0
ARC
8
0
10
13.321032
20
6.500000
30
0.0
40
1.000000
50
58.825220
51
90.000000
0
LINE
8
0
10
13.321032
20
7.500000
30
0.0
11
0.000000
21
7.500000
31
0.0
0
LINE
8
0
10
0.000000
20
7.500000
30
0.0
11
0.000000
21
7.300000
31
0.0
0
ARC
8
0
10
1.000000
20
7.300000
30
0.0
40
1.000000
50
180.000000
51
270.000000
0
LINE
8
0
10
1.000000
20
6.300000
30
0.0
11
6.400000
21
6.300000
31
0.0
0
LINE
8
0
10
6.400000
20
6.300000
30
0.0
11
6.400000
21
4.900000
31
0.0
0
LINE
8
0
10
6.400000
20
4.900000
30
0.0
11
6.600000
21
4.900000
31
0.0
0
ARC
8
0
10
6.600000
20
5.900000
30
0.0
40
1.000000
50
270.000000
51
0.000000
0
LINE
8
0
10
7.600000
20
5.900000
30
0.0
11
7.600000
21
6.300000
31
0.0
0
LINE
8
0
10
7.600000
20
6.300000
30
0.0
11
12.986271
21
6.300000
31
0.0
0
ARC
8
0
10
12.986271
20
5.300000
30
0.0
40
1.000000
50
58.825220
51
90.000000
0
LINE
8
0
10
13.503921
20
6.155592
30
0.0
11
23.081410
21
0.361020
31
0.0
0
ARC
8
0
10
24.375536
20
2.500000
30
0.0
40
2.500000
50
238.825220
51
341.000000
0
ATTDEF
8
0
10
0.000000
20
0.000000
30
0.0
40
3.5
1

3

2
FRONT_VIEW
70
0
0
ATTDEF
8
0
10
0.000000
20
0.000000
30
0.0
40
3.5
1

3

2
OPTI:500.000000,1,0,3000.000000,6900.000000,500.000000,0,0.000000,0
70
0
0
ATTDEF
8
0
10
0.000000
20
0.000000
30
0.0
40
3.5
1

3

2
GLASS_MIN:0.000000
70
0
0
ATTDEF
8
0
10
0.000000
20
0.000000
30
0.0
40
3.5
1

3

2
GLASS_MAX:0.000000
70
0
0
ATTDEF
8
0
10
0.000000
20
0.000000
30
0.0
40
3.5
1

3

2
WX:0.000000
70
0
0
ATTDEF
8
0
10
0.000000
20
0.000000
30
0.0
40
3.5
1

3

2
JY:0.000000
70
0
0
ATTDEF
8
0
10
0.000000
20
0.000000
30
0.0
40
3.5
1

3

2
WY:0.000000
70
0
0
ATTDEF
8
0
10
0.000000
20
7.500000
30
0.0
40
3.5
1

3

2
VC_START
70
0
0
ATTDEF
8
0
10
24.375536
20
-0.000000
30
0.0
40
3.5
1

3

2
VC_END
70
0
0
ATTDEF
8
0
10
0.000000
20
0.000000
30
0.0
40
3.5
1

3

2
FP_LCS_ORIG
70
0
0
ATTDEF
8
0
10
10.000000
20
0.000000
30
0.0
40
3.5
1

3

2
FP_LCS_HOT
70
0
0
ATTDEF
8
0
10
0.000000
20
10.000000
30
0.0
40
3.5
1

3

2
FP_LCS_INTERN
70
0
0
ATTDEF
8
0
10
0.000000
20
0.000000
30
0.0
40
3.5
1

3

2
BL01:6200.000,,1
70
0
0
ATTDEF
8
0
10
0.000000
20
0.000000
30
0.0
40
3.5
1

3

2
DESC:Tapa de resortes ventana guillotina
70
0
0
ATTDEF
8
0
10
0.000000
20
0.000000
30
0.0
40
3.5
1

3

2
DENS:0.119
70
0
0
ATTDEF
8
0
10
0.000000
20
0.000000
30
0.0
40
3.5
1

3

2
TDEV:0
70
0
0
ATTDEF
8
0
10
0.000000
20
0.000000
30
0.0
40
3.5
1

3

2
TDEV2:0
70
0
0
ATTDEF
8
0
10
0.000000
20
0.000000
30
0.0
40
3.5
1

3

2
TDEV3:0
70
0
0
ATTDEF
8
0
10
0.000000
20
0.000000
30
0.0
40
3.5
1

3

2
TDEV4:0
70
0
0
ATTDEF
8
0
10
0.000000
20
0.000000
30
0.0
40
3.5
1

3

2
TDEV5:0
70
0
0
ATTDEF
8
0
10
0.000000
20
0.000000
30
0.0
40
3.5
1

3

2
PANE_WIDTH:0
70
0
0
ATTDEF
8
0
10
0.000000
20
0.000000
30
0.0
40
3.5
1

3

2
MIN_VETRO:0
70
0
0
ATTDEF
8
0
10
0.000000
20
0.000000
30
0.0
40
3.5
1

3

2
MAX_VETRO:0
70
0
0
ATTDEF
8
0
10
0.000000
20
0.000000
30
0.0
40
3.5
1

3

2
JX:0
70
0
0
ATTDEF
8
0
10
0.000000
20
0.000000
30
0.0
40
3.5
1

3

2
WX:0
70
0
0
ATTDEF
8
0
10
0.000000
20
0.000000
30
0.0
40
3.5
1

3

2
JY:0
70
0
0
ATTDEF
8
0
10
0.000000
20
0.000000
30
0.0
40
3.5
1

3

2
WY:0
70
0
0
ENDSEC
0
EOF
