0
SECTION
2
ENTITIES
0
LINE
8
0
10
2364.866412
20
859.131862
30
0.0
11
2364.866412
21
845.931862
31
0.0
0
ARC
8
0
10
2364.366412
20
859.131862
30
0.0
40
0.500000
50
0.000000
51
90.000000
0
ARC
8
0
10
2364.366412
20
845.931862
30
0.0
40
0.500000
50
270.000000
51
0.000000
0
LINE
8
0
10
2363.955087
20
859.631862
30
0.0
11
2364.366412
21
859.631862
31
0.0
0
LINE
8
0
10
2364.366412
20
845.431862
30
0.0
11
2361.866412
21
845.431862
31
0.0
0
ARC
8
0
10
2363.955087
20
859.131862
30
0.0
40
0.500000
50
90.000000
51
150.000000
0
ARC
8
0
10
2361.366412
20
845.431862
30
0.0
40
0.500000
50
180.000000
51
0.000000
0
LINE
8
0
10
2362.933399
20
858.362246
30
0.0
11
2363.522074
21
859.381862
31
0.0
0
LINE
8
0
10
2360.866412
20
845.431862
30
0.0
11
2358.366412
21
845.431862
31
0.0
0
ARC
8
0
10
2363.366412
20
858.112246
30
0.0
40
0.500000
50
150.000000
51
240.000000
0
ARC
8
0
10
2358.366412
20
844.931862
30
0.0
40
0.500000
50
90.000000
51
180.000000
0
LINE
8
0
10
2363.666412
20
857.361691
30
0.0
11
2363.116412
21
857.679234
31
0.0
0
LINE
8
0
10
2357.866412
20
844.931862
30
0.0
11
2357.866412
21
834.831862
31
0.0
0
LINE
8
0
10
2363.666412
20
854.681862
30
0.0
11
2363.666412
21
857.361691
31
0.0
0
ARC
8
0
10
2357.366412
20
834.831862
30
0.0
40
0.500000
50
270.000000
51
0.000000
0
ARC
8
0
10
2361.916412
20
854.681862
30
0.0
40
1.750000
50
180.000000
51
0.000000
0
LINE
8
0
10
2357.366412
20
834.331862
30
0.0
11
2355.466412
21
834.331862
31
0.0
0
LINE
8
0
10
2360.166412
20
858.154863
30
0.0
11
2360.166412
21
854.681862
31
0.0
0
LINE
8
0
10
2355.466412
20
834.331862
30
0.0
11
2354.466412
21
835.331862
31
0.0
0
ARC
8
0
10
2360.666412
20
858.154863
30
0.0
40
0.500000
50
107.883295
51
180.000000
0
LINE
8
0
10
2354.466412
20
835.331862
30
0.0
11
2354.466412
21
835.831862
31
0.0
0
ARC
8
0
10
2360.355331
20
859.118949
30
0.0
40
0.513032
50
287.883295
51
88.762373
0
ARC
8
0
10
2354.966412
20
835.831862
30
0.0
40
0.500000
50
90.000000
51
180.000000
0
LINE
8
0
10
2354.466412
20
859.631862
30
0.0
11
2360.366412
21
859.631862
31
0.0
0
LINE
8
0
10
2354.966412
20
836.331862
30
0.0
11
2355.966412
21
836.331862
31
0.0
0
ARC
8
0
10
2354.466412
20
859.031862
30
0.0
40
0.600000
50
90.000000
51
270.000000
0
ARC
8
0
10
2355.966412
20
836.831862
30
0.0
40
0.500000
50
270.000000
51
0.000000
0
LINE
8
0
10
2357.966412
20
858.431862
30
0.0
11
2354.466412
21
858.431862
31
0.0
0
LINE
8
0
10
2356.466412
20
836.831862
30
0.0
11
2356.466412
21
838.831862
31
0.0
0
ARC
8
0
10
2357.966412
20
857.431862
30
0.0
40
1.000000
50
0.000000
51
90.000000
0
ARC
8
0
10
2355.966412
20
838.831862
30
0.0
40
0.500000
50
0.000000
51
90.000000
0
LINE
8
0
10
2358.966412
20
853.431862
30
0.0
11
2358.966412
21
857.431862
31
0.0
0
LINE
8
0
10
2355.966412
20
839.331862
30
0.0
11
2338.966412
21
839.331862
31
0.0
0
ARC
8
0
10
2358.466412
20
853.431862
30
0.0
40
0.500000
50
270.000000
51
0.000000
0
ARC
8
0
10
2338.966412
20
838.831862
30
0.0
40
0.500000
50
90.000000
51
180.000000
0
LINE
8
0
10
2347.366412
20
852.931862
30
0.0
11
2358.466412
21
852.931862
31
0.0
0
LINE
8
0
10
2338.466412
20
838.831862
30
0.0
11
2338.466412
21
836.831862
31
0.0
0
ARC
8
0
10
2346.866412
20
852.931862
30
0.0
40
0.500000
50
0.000000
51
180.000000
0
ARC
8
0
10
2338.966412
20
836.831862
30
0.0
40
0.500000
50
180.000000
51
270.000000
0
LINE
8
0
10
2345.366412
20
852.931862
30
0.0
11
2346.366412
21
852.931862
31
0.0
0
LINE
8
0
10
2338.966412
20
836.331862
30
0.0
11
2339.966412
21
836.331862
31
0.0
0
ARC
8
0
10
2344.866412
20
852.931862
30
0.0
40
0.500000
50
0.000000
51
180.000000
0
ARC
8
0
10
2339.966412
20
835.831862
30
0.0
40
0.500000
50
0.000000
51
90.000000
0
LINE
8
0
10
2332.366412
20
852.931862
30
0.0
11
2344.366412
21
852.931862
31
0.0
0
LINE
8
0
10
2340.466412
20
835.831862
30
0.0
11
2340.466412
21
835.331862
31
0.0
0
ARC
8
0
10
2331.866412
20
852.931862
30
0.0
40
0.500000
50
0.000000
51
180.000000
0
LINE
8
0
10
2340.466412
20
835.331862
30
0.0
11
2339.466412
21
834.331862
31
0.0
0
LINE
8
0
10
2330.366412
20
852.931862
30
0.0
11
2331.366412
21
852.931862
31
0.0
0
LINE
8
0
10
2339.466412
20
834.331862
30
0.0
11
2337.566412
21
834.331862
31
0.0
0
ARC
8
0
10
2329.866412
20
852.931862
30
0.0
40
0.500000
50
0.000000
51
180.000000
0
ARC
8
0
10
2337.566412
20
834.831862
30
0.0
40
0.500000
50
180.000000
51
270.000000
0
LINE
8
0
10
2319.266412
20
852.931862
30
0.0
11
2329.366412
21
852.931862
31
0.0
0
LINE
8
0
10
2337.066412
20
834.831862
30
0.0
11
2337.066412
21
838.331862
31
0.0
0
ARC
8
0
10
2319.266412
20
853.431862
30
0.0
40
0.500000
50
180.000000
51
270.000000
0
ARC
8
0
10
2336.066412
20
838.331862
30
0.0
40
1.000000
50
0.000000
51
90.000000
0
LINE
8
0
10
2318.766412
20
857.431862
30
0.0
11
2318.766412
21
853.431862
31
0.0
0
LINE
8
0
10
2336.066412
20
839.331862
30
0.0
11
2315.266412
21
839.331862
31
0.0
0
ARC
8
0
10
2319.766412
20
857.431862
30
0.0
40
1.000000
50
90.000000
51
180.000000
0
ARC
8
0
10
2315.266412
20
838.331862
30
0.0
40
1.000000
50
90.000000
51
180.000000
0
LINE
8
0
10
2323.266412
20
858.431862
30
0.0
11
2319.766412
21
858.431862
31
0.0
0
LINE
8
0
10
2314.266412
20
838.331862
30
0.0
11
2314.266412
21
827.231862
31
0.0
0
ARC
8
0
10
2323.266412
20
859.031862
30
0.0
40
0.600000
50
270.000000
51
90.000000
0
ARC
8
0
10
2315.266412
20
827.231862
30
0.0
40
1.000000
50
180.000000
51
270.000000
0
LINE
8
0
10
2317.366412
20
859.631862
30
0.0
11
2323.266412
21
859.631862
31
0.0
0
LINE
8
0
10
2315.266412
20
826.231862
30
0.0
11
2317.366412
21
826.231862
31
0.0
0
ARC
8
0
10
2317.377493
20
859.118949
30
0.0
40
0.513032
50
91.237627
51
252.116705
0
ARC
8
0
10
2317.366412
20
825.731862
30
0.0
40
0.500000
50
0.000000
51
90.000000
0
ARC
8
0
10
2317.066412
20
858.154863
30
0.0
40
0.500000
50
0.000000
51
72.116705
0
LINE
8
0
10
2317.866412
20
825.731862
30
0.0
11
2317.866412
21
824.494297
31
0.0
0
LINE
8
0
10
2317.566412
20
854.681862
30
0.0
11
2317.566412
21
858.154863
31
0.0
0
LINE
8
0
10
2317.866412
20
824.494297
30
0.0
11
2317.599425
21
824.031862
31
0.0
0
ARC
8
0
10
2315.816412
20
854.681862
30
0.0
40
1.750000
50
180.000000
51
0.000000
0
ARC
8
0
10
2317.166412
20
824.281862
30
0.0
40
0.500000
50
180.000000
51
330.000000
0
LINE
8
0
10
2314.066412
20
857.361691
30
0.0
11
2314.066412
21
854.681862
31
0.0
0
LINE
8
0
10
2316.666412
20
824.281862
30
0.0
11
2316.666412
21
824.531862
31
0.0
0
LINE
8
0
10
2314.616412
20
857.679234
30
0.0
11
2314.066412
21
857.361691
31
0.0
0
ARC
8
0
10
2316.166412
20
824.531862
30
0.0
40
0.500000
50
0.000000
51
90.000000
0
ARC
8
0
10
2314.366412
20
858.112246
30
0.0
40
0.500000
50
300.000000
51
30.000000
0
LINE
8
0
10
2316.166412
20
825.031862
30
0.0
11
2314.566412
21
825.031862
31
0.0
0
LINE
8
0
10
2314.210750
20
859.381862
30
0.0
11
2314.799425
21
858.362246
31
0.0
0
ARC
8
0
10
2314.566412
20
824.531862
30
0.0
40
0.500000
50
90.000000
51
180.000000
0
ARC
8
0
10
2313.777737
20
859.131862
30
0.0
40
0.500000
50
30.000000
51
90.000000
0
LINE
8
0
10
2314.066412
20
824.531862
30
0.0
11
2314.066412
21
819.031862
31
0.0
0
LINE
8
0
10
2313.366412
20
859.631862
30
0.0
11
2313.777737
21
859.631862
31
0.0
0
ARC
8
0
10
2314.566412
20
819.031862
30
0.0
40
0.500000
50
180.000000
51
270.000000
0
ARC
8
0
10
2313.366412
20
859.131862
30
0.0
40
0.500000
50
90.000000
51
180.000000
0
LINE
8
0
10
2314.566412
20
818.531862
30
0.0
11
2316.166412
21
818.531862
31
0.0
0
LINE
8
0
10
2312.866412
20
817.831862
30
0.0
11
2312.866412
21
859.131862
31
0.0
0
ARC
8
0
10
2316.166412
20
819.031862
30
0.0
40
0.500000
50
270.000000
51
0.000000
0
ARC
8
0
10
2313.366412
20
817.831862
30
0.0
40
0.500000
50
180.000000
51
270.000000
0
LINE
8
0
10
2316.666412
20
819.031862
30
0.0
11
2316.666412
21
819.281862
31
0.0
0
LINE
8
0
10
2317.366412
20
817.331862
30
0.0
11
2313.366412
21
817.331862
31
0.0
0
ARC
8
0
10
2317.166412
20
819.281862
30
0.0
40
0.500000
50
30.000000
51
180.000000
0
ARC
8
0
10
2317.366412
20
817.831862
30
0.0
40
0.500000
50
270.000000
51
0.000000
0
LINE
8
0
10
2317.599425
20
819.531862
30
0.0
11
2317.866412
21
819.069426
31
0.0
0
LINE
8
0
10
2317.866412
20
819.069426
30
0.0
11
2317.866412
21
817.831862
31
0.0
0
ARC
8
0
10
2318.166412
20
850.631862
30
0.0
40
1.000000
50
0.000000
51
90.000000
0
ARC
8
0
10
2319.666412
20
850.631862
30
0.0
40
0.500000
50
180.000000
51
270.000000
0
LINE
8
0
10
2315.266412
20
851.631862
30
0.0
11
2318.166412
21
851.631862
31
0.0
0
LINE
8
0
10
2319.659042
20
850.131916
30
0.0
11
2319.868793
21
850.131867
31
0.0
0
ARC
8
0
10
2315.266412
20
850.631862
30
0.0
40
1.000000
50
90.000000
51
180.000000
0
ARC
8
0
10
2319.866412
20
850.631862
30
0.0
40
0.500000
50
270.000000
51
0.000000
0
LINE
8
0
10
2314.266412
20
841.631862
30
0.0
11
2314.266412
21
850.631862
31
0.0
0
LINE
8
0
10
2320.366412
20
850.631862
30
0.0
11
2320.366412
21
851.131862
31
0.0
0
ARC
8
0
10
2315.266412
20
841.631862
30
0.0
40
1.000000
50
180.000000
51
270.000000
0
ARC
8
0
10
2320.866412
20
851.131862
30
0.0
40
0.500000
50
90.000000
51
180.000000
0
LINE
8
0
10
2318.166412
20
840.631862
30
0.0
11
2315.266412
21
840.631862
31
0.0
0
LINE
8
0
10
2320.866412
20
851.631862
30
0.0
11
2362.466412
21
851.631862
31
0.0
0
ARC
8
0
10
2318.166412
20
841.631862
30
0.0
40
1.000000
50
270.000000
51
0.000000
0
ARC
8
0
10
2362.466412
20
850.631862
30
0.0
40
1.000000
50
0.000000
51
90.000000
0
ARC
8
0
10
2319.666412
20
841.631862
30
0.0
40
0.500000
50
91.331732
51
180.000000
0
LINE
8
0
10
2363.466412
20
850.631862
30
0.0
11
2363.466412
21
847.831862
31
0.0
0
LINE
8
0
10
2319.878033
20
842.131727
30
0.0
11
2319.654792
21
842.131727
31
0.0
0
ARC
8
0
10
2362.466412
20
847.831862
30
0.0
40
1.000000
50
270.000000
51
0.000000
0
ARC
8
0
10
2319.866412
20
841.631862
30
0.0
40
0.500000
50
0.000000
51
88.668268
0
LINE
8
0
10
2362.466412
20
846.831862
30
0.0
11
2357.466412
21
846.831862
31
0.0
0
LINE
8
0
10
2320.366412
20
841.131862
30
0.0
11
2320.366412
21
841.631862
31
0.0
0
ARC
8
0
10
2357.466412
20
845.831862
30
0.0
40
1.000000
50
90.000000
51
180.000000
0
ARC
8
0
10
2320.866412
20
841.131862
30
0.0
40
0.500000
50
180.000000
51
270.000000
0
LINE
8
0
10
2356.466412
20
845.831862
30
0.0
11
2356.466412
21
841.131862
31
0.0
0
LINE
8
0
10
2355.966412
20
840.631862
30
0.0
11
2320.866412
21
840.631862
31
0.0
0
ARC
8
0
10
2355.966412
20
841.131862
30
0.0
40
0.500000
50
270.000000
51
0.000000
0
ATTDEF
8
0
10
2356.416412
20
834.331862
30
0.0
40
3.5
1

3

2
VC_START
70
0
0
ATTDEF
8
0
10
2357.416412
20
859.631862
30
0.0
40
3.5
1

3

2
VC_END
70
0
0
ATTDEF
8
0
10
2312.866412
20
859.631862
30
0.0
40
3.5
1

3

2
FRONT_VIEW
70
0
0
ATTDEF
8
0
10
2312.866412
20
859.631862
30
0.0
40
3.5
1

3

2
OPTI:500.000000,1,0,3000.000000,6900.000000,500.000000,0,0.000000,0
70
0
0
ATTDEF
8
0
10
2312.866412
20
859.631862
30
0.0
40
3.5
1

3

2
GLASS_MIN:0.000000
70
0
0
ATTDEF
8
0
10
2312.866412
20
859.631862
30
0.0
40
3.5
1

3

2
GLASS_MAX:0.000000
70
0
0
ATTDEF
8
0
10
2312.866412
20
859.631862
30
0.0
40
3.5
1

3

2
JX:0.000000
70
0
0
ATTDEF
8
0
10
2312.866412
20
859.631862
30
0.0
40
3.5
1

3

2
WX:0.000000
70
0
0
ATTDEF
8
0
10
2312.866412
20
859.631862
30
0.0
40
3.5
1

3

2
JY:0.000000
70
0
0
ATTDEF
8
0
10
2312.866412
20
859.631862
30
0.0
40
3.5
1

3

2
WY:0.000000
70
0
0
ATTDEF
8
0
10
0.000000
20
0.000000
30
0.0
40
3.5
1

3

2
BL01:6200.000,,1
70
0
0
ATTDEF
8
0
10
2312.866412
20
859.631862
30
0.0
40
3.5
1

3

2
FP_LCS_ORIG
70
0
0
ATTDEF
8
0
10
2322.866412
20
859.631862
30
0.0
40
3.5
1

3

2
FP_LCS_HOT
70
0
0
ATTDEF
8
0
10
2312.866412
20
849.631862
30
0.0
40
3.5
1

3

2
FP_LCS_INTERN
70
0
0
ATTDEF
8
0
10
0.000000
20
0.000000
30
0.0
40
3.5
1

3

2
CTYPE1:49A3ABF04A72DC893744C0B34FE92765|4.99,-6.45,2,90.000000|0.00,0.00|3
70
0
0
ATTDEF
8
0
10
0.000000
20
0.000000
30
0.0
40
3.5
1

3

2
CTYPE1:2E1035044278C4F2471C181A2BF5A44|23.20,20.30,0,90.000000|0.00,0.00|2
70
0
0
ATTDEF
8
0
10
0.000000
20
0.000000
30
0.0
40
3.5
1

3

2
DESC:Marco coplanar vent. abrir DC. vent. banderola. pta. de rebatir y vent. ven
70
0
0
ATTDEF
8
0
10
0.000000
20
0.000000
30
0.0
40
3.5
1

3

2
DENS:0.772
70
0
0
ATTDEF
8
0
10
0.000000
20
0.000000
30
0.0
40
3.5
1

3

2
TDEV:0
70
0
0
ATTDEF
8
0
10
0.000000
20
0.000000
30
0.0
40
3.5
1

3

2
TDEV2:0
70
0
0
ATTDEF
8
0
10
0.000000
20
0.000000
30
0.0
40
3.5
1

3

2
TDEV3:0
70
0
0
ATTDEF
8
0
10
0.000000
20
0.000000
30
0.0
40
3.5
1

3

2
TDEV4:0
70
0
0
ATTDEF
8
0
10
0.000000
20
0.000000
30
0.0
40
3.5
1

3

2
TDEV5:0
70
0
0
ATTDEF
8
0
10
0.000000
20
0.000000
30
0.0
40
3.5
1

3

2
PANE_WIDTH:40
70
0
0
ATTDEF
8
0
10
0.000000
20
0.000000
30
0.0
40
3.5
1

3

2
MIN_VETRO:0
70
0
0
ATTDEF
8
0
10
0.000000
20
0.000000
30
0.0
40
3.5
1

3

2
MAX_VETRO:0
70
0
0
ATTDEF
8
0
10
0.000000
20
0.000000
30
0.0
40
3.5
1

3

2
JX:0
70
0
0
ATTDEF
8
0
10
0.000000
20
0.000000
30
0.0
40
3.5
1

3

2
WX:0
70
0
0
ATTDEF
8
0
10
0.000000
20
0.000000
30
0.0
40
3.5
1

3

2
JY:0
70
0
0
ATTDEF
8
0
10
0.000000
20
0.000000
30
0.0
40
3.5
1

3

2
WY:0
70
0
0
ENDSEC
0
EOF
