0
SECTION
2
ENTITIES
0
ARC
8
0
10
1191.849770
20
1193.182994
30
0.0
40
1.000000
50
90.000000
51
180.000000
0
LINE
8
0
10
1197.049770
20
1194.182994
30
0.0
11
1191.849770
21
1194.182994
31
0.0
0
LINE
8
0
10
1190.849770
20
1193.182994
30
0.0
11
1190.849770
21
1181.682994
31
0.0
0
ARC
8
0
10
1197.549770
20
1194.182994
30
0.0
40
0.500000
50
180.000000
51
0.000000
0
ARC
8
0
10
1191.349770
20
1181.682994
30
0.0
40
0.500000
50
180.000000
51
270.000000
0
LINE
8
0
10
1208.449770
20
1194.182994
30
0.0
11
1198.049770
21
1194.182994
31
0.0
0
LINE
8
0
10
1191.349770
20
1181.182994
30
0.0
11
1192.449770
21
1181.182994
31
0.0
0
ARC
8
0
10
1208.449770
20
1194.682994
30
0.0
40
0.500000
50
270.000000
51
23.578178
0
ARC
8
0
10
1192.449770
20
1180.682994
30
0.0
40
0.500000
50
0.000000
51
90.000000
0
ARC
8
0
10
1208.449770
20
1195.082994
30
0.0
40
0.500000
50
336.421822
51
90.000000
0
LINE
8
0
10
1192.949770
20
1180.682994
30
0.0
11
1192.949770
21
1179.182994
31
0.0
0
LINE
8
0
10
1206.949770
20
1195.582994
30
0.0
11
1208.449770
21
1195.582994
31
0.0
0
ARC
8
0
10
1192.449770
20
1179.182994
30
0.0
40
0.500000
50
180.000000
51
0.000000
0
ARC
8
0
10
1206.949770
20
1196.082994
30
0.0
40
0.500000
50
180.000000
51
270.000000
0
LINE
8
0
10
1191.949770
20
1179.182994
30
0.0
11
1191.949770
21
1179.432994
31
0.0
0
LINE
8
0
10
1206.449770
20
1198.082994
30
0.0
11
1206.449770
21
1196.082994
31
0.0
0
ARC
8
0
10
1191.449770
20
1179.432994
30
0.0
40
0.500000
50
0.000000
51
90.000000
0
ARC
8
0
10
1206.949770
20
1198.082994
30
0.0
40
0.500000
50
90.000000
51
180.000000
0
LINE
8
0
10
1191.449770
20
1179.932994
30
0.0
11
1191.149770
21
1179.932994
31
0.0
0
LINE
8
0
10
1208.449770
20
1198.582994
30
0.0
11
1206.949770
21
1198.582994
31
0.0
0
ARC
8
0
10
1191.149770
20
1179.432994
30
0.0
40
0.500000
50
90.000000
51
180.000000
0
ARC
8
0
10
1208.449770
20
1199.082994
30
0.0
40
0.500000
50
270.000000
51
0.000000
0
LINE
8
0
10
1190.649770
20
1179.432994
30
0.0
11
1190.649770
21
1174.932994
31
0.0
0
LINE
8
0
10
1208.949770
20
1199.482994
30
0.0
11
1208.949770
21
1199.082994
31
0.0
0
ARC
8
0
10
1191.149770
20
1174.932994
30
0.0
40
0.500000
50
180.000000
51
270.000000
0
ARC
8
0
10
1209.449770
20
1199.482994
30
0.0
40
0.500000
50
90.000000
51
180.000000
0
LINE
8
0
10
1191.149770
20
1174.432994
30
0.0
11
1191.449770
21
1174.432994
31
0.0
0
LINE
8
0
10
1223.449770
20
1199.982994
30
0.0
11
1209.449770
21
1199.982994
31
0.0
0
ARC
8
0
10
1191.449770
20
1174.932994
30
0.0
40
0.500000
50
270.000000
51
0.000000
0
ARC
8
0
10
1223.449770
20
1199.482994
30
0.0
40
0.500000
50
0.000000
51
90.000000
0
LINE
8
0
10
1191.949770
20
1174.932994
30
0.0
11
1191.949770
21
1175.182994
31
0.0
0
LINE
8
0
10
1223.949770
20
1199.082994
30
0.0
11
1223.949770
21
1199.482994
31
0.0
0
ARC
8
0
10
1192.449770
20
1175.182994
30
0.0
40
0.500000
50
0.000000
51
180.000000
0
ARC
8
0
10
1224.449770
20
1199.082994
30
0.0
40
0.500000
50
180.000000
51
270.000000
0
LINE
8
0
10
1192.949770
20
1175.182994
30
0.0
11
1192.949770
21
1173.682994
31
0.0
0
LINE
8
0
10
1225.949770
20
1198.582994
30
0.0
11
1224.449770
21
1198.582994
31
0.0
0
ARC
8
0
10
1192.449770
20
1173.682994
30
0.0
40
0.500000
50
270.000000
51
0.000000
0
ARC
8
0
10
1225.949770
20
1198.082994
30
0.0
40
0.500000
50
0.000000
51
90.000000
0
LINE
8
0
10
1192.449770
20
1173.182994
30
0.0
11
1190.949770
21
1173.182994
31
0.0
0
LINE
8
0
10
1226.449770
20
1196.082994
30
0.0
11
1226.449770
21
1198.082994
31
0.0
0
ARC
8
0
10
1190.949770
20
1174.682994
30
0.0
40
1.500000
50
180.000000
51
270.000000
0
ARC
8
0
10
1225.949770
20
1196.082994
30
0.0
40
0.500000
50
270.000000
51
0.000000
0
LINE
8
0
10
1189.449770
20
1174.682994
30
0.0
11
1189.449770
21
1241.782994
31
0.0
0
LINE
8
0
10
1224.449770
20
1195.582994
30
0.0
11
1225.949770
21
1195.582994
31
0.0
0
ARC
8
0
10
1201.449770
20
1241.782994
30
0.0
40
12.000000
50
128.213211
51
180.000000
0
ARC
8
0
10
1224.449770
20
1195.082994
30
0.0
40
0.500000
50
90.000000
51
203.578178
0
ARC
8
0
10
1197.119643
20
1247.282994
30
0.0
40
5.000000
50
90.000000
51
128.213211
0
ARC
8
0
10
1224.449770
20
1194.682994
30
0.0
40
0.500000
50
156.421822
51
270.000000
0
LINE
8
0
10
1197.119643
20
1252.282994
30
0.0
11
1200.949770
21
1252.282994
31
0.0
0
LINE
8
0
10
1231.549770
20
1194.182994
30
0.0
11
1224.449770
21
1194.182994
31
0.0
0
ARC
8
0
10
1200.949770
20
1251.782994
30
0.0
40
0.500000
50
0.000000
51
90.000000
0
ARC
8
0
10
1231.549770
20
1193.682994
30
0.0
40
0.500000
50
0.000000
51
90.000000
0
LINE
8
0
10
1201.449770
20
1251.782994
30
0.0
11
1201.449770
21
1250.545429
31
0.0
0
LINE
8
0
10
1232.049770
20
1192.682994
30
0.0
11
1232.049770
21
1193.682994
31
0.0
0
LINE
8
0
10
1201.449770
20
1250.545429
30
0.0
11
1201.182783
21
1250.082994
31
0.0
0
ARC
8
0
10
1232.549770
20
1192.682994
30
0.0
40
0.500000
50
180.000000
51
293.578178
0
ARC
8
0
10
1200.749770
20
1250.332994
30
0.0
40
0.500000
50
180.000000
51
330.000000
0
ARC
8
0
10
1232.949770
20
1192.682994
30
0.0
40
0.500000
50
246.421822
51
0.000000
0
LINE
8
0
10
1200.249770
20
1250.332994
30
0.0
11
1200.249770
21
1250.582994
31
0.0
0
LINE
8
0
10
1233.449770
20
1202.682994
30
0.0
11
1233.449770
21
1192.682994
31
0.0
0
ARC
8
0
10
1199.749770
20
1250.582994
30
0.0
40
0.500000
50
0.000000
51
90.000000
0
ARC
8
0
10
1233.949770
20
1202.682994
30
0.0
40
0.500000
50
90.000000
51
180.000000
0
LINE
8
0
10
1199.749770
20
1251.082994
30
0.0
11
1198.149770
21
1251.082994
31
0.0
0
LINE
8
0
10
1240.949770
20
1203.182994
30
0.0
11
1233.949770
21
1203.182994
31
0.0
0
ARC
8
0
10
1198.149770
20
1250.582994
30
0.0
40
0.500000
50
90.000000
51
180.000000
0
ARC
8
0
10
1240.949770
20
1203.682994
30
0.0
40
0.500000
50
270.000000
51
0.000000
0
LINE
8
0
10
1197.649770
20
1250.582994
30
0.0
11
1197.649770
21
1245.082994
31
0.0
0
LINE
8
0
10
1241.449770
20
1234.782994
30
0.0
11
1241.449770
21
1203.682994
31
0.0
0
ARC
8
0
10
1198.149770
20
1245.082994
30
0.0
40
0.500000
50
180.000000
51
270.000000
0
ARC
8
0
10
1240.949770
20
1234.782994
30
0.0
40
0.500000
50
0.000000
51
90.000000
0
LINE
8
0
10
1198.149770
20
1244.582994
30
0.0
11
1199.749770
21
1244.582994
31
0.0
0
LINE
8
0
10
1239.049770
20
1235.282994
30
0.0
11
1240.949770
21
1235.282994
31
0.0
0
ARC
8
0
10
1199.749770
20
1245.082994
30
0.0
40
0.500000
50
270.000000
51
0.000000
0
LINE
8
0
10
1238.049770
20
1234.282994
30
0.0
11
1239.049770
21
1235.282994
31
0.0
0
LINE
8
0
10
1200.249770
20
1245.082994
30
0.0
11
1200.249770
21
1245.332994
31
0.0
0
LINE
8
0
10
1238.049770
20
1233.782994
30
0.0
11
1238.049770
21
1234.282994
31
0.0
0
ARC
8
0
10
1200.749770
20
1245.332994
30
0.0
40
0.500000
50
30.000000
51
180.000000
0
ARC
8
0
10
1238.549770
20
1233.782994
30
0.0
40
0.500000
50
180.000000
51
270.000000
0
LINE
8
0
10
1201.182783
20
1245.582994
30
0.0
11
1201.449770
21
1245.120558
31
0.0
0
LINE
8
0
10
1239.549770
20
1233.282994
30
0.0
11
1238.549770
21
1233.282994
31
0.0
0
LINE
8
0
10
1201.449770
20
1245.120558
30
0.0
11
1201.449770
21
1243.882994
31
0.0
0
ARC
8
0
10
1239.549770
20
1232.782994
30
0.0
40
0.500000
50
0.000000
51
90.000000
0
ARC
8
0
10
1200.949770
20
1243.882994
30
0.0
40
0.500000
50
270.000000
51
0.000000
0
LINE
8
0
10
1240.049770
20
1230.782994
30
0.0
11
1240.049770
21
1232.782994
31
0.0
0
LINE
8
0
10
1200.949770
20
1243.382994
30
0.0
11
1197.449770
21
1243.382994
31
0.0
0
ARC
8
0
10
1239.549770
20
1230.782994
30
0.0
40
0.500000
50
270.000000
51
0.000000
0
ARC
8
0
10
1197.449770
20
1244.382994
30
0.0
40
1.000000
50
180.000000
51
270.000000
0
LINE
8
0
10
1222.549770
20
1230.282994
30
0.0
11
1239.549770
21
1230.282994
31
0.0
0
LINE
8
0
10
1196.449770
20
1244.382994
30
0.0
11
1196.449770
21
1249.276992
31
0.0
0
ARC
8
0
10
1222.549770
20
1230.782994
30
0.0
40
0.500000
50
180.000000
51
270.000000
0
ARC
8
0
10
1195.449770
20
1249.276992
30
0.0
40
1.000000
50
0.000000
51
128.682187
0
LINE
8
0
10
1222.049770
20
1232.782994
30
0.0
11
1222.049770
21
1230.782994
31
0.0
0
ARC
8
0
10
1201.449770
20
1241.782994
30
0.0
40
10.600000
50
128.682187
51
180.000000
0
ARC
8
0
10
1222.549770
20
1232.782994
30
0.0
40
0.500000
50
90.000000
51
180.000000
0
LINE
8
0
10
1190.849770
20
1241.782994
30
0.0
11
1190.849770
21
1231.782994
31
0.0
0
LINE
8
0
10
1223.549770
20
1233.282994
30
0.0
11
1222.549770
21
1233.282994
31
0.0
0
ARC
8
0
10
1192.349770
20
1231.782994
30
0.0
40
1.500000
50
180.000000
51
270.000000
0
ARC
8
0
10
1223.549770
20
1233.782994
30
0.0
40
0.500000
50
270.000000
51
0.000000
0
LINE
8
0
10
1192.349770
20
1230.282994
30
0.0
11
1220.149770
21
1230.282994
31
0.0
0
LINE
8
0
10
1224.049770
20
1234.282994
30
0.0
11
1224.049770
21
1233.782994
31
0.0
0
ARC
8
0
10
1220.149770
20
1230.782994
30
0.0
40
0.500000
50
270.000000
51
0.000000
0
LINE
8
0
10
1223.049770
20
1235.282994
30
0.0
11
1224.049770
21
1234.282994
31
0.0
0
LINE
8
0
10
1220.649770
20
1230.782994
30
0.0
11
1220.649770
21
1234.782994
31
0.0
0
LINE
8
0
10
1221.149770
20
1235.282994
30
0.0
11
1223.049770
21
1235.282994
31
0.0
0
ARC
8
0
10
1221.149770
20
1234.782994
30
0.0
40
0.500000
50
90.000000
51
180.000000
0
LINE
8
0
10
1228.849770
20
1195.582994
30
0.0
11
1231.049770
21
1195.582994
31
0.0
0
ARC
8
0
10
1228.849770
20
1196.582994
30
0.0
40
1.000000
50
180.000000
51
270.000000
0
ARC
8
0
10
1231.049770
20
1196.582994
30
0.0
40
1.000000
50
270.000000
51
0.000000
0
LINE
8
0
10
1227.849770
20
1198.982994
30
0.0
11
1227.849770
21
1196.582994
31
0.0
0
LINE
8
0
10
1232.049770
20
1196.582994
30
0.0
11
1232.049770
21
1203.582994
31
0.0
0
ARC
8
0
10
1226.849770
20
1198.982994
30
0.0
40
1.000000
50
0.000000
51
90.000000
0
ARC
8
0
10
1233.049770
20
1203.582994
30
0.0
40
1.000000
50
90.000000
51
180.000000
0
LINE
8
0
10
1225.849770
20
1199.982994
30
0.0
11
1226.849770
21
1199.982994
31
0.0
0
LINE
8
0
10
1233.049770
20
1204.582994
30
0.0
11
1238.849770
21
1204.582994
31
0.0
0
ARC
8
0
10
1225.849770
20
1200.482994
30
0.0
40
0.500000
50
183.822554
51
270.000000
0
ARC
8
0
10
1238.849770
20
1205.582994
30
0.0
40
1.000000
50
270.000000
51
0.000000
0
ARC
8
0
10
1224.353107
20
1200.382994
30
0.0
40
1.000000
50
3.822554
51
90.000000
0
LINE
8
0
10
1239.849770
20
1205.582994
30
0.0
11
1239.849770
21
1227.882994
31
0.0
0
LINE
8
0
10
1208.546433
20
1201.382994
30
0.0
11
1224.353107
21
1201.382994
31
0.0
0
ARC
8
0
10
1238.849770
20
1227.882994
30
0.0
40
1.000000
50
0.000000
51
90.000000
0
ARC
8
0
10
1208.546433
20
1200.382994
30
0.0
40
1.000000
50
90.000000
51
176.177446
0
LINE
8
0
10
1238.849770
20
1228.882994
30
0.0
11
1234.249770
21
1228.882994
31
0.0
0
ARC
8
0
10
1207.049770
20
1200.482994
30
0.0
40
0.500000
50
270.000000
51
356.177446
0
ARC
8
0
10
1234.249770
20
1227.882994
30
0.0
40
1.000000
50
90.000000
51
180.000000
0
LINE
8
0
10
1206.049770
20
1199.982994
30
0.0
11
1207.049770
21
1199.982994
31
0.0
0
ARC
8
0
10
1232.749770
20
1227.882994
30
0.0
40
0.500000
50
270.000000
51
0.000000
0
ARC
8
0
10
1206.049770
20
1198.982994
30
0.0
40
1.000000
50
90.000000
51
180.000000
0
LINE
8
0
10
1232.758581
20
1227.383072
30
0.0
11
1232.540959
21
1227.383072
31
0.0
0
LINE
8
0
10
1205.049770
20
1196.582994
30
0.0
11
1205.049770
21
1198.982994
31
0.0
0
ARC
8
0
10
1232.549770
20
1227.882994
30
0.0
40
0.500000
50
180.000000
51
270.000000
0
ARC
8
0
10
1204.049770
20
1196.582994
30
0.0
40
1.000000
50
270.000000
51
0.000000
0
LINE
8
0
10
1232.049770
20
1227.882994
30
0.0
11
1232.049770
21
1228.382994
31
0.0
0
LINE
8
0
10
1192.849770
20
1195.582994
30
0.0
11
1204.049770
21
1195.582994
31
0.0
0
ARC
8
0
10
1231.549770
20
1228.382994
30
0.0
40
0.500000
50
0.000000
51
90.000000
0
ARC
8
0
10
1192.849770
20
1197.582994
30
0.0
40
2.000000
50
180.000000
51
270.000000
0
LINE
8
0
10
1231.549770
20
1228.882994
30
0.0
11
1196.049770
21
1228.882994
31
0.0
0
LINE
8
0
10
1190.849770
20
1197.982994
30
0.0
11
1190.849770
21
1197.582994
31
0.0
0
ARC
8
0
10
1196.049770
20
1228.382994
30
0.0
40
0.500000
50
90.000000
51
180.000000
0
ARC
8
0
10
1192.849770
20
1197.982994
30
0.0
40
2.000000
50
90.000000
51
180.000000
0
LINE
8
0
10
1195.549770
20
1228.382994
30
0.0
11
1195.549770
21
1227.882994
31
0.0
0
LINE
8
0
10
1197.049770
20
1199.982994
30
0.0
11
1192.849770
21
1199.982994
31
0.0
0
ARC
8
0
10
1195.049770
20
1227.882994
30
0.0
40
0.500000
50
270.000000
51
0.000000
0
ARC
8
0
10
1197.049770
20
1200.482994
30
0.0
40
0.500000
50
270.000000
51
23.578178
0
LINE
8
0
10
1195.052206
20
1227.383000
30
0.0
11
1194.847334
21
1227.383000
31
0.0
0
ARC
8
0
10
1197.049770
20
1200.882994
30
0.0
40
0.500000
50
336.421822
51
90.000000
0
ARC
8
0
10
1194.849770
20
1227.882994
30
0.0
40
0.500000
50
180.000000
51
270.000000
0
LINE
8
0
10
1196.049770
20
1201.382994
30
0.0
11
1197.049770
21
1201.382994
31
0.0
0
ARC
8
0
10
1193.349770
20
1227.882994
30
0.0
40
1.000000
50
0.000000
51
90.000000
0
ARC
8
0
10
1196.049770
20
1201.882994
30
0.0
40
0.500000
50
180.000000
51
270.000000
0
LINE
8
0
10
1193.349770
20
1228.882994
30
0.0
11
1191.349770
21
1228.882994
31
0.0
0
LINE
8
0
10
1195.549770
20
1202.382994
30
0.0
11
1195.549770
21
1201.882994
31
0.0
0
ARC
8
0
10
1191.349770
20
1228.382994
30
0.0
40
0.500000
50
90.000000
51
180.000000
0
ARC
8
0
10
1195.049770
20
1202.382994
30
0.0
40
0.500000
50
0.000000
51
90.000000
0
LINE
8
0
10
1190.849770
20
1228.382994
30
0.0
11
1190.849770
21
1202.382994
31
0.0
0
LINE
8
0
10
1194.847334
20
1202.882988
30
0.0
11
1195.052206
21
1202.882988
31
0.0
0
ARC
8
0
10
1191.849770
20
1202.382994
30
0.0
40
1.000000
50
180.000000
51
270.000000
0
ARC
8
0
10
1194.849770
20
1202.382994
30
0.0
40
0.500000
50
90.000000
51
180.000000
0
LINE
8
0
10
1191.849770
20
1201.382994
30
0.0
11
1193.349770
21
1201.382994
31
0.0
0
ARC
8
0
10
1193.349770
20
1202.382994
30
0.0
40
1.000000
50
270.000000
51
0.000000
0
ATTDEF
8
0
10
1239.999770
20
1235.282994
30
0.0
40
3.5
1

3

2
VC_START
70
0
0
ATTDEF
8
0
10
1232.749770
20
1192.224736
30
0.0
40
3.5
1

3

2
VC_END
70
0
0
ATTDEF
8
0
10
1189.449770
20
1173.182994
30
0.0
40
3.5
1

3

2
REAR_VIEW
70
0
0
ATTDEF
8
0
10
1189.449770
20
1173.182994
30
0.0
40
3.5
1

3

2
OPTI:500.000000,1,0,3000.000000,6900.000000,500.000000,0,0.000000,0
70
0
0
ATTDEF
8
0
10
1189.449770
20
1173.182994
30
0.0
40
3.5
1

3

2
GLASS_MIN:0.000000
70
0
0
ATTDEF
8
0
10
1189.449770
20
1173.182994
30
0.0
40
3.5
1

3

2
GLASS_MAX:0.000000
70
0
0
ATTDEF
8
0
10
1189.449770
20
1173.182994
30
0.0
40
3.5
1

3

2
WX:0.000000
70
0
0
ATTDEF
8
0
10
1189.449770
20
1173.182994
30
0.0
40
3.5
1

3

2
JY:0.000000
70
0
0
ATTDEF
8
0
10
1189.449770
20
1173.182994
30
0.0
40
3.5
1

3

2
WY:0.000000
70
0
0
ATTDEF
8
0
10
0.000000
20
0.000000
30
0.0
40
3.5
1

3

2
BL01:6200.000,,1
70
0
0
ATTDEF
8
0
10
1189.449770
20
1173.182994
30
0.0
40
3.5
1

3

2
FP_LCS_ORIG
70
0
0
ATTDEF
8
0
10
1199.449770
20
1173.182994
30
0.0
40
3.5
1

3

2
FP_LCS_HOT
70
0
0
ATTDEF
8
0
10
1189.449770
20
1183.182994
30
0.0
40
3.5
1

3

2
FP_LCS_INTERN
70
0
0
ATTDEF
8
0
10
0.000000
20
0.000000
30
0.0
40
3.5
1

3

2
CTYPE1:D555256A4EEC3525786C889FE7859787|2.39,5.97,1,90.000000|0.00,0.00|4
70
0
0
ATTDEF
8
0
10
0.000000
20
0.000000
30
0.0
40
3.5
1

3

2
CTYPE1:C45BD096483428E723767B351E901E1|12.00,-0.00,2,90.000000|0.00,0.00|3
70
0
0
ATTDEF
8
0
10
0.000000
20
0.000000
30
0.0
40
3.5
1

3

2
CTYPE1:3569E0EF4FF5275932C60E99C8667C63|50.10,38.10,0,0.000000|0.00,0.00|2
70
0
0
ATTDEF
8
0
10
0.000000
20
0.000000
30
0.0
40
3.5
1

3

2
CTYPE1:CF67D46D4C6A254D4740BC908EB2676E|51.90,4.78,0,0.000000|0.00,0.00|3
70
0
0
ATTDEF
8
0
10
0.000000
20
0.000000
30
0.0
40
3.5
1

3

2
CTYPE1:BCC88457422FD42D938468BA9F36451B|17.50,6.40,0,90.000000|0.00,0.00|2
70
0
0
ATTDEF
8
0
10
0.000000
20
0.000000
30
0.0
40
3.5
1

3

2
DESC:Hoja ventana desplazable curva
70
0
0
ATTDEF
8
0
10
0.000000
20
0.000000
30
0.0
40
3.5
1

3

2
DENS:1.083
70
0
0
ATTDEF
8
0
10
0.000000
20
0.000000
30
0.0
40
3.5
1

3

2
TDEV:0
70
0
0
ATTDEF
8
0
10
0.000000
20
0.000000
30
0.0
40
3.5
1

3

2
TDEV2:0
70
0
0
ATTDEF
8
0
10
0.000000
20
0.000000
30
0.0
40
3.5
1

3

2
TDEV3:0
70
0
0
ATTDEF
8
0
10
0.000000
20
0.000000
30
0.0
40
3.5
1

3

2
TDEV4:0
70
0
0
ATTDEF
8
0
10
0.000000
20
0.000000
30
0.0
40
3.5
1

3

2
TDEV5:0
70
0
0
ATTDEF
8
0
10
0.000000
20
0.000000
30
0.0
40
3.5
1

3

2
PANE_WIDTH:40
70
0
0
ATTDEF
8
0
10
0.000000
20
0.000000
30
0.0
40
3.5
1

3

2
MIN_VETRO:0
70
0
0
ATTDEF
8
0
10
0.000000
20
0.000000
30
0.0
40
3.5
1

3

2
MAX_VETRO:0
70
0
0
ATTDEF
8
0
10
0.000000
20
0.000000
30
0.0
40
3.5
1

3

2
JX:0
70
0
0
ATTDEF
8
0
10
0.000000
20
0.000000
30
0.0
40
3.5
1

3

2
WX:0
70
0
0
ATTDEF
8
0
10
0.000000
20
0.000000
30
0.0
40
3.5
1

3

2
JY:0
70
0
0
ATTDEF
8
0
10
0.000000
20
0.000000
30
0.0
40
3.5
1

3

2
WY:0
70
0
0
ENDSEC
0
EOF
