0
SECTION
2
ENTITIES
0
ARC
8
0
10
3193.915309
20
253.864686
30
0.0
40
0.500000
50
90.000000
51
180.000000
0
LINE
8
0
10
3193.415309
20
248.864686
30
0.0
11
3193.415309
21
253.864686
31
0.0
0
LINE
8
0
10
3193.915309
20
254.364686
30
0.0
11
3194.315309
21
254.364686
31
0.0
0
ARC
8
0
10
3192.915309
20
248.864686
30
0.0
40
0.500000
50
270.000000
51
0.000000
0
ARC
8
0
10
3194.315309
20
253.864686
30
0.0
40
0.500000
50
0.000000
51
90.000000
0
LINE
8
0
10
3179.715309
20
248.364686
30
0.0
11
3192.915309
21
248.364686
31
0.0
0
LINE
8
0
10
3194.815309
20
253.864686
30
0.0
11
3194.815309
21
248.114686
31
0.0
0
LINE
8
0
10
3179.715309
20
272.364686
30
0.0
11
3179.715309
21
248.364686
31
0.0
0
ARC
8
0
10
3193.815309
20
248.114686
30
0.0
40
1.000000
50
270.000000
51
0.000000
0
LINE
8
0
10
3192.915309
20
272.364686
30
0.0
11
3179.715309
21
272.364686
31
0.0
0
LINE
8
0
10
3193.815309
20
247.114686
30
0.0
11
3148.715309
21
247.114686
31
0.0
0
ARC
8
0
10
3192.915309
20
271.864686
30
0.0
40
0.500000
50
0.000000
51
90.000000
0
ARC
8
0
10
3148.715309
20
254.314686
30
0.0
40
7.200000
50
218.213211
51
270.000000
0
LINE
8
0
10
3193.415309
20
266.864686
30
0.0
11
3193.415309
21
271.864686
31
0.0
0
ARC
8
0
10
3145.415309
20
251.716610
30
0.0
40
3.000000
50
180.000000
51
218.213211
0
ARC
8
0
10
3193.915309
20
266.864686
30
0.0
40
0.500000
50
180.000000
51
270.000000
0
LINE
8
0
10
3142.415309
20
251.716610
30
0.0
11
3142.415309
21
252.114875
31
0.0
0
LINE
8
0
10
3194.315309
20
266.364686
30
0.0
11
3193.915309
21
266.364686
31
0.0
0
ARC
8
0
10
3142.915309
20
252.114686
30
0.0
40
0.500000
50
90.000000
51
180.000000
0
ARC
8
0
10
3194.315309
20
266.864686
30
0.0
40
0.500000
50
270.000000
51
0.000000
0
LINE
8
0
10
3142.915309
20
252.614686
30
0.0
11
3144.916817
21
252.614686
31
0.0
0
LINE
8
0
10
3194.815309
20
272.614686
30
0.0
11
3194.815309
21
266.864686
31
0.0
0
ARC
8
0
10
3144.915304
20
252.114684
30
0.0
40
0.500004
50
0.000000
51
90.000000
0
ARC
8
0
10
3193.815309
20
272.614686
30
0.0
40
1.000000
50
0.000000
51
90.000000
0
LINE
8
0
10
3145.415308
20
252.114684
30
0.0
11
3145.415308
21
251.914687
31
0.0
0
LINE
8
0
10
3148.715309
20
273.614686
30
0.0
11
3193.815309
21
273.614686
31
0.0
0
ARC
8
0
10
3144.915304
20
251.914687
30
0.0
40
0.500004
50
270.000000
51
0.000000
0
ARC
8
0
10
3148.715309
20
266.414686
30
0.0
40
7.200000
50
90.000000
51
141.786789
0
LINE
8
0
10
3144.916817
20
251.414686
30
0.0
11
3144.665308
21
251.414686
31
0.0
0
ARC
8
0
10
3145.415309
20
269.012762
30
0.0
40
3.000000
50
141.786789
51
180.000000
0
ARC
8
0
10
3144.665308
20
250.914686
30
0.0
40
0.500000
50
90.000000
51
180.000000
0
LINE
8
0
10
3142.415309
20
268.614496
30
0.0
11
3142.415309
21
269.012762
31
0.0
0
LINE
8
0
10
3144.165308
20
250.914686
30
0.0
11
3144.165308
21
250.714686
31
0.0
0
ARC
8
0
10
3142.915309
20
268.614686
30
0.0
40
0.500000
50
180.000000
51
270.000000
0
ARC
8
0
10
3144.665308
20
250.714686
30
0.0
40
0.500000
50
180.000000
51
270.000000
0
LINE
8
0
10
3144.916817
20
268.114686
30
0.0
11
3142.915309
21
268.114686
31
0.0
0
LINE
8
0
10
3144.665308
20
250.214686
30
0.0
11
3146.115308
21
250.214686
31
0.0
0
ARC
8
0
10
3144.915304
20
268.614687
30
0.0
40
0.500004
50
270.000000
51
0.000000
0
ARC
8
0
10
3147.915308
20
250.214686
30
0.0
40
1.800000
50
180.000000
51
0.000000
0
LINE
8
0
10
3145.415308
20
268.814684
30
0.0
11
3145.415308
21
268.614687
31
0.0
0
LINE
8
0
10
3149.715308
20
250.214686
30
0.0
11
3151.165308
21
250.214686
31
0.0
0
ARC
8
0
10
3144.915304
20
268.814684
30
0.0
40
0.500004
50
0.000000
51
90.000000
0
ARC
8
0
10
3151.165308
20
250.714686
30
0.0
40
0.500000
50
270.000000
51
0.000000
0
LINE
8
0
10
3144.665308
20
269.314686
30
0.0
11
3144.916817
21
269.314686
31
0.0
0
LINE
8
0
10
3151.665308
20
250.714686
30
0.0
11
3151.665308
21
250.914686
31
0.0
0
ARC
8
0
10
3144.665308
20
269.814686
30
0.0
40
0.500000
50
180.000000
51
270.000000
0
ARC
8
0
10
3151.165308
20
250.914686
30
0.0
40
0.500000
50
0.000000
51
90.000000
0
LINE
8
0
10
3144.165308
20
270.014686
30
0.0
11
3144.165308
21
269.814686
31
0.0
0
LINE
8
0
10
3151.165308
20
251.414686
30
0.0
11
3150.913799
21
251.414686
31
0.0
0
ARC
8
0
10
3144.665308
20
270.014686
30
0.0
40
0.500000
50
90.000000
51
180.000000
0
ARC
8
0
10
3150.915312
20
251.914687
30
0.0
40
0.500004
50
180.000000
51
270.000000
0
LINE
8
0
10
3146.115308
20
270.514686
30
0.0
11
3144.665308
21
270.514686
31
0.0
0
LINE
8
0
10
3150.415308
20
251.914687
30
0.0
11
3150.415308
21
252.114684
31
0.0
0
ARC
8
0
10
3147.915308
20
270.514686
30
0.0
40
1.800000
50
0.000000
51
180.000000
0
ARC
8
0
10
3150.915312
20
252.114684
30
0.0
40
0.500004
50
90.000000
51
180.000000
0
LINE
8
0
10
3151.165308
20
270.514686
30
0.0
11
3149.715308
21
270.514686
31
0.0
0
LINE
8
0
10
3150.913799
20
252.614686
30
0.0
11
3151.915308
21
252.614686
31
0.0
0
ARC
8
0
10
3151.165308
20
270.014686
30
0.0
40
0.500000
50
0.000000
51
90.000000
0
ARC
8
0
10
3151.915308
20
251.614686
30
0.0
40
1.000000
50
0.000000
51
90.000000
0
LINE
8
0
10
3151.665308
20
269.814686
30
0.0
11
3151.665308
21
270.014686
31
0.0
0
LINE
8
0
10
3152.915308
20
251.614686
30
0.0
11
3152.915308
21
249.364686
31
0.0
0
ARC
8
0
10
3151.165308
20
269.814686
30
0.0
40
0.500000
50
270.000000
51
0.000000
0
ARC
8
0
10
3153.915308
20
249.364686
30
0.0
40
1.000000
50
180.000000
51
270.000000
0
LINE
8
0
10
3150.913799
20
269.314686
30
0.0
11
3151.165308
21
269.314686
31
0.0
0
LINE
8
0
10
3153.915308
20
248.364686
30
0.0
11
3155.915309
21
248.364686
31
0.0
0
ARC
8
0
10
3150.915312
20
268.814684
30
0.0
40
0.500004
50
90.000000
51
180.000000
0
ARC
8
0
10
3155.915309
20
249.364686
30
0.0
40
1.000000
50
270.000000
51
0.000000
0
LINE
8
0
10
3150.415308
20
268.614687
30
0.0
11
3150.415308
21
268.814684
31
0.0
0
LINE
8
0
10
3156.915309
20
249.364686
30
0.0
11
3156.915309
21
259.864686
31
0.0
0
ARC
8
0
10
3150.915312
20
268.614687
30
0.0
40
0.500004
50
180.000000
51
270.000000
0
ARC
8
0
10
3156.915309
20
260.364686
30
0.0
40
0.500000
50
90.000000
51
270.000000
0
LINE
8
0
10
3151.915308
20
268.114686
30
0.0
11
3150.913799
21
268.114686
31
0.0
0
LINE
8
0
10
3156.915309
20
260.864686
30
0.0
11
3156.915309
21
271.364686
31
0.0
0
ARC
8
0
10
3151.915308
20
269.114686
30
0.0
40
1.000000
50
270.000000
51
0.000000
0
ARC
8
0
10
3155.915309
20
271.364686
30
0.0
40
1.000000
50
0.000000
51
90.000000
0
LINE
8
0
10
3152.915308
20
271.364686
30
0.0
11
3152.915308
21
269.114686
31
0.0
0
LINE
8
0
10
3155.915309
20
272.364686
30
0.0
11
3153.915308
21
272.364686
31
0.0
0
ARC
8
0
10
3153.915308
20
271.364686
30
0.0
40
1.000000
50
90.000000
51
180.000000
0
LINE
8
0
10
3158.315309
20
248.364686
30
0.0
11
3177.815309
21
248.364686
31
0.0
0
LINE
8
0
10
3158.315309
20
272.364686
30
0.0
11
3158.315309
21
248.364686
31
0.0
0
ARC
8
0
10
3177.815309
20
248.864686
30
0.0
40
0.500000
50
270.000000
51
0.000000
0
LINE
8
0
10
3177.815309
20
272.364686
30
0.0
11
3158.315309
21
272.364686
31
0.0
0
LINE
8
0
10
3178.315309
20
248.864686
30
0.0
11
3178.315309
21
271.864686
31
0.0
0
ARC
8
0
10
3177.815309
20
271.864686
30
0.0
40
0.500000
50
0.000000
51
90.000000
0
ATTDEF
8
0
10
3142.415309
20
273.614686
30
0.0
40
3.5
1

3

2
REAR_VIEW
70
0
0
ATTDEF
8
0
10
3142.415309
20
273.614686
30
0.0
40
3.5
1

3

2
OPTI:500.000000,1,0,3000.000000,6900.000000,500.000000,0,0.000000,0
70
0
0
ATTDEF
8
0
10
3142.415309
20
273.614686
30
0.0
40
3.5
1

3

2
GLASS_MIN:0.000000
70
0
0
ATTDEF
8
0
10
3142.415309
20
273.614686
30
0.0
40
3.5
1

3

2
GLASS_MAX:0.000000
70
0
0
ATTDEF
8
0
10
3142.415309
20
273.614686
30
0.0
40
3.5
1

3

2
JY:0.000000
70
0
0
ATTDEF
8
0
10
3142.415309
20
273.614686
30
0.0
40
3.5
1

3

2
WY:0.000000
70
0
0
ATTDEF
8
0
10
3179.715309
20
260.364686
30
0.0
40
3.5
1

3

2
HC_START
70
0
0
ATTDEF
8
0
10
3142.415309
20
268.813629
30
0.0
40
3.5
1

3

2
HC_END
70
0
0
ATTDEF
8
0
10
0.000000
20
0.000000
30
0.0
40
3.5
1

3

2
BL01:6200.000,,1
70
0
0
ATTDEF
8
0
10
3142.415309
20
273.614686
30
0.0
40
3.5
1

3

2
FP_LCS_ORIG
70
0
0
ATTDEF
8
0
10
3142.415309
20
263.614686
30
0.0
40
3.5
1

3

2
FP_LCS_HOT
70
0
0
ATTDEF
8
0
10
3152.415309
20
273.614686
30
0.0
40
3.5
1

3

2
FP_LCS_INTERN
70
0
0
ATTDEF
8
0
10
0.000000
20
0.000000
30
0.0
40
3.5
1

3

2
CTYPE1:D3F3208B41F1C7065F2AF1BB53E47F05|3.52,8.81,0,-90.000000|0.00,0.00|2
70
0
0
ATTDEF
8
0
10
0.000000
20
0.000000
30
0.0
40
3.5
1

3

2
CTYPE1:4AF646A54990F64657DDA894AB8DF11E|19.19,0.02,0,90.000000|0.00,0.00|3
70
0
0
ATTDEF
8
0
10
0.000000
20
0.000000
30
0.0
40
3.5
1

3

2
CTYPE1:84BA31834B7658D088938DA9F5056E46|23.19,2.08,0,90.000000|0.00,0.00|2
70
0
0
ATTDEF
8
0
10
0.000000
20
0.000000
30
0.0
40
3.5
1

3

2
CTYPE2:84BA31834B7658D088938DA9F5056E46|18.65,-34.67,0,90.00|0.00,0.00|1
70
0
0
ATTDEF
8
0
10
0.000000
20
0.000000
30
0.0
40
3.5
1

3

2
CTYPE1:534BE38B4AF9565094EDE78B24C58DCA|27.68,-3.79,0,90.000000|0.00,0.00|2
70
0
0
ATTDEF
8
0
10
0.000000
20
0.000000
30
0.0
40
3.5
1

3

2
DESC:Parante lateral hoja vidrio simple vent. y pta. corrediza
70
0
0
ATTDEF
8
0
10
0.000000
20
0.000000
30
0.0
40
3.5
1

3

2
DENS:0.678
70
0
0
ATTDEF
8
0
10
0.000000
20
0.000000
30
0.0
40
3.5
1

3

2
TDEV:0
70
0
0
ATTDEF
8
0
10
0.000000
20
0.000000
30
0.0
40
3.5
1

3

2
TDEV2:0
70
0
0
ATTDEF
8
0
10
0.000000
20
0.000000
30
0.0
40
3.5
1

3

2
TDEV3:0
70
0
0
ATTDEF
8
0
10
0.000000
20
0.000000
30
0.0
40
3.5
1

3

2
TDEV4:0
70
0
0
ATTDEF
8
0
10
0.000000
20
0.000000
30
0.0
40
3.5
1

3

2
TDEV5:0
70
0
0
ATTDEF
8
0
10
0.000000
20
0.000000
30
0.0
40
3.5
1

3

2
PANE_WIDTH:12
70
0
0
ATTDEF
8
0
10
0.000000
20
0.000000
30
0.0
40
3.5
1

3

2
MIN_VETRO:0
70
0
0
ATTDEF
8
0
10
0.000000
20
0.000000
30
0.0
40
3.5
1

3

2
MAX_VETRO:0
70
0
0
ATTDEF
8
0
10
0.000000
20
0.000000
30
0.0
40
3.5
1

3

2
JX:0
70
0
0
ATTDEF
8
0
10
0.000000
20
0.000000
30
0.0
40
3.5
1

3

2
WX:0
70
0
0
ATTDEF
8
0
10
0.000000
20
0.000000
30
0.0
40
3.5
1

3

2
JY:0
70
0
0
ATTDEF
8
0
10
0.000000
20
0.000000
30
0.0
40
3.5
1

3

2
WY:0
70
0
0
ENDSEC
0
EOF
