0
SECTION
2
ENTITIES
0
LINE
8
0
10
3392.000596
20
393.349738
30
0.0
11
3392.000596
21
399.099738
31
0.0
0
ARC
8
0
10
3391.500596
20
399.099738
30
0.0
40
0.500000
50
0.000000
51
90.000000
0
ARC
8
0
10
3391.000596
20
393.349738
30
0.0
40
1.000000
50
270.000000
51
0.000000
0
LINE
8
0
10
3391.500596
20
399.599738
30
0.0
11
3391.100596
21
399.599738
31
0.0
0
LINE
8
0
10
3376.700596
20
392.349738
30
0.0
11
3391.000596
21
392.349738
31
0.0
0
ARC
8
0
10
3391.100596
20
399.099738
30
0.0
40
0.500000
50
90.000000
51
180.000000
0
ARC
8
0
10
3376.200596
20
392.349738
30
0.0
40
0.500000
50
180.000000
51
0.000000
0
LINE
8
0
10
3390.600596
20
399.099738
30
0.0
11
3390.600596
21
394.099738
31
0.0
0
LINE
8
0
10
3370.400596
20
392.349738
30
0.0
11
3375.700596
21
392.349738
31
0.0
0
ARC
8
0
10
3390.100596
20
394.099738
30
0.0
40
0.500000
50
270.000000
51
0.000000
0
ARC
8
0
10
3370.400596
20
391.849738
30
0.0
40
0.500000
50
90.000000
51
180.000000
0
LINE
8
0
10
3390.100596
20
393.599738
30
0.0
11
3376.700596
21
393.599738
31
0.0
0
LINE
8
0
10
3369.900596
20
389.699738
30
0.0
11
3369.900596
21
391.849738
31
0.0
0
LINE
8
0
10
3376.700596
20
393.599738
30
0.0
11
3376.700596
21
417.599738
31
0.0
0
ARC
8
0
10
3369.400596
20
389.699738
30
0.0
40
0.500000
50
270.000000
51
0.000000
0
LINE
8
0
10
3376.700596
20
417.599738
30
0.0
11
3390.100596
21
417.599738
31
0.0
0
LINE
8
0
10
3367.752056
20
389.199738
30
0.0
11
3369.400596
21
389.199738
31
0.0
0
ARC
8
0
10
3390.100596
20
417.099738
30
0.0
40
0.500000
50
0.000000
51
90.000000
0
ARC
8
0
10
3367.752056
20
389.699738
30
0.0
40
0.500000
50
180.000000
51
270.000000
0
LINE
8
0
10
3390.600596
20
417.099738
30
0.0
11
3390.600596
21
412.099738
31
0.0
0
LINE
8
0
10
3367.252056
20
389.899738
30
0.0
11
3367.252056
21
389.699738
31
0.0
0
ARC
8
0
10
3391.100596
20
412.099738
30
0.0
40
0.500000
50
180.000000
51
270.000000
0
ARC
8
0
10
3367.752056
20
389.899738
30
0.0
40
0.500000
50
90.000000
51
180.000000
0
LINE
8
0
10
3391.100596
20
411.599738
30
0.0
11
3391.500596
21
411.599738
31
0.0
0
LINE
8
0
10
3368.000596
20
390.399738
30
0.0
11
3367.752056
21
390.399738
31
0.0
0
ARC
8
0
10
3391.500596
20
412.099738
30
0.0
40
0.500000
50
270.000000
51
0.000000
0
ARC
8
0
10
3368.000596
20
390.899738
30
0.0
40
0.500000
50
270.000000
51
0.000000
0
LINE
8
0
10
3392.000596
20
412.099738
30
0.0
11
3392.000596
21
417.849738
31
0.0
0
LINE
8
0
10
3368.500596
20
391.099738
30
0.0
11
3368.500596
21
390.899738
31
0.0
0
ARC
8
0
10
3391.000596
20
417.849738
30
0.0
40
1.000000
50
0.000000
51
90.000000
0
ARC
8
0
10
3368.000596
20
391.099738
30
0.0
40
0.500000
50
0.000000
51
90.000000
0
LINE
8
0
10
3391.000596
20
418.849738
30
0.0
11
3340.500596
21
418.849738
31
0.0
0
LINE
8
0
10
3361.500596
20
391.599738
30
0.0
11
3368.000596
21
391.599738
31
0.0
0
ARC
8
0
10
3340.500596
20
417.849738
30
0.0
40
1.000000
50
90.000000
51
180.000000
0
ARC
8
0
10
3361.500596
20
391.099738
30
0.0
40
0.500000
50
90.000000
51
180.000000
0
LINE
8
0
10
3339.500596
20
417.849738
30
0.0
11
3339.500596
21
385.699738
31
0.0
0
LINE
8
0
10
3361.000596
20
390.899738
30
0.0
11
3361.000596
21
391.099738
31
0.0
0
ARC
8
0
10
3342.500596
20
385.699738
30
0.0
40
3.000000
50
180.000000
51
270.000000
0
ARC
8
0
10
3361.500596
20
390.899738
30
0.0
40
0.500000
50
180.000000
51
270.000000
0
LINE
8
0
10
3342.500596
20
382.699738
30
0.0
11
3369.400596
21
382.699738
31
0.0
0
LINE
8
0
10
3361.750596
20
390.399738
30
0.0
11
3361.500596
21
390.399738
31
0.0
0
ARC
8
0
10
3369.400596
20
383.199738
30
0.0
40
0.500000
50
270.000000
51
84.000000
0
ARC
8
0
10
3361.750596
20
389.899738
30
0.0
40
0.500000
50
0.000000
51
90.000000
0
LINE
8
0
10
3369.452860
20
383.696999
30
0.0
11
3361.896067
21
384.491249
31
0.0
0
LINE
8
0
10
3362.250596
20
389.699738
30
0.0
11
3362.250596
21
389.899738
31
0.0
0
ARC
8
0
10
3362.000596
20
385.485771
30
0.0
40
1.000000
50
180.000000
51
264.000000
0
ARC
8
0
10
3361.750596
20
389.699738
30
0.0
40
0.500000
50
270.000000
51
0.000000
0
LINE
8
0
10
3361.000596
20
385.485771
30
0.0
11
3361.000596
21
388.699738
31
0.0
0
LINE
8
0
10
3361.500596
20
389.199738
30
0.0
11
3361.750596
21
389.199738
31
0.0
0
ARC
8
0
10
3361.500596
20
388.699738
30
0.0
40
0.500000
50
90.000000
51
180.000000
0
ARC
8
0
10
3374.800596
20
394.099738
30
0.0
40
0.500000
50
270.000000
51
0.000000
0
LINE
8
0
10
3374.800596
20
393.599738
30
0.0
11
3368.500596
21
393.599738
31
0.0
0
LINE
8
0
10
3375.300596
20
417.099738
30
0.0
11
3375.300596
21
394.099738
31
0.0
0
LINE
8
0
10
3368.500596
20
393.599738
30
0.0
11
3368.500596
21
392.849738
31
0.0
0
ARC
8
0
10
3374.800596
20
417.099738
30
0.0
40
0.500000
50
0.000000
51
90.000000
0
LINE
8
0
10
3368.500596
20
392.849738
30
0.0
11
3361.100596
21
392.849738
31
0.0
0
LINE
8
0
10
3340.900596
20
417.599738
30
0.0
11
3374.800596
21
417.599738
31
0.0
0
ARC
8
0
10
3361.100596
20
391.349738
30
0.0
40
1.500000
50
90.000000
51
180.000000
0
LINE
8
0
10
3340.900596
20
393.599738
30
0.0
11
3340.900596
21
417.599738
31
0.0
0
LINE
8
0
10
3359.600596
20
391.349738
30
0.0
11
3359.600596
21
384.599738
31
0.0
0
LINE
8
0
10
3341.400596
20
393.599738
30
0.0
11
3340.900596
21
393.599738
31
0.0
0
ARC
8
0
10
3359.100596
20
384.599738
30
0.0
40
0.500000
50
270.000000
51
0.000000
0
ARC
8
0
10
3341.400596
20
393.099738
30
0.0
40
0.500000
50
270.000000
51
90.000000
0
LINE
8
0
10
3359.100596
20
384.099738
30
0.0
11
3342.400596
21
384.099738
31
0.0
0
LINE
8
0
10
3340.900596
20
392.599738
30
0.0
11
3341.400596
21
392.599738
31
0.0
0
ARC
8
0
10
3342.400596
20
385.599738
30
0.0
40
1.500000
50
180.000000
51
270.000000
0
LINE
8
0
10
3340.900596
20
385.599738
30
0.0
11
3340.900596
21
392.599738
31
0.0
0
ATTDEF
8
0
10
3339.500596
20
418.849738
30
0.0
40
3.5
1

3

2
REAR_VIEW
70
0
0
ATTDEF
8
0
10
3339.500596
20
418.849738
30
0.0
40
3.5
1

3

2
OPTI:500.000000,1,0,3000.000000,6900.000000,500.000000,0,0.000000,0
70
0
0
ATTDEF
8
0
10
3339.500596
20
418.849738
30
0.0
40
3.5
1

3

2
GLASS_MIN:0.000000
70
0
0
ATTDEF
8
0
10
3339.500596
20
418.849738
30
0.0
40
3.5
1

3

2
GLASS_MAX:0.000000
70
0
0
ATTDEF
8
0
10
3339.500596
20
418.849738
30
0.0
40
3.5
1

3

2
JX:0.000000
70
0
0
ATTDEF
8
0
10
3339.500596
20
418.849738
30
0.0
40
3.5
1

3

2
WX:0.000000
70
0
0
ATTDEF
8
0
10
3339.500596
20
418.849738
30
0.0
40
3.5
1

3

2
JY:0.000000
70
0
0
ATTDEF
8
0
10
3339.500596
20
418.849738
30
0.0
40
3.5
1

3

2
WY:0.000000
70
0
0
ATTDEF
8
0
10
3376.700596
20
405.599738
30
0.0
40
3.5
1

3

2
HC_START
70
0
0
ATTDEF
8
0
10
3339.500596
20
401.774738
30
0.0
40
3.5
1

3

2
HC_END
70
0
0
ATTDEF
8
0
10
0.000000
20
0.000000
30
0.0
40
3.5
1

3

2
BL01:6200.000,,1
70
0
0
ATTDEF
8
0
10
3339.500596
20
418.849738
30
0.0
40
3.5
1

3

2
FP_LCS_ORIG
70
0
0
ATTDEF
8
0
10
3339.500596
20
408.849738
30
0.0
40
3.5
1

3

2
FP_LCS_HOT
70
0
0
ATTDEF
8
0
10
3349.500596
20
418.849738
30
0.0
40
3.5
1

3

2
FP_LCS_INTERN
70
0
0
ATTDEF
8
0
10
0.000000
20
0.000000
30
0.0
40
3.5
1

3

2
DESC:Parante central hoja vidrio simple vent. y pta. corrediza
70
0
0
ATTDEF
8
0
10
0.000000
20
0.000000
30
0.0
40
3.5
1

3

2
DENS:0.71
70
0
0
ATTDEF
8
0
10
0.000000
20
0.000000
30
0.0
40
3.5
1

3

2
TDEV:0
70
0
0
ATTDEF
8
0
10
0.000000
20
0.000000
30
0.0
40
3.5
1

3

2
TDEV2:0
70
0
0
ATTDEF
8
0
10
0.000000
20
0.000000
30
0.0
40
3.5
1

3

2
TDEV3:0
70
0
0
ATTDEF
8
0
10
0.000000
20
0.000000
30
0.0
40
3.5
1

3

2
TDEV4:0
70
0
0
ATTDEF
8
0
10
0.000000
20
0.000000
30
0.0
40
3.5
1

3

2
TDEV5:0
70
0
0
ATTDEF
8
0
10
0.000000
20
0.000000
30
0.0
40
3.5
1

3

2
PANE_WIDTH:12
70
0
0
ATTDEF
8
0
10
0.000000
20
0.000000
30
0.0
40
3.5
1

3

2
MIN_VETRO:0
70
0
0
ATTDEF
8
0
10
0.000000
20
0.000000
30
0.0
40
3.5
1

3

2
MAX_VETRO:0
70
0
0
ATTDEF
8
0
10
0.000000
20
0.000000
30
0.0
40
3.5
1

3

2
JX:0
70
0
0
ATTDEF
8
0
10
0.000000
20
0.000000
30
0.0
40
3.5
1

3

2
WX:0
70
0
0
ATTDEF
8
0
10
0.000000
20
0.000000
30
0.0
40
3.5
1

3

2
JY:0
70
0
0
ATTDEF
8
0
10
0.000000
20
0.000000
30
0.0
40
3.5
1

3

2
WY:0
70
0
0
ENDSEC
0
EOF
