0
SECTION
2
ENTITIES
0
LINE
8
0
10
0.000000
20
21.000000
30
0.0
11
0.250000
21
21.000000
31
0.0
0
ARC
8
0
10
0.250000
20
21.250000
30
0.0
40
0.250000
50
270.000000
51
90.000000
0
LINE
8
0
10
0.000000
20
0.500000
30
0.0
11
0.000000
21
21.000000
31
0.0
0
LINE
8
0
10
0.250000
20
21.500000
30
0.0
11
0.000000
21
21.500000
31
0.0
0
ARC
8
0
10
0.500000
20
0.500000
30
0.0
40
0.500000
50
180.000000
51
270.000000
0
LINE
8
0
10
0.000000
20
21.500000
30
0.0
11
0.000000
21
35.000000
31
0.0
0
LINE
8
0
10
0.911325
20
0.000000
30
0.0
11
0.500000
21
0.000000
31
0.0
0
ARC
8
0
10
1.000000
20
35.000000
30
0.0
40
1.000000
50
90.000000
51
180.000000
0
ARC
8
0
10
0.911325
20
0.500000
30
0.0
40
0.500000
50
270.000000
51
330.000000
0
LINE
8
0
10
1.000000
20
36.000000
30
0.0
11
1.400000
21
36.000000
31
0.0
0
LINE
8
0
10
1.933013
20
1.269615
30
0.0
11
1.344338
21
0.250000
31
0.0
0
LINE
8
0
10
1.400000
20
36.000000
30
0.0
11
1.400000
21
21.500000
31
0.0
0
ARC
8
0
10
1.500000
20
1.519615
30
0.0
40
0.500000
50
330.000000
51
60.000000
0
ARC
8
0
10
1.900000
20
21.500000
30
0.0
40
0.500000
50
180.000000
51
270.000000
0
LINE
8
0
10
1.200000
20
2.270170
30
0.0
11
1.750000
21
1.952628
31
0.0
0
LINE
8
0
10
1.900000
20
21.000000
30
0.0
11
3.400000
21
21.000000
31
0.0
0
LINE
8
0
10
1.200000
20
4.950000
30
0.0
11
1.200000
21
2.270170
31
0.0
0
ARC
8
0
10
3.900000
20
21.000000
30
0.0
40
0.500000
50
0.000000
51
180.000000
0
ARC
8
0
10
2.950000
20
4.950000
30
0.0
40
1.750000
50
0.000000
51
180.000000
0
LINE
8
0
10
4.400000
20
21.000000
30
0.0
11
5.400000
21
21.000000
31
0.0
0
LINE
8
0
10
4.700000
20
1.453939
30
0.0
11
4.700000
21
4.950000
31
0.0
0
ARC
8
0
10
5.900000
20
21.000000
30
0.0
40
0.500000
50
0.000000
51
180.000000
0
ARC
8
0
10
4.200000
20
1.453939
30
0.0
40
0.500000
50
287.457603
51
0.000000
0
LINE
8
0
10
6.400000
20
21.000000
30
0.0
11
7.900000
21
21.000000
31
0.0
0
ARC
8
0
10
4.500000
20
0.500000
30
0.0
40
0.500000
50
107.457603
51
270.000000
0
ARC
8
0
10
7.900000
20
21.500000
30
0.0
40
0.500000
50
270.000000
51
0.000000
0
LINE
8
0
10
10.800000
20
0.000000
30
0.0
11
4.500000
21
0.000000
31
0.0
0
LINE
8
0
10
8.400000
20
21.500000
30
0.0
11
8.400000
21
36.000000
31
0.0
0
ARC
8
0
10
10.800000
20
0.600000
30
0.0
40
0.600000
50
270.000000
51
90.000000
0
LINE
8
0
10
8.400000
20
36.000000
30
0.0
11
8.800000
21
36.000000
31
0.0
0
LINE
8
0
10
6.900000
20
1.200000
30
0.0
11
10.800000
21
1.200000
31
0.0
0
ARC
8
0
10
8.800000
20
35.000000
30
0.0
40
1.000000
50
0.000000
51
90.000000
0
ARC
8
0
10
6.900000
20
2.200000
30
0.0
40
1.000000
50
180.000000
51
270.000000
0
LINE
8
0
10
9.800000
20
35.000000
30
0.0
11
9.800000
21
21.500000
31
0.0
0
LINE
8
0
10
5.900000
20
6.200000
30
0.0
11
5.900000
21
2.200000
31
0.0
0
ARC
8
0
10
10.300000
20
21.500000
30
0.0
40
0.500000
50
180.000000
51
270.000000
0
ARC
8
0
10
6.400000
20
6.200000
30
0.0
40
0.500000
50
90.000000
51
180.000000
0
LINE
8
0
10
10.300000
20
21.000000
30
0.0
11
93.398040
21
21.000000
31
0.0
0
LINE
8
0
10
24.500000
20
6.700000
30
0.0
11
6.400000
21
6.700000
31
0.0
0
LINE
8
0
10
93.398040
20
21.000000
30
0.0
11
93.419079
21
20.963559
31
0.0
0
ARC
8
0
10
25.000000
20
6.700000
30
0.0
40
0.500000
50
180.000000
51
0.000000
0
LINE
8
0
10
93.419079
20
20.963559
30
0.0
11
93.440118
21
21.000000
31
0.0
0
LINE
8
0
10
26.500000
20
6.700000
30
0.0
11
25.500000
21
6.700000
31
0.0
0
LINE
8
0
10
93.440118
20
21.000000
30
0.0
11
94.200000
21
21.000000
31
0.0
0
ARC
8
0
10
27.000000
20
6.700000
30
0.0
40
0.500000
50
180.000000
51
0.000000
0
LINE
8
0
10
94.200000
20
21.000000
30
0.0
11
94.200000
21
0.500000
31
0.0
0
LINE
8
0
10
45.400000
20
6.700000
30
0.0
11
27.500000
21
6.700000
31
0.0
0
ARC
8
0
10
93.700000
20
0.500000
30
0.0
40
0.500000
50
270.000000
51
0.000000
0
ARC
8
0
10
45.400000
20
5.700000
30
0.0
40
1.000000
50
0.000000
51
90.000000
0
LINE
8
0
10
93.700000
20
0.000000
30
0.0
11
93.288676
21
0.000000
31
0.0
0
LINE
8
0
10
46.400000
20
1.200590
30
0.0
11
46.400000
21
5.700000
31
0.0
0
ARC
8
0
10
93.288676
20
0.500000
30
0.0
40
0.500000
50
210.000000
51
270.000000
0
LINE
8
0
10
45.500000
20
1.200590
30
0.0
11
46.400000
21
1.200590
31
0.0
0
LINE
8
0
10
92.855663
20
0.250000
30
0.0
11
92.266988
21
1.269615
31
0.0
0
ARC
8
0
10
45.500000
20
0.600590
30
0.0
40
0.600000
50
90.000000
51
270.000000
0
ARC
8
0
10
92.700000
20
1.519615
30
0.0
40
0.500000
50
120.000000
51
210.000000
0
LINE
8
0
10
48.700000
20
0.000590
30
0.0
11
45.500000
21
0.000590
31
0.0
0
LINE
8
0
10
92.450000
20
1.952628
30
0.0
11
93.000000
21
2.270170
31
0.0
0
ARC
8
0
10
48.700000
20
0.600590
30
0.0
40
0.600000
50
270.000000
51
90.000000
0
LINE
8
0
10
93.000000
20
2.270170
30
0.0
11
93.000000
21
4.950000
31
0.0
0
LINE
8
0
10
47.800000
20
1.200590
30
0.0
11
48.700000
21
1.200590
31
0.0
0
ARC
8
0
10
91.250000
20
4.950000
30
0.0
40
1.750000
50
0.000000
51
180.000000
0
LINE
8
0
10
47.800000
20
5.700000
30
0.0
11
47.800000
21
1.200590
31
0.0
0
LINE
8
0
10
89.500000
20
4.950000
30
0.0
11
89.500000
21
1.453939
31
0.0
0
ARC
8
0
10
48.800000
20
5.700000
30
0.0
40
1.000000
50
90.000000
51
180.000000
0
ARC
8
0
10
90.000000
20
1.453939
30
0.0
40
0.500000
50
180.000000
51
252.542397
0
LINE
8
0
10
66.700000
20
6.700000
30
0.0
11
48.800000
21
6.700000
31
0.0
0
ARC
8
0
10
89.700000
20
0.500000
30
0.0
40
0.500000
50
270.000000
51
72.542397
0
ARC
8
0
10
67.200000
20
6.700000
30
0.0
40
0.500000
50
180.000000
51
0.000000
0
LINE
8
0
10
89.700000
20
0.000000
30
0.0
11
83.400000
21
0.000000
31
0.0
0
LINE
8
0
10
68.700000
20
6.700000
30
0.0
11
67.700000
21
6.700000
31
0.0
0
ARC
8
0
10
83.400000
20
0.600000
30
0.0
40
0.600000
50
90.000000
51
270.000000
0
ARC
8
0
10
69.200000
20
6.700000
30
0.0
40
0.500000
50
180.000000
51
0.000000
0
LINE
8
0
10
83.400000
20
1.200000
30
0.0
11
87.300000
21
1.200000
31
0.0
0
LINE
8
0
10
87.800000
20
6.700000
30
0.0
11
69.700000
21
6.700000
31
0.0
0
ARC
8
0
10
87.300000
20
2.200000
30
0.0
40
1.000000
50
270.000000
51
0.000000
0
ARC
8
0
10
87.800000
20
6.200000
30
0.0
40
0.500000
50
0.000000
51
90.000000
0
LINE
8
0
10
88.300000
20
2.200000
30
0.0
11
88.300000
21
6.200000
31
0.0
0
LINE
8
0
10
12.000000
20
19.600000
30
0.0
11
12.000000
21
19.200000
31
0.0
0
LINE
8
0
10
12.000000
20
19.200000
30
0.0
11
1.900000
21
19.200000
31
0.0
0
LINE
8
0
10
92.300000
20
19.600000
30
0.0
11
12.000000
21
19.600000
31
0.0
0
ARC
8
0
10
1.900000
20
18.700000
30
0.0
40
0.500000
50
90.000000
51
180.000000
0
ARC
8
0
10
92.300000
20
19.100000
30
0.0
40
0.500000
50
0.000000
51
90.000000
0
LINE
8
0
10
1.400000
20
18.700000
30
0.0
11
1.400000
21
8.600000
31
0.0
0
LINE
8
0
10
92.800000
20
8.600000
30
0.0
11
92.800000
21
19.100000
31
0.0
0
ARC
8
0
10
1.900000
20
8.600000
30
0.0
40
0.500000
50
180.000000
51
270.000000
0
ARC
8
0
10
92.300000
20
8.600000
30
0.0
40
0.500000
50
270.000000
51
0.000000
0
LINE
8
0
10
1.900000
20
8.100000
30
0.0
11
6.700000
21
8.100000
31
0.0
0
LINE
8
0
10
87.500000
20
8.100000
30
0.0
11
92.300000
21
8.100000
31
0.0
0
ARC
8
0
10
6.700000
20
8.600000
30
0.0
40
0.500000
50
270.000000
51
0.000000
0
ARC
8
0
10
87.500000
20
8.600000
30
0.0
40
0.500000
50
180.000000
51
270.000000
0
LINE
8
0
10
7.200000
20
8.600000
30
0.0
11
7.200000
21
9.100000
31
0.0
0
LINE
8
0
10
87.000000
20
9.100000
30
0.0
11
87.000000
21
8.600000
31
0.0
0
ARC
8
0
10
7.700000
20
9.100000
30
0.0
40
0.500000
50
78.463041
51
180.000000
0
ARC
8
0
10
86.500000
20
9.100000
30
0.0
40
0.500000
50
0.000000
51
101.536959
0
ARC
8
0
10
7.900000
20
9.100000
30
0.0
40
0.500000
50
0.000000
51
101.536959
0
ARC
8
0
10
86.300000
20
9.100000
30
0.0
40
0.500000
50
78.463041
51
180.000000
0
LINE
8
0
10
8.400000
20
9.100000
30
0.0
11
8.400000
21
8.600000
31
0.0
0
LINE
8
0
10
85.800000
20
8.600000
30
0.0
11
85.800000
21
9.100000
31
0.0
0
ARC
8
0
10
8.900000
20
8.600000
30
0.0
40
0.500000
50
180.000000
51
270.000000
0
ARC
8
0
10
85.300000
20
8.600000
30
0.0
40
0.500000
50
270.000000
51
0.000000
0
LINE
8
0
10
8.900000
20
8.100000
30
0.0
11
85.300000
21
8.100000
31
0.0
0
ATTDEF
8
0
10
0.000000
20
0.000000
30
0.0
40
3.5
1

3

2
GLASS_MIN:0.000000
70
0
0
ATTDEF
8
0
10
0.000000
20
0.000000
30
0.0
40
3.5
1

3

2
GLASS_MAX:0.000000
70
0
0
ATTDEF
8
0
10
0.000000
20
0.000000
30
0.0
40
3.5
1

3

2
BL01:6500.000000,,1
70
0
0
ATTDEF
8
0
10
0.000000
20
0.000000
30
0.0
40
3.5
1

3

2
HW_START
70
0
0
ATTDEF
8
0
10
94.200000
20
36.000000
30
0.0
40
3.5
1

3

2
HW_END
70
0
0
ATTDEF
8
0
10
93.398040
20
21.000000
30
0.0
40
3.5
1

3

2
VC_START
70
0
0
ATTDEF
8
0
10
7.650000
20
0.000000
30
0.0
40
3.5
1

3

2
VC_END
70
0
0
ATTDEF
8
0
10
0.000000
20
0.000000
30
0.0
40
3.5
1

3

2
FP_LCS_ORIG
70
0
0
ATTDEF
8
0
10
10.000000
20
0.000000
30
0.0
40
3.5
1

3

2
FP_LCS_HOT
70
0
0
ATTDEF
8
0
10
0.000000
20
10.000000
30
0.0
40
3.5
1

3

2
FP_LCS_INTERN
70
0
0
ATTDEF
8
0
10
0.000000
20
0.000000
30
0.0
40
3.5
1

3

2
DESC:7722
70
0
0
ATTDEF
8
0
10
0.000000
20
0.000000
30
0.0
40
3.5
1

3

2
DENS:0
70
0
0
ATTDEF
8
0
10
0.000000
20
0.000000
30
0.0
40
3.5
1

3

2
TDEV:0
70
0
0
ATTDEF
8
0
10
0.000000
20
0.000000
30
0.0
40
3.5
1

3

2
TDEV2:0
70
0
0
ATTDEF
8
0
10
0.000000
20
0.000000
30
0.0
40
3.5
1

3

2
TDEV3:0
70
0
0
ATTDEF
8
0
10
0.000000
20
0.000000
30
0.0
40
3.5
1

3

2
TDEV4:0
70
0
0
ATTDEF
8
0
10
0.000000
20
0.000000
30
0.0
40
3.5
1

3

2
TDEV5:0
70
0
0
ATTDEF
8
0
10
0.000000
20
0.000000
30
0.0
40
3.5
1

3

2
PANE_WIDTH:0
70
0
0
ATTDEF
8
0
10
0.000000
20
0.000000
30
0.0
40
3.5
1

3

2
MIN_VETRO:0
70
0
0
ATTDEF
8
0
10
0.000000
20
0.000000
30
0.0
40
3.5
1

3

2
MAX_VETRO:0
70
0
0
ATTDEF
8
0
10
0.000000
20
0.000000
30
0.0
40
3.5
1

3

2
JX:0
70
0
0
ATTDEF
8
0
10
0.000000
20
0.000000
30
0.0
40
3.5
1

3

2
WX:0
70
0
0
ATTDEF
8
0
10
0.000000
20
0.000000
30
0.0
40
3.5
1

3

2
JY:0
70
0
0
ATTDEF
8
0
10
0.000000
20
0.000000
30
0.0
40
3.5
1

3

2
WY:0
70
0
0
ENDSEC
0
EOF
