0
SECTION
2
ENTITIES
0
LINE
8
0
10
2367.184352
20
888.710587
30
0.0
11
2352.884352
21
888.710587
31
0.0
0
ARC
8
0
10
2352.884352
20
887.710587
30
0.0
40
1.000000
50
90.000000
51
180.000000
0
ARC
8
0
10
2367.684352
20
888.710587
30
0.0
40
0.500000
50
0.000000
51
180.000000
0
LINE
8
0
10
2351.884352
20
887.710587
30
0.0
11
2351.884352
21
886.610587
31
0.0
0
LINE
8
0
10
2373.484352
20
888.710587
30
0.0
11
2368.184352
21
888.710587
31
0.0
0
ARC
8
0
10
2352.384352
20
886.610587
30
0.0
40
0.500000
50
180.000000
51
270.000000
0
ARC
8
0
10
2373.484352
20
889.210587
30
0.0
40
0.500000
50
270.000000
51
0.000000
0
LINE
8
0
10
2352.384352
20
886.110587
30
0.0
11
2352.784352
21
886.110587
31
0.0
0
LINE
8
0
10
2373.984352
20
891.360587
30
0.0
11
2373.984352
21
889.210587
31
0.0
0
ARC
8
0
10
2352.784352
20
886.610587
30
0.0
40
0.500000
50
270.000000
51
0.000000
0
ARC
8
0
10
2374.484352
20
891.360587
30
0.0
40
0.500000
50
90.000000
51
180.000000
0
LINE
8
0
10
2353.284352
20
886.610587
30
0.0
11
2353.284352
21
886.960587
31
0.0
0
LINE
8
0
10
2376.132891
20
891.860587
30
0.0
11
2374.484352
21
891.860587
31
0.0
0
ARC
8
0
10
2353.784352
20
886.960587
30
0.0
40
0.500000
50
90.000000
51
180.000000
0
ARC
8
0
10
2376.132891
20
891.360587
30
0.0
40
0.500000
50
348.463041
51
90.000000
0
LINE
8
0
10
2353.784352
20
887.460587
30
0.0
11
2367.184352
21
887.460587
31
0.0
0
ARC
8
0
10
2376.132891
20
891.160587
30
0.0
40
0.500000
50
270.000000
51
11.536959
0
LINE
8
0
10
2367.184352
20
887.460587
30
0.0
11
2367.184352
21
863.460587
31
0.0
0
LINE
8
0
10
2375.884352
20
890.660587
30
0.0
11
2376.132891
21
890.660587
31
0.0
0
LINE
8
0
10
2367.184352
20
863.460587
30
0.0
11
2353.784352
21
863.460587
31
0.0
0
ARC
8
0
10
2375.884352
20
890.160587
30
0.0
40
0.500000
50
90.000000
51
180.000000
0
ARC
8
0
10
2353.784352
20
863.960587
30
0.0
40
0.500000
50
180.000000
51
270.000000
0
LINE
8
0
10
2375.384352
20
889.960587
30
0.0
11
2375.384352
21
890.160587
31
0.0
0
LINE
8
0
10
2353.284352
20
863.960587
30
0.0
11
2353.284352
21
864.310587
31
0.0
0
ARC
8
0
10
2375.884352
20
889.960587
30
0.0
40
0.500000
50
180.000000
51
270.000000
0
ARC
8
0
10
2352.784352
20
864.310587
30
0.0
40
0.500000
50
0.000000
51
90.000000
0
LINE
8
0
10
2382.384352
20
889.460587
30
0.0
11
2375.884352
21
889.460587
31
0.0
0
LINE
8
0
10
2352.784352
20
864.810587
30
0.0
11
2352.384352
21
864.810587
31
0.0
0
ARC
8
0
10
2382.384352
20
889.960587
30
0.0
40
0.500000
50
270.000000
51
0.000000
0
ARC
8
0
10
2352.384352
20
864.310587
30
0.0
40
0.500000
50
90.000000
51
180.000000
0
LINE
8
0
10
2382.884352
20
890.160587
30
0.0
11
2382.884352
21
889.960587
31
0.0
0
LINE
8
0
10
2351.884352
20
864.310587
30
0.0
11
2351.884352
21
863.210587
31
0.0
0
ARC
8
0
10
2382.384352
20
890.160587
30
0.0
40
0.500000
50
0.000000
51
90.000000
0
ARC
8
0
10
2352.884352
20
863.210587
30
0.0
40
1.000000
50
180.000000
51
270.000000
0
LINE
8
0
10
2382.134352
20
890.660587
30
0.0
11
2382.384352
21
890.660587
31
0.0
0
LINE
8
0
10
2352.884352
20
862.210587
30
0.0
11
2366.684352
21
862.210587
31
0.0
0
ARC
8
0
10
2382.134352
20
891.160587
30
0.0
40
0.500000
50
168.463041
51
270.000000
0
ARC
8
0
10
2366.684352
20
861.710587
30
0.0
40
0.500000
50
0.000000
51
90.000000
0
ARC
8
0
10
2382.134352
20
891.360587
30
0.0
40
0.500000
50
90.000000
51
191.536959
0
LINE
8
0
10
2367.184352
20
861.710587
30
0.0
11
2367.184352
21
845.620587
31
0.0
0
LINE
8
0
10
2382.384352
20
891.860587
30
0.0
11
2382.134352
21
891.860587
31
0.0
0
ARC
8
0
10
2419.184352
20
845.620587
30
0.0
40
52.000000
50
180.000000
51
191.726040
0
ARC
8
0
10
2382.384352
20
892.360587
30
0.0
40
0.500000
50
270.000000
51
0.000000
0
ARC
8
0
10
2370.717390
20
835.560587
30
0.0
40
2.500000
50
191.726040
51
270.000000
0
LINE
8
0
10
2382.884352
20
895.574554
30
0.0
11
2382.884352
21
892.360587
31
0.0
0
LINE
8
0
10
2370.717390
20
833.060587
30
0.0
11
2377.451314
21
833.060587
31
0.0
0
ARC
8
0
10
2381.884352
20
895.574554
30
0.0
40
1.000000
50
0.000000
51
84.000000
0
ARC
8
0
10
2377.451314
20
835.560587
30
0.0
40
2.500000
50
270.000000
51
348.273960
0
LINE
8
0
10
2374.432088
20
897.363326
30
0.0
11
2381.988881
21
896.569075
31
0.0
0
ARC
8
0
10
2328.984352
20
845.620587
30
0.0
40
52.000000
50
348.273960
51
0.000000
0
ARC
8
0
10
2374.484352
20
897.860587
30
0.0
40
0.500000
50
90.000000
51
264.000000
0
LINE
8
0
10
2380.984352
20
845.620587
30
0.0
11
2380.984352
21
861.710587
31
0.0
0
LINE
8
0
10
2401.384352
20
898.360587
30
0.0
11
2374.484352
21
898.360587
31
0.0
0
ARC
8
0
10
2381.484352
20
861.710587
30
0.0
40
0.500000
50
90.000000
51
180.000000
0
ARC
8
0
10
2401.384352
20
895.360587
30
0.0
40
3.000000
50
0.000000
51
90.000000
0
LINE
8
0
10
2381.484352
20
862.210587
30
0.0
11
2403.384352
21
862.210587
31
0.0
0
LINE
8
0
10
2404.384352
20
863.210587
30
0.0
11
2404.384352
21
895.360587
31
0.0
0
ARC
8
0
10
2403.384352
20
863.210587
30
0.0
40
1.000000
50
270.000000
51
0.000000
0
ARC
8
0
10
2369.584352
20
861.210587
30
0.0
40
1.000000
50
90.000000
51
180.000000
0
LINE
8
0
10
2369.584352
20
862.210587
30
0.0
11
2378.584352
21
862.210587
31
0.0
0
LINE
8
0
10
2368.584352
20
845.620587
30
0.0
11
2368.584352
21
861.210587
31
0.0
0
ARC
8
0
10
2378.584352
20
861.210587
30
0.0
40
1.000000
50
0.000000
51
90.000000
0
ARC
8
0
10
2419.184352
20
845.620587
30
0.0
40
50.600000
50
180.000000
51
189.937897
0
LINE
8
0
10
2379.584352
20
861.210587
30
0.0
11
2379.584352
21
845.620587
31
0.0
0
ARC
8
0
10
2370.328581
20
837.060587
30
0.0
40
1.000000
50
189.937897
51
270.000000
0
ARC
8
0
10
2328.984352
20
845.620587
30
0.0
40
50.600000
50
350.062103
51
0.000000
0
LINE
8
0
10
2377.840124
20
836.060587
30
0.0
11
2370.328581
21
836.060587
31
0.0
0
ARC
8
0
10
2377.840124
20
837.060587
30
0.0
40
1.000000
50
270.000000
51
350.062103
0
ARC
8
0
10
2369.084352
20
863.960587
30
0.0
40
0.500000
50
180.000000
51
270.000000
0
LINE
8
0
10
2368.584352
20
863.960587
30
0.0
11
2368.584352
21
886.960587
31
0.0
0
LINE
8
0
10
2402.984352
20
863.460587
30
0.0
11
2369.084352
21
863.460587
31
0.0
0
ARC
8
0
10
2369.084352
20
886.960587
30
0.0
40
0.500000
50
90.000000
51
180.000000
0
LINE
8
0
10
2402.984352
20
887.460587
30
0.0
11
2402.984352
21
863.460587
31
0.0
0
LINE
8
0
10
2369.084352
20
887.460587
30
0.0
11
2375.384352
21
887.460587
31
0.0
0
LINE
8
0
10
2402.484352
20
887.460587
30
0.0
11
2402.984352
21
887.460587
31
0.0
0
LINE
8
0
10
2375.384352
20
887.460587
30
0.0
11
2375.384352
21
888.210587
31
0.0
0
ARC
8
0
10
2402.484352
20
887.960587
30
0.0
40
0.500000
50
90.000000
51
270.000000
0
LINE
8
0
10
2375.384352
20
888.210587
30
0.0
11
2382.784352
21
888.210587
31
0.0
0
LINE
8
0
10
2402.984352
20
888.460587
30
0.0
11
2402.484352
21
888.460587
31
0.0
0
ARC
8
0
10
2382.784352
20
889.710587
30
0.0
40
1.500000
50
270.000000
51
0.000000
0
LINE
8
0
10
2402.984352
20
895.460587
30
0.0
11
2402.984352
21
888.460587
31
0.0
0
LINE
8
0
10
2384.284352
20
889.710587
30
0.0
11
2384.284352
21
896.460587
31
0.0
0
ARC
8
0
10
2401.484352
20
895.460587
30
0.0
40
1.500000
50
0.000000
51
90.000000
0
ARC
8
0
10
2384.784352
20
896.460587
30
0.0
40
0.500000
50
90.000000
51
180.000000
0
LINE
8
0
10
2384.784352
20
896.960587
30
0.0
11
2401.484352
21
896.960587
31
0.0
0
ATTDEF
8
0
10
2404.384352
20
898.360587
30
0.0
40
3.5
1

3

2
FRONT_VIEW
70
0
0
ATTDEF
8
0
10
2404.384352
20
898.360587
30
0.0
40
3.5
1

3

2
OPTI:500.000000,1,0,3000.000000,6900.000000,500.000000,0,0.000000,0
70
0
0
ATTDEF
8
0
10
2404.384352
20
898.360587
30
0.0
40
3.5
1

3

2
GLASS_MIN:0.000000
70
0
0
ATTDEF
8
0
10
2404.384352
20
898.360587
30
0.0
40
3.5
1

3

2
GLASS_MAX:0.000000
70
0
0
ATTDEF
8
0
10
2404.384352
20
898.360587
30
0.0
40
3.5
1

3

2
JX:0.000000
70
0
0
ATTDEF
8
0
10
2404.384352
20
898.360587
30
0.0
40
3.5
1

3

2
WX:0.000000
70
0
0
ATTDEF
8
0
10
2404.384352
20
898.360587
30
0.0
40
3.5
1

3

2
JY:0.000000
70
0
0
ATTDEF
8
0
10
2404.384352
20
898.360587
30
0.0
40
3.5
1

3

2
WY:0.000000
70
0
0
ATTDEF
8
0
10
2367.184352
20
875.460587
30
0.0
40
3.5
1

3

2
HC_START
70
0
0
ATTDEF
8
0
10
2404.384352
20
879.285587
30
0.0
40
3.5
1

3

2
HC_END
70
0
0
ATTDEF
8
0
10
0.000000
20
0.000000
30
0.0
40
3.5
1

3

2
BL01:6200.000,,1
70
0
0
ATTDEF
8
0
10
2404.384352
20
898.360587
30
0.0
40
3.5
1

3

2
FP_LCS_ORIG
70
0
0
ATTDEF
8
0
10
2404.384352
20
888.360587
30
0.0
40
3.5
1

3

2
FP_LCS_HOT
70
0
0
ATTDEF
8
0
10
2394.384352
20
898.360587
30
0.0
40
3.5
1

3

2
FP_LCS_INTERN
70
0
0
ATTDEF
8
0
10
0.000000
20
0.000000
30
0.0
40
3.5
1

3

2
DESC:Parante central con tirador hoja DVH pta. corrediza
70
0
0
ATTDEF
8
0
10
0.000000
20
0.000000
30
0.0
40
3.5
1

3

2
DENS:0.964
70
0
0
ATTDEF
8
0
10
0.000000
20
0.000000
30
0.0
40
3.5
1

3

2
TDEV:0
70
0
0
ATTDEF
8
0
10
0.000000
20
0.000000
30
0.0
40
3.5
1

3

2
TDEV2:0
70
0
0
ATTDEF
8
0
10
0.000000
20
0.000000
30
0.0
40
3.5
1

3

2
TDEV3:0
70
0
0
ATTDEF
8
0
10
0.000000
20
0.000000
30
0.0
40
3.5
1

3

2
TDEV4:0
70
0
0
ATTDEF
8
0
10
0.000000
20
0.000000
30
0.0
40
3.5
1

3

2
TDEV5:0
70
0
0
ATTDEF
8
0
10
0.000000
20
0.000000
30
0.0
40
3.5
1

3

2
PANE_WIDTH:20.7
70
0
0
ATTDEF
8
0
10
0.000000
20
0.000000
30
0.0
40
3.5
1

3

2
MIN_VETRO:0
70
0
0
ATTDEF
8
0
10
0.000000
20
0.000000
30
0.0
40
3.5
1

3

2
MAX_VETRO:0
70
0
0
ATTDEF
8
0
10
0.000000
20
0.000000
30
0.0
40
3.5
1

3

2
JX:0
70
0
0
ATTDEF
8
0
10
0.000000
20
0.000000
30
0.0
40
3.5
1

3

2
WX:0
70
0
0
ATTDEF
8
0
10
0.000000
20
0.000000
30
0.0
40
3.5
1

3

2
JY:0
70
0
0
ATTDEF
8
0
10
0.000000
20
0.000000
30
0.0
40
3.5
1

3

2
WY:0
70
0
0
ENDSEC
0
EOF
