0
SECTION
2
ENTITIES
0
LINE
8
0
10
0.000000
20
47.800000
30
0.0
11
0.000000
21
0.500000
31
0.0
0
ARC
8
0
10
0.500000
20
47.800000
30
0.0
40
0.500000
50
90.000000
51
180.000000
0
LINE
8
0
10
2.300000
20
48.300000
30
0.0
11
0.500000
21
48.300000
31
0.0
0
ARC
8
0
10
2.800000
20
48.300000
30
0.0
40
0.500000
50
0.000000
51
180.000000
0
LINE
8
0
10
5.750000
20
48.300000
30
0.0
11
3.300000
21
48.300000
31
0.0
0
ARC
8
0
10
5.750000
20
49.300000
30
0.0
40
1.000000
50
270.000000
51
0.000000
0
LINE
8
0
10
6.750000
20
68.380544
30
0.0
11
6.750000
21
49.300000
31
0.0
0
ARC
8
0
10
5.750000
20
68.380544
30
0.0
40
1.000000
50
0.000000
51
75.000000
0
LINE
8
0
10
4.900071
20
69.643558
30
0.0
11
6.008819
21
69.346470
31
0.0
0
LINE
8
0
10
3.591181
20
69.292842
30
0.0
11
4.900071
21
69.643558
31
0.0
0
ARC
8
0
10
3.850000
20
68.326916
30
0.0
40
1.000000
50
105.000000
51
180.000000
0
LINE
8
0
10
2.850000
20
62.900000
30
0.0
11
2.850000
21
68.326916
31
0.0
0
ARC
8
0
10
2.250000
20
62.900000
30
0.0
40
0.600000
50
180.000000
51
0.000000
0
LINE
8
0
10
1.650000
20
70.429146
30
0.0
11
1.650000
21
62.900000
31
0.0
0
LINE
8
0
10
4.900071
20
71.300000
30
0.0
11
1.650000
21
70.429146
31
0.0
0
LINE
8
0
10
8.150000
20
70.429184
30
0.0
11
4.900071
21
71.300000
31
0.0
0
LINE
8
0
10
8.150000
20
49.300000
30
0.0
11
8.150000
21
70.429184
31
0.0
0
ARC
8
0
10
9.150000
20
49.300000
30
0.0
40
1.000000
50
180.000000
51
270.000000
0
LINE
8
0
10
24.500000
20
48.300000
30
0.0
11
9.150000
21
48.300000
31
0.0
0
ARC
8
0
10
25.000000
20
48.300000
30
0.0
40
0.500000
50
0.000000
51
180.000000
0
LINE
8
0
10
26.500000
20
48.300000
30
0.0
11
25.500000
21
48.300000
31
0.0
0
ARC
8
0
10
27.000000
20
48.300000
30
0.0
40
0.500000
50
0.000000
51
180.000000
0
LINE
8
0
10
42.850000
20
48.300000
30
0.0
11
27.500000
21
48.300000
31
0.0
0
ARC
8
0
10
42.850000
20
49.300000
30
0.0
40
1.000000
50
270.000000
51
0.000000
0
LINE
8
0
10
43.850000
20
70.429184
30
0.0
11
43.850000
21
49.300000
31
0.0
0
LINE
8
0
10
47.099929
20
71.300000
30
0.0
11
43.850000
21
70.429184
31
0.0
0
LINE
8
0
10
50.349929
20
70.429165
30
0.0
11
47.099929
21
71.300000
31
0.0
0
LINE
8
0
10
50.349929
20
62.900000
30
0.0
11
50.349929
21
70.429165
31
0.0
0
ARC
8
0
10
49.749929
20
62.900000
30
0.0
40
0.600000
50
180.000000
51
0.000000
0
LINE
8
0
10
49.149929
20
68.326935
30
0.0
11
49.149929
21
62.900000
31
0.0
0
ARC
8
0
10
48.149929
20
68.326935
30
0.0
40
1.000000
50
0.000000
51
75.000000
0
LINE
8
0
10
47.099929
20
69.643558
30
0.0
11
48.408748
21
69.292861
31
0.0
0
LINE
8
0
10
45.991181
20
69.346470
30
0.0
11
47.099929
21
69.643558
31
0.0
0
ARC
8
0
10
46.250000
20
68.380544
30
0.0
40
1.000000
50
105.000000
51
180.000000
0
LINE
8
0
10
45.250000
20
49.300000
30
0.0
11
45.250000
21
68.380544
31
0.0
0
ARC
8
0
10
46.250000
20
49.300000
30
0.0
40
1.000000
50
180.000000
51
270.000000
0
LINE
8
0
10
79.200000
20
48.300000
30
0.0
11
46.250000
21
48.300000
31
0.0
0
ARC
8
0
10
79.200000
20
50.300000
30
0.0
40
2.000000
50
270.000000
51
0.000000
0
LINE
8
0
10
81.200000
20
87.800000
30
0.0
11
81.200000
21
50.300000
31
0.0
0
ARC
8
0
10
81.700000
20
87.800000
30
0.0
40
0.500000
50
90.000000
51
180.000000
0
LINE
8
0
10
82.400000
20
88.300000
30
0.0
11
81.700000
21
88.300000
31
0.0
0
ARC
8
0
10
82.400000
20
87.800000
30
0.0
40
0.500000
50
0.000000
51
90.000000
0
LINE
8
0
10
82.900000
20
50.300000
30
0.0
11
82.900000
21
87.800000
31
0.0
0
ARC
8
0
10
79.200000
20
50.300000
30
0.0
40
3.700000
50
270.000000
51
0.000000
0
LINE
8
0
10
53.000000
20
46.600000
30
0.0
11
79.200000
21
46.600000
31
0.0
0
ARC
8
0
10
53.000000
20
45.600000
30
0.0
40
1.000000
50
90.000000
51
180.000000
0
LINE
8
0
10
52.000000
20
0.500000
30
0.0
11
52.000000
21
45.600000
31
0.0
0
LINE
8
0
10
17.088702
20
42.784945
30
0.0
11
17.088702
21
42.367395
31
0.0
0
ARC
8
0
10
18.086605
20
42.367395
30
0.0
40
0.997903
50
180.000000
51
316.139678
0
ARC
8
0
10
17.587654
20
42.784945
30
0.0
40
0.498951
50
90.000000
51
180.000000
0
ARC
8
0
10
16.000000
20
44.372599
30
0.0
40
3.891821
50
316.139678
51
18.194016
0
LINE
8
0
10
17.906682
20
43.283896
30
0.0
11
17.587654
21
43.283896
31
0.0
0
ARC
8
0
10
20.647253
20
45.900000
30
0.0
40
1.000000
50
90.000000
51
198.194016
0
ARC
8
0
10
17.906682
20
43.782848
30
0.0
40
0.498951
50
270.000000
51
342.812770
0
LINE
8
0
10
20.647253
20
46.900000
30
0.0
11
31.349904
21
46.900000
31
0.0
0
ARC
8
0
10
16.000000
20
44.372599
30
0.0
40
2.494757
50
342.812770
51
17.187230
0
ARC
8
0
10
31.349904
20
45.900000
30
0.0
40
1.000000
50
341.912925
51
90.000000
0
ARC
8
0
10
17.906682
20
44.962350
30
0.0
40
0.498951
50
17.187230
51
90.000000
0
ARC
8
0
10
36.000000
20
44.381275
30
0.0
40
3.891821
50
161.912925
51
223.860322
0
LINE
8
0
10
17.587654
20
45.461301
30
0.0
11
17.906682
21
45.461301
31
0.0
0
ARC
8
0
10
33.913395
20
42.376072
30
0.0
40
0.997903
50
223.860322
51
0.000000
0
ARC
8
0
10
17.587654
20
45.960252
30
0.0
40
0.498951
50
180.000000
51
270.000000
0
LINE
8
0
10
34.911298
20
42.376072
30
0.0
11
34.911298
21
42.793622
31
0.0
0
LINE
8
0
10
17.088702
20
46.279280
30
0.0
11
17.088702
21
45.960252
31
0.0
0
ARC
8
0
10
34.412346
20
42.793622
30
0.0
40
0.498951
50
0.000000
51
90.000000
0
ARC
8
0
10
16.589751
20
46.279280
30
0.0
40
0.498951
50
0.000000
51
72.812770
0
LINE
8
0
10
34.412346
20
43.292573
30
0.0
11
34.093318
21
43.292573
31
0.0
0
ARC
8
0
10
16.000000
20
44.372599
30
0.0
40
2.494757
50
72.812770
51
107.187230
0
ARC
8
0
10
34.093318
20
43.791525
30
0.0
40
0.498951
50
197.187230
51
270.000000
0
ARC
8
0
10
15.410249
20
46.279280
30
0.0
40
0.498951
50
107.187230
51
180.000000
0
ARC
8
0
10
36.000000
20
44.381275
30
0.0
40
2.494757
50
162.812770
51
197.187230
0
LINE
8
0
10
14.911298
20
45.960252
30
0.0
11
14.911298
21
46.279280
31
0.0
0
ARC
8
0
10
34.093318
20
44.971026
30
0.0
40
0.498951
50
90.000000
51
162.812770
0
ARC
8
0
10
14.412346
20
45.960252
30
0.0
40
0.498951
50
270.000000
51
0.000000
0
LINE
8
0
10
34.093318
20
45.469978
30
0.0
11
34.412346
21
45.469978
31
0.0
0
LINE
8
0
10
14.093318
20
45.461301
30
0.0
11
14.412346
21
45.461301
31
0.0
0
ARC
8
0
10
34.412346
20
45.968929
30
0.0
40
0.498951
50
270.000000
51
0.000000
0
ARC
8
0
10
14.093318
20
44.962350
30
0.0
40
0.498951
50
90.000000
51
162.812770
0
LINE
8
0
10
34.911298
20
45.968929
30
0.0
11
34.911298
21
46.287957
31
0.0
0
ARC
8
0
10
16.000000
20
44.372599
30
0.0
40
2.494757
50
162.812770
51
197.187230
0
ARC
8
0
10
35.410249
20
46.287957
30
0.0
40
0.498951
50
107.187230
51
180.000000
0
ARC
8
0
10
14.093318
20
43.782848
30
0.0
40
0.498951
50
197.187230
51
270.000000
0
ARC
8
0
10
36.000000
20
44.381275
30
0.0
40
2.494757
50
72.812770
51
107.187230
0
LINE
8
0
10
14.412346
20
43.283896
30
0.0
11
14.093318
21
43.283896
31
0.0
0
ARC
8
0
10
36.589751
20
46.287957
30
0.0
40
0.498951
50
0.000000
51
72.812770
0
ARC
8
0
10
14.412346
20
42.784945
30
0.0
40
0.498951
50
0.000000
51
90.000000
0
LINE
8
0
10
37.088702
20
46.287957
30
0.0
11
37.088702
21
45.968929
31
0.0
0
LINE
8
0
10
14.911298
20
42.367395
30
0.0
11
14.911298
21
42.784945
31
0.0
0
ARC
8
0
10
37.587654
20
45.968929
30
0.0
40
0.498951
50
180.000000
51
270.000000
0
ARC
8
0
10
13.913395
20
42.367395
30
0.0
40
0.997903
50
223.860322
51
0.000000
0
LINE
8
0
10
37.587654
20
45.469978
30
0.0
11
37.906682
21
45.469978
31
0.0
0
ARC
8
0
10
16.000000
20
44.372599
30
0.0
40
3.891821
50
161.805984
51
223.860322
0
ARC
8
0
10
37.906682
20
44.971026
30
0.0
40
0.498951
50
17.187230
51
90.000000
0
ARC
8
0
10
11.352747
20
45.900000
30
0.0
40
1.000000
50
341.805984
51
90.000000
0
ARC
8
0
10
36.000000
20
44.381275
30
0.0
40
2.494757
50
342.812770
51
17.187230
0
LINE
8
0
10
1.800000
20
46.900000
30
0.0
11
11.352747
21
46.900000
31
0.0
0
ARC
8
0
10
37.906682
20
43.791525
30
0.0
40
0.498951
50
270.000000
51
342.812770
0
ARC
8
0
10
1.800000
20
46.400000
30
0.0
40
0.500000
50
90.000000
51
180.000000
0
LINE
8
0
10
37.906682
20
43.292573
30
0.0
11
37.587654
21
43.292573
31
0.0
0
LINE
8
0
10
1.300000
20
8.500000
30
0.0
11
1.300000
21
46.400000
31
0.0
0
ARC
8
0
10
37.587654
20
42.793622
30
0.0
40
0.498951
50
90.000000
51
180.000000
0
LINE
8
0
10
37.088702
20
42.793622
30
0.0
11
37.088702
21
42.376072
31
0.0
0
ARC
8
0
10
38.086605
20
42.376072
30
0.0
40
0.997903
50
180.000000
51
316.139678
0
ARC
8
0
10
36.000000
20
44.381275
30
0.0
40
3.891821
50
316.139678
51
18.087075
0
LINE
8
0
10
50.700000
20
46.400000
30
0.0
11
50.700000
21
8.500000
31
0.0
0
ARC
8
0
10
40.650096
20
45.900000
30
0.0
40
1.000000
50
90.000000
51
198.087075
0
ARC
8
0
10
50.200000
20
46.400000
30
0.0
40
0.500000
50
0.000000
51
90.000000
0
LINE
8
0
10
40.650096
20
46.900000
30
0.0
11
50.200000
21
46.900000
31
0.0
0
ARC
8
0
10
0.500000
20
0.500000
30
0.0
40
0.500000
50
180.000000
51
270.000000
0
LINE
8
0
10
0.500000
20
0.000000
30
0.0
11
0.911325
21
0.000000
31
0.0
0
ARC
8
0
10
0.911325
20
0.500000
30
0.0
40
0.500000
50
270.000000
51
330.000000
0
LINE
8
0
10
1.344338
20
0.250000
30
0.0
11
1.933013
21
1.269615
31
0.0
0
ARC
8
0
10
1.500000
20
1.519615
30
0.0
40
0.500000
50
330.000000
51
60.000000
0
LINE
8
0
10
1.750000
20
1.952628
30
0.0
11
1.200000
21
2.270171
31
0.0
0
LINE
8
0
10
1.200000
20
2.270171
30
0.0
11
1.200000
21
4.950000
31
0.0
0
ARC
8
0
10
2.950000
20
4.950000
30
0.0
40
1.750000
50
0.000000
51
180.000000
0
LINE
8
0
10
4.700000
20
4.950000
30
0.0
11
4.700000
21
1.476998
31
0.0
0
ARC
8
0
10
4.200000
20
1.476998
30
0.0
40
0.500000
50
287.883295
51
0.000000
0
ARC
8
0
10
4.511081
20
0.512912
30
0.0
40
0.513032
50
107.883295
51
268.762373
0
LINE
8
0
10
4.500000
20
0.000000
30
0.0
11
10.400000
21
0.000000
31
0.0
0
ARC
8
0
10
10.400000
20
0.600000
30
0.0
40
0.600000
50
270.000000
51
90.000000
0
LINE
8
0
10
10.400000
20
1.200000
30
0.0
11
6.900000
21
1.200000
31
0.0
0
ARC
8
0
10
6.900000
20
2.200000
30
0.0
40
1.000000
50
180.000000
51
270.000000
0
LINE
8
0
10
5.900000
20
2.200000
30
0.0
11
5.900000
21
6.200000
31
0.0
0
ARC
8
0
10
6.400000
20
6.200000
30
0.0
40
0.500000
50
90.000000
51
180.000000
0
LINE
8
0
10
6.400000
20
6.700000
30
0.0
11
21.349904
21
6.700000
31
0.0
0
ARC
8
0
10
21.349904
20
5.700000
30
0.0
40
1.000000
50
341.912925
51
90.000000
0
ARC
8
0
10
26.000000
20
4.181275
30
0.0
40
3.891821
50
161.912925
51
223.860322
0
ARC
8
0
10
23.913395
20
2.176072
30
0.0
40
0.997903
50
223.860322
51
0.000000
0
LINE
8
0
10
24.911298
20
2.176072
30
0.0
11
24.911298
21
2.593622
31
0.0
0
ARC
8
0
10
24.412346
20
2.593622
30
0.0
40
0.498951
50
0.000000
51
90.000000
0
LINE
8
0
10
24.412346
20
3.092573
30
0.0
11
24.093318
21
3.092573
31
0.0
0
ARC
8
0
10
24.093318
20
3.591525
30
0.0
40
0.498951
50
197.187230
51
270.000000
0
ARC
8
0
10
26.000000
20
4.181275
30
0.0
40
2.494757
50
162.812770
51
197.187230
0
ARC
8
0
10
24.093318
20
4.771026
30
0.0
40
0.498951
50
90.000000
51
162.812770
0
LINE
8
0
10
24.093318
20
5.269978
30
0.0
11
24.412346
21
5.269978
31
0.0
0
ARC
8
0
10
24.412346
20
5.768929
30
0.0
40
0.498951
50
270.000000
51
0.000000
0
LINE
8
0
10
24.911298
20
5.768929
30
0.0
11
24.911298
21
6.087957
31
0.0
0
ARC
8
0
10
25.410249
20
6.087957
30
0.0
40
0.498951
50
107.187230
51
180.000000
0
ARC
8
0
10
26.000000
20
4.181275
30
0.0
40
2.494757
50
72.812770
51
107.187230
0
ARC
8
0
10
26.589751
20
6.087957
30
0.0
40
0.498951
50
0.000000
51
72.812770
0
LINE
8
0
10
27.088702
20
6.087957
30
0.0
11
27.088702
21
5.768929
31
0.0
0
ARC
8
0
10
27.587654
20
5.768929
30
0.0
40
0.498951
50
180.000000
51
270.000000
0
LINE
8
0
10
27.587654
20
5.269978
30
0.0
11
27.906682
21
5.269978
31
0.0
0
ARC
8
0
10
27.906682
20
4.771026
30
0.0
40
0.498951
50
17.187230
51
90.000000
0
ARC
8
0
10
26.000000
20
4.181275
30
0.0
40
2.494757
50
342.812770
51
17.187230
0
ARC
8
0
10
27.906682
20
3.591525
30
0.0
40
0.498951
50
270.000000
51
342.812770
0
LINE
8
0
10
27.906682
20
3.092573
30
0.0
11
27.587654
21
3.092573
31
0.0
0
ARC
8
0
10
27.587654
20
2.593622
30
0.0
40
0.498951
50
90.000000
51
180.000000
0
LINE
8
0
10
27.088702
20
2.593622
30
0.0
11
27.088702
21
2.176072
31
0.0
0
ARC
8
0
10
28.086605
20
2.176072
30
0.0
40
0.997903
50
180.000000
51
316.139678
0
ARC
8
0
10
26.000000
20
4.181275
30
0.0
40
3.891821
50
316.139678
51
18.087075
0
ARC
8
0
10
30.650096
20
5.700000
30
0.0
40
1.000000
50
90.000000
51
198.087075
0
LINE
8
0
10
30.650096
20
6.700000
30
0.0
11
45.600000
21
6.700000
31
0.0
0
ARC
8
0
10
45.600000
20
6.200000
30
0.0
40
0.500000
50
0.000000
51
90.000000
0
ARC
8
0
10
51.500000
20
0.500000
30
0.0
40
0.500000
50
270.000000
51
0.000000
0
LINE
8
0
10
46.100000
20
6.200000
30
0.0
11
46.100000
21
2.200000
31
0.0
0
LINE
8
0
10
51.088675
20
0.000000
30
0.0
11
51.500000
21
0.000000
31
0.0
0
ARC
8
0
10
45.100000
20
2.200000
30
0.0
40
1.000000
50
270.000000
51
0.000000
0
ARC
8
0
10
51.088675
20
0.500000
30
0.0
40
0.500000
50
210.000000
51
270.000000
0
LINE
8
0
10
45.100000
20
1.200000
30
0.0
11
41.600000
21
1.200000
31
0.0
0
LINE
8
0
10
50.066987
20
1.269615
30
0.0
11
50.655662
21
0.250000
31
0.0
0
ARC
8
0
10
41.600000
20
0.600000
30
0.0
40
0.600000
50
90.000000
51
270.000000
0
ARC
8
0
10
50.500000
20
1.519615
30
0.0
40
0.500000
50
120.000000
51
210.000000
0
LINE
8
0
10
41.600000
20
0.000000
30
0.0
11
47.500000
21
0.000000
31
0.0
0
LINE
8
0
10
50.800000
20
2.270171
30
0.0
11
50.250000
21
1.952628
31
0.0
0
ARC
8
0
10
47.488919
20
0.512912
30
0.0
40
0.513032
50
271.237627
51
72.116705
0
LINE
8
0
10
50.800000
20
4.950000
30
0.0
11
50.800000
21
2.270171
31
0.0
0
ARC
8
0
10
47.800000
20
1.476998
30
0.0
40
0.500000
50
180.000000
51
252.116705
0
ARC
8
0
10
49.050000
20
4.950000
30
0.0
40
1.750000
50
0.000000
51
180.000000
0
LINE
8
0
10
47.300000
20
1.476998
30
0.0
11
47.300000
21
4.950000
31
0.0
0
ARC
8
0
10
1.800000
20
8.500000
30
0.0
40
0.500000
50
180.000000
51
270.000000
0
LINE
8
0
10
50.200000
20
8.000000
30
0.0
11
1.800000
21
8.000000
31
0.0
0
ARC
8
0
10
50.200000
20
8.500000
30
0.0
40
0.500000
50
270.000000
51
0.000000
0
ATTDEF
8
0
10
0.000000
20
0.000000
30
0.0
40
3.5
1

3

2
FRONT_VIEW
70
0
0
ATTDEF
8
0
10
0.000000
20
0.000000
30
0.0
40
3.5
1

3

2
OPTI:500.000000,1,0,3000.000000,6900.000000,500.000000,0,0.000000,0
70
0
0
ATTDEF
8
0
10
0.000000
20
0.000000
30
0.0
40
3.5
1

3

2
GLASS_MIN:0.000000
70
0
0
ATTDEF
8
0
10
0.000000
20
0.000000
30
0.0
40
3.5
1

3

2
GLASS_MAX:0.000000
70
0
0
ATTDEF
8
0
10
0.000000
20
0.000000
30
0.0
40
3.5
1

3

2
WX:0.000000
70
0
0
ATTDEF
8
0
10
0.000000
20
0.000000
30
0.0
40
3.5
1

3

2
JY:0.000000
70
0
0
ATTDEF
8
0
10
0.000000
20
0.000000
30
0.0
40
3.5
1

3

2
WY:0.000000
70
0
0
ATTDEF
8
0
10
4.900071
20
71.300000
30
0.0
40
3.5
1

3

2
VC_START
70
0
0
ATTDEF
8
0
10
7.450000
20
0.000000
30
0.0
40
3.5
1

3

2
VC_END
70
0
0
ATTDEF
8
0
10
0.000000
20
0.000000
30
0.0
40
3.5
1

3

2
FP_LCS_ORIG
70
0
0
ATTDEF
8
0
10
10.000000
20
0.000000
30
0.0
40
3.5
1

3

2
FP_LCS_HOT
70
0
0
ATTDEF
8
0
10
0.000000
20
10.000000
30
0.0
40
3.5
1

3

2
FP_LCS_INTERN
70
0
0
ATTDEF
8
0
10
0.000000
20
0.000000
30
0.0
40
3.5
1

3

2
BL01:6200.000,,1
70
0
0
ATTDEF
8
0
10
0.000000
20
0.000000
30
0.0
40
3.5
1

3

2
DESC:Umbral corrediza con caja de agua reforzada
70
0
0
ATTDEF
8
0
10
0.000000
20
0.000000
30
0.0
40
3.5
1

3

2
DENS:1.55
70
0
0
ATTDEF
8
0
10
0.000000
20
0.000000
30
0.0
40
3.5
1

3

2
TDEV:0
70
0
0
ATTDEF
8
0
10
0.000000
20
0.000000
30
0.0
40
3.5
1

3

2
TDEV2:0
70
0
0
ATTDEF
8
0
10
0.000000
20
0.000000
30
0.0
40
3.5
1

3

2
TDEV3:0
70
0
0
ATTDEF
8
0
10
0.000000
20
0.000000
30
0.0
40
3.5
1

3

2
TDEV4:0
70
0
0
ATTDEF
8
0
10
0.000000
20
0.000000
30
0.0
40
3.5
1

3

2
TDEV5:0
70
0
0
ATTDEF
8
0
10
0.000000
20
0.000000
30
0.0
40
3.5
1

3

2
PANE_WIDTH:0
70
0
0
ATTDEF
8
0
10
0.000000
20
0.000000
30
0.0
40
3.5
1

3

2
MIN_VETRO:0
70
0
0
ATTDEF
8
0
10
0.000000
20
0.000000
30
0.0
40
3.5
1

3

2
MAX_VETRO:0
70
0
0
ATTDEF
8
0
10
0.000000
20
0.000000
30
0.0
40
3.5
1

3

2
JX:0
70
0
0
ATTDEF
8
0
10
0.000000
20
0.000000
30
0.0
40
3.5
1

3

2
WX:0
70
0
0
ATTDEF
8
0
10
0.000000
20
0.000000
30
0.0
40
3.5
1

3

2
JY:0
70
0
0
ATTDEF
8
0
10
0.000000
20
0.000000
30
0.0
40
3.5
1

3

2
WY:0
70
0
0
ENDSEC
0
EOF
