0
SECTION
2
ENTITIES
0
ARC
8
0
10
58.650000
20
51.600000
30
0.0
40
0.500000
50
180.000000
51
270.000000
0
LINE
8
0
10
63.900000
20
51.100000
30
0.0
11
58.650000
21
51.100000
31
0.0
0
LINE
8
0
10
58.150000
20
51.600000
30
0.0
11
58.150000
21
52.000000
31
0.0
0
ARC
8
0
10
63.900000
20
50.600000
30
0.0
40
0.500000
50
0.000000
51
90.000000
0
ARC
8
0
10
58.650000
20
52.000000
30
0.0
40
0.500000
50
90.000000
51
180.000000
0
LINE
8
0
10
64.400000
20
37.200000
30
0.0
11
64.400000
21
50.600000
31
0.0
0
LINE
8
0
10
58.650000
20
52.500000
30
0.0
11
64.650000
21
52.500000
31
0.0
0
LINE
8
0
10
40.400000
20
37.200000
30
0.0
11
64.400000
21
37.200000
31
0.0
0
ARC
8
0
10
64.650000
20
51.500000
30
0.0
40
1.000000
50
0.000000
51
90.000000
0
LINE
8
0
10
40.400000
20
50.600000
30
0.0
11
40.400000
21
37.200000
31
0.0
0
LINE
8
0
10
65.650000
20
51.500000
30
0.0
11
65.650000
21
37.200000
31
0.0
0
ARC
8
0
10
40.900000
20
50.600000
30
0.0
40
0.500000
50
90.000000
51
180.000000
0
ARC
8
0
10
65.650000
20
36.700000
30
0.0
40
0.500000
50
270.000000
51
90.000000
0
LINE
8
0
10
45.650000
20
51.100000
30
0.0
11
40.900000
21
51.100000
31
0.0
0
LINE
8
0
10
65.650000
20
36.200000
30
0.0
11
65.650000
21
30.900000
31
0.0
0
ARC
8
0
10
45.650000
20
51.600000
30
0.0
40
0.500000
50
270.000000
51
0.000000
0
ARC
8
0
10
66.150000
20
30.900000
30
0.0
40
0.500000
50
180.000000
51
270.000000
0
LINE
8
0
10
46.150000
20
52.000000
30
0.0
11
46.150000
21
51.600000
31
0.0
0
LINE
8
0
10
66.150000
20
30.400000
30
0.0
11
68.300000
21
30.400000
31
0.0
0
ARC
8
0
10
45.650000
20
52.000000
30
0.0
40
0.500000
50
0.000000
51
90.000000
0
ARC
8
0
10
68.300000
20
29.900000
30
0.0
40
0.500000
50
0.000000
51
90.000000
0
LINE
8
0
10
40.150000
20
52.500000
30
0.0
11
45.650000
21
52.500000
31
0.0
0
LINE
8
0
10
68.800000
20
29.900000
30
0.0
11
68.800000
21
28.251461
31
0.0
0
ARC
8
0
10
40.150000
20
51.500000
30
0.0
40
1.000000
50
90.000000
51
180.000000
0
ARC
8
0
10
68.300000
20
28.251461
30
0.0
40
0.500000
50
270.000000
51
0.000000
0
LINE
8
0
10
39.150000
20
37.700000
30
0.0
11
39.150000
21
51.500000
31
0.0
0
LINE
8
0
10
68.300000
20
27.751461
30
0.0
11
68.100000
21
27.751461
31
0.0
0
ARC
8
0
10
38.650000
20
37.700000
30
0.0
40
0.500000
50
270.000000
51
0.000000
0
ARC
8
0
10
68.100000
20
28.251461
30
0.0
40
0.500000
50
180.000000
51
270.000000
0
LINE
8
0
10
12.560000
20
37.200000
30
0.0
11
38.650000
21
37.200000
31
0.0
0
LINE
8
0
10
67.600000
20
28.251461
30
0.0
11
67.600000
21
28.500000
31
0.0
0
ARC
8
0
10
12.560000
20
-14.800000
30
0.0
40
52.000000
50
90.000000
51
101.726040
0
ARC
8
0
10
67.100000
20
28.500000
30
0.0
40
0.500000
50
0.000000
51
90.000000
0
ARC
8
0
10
2.500000
20
33.666962
30
0.0
40
2.500000
50
101.726040
51
180.000000
0
LINE
8
0
10
67.100000
20
29.000000
30
0.0
11
66.900000
21
29.000000
31
0.0
0
LINE
8
0
10
0.000000
20
20.733038
30
0.0
11
0.000000
21
33.666962
31
0.0
0
ARC
8
0
10
66.900000
20
28.500000
30
0.0
40
0.500000
50
90.000000
51
180.000000
0
ARC
8
0
10
2.500000
20
20.733038
30
0.0
40
2.500000
50
180.000000
51
258.273960
0
LINE
8
0
10
66.400000
20
28.500000
30
0.0
11
66.400000
21
22.000000
31
0.0
0
ARC
8
0
10
12.560000
20
69.200000
30
0.0
40
52.000000
50
258.273960
51
270.000000
0
ARC
8
0
10
66.900000
20
22.000000
30
0.0
40
0.500000
50
180.000000
51
270.000000
0
LINE
8
0
10
38.650000
20
17.200000
30
0.0
11
12.560000
21
17.200000
31
0.0
0
LINE
8
0
10
66.900000
20
21.500000
30
0.0
11
67.100000
21
21.500000
31
0.0
0
ARC
8
0
10
38.650000
20
16.700000
30
0.0
40
0.500000
50
0.000000
51
90.000000
0
ARC
8
0
10
67.100000
20
22.000000
30
0.0
40
0.500000
50
270.000000
51
0.000000
0
LINE
8
0
10
39.150000
20
1.000000
30
0.0
11
39.150000
21
16.700000
31
0.0
0
LINE
8
0
10
67.600000
20
22.000000
30
0.0
11
67.600000
21
22.250000
31
0.0
0
ARC
8
0
10
40.150000
20
1.000000
30
0.0
40
1.000000
50
180.000000
51
270.000000
0
ARC
8
0
10
68.100000
20
22.250000
30
0.0
40
0.500000
50
90.000000
51
180.000000
0
LINE
8
0
10
72.300000
20
0.000000
30
0.0
11
40.150000
21
0.000000
31
0.0
0
LINE
8
0
10
68.100000
20
22.750000
30
0.0
11
68.300000
21
22.750000
31
0.0
0
ARC
8
0
10
72.300000
20
3.000000
30
0.0
40
3.000000
50
270.000000
51
0.000000
0
ARC
8
0
10
68.300000
20
22.250000
30
0.0
40
0.500000
50
0.000000
51
90.000000
0
LINE
8
0
10
75.300000
20
29.900000
30
0.0
11
75.300000
21
3.000000
31
0.0
0
LINE
8
0
10
68.800000
20
22.250000
30
0.0
11
68.800000
21
22.000000
31
0.0
0
ARC
8
0
10
74.800000
20
29.900000
30
0.0
40
0.500000
50
0.000000
51
174.000000
0
ARC
8
0
10
69.300000
20
22.000000
30
0.0
40
0.500000
50
180.000000
51
270.000000
0
LINE
8
0
10
73.508488
20
22.395472
30
0.0
11
74.302739
21
29.952264
31
0.0
0
LINE
8
0
10
69.300000
20
21.500000
30
0.0
11
72.513966
21
21.500000
31
0.0
0
ARC
8
0
10
72.513966
20
22.500000
30
0.0
40
1.000000
50
270.000000
51
354.000000
0
ARC
8
0
10
4.000000
20
34.055771
30
0.0
40
1.000000
50
99.937897
51
180.000000
0
ARC
8
0
10
12.560000
20
-14.800000
30
0.0
40
50.600000
50
90.000000
51
99.937897
0
LINE
8
0
10
3.000000
20
20.344229
30
0.0
11
3.000000
21
34.055771
31
0.0
0
LINE
8
0
10
12.560000
20
35.800000
30
0.0
11
38.150000
21
35.800000
31
0.0
0
ARC
8
0
10
4.000000
20
20.344229
30
0.0
40
1.000000
50
180.000000
51
260.062103
0
ARC
8
0
10
38.150000
20
34.800000
30
0.0
40
1.000000
50
0.000000
51
90.000000
0
ARC
8
0
10
12.560000
20
69.200000
30
0.0
40
50.600000
50
260.062103
51
270.000000
0
LINE
8
0
10
39.150000
20
34.800000
30
0.0
11
39.150000
21
19.600000
31
0.0
0
LINE
8
0
10
38.150000
20
18.600000
30
0.0
11
12.560000
21
18.600000
31
0.0
0
ARC
8
0
10
38.150000
20
19.600000
30
0.0
40
1.000000
50
270.000000
51
0.000000
0
LINE
8
0
10
40.400000
20
1.400000
30
0.0
11
40.400000
21
35.300000
31
0.0
0
ARC
8
0
10
40.900000
20
35.300000
30
0.0
40
0.500000
50
90.000000
51
180.000000
0
LINE
8
0
10
64.400000
20
1.400000
30
0.0
11
40.400000
21
1.400000
31
0.0
0
LINE
8
0
10
40.900000
20
35.800000
30
0.0
11
63.900000
21
35.800000
31
0.0
0
LINE
8
0
10
64.400000
20
1.900000
30
0.0
11
64.400000
21
1.400000
31
0.0
0
ARC
8
0
10
63.900000
20
35.300000
30
0.0
40
0.500000
50
0.000000
51
90.000000
0
ARC
8
0
10
64.900000
20
1.900000
30
0.0
40
0.500000
50
0.000000
51
180.000000
0
LINE
8
0
10
64.400000
20
35.300000
30
0.0
11
64.400000
21
21.600000
31
0.0
0
LINE
8
0
10
65.400000
20
1.400000
30
0.0
11
65.400000
21
1.900000
31
0.0
0
ARC
8
0
10
65.900000
20
21.600000
30
0.0
40
1.500000
50
180.000000
51
270.000000
0
LINE
8
0
10
70.800000
20
1.400000
30
0.0
11
65.400000
21
1.400000
31
0.0
0
LINE
8
0
10
65.900000
20
20.100000
30
0.0
11
71.800000
21
20.100000
31
0.0
0
ARC
8
0
10
70.800000
20
2.900000
30
0.0
40
1.500000
50
270.000000
51
0.000000
0
ARC
8
0
10
71.800000
20
19.600000
30
0.0
40
0.500000
50
0.000000
51
90.000000
0
LINE
8
0
10
72.300000
20
19.600000
30
0.0
11
72.300000
21
2.900000
31
0.0
0
ATTDEF
8
0
10
52.400000
20
37.200000
30
0.0
40
3.5
1

3

2
VC_START
70
0
0
ATTDEF
8
0
10
56.225000
20
0.000000
30
0.0
40
3.5
1

3

2
VC_END
70
0
0
ATTDEF
8
0
10
75.300000
20
0.000000
30
0.0
40
3.5
1

3

2
FRONT_VIEW
70
0
0
ATTDEF
8
0
10
75.300000
20
0.000000
30
0.0
40
3.5
1

3

2
OPTI:500.000000,1,0,3000.000000,6900.000000,500.000000,0,0.000000,0
70
0
0
ATTDEF
8
0
10
75.300000
20
0.000000
30
0.0
40
3.5
1

3

2
GLASS_MIN:0.000000
70
0
0
ATTDEF
8
0
10
75.300000
20
0.000000
30
0.0
40
3.5
1

3

2
GLASS_MAX:0.000000
70
0
0
ATTDEF
8
0
10
75.300000
20
0.000000
30
0.0
40
3.5
1

3

2
JX:0.000000
70
0
0
ATTDEF
8
0
10
75.300000
20
0.000000
30
0.0
40
3.5
1

3

2
WX:0.000000
70
0
0
ATTDEF
8
0
10
75.300000
20
0.000000
30
0.0
40
3.5
1

3

2
JY:0.000000
70
0
0
ATTDEF
8
0
10
75.300000
20
0.000000
30
0.0
40
3.5
1

3

2
WY:0.000000
70
0
0
ATTDEF
8
0
10
0.000000
20
0.000000
30
0.0
40
3.5
1

3

2
BL01:6200.000,,1
70
0
0
ATTDEF
8
0
10
75.300000
20
0.000000
30
0.0
40
3.5
1

3

2
FP_LCS_ORIG
70
0
0
ATTDEF
8
0
10
65.300000
20
0.000000
30
0.0
40
3.5
1

3

2
FP_LCS_HOT
70
0
0
ATTDEF
8
0
10
75.300000
20
10.000000
30
0.0
40
3.5
1

3

2
FP_LCS_INTERN
70
0
0
ATTDEF
8
0
10
0.000000
20
0.000000
30
0.0
40
3.5
1

3

2
DESC:Parante central reforzado para pta. corrediza vidrio simple
70
0
0
ATTDEF
8
0
10
0.000000
20
0.000000
30
0.0
40
3.5
1

3

2
DENS:1.223
70
0
0
ATTDEF
8
0
10
0.000000
20
0.000000
30
0.0
40
3.5
1

3

2
TDEV:0
70
0
0
ATTDEF
8
0
10
0.000000
20
0.000000
30
0.0
40
3.5
1

3

2
TDEV2:0
70
0
0
ATTDEF
8
0
10
0.000000
20
0.000000
30
0.0
40
3.5
1

3

2
TDEV3:0
70
0
0
ATTDEF
8
0
10
0.000000
20
0.000000
30
0.0
40
3.5
1

3

2
TDEV4:0
70
0
0
ATTDEF
8
0
10
0.000000
20
0.000000
30
0.0
40
3.5
1

3

2
TDEV5:0
70
0
0
ATTDEF
8
0
10
0.000000
20
0.000000
30
0.0
40
3.5
1

3

2
PANE_WIDTH:0
70
0
0
ATTDEF
8
0
10
0.000000
20
0.000000
30
0.0
40
3.5
1

3

2
MIN_VETRO:0
70
0
0
ATTDEF
8
0
10
0.000000
20
0.000000
30
0.0
40
3.5
1

3

2
MAX_VETRO:0
70
0
0
ATTDEF
8
0
10
0.000000
20
0.000000
30
0.0
40
3.5
1

3

2
JX:0
70
0
0
ATTDEF
8
0
10
0.000000
20
0.000000
30
0.0
40
3.5
1

3

2
WX:0
70
0
0
ATTDEF
8
0
10
0.000000
20
0.000000
30
0.0
40
3.5
1

3

2
JY:0
70
0
0
ATTDEF
8
0
10
0.000000
20
0.000000
30
0.0
40
3.5
1

3

2
WY:0
70
0
0
ENDSEC
0
EOF
