0
SECTION
2
ENTITIES
0
LINE
8
0
10
92.750000
20
2.125833
30
0.0
11
92.450000
21
1.952628
31
0.0
0
ARC
8
0
10
92.700000
20
1.519615
30
0.0
40
0.500000
50
120.000000
51
210.000000
0
ARC
8
0
10
92.500000
20
2.558846
30
0.0
40
0.500000
50
300.000000
51
0.000000
0
LINE
8
0
10
92.266987
20
1.269615
30
0.0
11
92.855662
21
0.250000
31
0.0
0
LINE
8
0
10
93.000000
20
4.950000
30
0.0
11
93.000000
21
2.558846
31
0.0
0
ARC
8
0
10
93.288675
20
0.500000
30
0.0
40
0.500000
50
210.000000
51
270.000000
0
ARC
8
0
10
91.250000
20
4.950000
30
0.0
40
1.750000
50
0.000000
51
180.000000
0
LINE
8
0
10
93.288675
20
0.000000
30
0.0
11
93.700000
21
0.000000
31
0.0
0
LINE
8
0
10
89.500000
20
1.453939
30
0.0
11
89.500000
21
4.950000
31
0.0
0
ARC
8
0
10
93.700000
20
0.500000
30
0.0
40
0.500000
50
270.000000
51
0.000000
0
ARC
8
0
10
90.000000
20
1.453939
30
0.0
40
0.500000
50
180.000000
51
252.542397
0
LINE
8
0
10
94.200000
20
0.500000
30
0.0
11
94.200000
21
20.800000
31
0.0
0
ARC
8
0
10
89.700000
20
0.500000
30
0.0
40
0.500000
50
270.000000
51
72.542397
0
ARC
8
0
10
94.000000
20
20.800000
30
0.0
40
0.200000
50
0.000000
51
90.000000
0
LINE
8
0
10
83.800000
20
0.000000
30
0.0
11
89.700000
21
0.000000
31
0.0
0
LINE
8
0
10
94.000000
20
21.000000
30
0.0
11
73.600000
21
21.000000
31
0.0
0
ARC
8
0
10
83.800000
20
0.600000
30
0.0
40
0.600000
50
90.000000
51
270.000000
0
ARC
8
0
10
73.600000
20
21.500000
30
0.0
40
0.500000
50
180.000000
51
270.000000
0
LINE
8
0
10
87.300000
20
1.200000
30
0.0
11
83.800000
21
1.200000
31
0.0
0
LINE
8
0
10
73.100000
20
21.500000
30
0.0
11
73.100000
21
35.000000
31
0.0
0
ARC
8
0
10
87.300000
20
2.200000
30
0.0
40
1.000000
50
270.000000
51
0.000000
0
ARC
8
0
10
72.100000
20
35.000000
30
0.0
40
1.000000
50
0.000000
51
90.000000
0
LINE
8
0
10
88.300000
20
6.200000
30
0.0
11
88.300000
21
2.200000
31
0.0
0
LINE
8
0
10
72.100000
20
36.000000
30
0.0
11
71.900000
21
36.000000
31
0.0
0
ARC
8
0
10
87.800000
20
6.200000
30
0.0
40
0.500000
50
0.000000
51
90.000000
0
ARC
8
0
10
71.900000
20
35.800000
30
0.0
40
0.200000
50
90.000000
51
180.000000
0
LINE
8
0
10
48.600000
20
6.700000
30
0.0
11
87.800000
21
6.700000
31
0.0
0
LINE
8
0
10
71.700000
20
35.800000
30
0.0
11
71.700000
21
21.500000
31
0.0
0
ARC
8
0
10
48.100000
20
6.700000
30
0.0
40
0.500000
50
180.000000
51
0.000000
0
ARC
8
0
10
71.200000
20
21.500000
30
0.0
40
0.500000
50
270.000000
51
0.000000
0
LINE
8
0
10
46.600000
20
6.700000
30
0.0
11
47.600000
21
6.700000
31
0.0
0
LINE
8
0
10
71.200000
20
21.000000
30
0.0
11
69.700000
21
21.000000
31
0.0
0
ARC
8
0
10
46.100000
20
6.700000
30
0.0
40
0.500000
50
180.000000
51
0.000000
0
ARC
8
0
10
69.200000
20
21.000000
30
0.0
40
0.500000
50
0.000000
51
180.000000
0
LINE
8
0
10
6.400000
20
6.700000
30
0.0
11
45.600000
21
6.700000
31
0.0
0
LINE
8
0
10
68.700000
20
21.000000
30
0.0
11
67.700000
21
21.000000
31
0.0
0
ARC
8
0
10
6.400000
20
6.200000
30
0.0
40
0.500000
50
90.000000
51
180.000000
0
ARC
8
0
10
67.200000
20
21.000000
30
0.0
40
0.500000
50
0.000000
51
180.000000
0
LINE
8
0
10
5.900000
20
2.200000
30
0.0
11
5.900000
21
6.200000
31
0.0
0
LINE
8
0
10
66.700000
20
21.000000
30
0.0
11
65.200000
21
21.000000
31
0.0
0
ARC
8
0
10
6.900000
20
2.200000
30
0.0
40
1.000000
50
180.000000
51
270.000000
0
ARC
8
0
10
65.200000
20
21.500000
30
0.0
40
0.500000
50
180.000000
51
270.000000
0
LINE
8
0
10
10.400000
20
1.200000
30
0.0
11
6.900000
21
1.200000
31
0.0
0
LINE
8
0
10
64.700000
20
21.500000
30
0.0
11
64.700000
21
35.800000
31
0.0
0
ARC
8
0
10
10.400000
20
0.600000
30
0.0
40
0.600000
50
270.000000
51
90.000000
0
ARC
8
0
10
64.500000
20
35.800000
30
0.0
40
0.200000
50
0.000000
51
90.000000
0
LINE
8
0
10
4.500000
20
0.000000
30
0.0
11
10.400000
21
0.000000
31
0.0
0
LINE
8
0
10
64.500000
20
36.000000
30
0.0
11
64.300000
21
36.000000
31
0.0
0
ARC
8
0
10
4.500000
20
0.500000
30
0.0
40
0.500000
50
107.457603
51
270.000000
0
ARC
8
0
10
64.300000
20
35.000000
30
0.0
40
1.000000
50
90.000000
51
180.000000
0
ARC
8
0
10
4.200000
20
1.453939
30
0.0
40
0.500000
50
287.457603
51
0.000000
0
LINE
8
0
10
63.300000
20
35.000000
30
0.0
11
63.300000
21
21.500000
31
0.0
0
LINE
8
0
10
4.700000
20
4.950000
30
0.0
11
4.700000
21
1.453939
31
0.0
0
ARC
8
0
10
62.800000
20
21.500000
30
0.0
40
0.500000
50
270.000000
51
0.000000
0
ARC
8
0
10
2.950000
20
4.950000
30
0.0
40
1.750000
50
0.000000
51
180.000000
0
LINE
8
0
10
62.800000
20
21.000000
30
0.0
11
0.200000
21
21.000000
31
0.0
0
LINE
8
0
10
1.200000
20
2.558846
30
0.0
11
1.200000
21
4.950000
31
0.0
0
ARC
8
0
10
0.200000
20
20.800000
30
0.0
40
0.200000
50
90.000000
51
180.000000
0
ARC
8
0
10
1.700000
20
2.558846
30
0.0
40
0.500000
50
180.000000
51
240.000000
0
LINE
8
0
10
0.000000
20
20.800000
30
0.0
11
0.000000
21
0.500000
31
0.0
0
LINE
8
0
10
1.750000
20
1.952628
30
0.0
11
1.450000
21
2.125833
31
0.0
0
ARC
8
0
10
0.500000
20
0.500000
30
0.0
40
0.500000
50
180.000000
51
270.000000
0
ARC
8
0
10
1.500000
20
1.519615
30
0.0
40
0.500000
50
330.000000
51
60.000000
0
LINE
8
0
10
0.500000
20
0.000000
30
0.0
11
0.911325
21
0.000000
31
0.0
0
LINE
8
0
10
1.344338
20
0.250000
30
0.0
11
1.933013
21
1.269615
31
0.0
0
ARC
8
0
10
0.911325
20
0.500000
30
0.0
40
0.500000
50
270.000000
51
330.000000
0
LINE
8
0
10
1.400000
20
8.600000
30
0.0
11
1.400000
21
19.100000
31
0.0
0
ARC
8
0
10
1.900000
20
19.100000
30
0.0
40
0.500000
50
90.000000
51
180.000000
0
ARC
8
0
10
1.900000
20
8.600000
30
0.0
40
0.500000
50
180.000000
51
270.000000
0
LINE
8
0
10
1.900000
20
19.600000
30
0.0
11
60.900000
21
19.600000
31
0.0
0
LINE
8
0
10
92.300000
20
8.100000
30
0.0
11
1.900000
21
8.100000
31
0.0
0
ARC
8
0
10
60.900000
20
19.400000
30
0.0
40
0.200000
50
0.000000
51
90.000000
0
ARC
8
0
10
92.300000
20
8.600000
30
0.0
40
0.500000
50
270.000000
51
0.000000
0
ARC
8
0
10
61.300000
20
19.400000
30
0.0
40
0.200000
50
180.000000
51
270.000000
0
LINE
8
0
10
92.800000
20
19.100000
30
0.0
11
92.800000
21
8.600000
31
0.0
0
LINE
8
0
10
61.300000
20
19.200000
30
0.0
11
75.100000
21
19.200000
31
0.0
0
ARC
8
0
10
92.300000
20
19.100000
30
0.0
40
0.500000
50
0.000000
51
90.000000
0
ARC
8
0
10
75.100000
20
19.400000
30
0.0
40
0.200000
50
270.000000
51
0.000000
0
LINE
8
0
10
75.500000
20
19.600000
30
0.0
11
92.300000
21
19.600000
31
0.0
0
ARC
8
0
10
75.500000
20
19.400000
30
0.0
40
0.200000
50
90.000000
51
180.000000
0
ATTDEF
8
0
10
0.000000
20
0.000000
30
0.0
40
3.5
1

3

2
FRONT_VIEW
70
0
0
ATTDEF
8
0
10
0.000000
20
0.000000
30
0.0
40
3.5
1

3

2
OPTI:500.000000,1,0,3000.000000,6900.000000,500.000000,0,0.000000,0
70
0
0
ATTDEF
8
0
10
0.000000
20
0.000000
30
0.0
40
3.5
1

3

2
GLASS_MIN:0.000000
70
0
0
ATTDEF
8
0
10
0.000000
20
0.000000
30
0.0
40
3.5
1

3

2
GLASS_MAX:0.000000
70
0
0
ATTDEF
8
0
10
0.000000
20
0.000000
30
0.0
40
3.5
1

3

2
WX:0.000000
70
0
0
ATTDEF
8
0
10
0.000000
20
0.000000
30
0.0
40
3.5
1

3

2
JY:0.000000
70
0
0
ATTDEF
8
0
10
0.000000
20
0.000000
30
0.0
40
3.5
1

3

2
WY:0.000000
70
0
0
ATTDEF
8
0
10
83.800000
20
21.000000
30
0.0
40
3.5
1

3

2
VC_START
70
0
0
ATTDEF
8
0
10
86.750000
20
0.000000
30
0.0
40
3.5
1

3

2
VC_END
70
0
0
ATTDEF
8
0
10
94.200000
20
0.000000
30
0.0
40
3.5
1

3

2
FP_LCS_ORIG
70
0
0
ATTDEF
8
0
10
84.200000
20
0.000000
30
0.0
40
3.5
1

3

2
FP_LCS_HOT
70
0
0
ATTDEF
8
0
10
94.200000
20
10.000000
30
0.0
40
3.5
1

3

2
FP_LCS_INTERN
70
0
0
ATTDEF
8
0
10
0.000000
20
0.000000
30
0.0
40
3.5
1

3

2
BL01:6200.000,,1
70
0
0
ATTDEF
8
0
10
0.000000
20
0.000000
30
0.0
40
3.5
1

3

2
DESC:Jamba de marco de 94 mm para corrediza
70
0
0
ATTDEF
8
0
10
0.000000
20
0.000000
30
0.0
40
3.5
1

3

2
DENS:1.066
70
0
0
ATTDEF
8
0
10
0.000000
20
0.000000
30
0.0
40
3.5
1

3

2
TDEV:0
70
0
0
ATTDEF
8
0
10
0.000000
20
0.000000
30
0.0
40
3.5
1

3

2
TDEV2:0
70
0
0
ATTDEF
8
0
10
0.000000
20
0.000000
30
0.0
40
3.5
1

3

2
TDEV3:0
70
0
0
ATTDEF
8
0
10
0.000000
20
0.000000
30
0.0
40
3.5
1

3

2
TDEV4:0
70
0
0
ATTDEF
8
0
10
0.000000
20
0.000000
30
0.0
40
3.5
1

3

2
TDEV5:0
70
0
0
ATTDEF
8
0
10
0.000000
20
0.000000
30
0.0
40
3.5
1

3

2
PANE_WIDTH:0
70
0
0
ATTDEF
8
0
10
0.000000
20
0.000000
30
0.0
40
3.5
1

3

2
MIN_VETRO:0
70
0
0
ATTDEF
8
0
10
0.000000
20
0.000000
30
0.0
40
3.5
1

3

2
MAX_VETRO:0
70
0
0
ATTDEF
8
0
10
0.000000
20
0.000000
30
0.0
40
3.5
1

3

2
JX:0
70
0
0
ATTDEF
8
0
10
0.000000
20
0.000000
30
0.0
40
3.5
1

3

2
WX:0
70
0
0
ATTDEF
8
0
10
0.000000
20
0.000000
30
0.0
40
3.5
1

3

2
JY:0
70
0
0
ATTDEF
8
0
10
0.000000
20
0.000000
30
0.0
40
3.5
1

3

2
WY:0
70
0
0
ENDSEC
0
EOF
