0
SECTION
2
ENTITIES
0
LINE
8
0
10
11.100000
20
26.300000
30
0.0
11
11.100000
21
24.140000
31
0.0
0
ARC
8
0
10
11.690000
20
24.140000
30
0.0
40
0.590000
50
180.000000
51
270.000000
0
ARC
8
0
10
11.710000
20
24.140000
30
0.0
40
0.590000
50
270.000000
51
0.000000
0
LINE
8
0
10
12.300000
20
24.140000
30
0.0
11
12.300000
21
24.800000
31
0.0
0
LINE
8
0
10
12.300000
20
24.800000
30
0.0
11
13.500000
21
24.800000
31
0.0
0
LINE
8
0
10
13.500000
20
24.800000
30
0.0
11
13.500000
21
17.300000
31
0.0
0
LINE
8
0
10
13.500000
20
17.300000
30
0.0
11
12.300000
21
17.300000
31
0.0
0
LINE
8
0
10
12.300000
20
17.300000
30
0.0
11
12.300000
21
17.950000
31
0.0
0
ARC
8
0
10
11.700000
20
17.950000
30
0.0
40
0.600000
50
0.000000
51
180.000000
0
LINE
8
0
10
11.100000
20
17.950000
30
0.0
11
11.100000
21
15.800000
31
0.0
0
LINE
8
0
10
11.100000
20
15.800000
30
0.0
11
13.000000
21
15.800000
31
0.0
0
ARC
8
0
10
13.000000
20
15.300000
30
0.0
40
0.500000
50
0.000000
51
90.000000
0
LINE
8
0
10
13.500000
20
15.300000
30
0.0
11
13.500000
21
2.500000
31
0.0
0
ARC
8
0
10
13.000000
20
2.500000
30
0.0
40
0.500000
50
270.000000
51
0.000000
0
LINE
8
0
10
13.000000
20
2.000000
30
0.0
11
1.850000
21
2.000000
31
0.0
0
LINE
8
0
10
1.850000
20
2.000000
30
0.0
11
-0.000000
21
1.500000
31
0.0
0
LINE
8
0
10
-0.000000
20
1.500000
30
0.0
11
-0.000000
21
0.500000
31
0.0
0
LINE
8
0
10
-0.000000
20
0.500000
30
0.0
11
1.850000
21
0.000000
31
0.0
0
LINE
8
0
10
1.850000
20
0.000000
30
0.0
11
15.000000
21
0.000000
31
0.0
0
LINE
8
0
10
15.000000
20
0.000000
30
0.0
11
15.000000
21
26.300000
31
0.0
0
LINE
8
0
10
15.000000
20
26.300000
30
0.0
11
11.100000
21
26.300000
31
0.0
0
ATTDEF
8
0
10
0.000000
20
0.000000
30
0.0
40
3.5
1

3

2
FRONT_VIEW
70
0
0
ATTDEF
8
0
10
0.000000
20
0.000000
30
0.0
40
3.5
1

3

2
OPTI:500.000000,1,0,3000.000000,6900.000000,500.000000,0,0.000000,0
70
0
0
ATTDEF
8
0
10
0.000000
20
0.000000
30
0.0
40
3.5
1

3

2
GLASS_MIN:0.000000
70
0
0
ATTDEF
8
0
10
0.000000
20
0.000000
30
0.0
40
3.5
1

3

2
GLASS_MAX:0.000000
70
0
0
ATTDEF
8
0
10
0.000000
20
0.000000
30
0.0
40
3.5
1

3

2
WX:0.000000
70
0
0
ATTDEF
8
0
10
0.000000
20
0.000000
30
0.0
40
3.5
1

3

2
JY:0.000000
70
0
0
ATTDEF
8
0
10
0.000000
20
0.000000
30
0.0
40
3.5
1

3

2
WY:0.000000
70
0
0
ATTDEF
8
0
10
15.000000
20
0.000000
30
0.0
40
3.5
1

3

2
VC_START
70
0
0
ATTDEF
8
0
10
7.425000
20
2.000000
30
0.0
40
3.5
1

3

2
VC_END
70
0
0
ATTDEF
8
0
10
0.000000
20
26.300000
30
0.0
40
3.5
1

3

2
FP_LCS_ORIG
70
0
0
ATTDEF
8
0
10
10.000000
20
26.300000
30
0.0
40
3.5
1

3

2
FP_LCS_HOT
70
0
0
ATTDEF
8
0
10
0.000000
20
16.300000
30
0.0
40
3.5
1

3

2
FP_LCS_INTERN
70
0
0
ATTDEF
8
0
10
0.000000
20
0.000000
30
0.0
40
3.5
1

3

2
BL01:6200.000,,1
70
0
0
ATTDEF
8
0
10
0.000000
20
0.000000
30
0.0
40
3.5
1

3

2
DESC:Tapa premarco exterior para 6021
70
0
0
ATTDEF
8
0
10
0.000000
20
0.000000
30
0.0
40
3.5
1

3

2
DENS:0.205
70
0
0
ATTDEF
8
0
10
0.000000
20
0.000000
30
0.0
40
3.5
1

3

2
TDEV:0
70
0
0
ATTDEF
8
0
10
0.000000
20
0.000000
30
0.0
40
3.5
1

3

2
TDEV2:0
70
0
0
ATTDEF
8
0
10
0.000000
20
0.000000
30
0.0
40
3.5
1

3

2
TDEV3:0
70
0
0
ATTDEF
8
0
10
0.000000
20
0.000000
30
0.0
40
3.5
1

3

2
TDEV4:0
70
0
0
ATTDEF
8
0
10
0.000000
20
0.000000
30
0.0
40
3.5
1

3

2
TDEV5:0
70
0
0
ATTDEF
8
0
10
0.000000
20
0.000000
30
0.0
40
3.5
1

3

2
PANE_WIDTH:0
70
0
0
ATTDEF
8
0
10
0.000000
20
0.000000
30
0.0
40
3.5
1

3

2
MIN_VETRO:0
70
0
0
ATTDEF
8
0
10
0.000000
20
0.000000
30
0.0
40
3.5
1

3

2
MAX_VETRO:0
70
0
0
ATTDEF
8
0
10
0.000000
20
0.000000
30
0.0
40
3.5
1

3

2
JX:0
70
0
0
ATTDEF
8
0
10
0.000000
20
0.000000
30
0.0
40
3.5
1

3

2
WX:0
70
0
0
ATTDEF
8
0
10
0.000000
20
0.000000
30
0.0
40
3.5
1

3

2
JY:0
70
0
0
ATTDEF
8
0
10
0.000000
20
0.000000
30
0.0
40
3.5
1

3

2
WY:0
70
0
0
ENDSEC
0
EOF
