0
SECTION
2
ENTITIES
0
LINE
8
0
10
26.205978
20
7.451871
30
0.0
11
26.205978
21
11.044810
31
0.0
0
ARC
8
0
10
27.204805
20
11.044810
30
0.0
40
0.998827
50
90.000000
51
180.000000
0
LINE
8
0
10
27.204805
20
12.043637
30
0.0
11
28.478995
21
12.043637
31
0.0
0
ARC
8
0
10
28.478995
20
11.444341
30
0.0
40
0.599296
50
270.000000
51
90.000000
0
LINE
8
0
10
28.478995
20
10.845045
30
0.0
11
27.805465
21
10.845045
31
0.0
0
LINE
8
0
10
27.805465
20
10.845045
30
0.0
11
27.805465
21
9.646453
31
0.0
0
LINE
8
0
10
27.805465
20
9.646453
30
0.0
11
30.077118
21
9.646453
31
0.0
0
LINE
8
0
10
30.077118
20
9.646453
30
0.0
11
30.077111
21
8.049164
31
0.0
0
ARC
8
0
10
31.075938
20
8.049164
30
0.0
40
0.998827
50
180.000000
51
270.000000
0
LINE
8
0
10
31.075938
20
7.050337
30
0.0
11
32.566915
21
7.050337
31
0.0
0
ARC
8
0
10
32.566915
20
8.049164
30
0.0
40
0.998827
50
270.000000
51
0.000000
0
LINE
8
0
10
33.565741
20
8.049164
30
0.0
11
33.565747
21
9.646453
31
0.0
0
LINE
8
0
10
33.565747
20
9.646453
30
0.0
11
35.296666
21
9.646453
31
0.0
0
LINE
8
0
10
35.296666
20
9.646453
30
0.0
11
35.296666
21
10.845045
31
0.0
0
LINE
8
0
10
35.296666
20
10.845045
30
0.0
11
34.623051
21
10.845045
31
0.0
0
ARC
8
0
10
34.623051
20
11.444341
30
0.0
40
0.599296
50
90.000000
51
270.000000
0
LINE
8
0
10
34.623051
20
12.043637
30
0.0
11
35.796079
21
12.043637
31
0.0
0
ARC
8
0
10
35.796079
20
11.044810
30
0.0
40
0.998827
50
0.000000
51
90.000000
0
LINE
8
0
10
36.794906
20
11.044810
30
0.0
11
36.794906
21
8.049109
31
0.0
0
ARC
8
0
10
37.793733
20
8.049109
30
0.0
40
0.998827
50
180.000000
51
270.000000
0
LINE
8
0
10
37.793722
20
7.050283
30
0.0
11
39.292595
21
7.050267
31
0.0
0
ARC
8
0
10
39.292606
20
8.049093
30
0.0
40
0.998827
50
270.000000
51
0.000000
0
LINE
8
0
10
40.291432
20
8.049093
30
0.0
11
40.291432
21
37.013554
31
0.0
0
ARC
8
0
10
39.292606
20
37.013554
30
0.0
40
0.998827
50
0.000000
51
90.000000
0
LINE
8
0
10
39.292595
20
38.012381
30
0.0
11
37.793722
21
38.012365
31
0.0
0
ARC
8
0
10
37.793733
20
37.013538
30
0.0
40
0.998827
50
90.000000
51
180.000000
0
LINE
8
0
10
36.794906
20
37.013538
30
0.0
11
36.794906
21
34.017838
31
0.0
0
ARC
8
0
10
35.796079
20
34.017838
30
0.0
40
0.998827
50
270.000000
51
0.000000
0
LINE
8
0
10
35.796079
20
33.019011
30
0.0
11
34.592153
21
33.019011
31
0.0
0
ARC
8
0
10
34.592153
20
33.618307
30
0.0
40
0.599296
50
90.000000
51
270.000000
0
LINE
8
0
10
34.592153
20
34.217603
30
0.0
11
35.296666
21
34.217603
31
0.0
0
LINE
8
0
10
35.296666
20
34.217603
30
0.0
11
35.296666
21
35.416195
31
0.0
0
LINE
8
0
10
35.296666
20
35.416195
30
0.0
11
33.520154
21
35.416195
31
0.0
0
LINE
8
0
10
33.520154
20
35.416195
30
0.0
11
33.520154
21
36.415016
31
0.0
0
ARC
8
0
10
32.521328
20
36.415016
30
0.0
40
0.998827
50
0.000000
51
90.000000
0
LINE
8
0
10
32.521328
20
37.413842
30
0.0
11
31.106842
21
37.413842
31
0.0
0
ARC
8
0
10
31.106842
20
36.415016
30
0.0
40
0.998827
50
90.000000
51
180.000000
0
LINE
8
0
10
30.108016
20
36.415016
30
0.0
11
30.108016
21
35.416195
31
0.0
0
LINE
8
0
10
30.108016
20
35.416195
30
0.0
11
28.609860
21
35.416195
31
0.0
0
ARC
8
0
10
28.641062
20
34.567747
30
0.0
40
0.849022
50
92.106182
51
190.202044
0
LINE
8
0
10
27.805465
20
34.417368
30
0.0
11
27.805465
21
34.217603
31
0.0
0
LINE
8
0
10
27.805465
20
34.217603
30
0.0
11
28.509977
21
34.217603
31
0.0
0
ARC
8
0
10
28.509977
20
33.618307
30
0.0
40
0.599296
50
270.000000
51
90.000000
0
LINE
8
0
10
28.509977
20
33.019011
30
0.0
11
27.164495
21
33.019011
31
0.0
0
ARC
8
0
10
27.164495
20
34.017838
30
0.0
40
0.998827
50
160.522144
51
270.000000
0
ARC
8
0
10
34.226977
20
31.519953
30
0.0
40
8.490027
50
90.000000
51
160.522144
0
LINE
8
0
10
34.236837
20
40.009975
30
0.0
11
91.131700
21
40.010778
31
0.0
0
ARC
8
0
10
91.131714
20
39.011951
30
0.0
40
0.998827
50
0.000000
51
90.000000
0
LINE
8
0
10
92.130541
20
39.011951
30
0.0
11
92.130541
21
29.273404
31
0.0
0
ARC
8
0
10
91.381420
20
29.273404
30
0.0
40
0.749120
50
270.000000
51
0.000000
0
LINE
8
0
10
91.381420
20
28.524284
30
0.0
11
90.632300
21
28.524284
31
0.0
0
LINE
8
0
10
90.632300
20
28.524284
30
0.0
11
90.632300
21
38.512552
31
0.0
0
LINE
8
0
10
90.632300
20
38.512552
30
0.0
11
75.649899
21
38.512552
31
0.0
0
LINE
8
0
10
75.649899
20
38.512552
30
0.0
11
75.649899
21
6.550096
31
0.0
0
LINE
8
0
10
75.649899
20
6.550096
30
0.0
11
90.632300
21
6.550096
31
0.0
0
LINE
8
0
10
90.632300
20
6.550096
30
0.0
11
90.632300
21
16.538363
31
0.0
0
LINE
8
0
10
90.632300
20
16.538363
30
0.0
11
91.381420
21
16.538363
31
0.0
0
ARC
8
0
10
91.381420
20
15.789243
30
0.0
40
0.749120
50
0.000000
51
90.000000
0
LINE
8
0
10
92.130541
20
15.789243
30
0.0
11
92.130541
21
-4.436998
31
0.0
0
ARC
8
0
10
91.131714
20
-4.436998
30
0.0
40
0.998827
50
270.000000
51
0.000000
0
LINE
8
0
10
91.131714
20
-5.435825
30
0.0
11
42.077335
21
-5.435825
31
0.0
0
ARC
8
0
10
42.077335
20
11.344464
30
0.0
40
16.780289
50
206.286486
51
270.000000
0
ARC
8
0
10
34.196592
20
7.451871
30
0.0
40
7.990614
50
180.000000
51
206.286486
0
ARC
8
0
10
29.512228
20
4.552666
30
0.0
40
0.499413
50
90.000000
51
208.392484
0
LINE
8
0
10
29.512234
20
5.052080
30
0.0
11
42.786481
21
5.051900
31
0.0
0
ARC
8
0
10
42.786488
20
5.551313
30
0.0
40
0.499413
50
270.000000
51
0.000000
0
LINE
8
0
10
43.285901
20
5.551306
30
0.0
11
43.285909
21
6.051433
31
0.0
0
ARC
8
0
10
42.786495
20
6.051440
30
0.0
40
0.499413
50
0.000000
51
90.000000
0
LINE
8
0
10
42.786495
20
6.550853
30
0.0
11
41.789672
21
6.550853
31
0.0
0
LINE
8
0
10
41.789672
20
6.550853
30
0.0
11
41.789672
21
38.511827
31
0.0
0
LINE
8
0
10
41.789672
20
38.511827
30
0.0
11
74.151659
21
38.512298
31
0.0
0
LINE
8
0
10
74.151659
20
38.512298
30
0.0
11
74.151659
21
-2.439345
31
0.0
0
ARC
8
0
10
73.152832
20
-2.439345
30
0.0
40
0.998827
50
270.000000
51
0.000000
0
LINE
8
0
10
73.152832
20
-3.438172
30
0.0
11
42.077335
21
-3.438172
31
0.0
0
ARC
8
0
10
42.077335
20
11.344464
30
0.0
40
14.782636
50
208.392484
51
270.000000
0
ARC
8
0
10
90.132887
20
-2.938758
30
0.0
40
0.499413
50
270.000000
51
0.000000
0
LINE
8
0
10
90.132887
20
-3.438172
30
0.0
11
76.149313
21
-3.438172
31
0.0
0
ARC
8
0
10
76.149313
20
-2.938758
30
0.0
40
0.499413
50
180.000000
51
270.000000
0
LINE
8
0
10
75.649899
20
-2.938758
30
0.0
11
75.649899
21
4.552668
31
0.0
0
ARC
8
0
10
76.149313
20
4.552668
30
0.0
40
0.499413
50
90.000000
51
180.000000
0
LINE
8
0
10
76.149320
20
5.052082
30
0.0
11
90.132894
21
5.051884
31
0.0
0
ARC
8
0
10
90.132887
20
4.552471
30
0.0
40
0.499413
50
0.000000
51
90.000000
0
LINE
8
0
10
90.632300
20
4.552471
30
0.0
11
90.632300
21
-2.938758
31
0.0
0
LINE
8
0
10
50.679231
20
-5.435825
30
0.0
11
76.648726
21
-5.435825
31
0.0
0
ATTDEF
8
0
10
75.649899
20
22.531324
30
0.0
40
3.5
1

3

2
HC_START
70
0
0
ATTDEF
8
0
10
26.205978
20
9.248340
30
0.0
40
3.5
1

3

2
HC_END
70
0
0
ATTDEF
8
0
10
26.165668
20
40.010778
30
0.0
40
3.5
1

3

2
REAR_VIEW
70
0
0
ATTDEF
8
0
10
26.165668
20
40.010778
30
0.0
40
3.5
1

3

2
BL01:6200.000000,,1
70
0
0
ATTDEF
8
0
10
26.165668
20
40.010778
30
0.0
40
3.5
1

3

2
OPTI:500.000000,1,0,3000.000000,6900.000000,500.000000,0,0.000000,0
70
0
0
ATTDEF
8
0
10
26.165668
20
40.010778
30
0.0
40
3.5
1

3

2
GLASS_MIN:0.000000
70
0
0
ATTDEF
8
0
10
26.165668
20
40.010778
30
0.0
40
3.5
1

3

2
GLASS_MAX:0.000000
70
0
0
ATTDEF
8
0
10
26.165668
20
40.010778
30
0.0
40
3.5
1

3

2
WX:0.000000
70
0
0
ATTDEF
8
0
10
26.165668
20
40.010778
30
0.0
40
3.5
1

3

2
JY:0.000000
70
0
0
ATTDEF
8
0
10
26.165668
20
40.010778
30
0.0
40
3.5
1

3

2
WY:0.000000
70
0
0
ATTDEF
8
0
10
26.165668
20
-5.435825
30
0.0
40
3.5
1

3

2
PANE_WIDTH:12.000000
70
0
0
ATTDEF
8
0
10
0.000000
20
0.000000
30
0.0
40
3.5
1

3

2
CTYPE1:EA602F764F83A64457D049A5C4E9356E|23.47,16.57,0,0.000000|0.00,0.00|1
70
0
0
ATTDEF
8
0
10
0.000000
20
0.000000
30
0.0
40
3.5
1

3

2
CTYPE1:E12AB19E493052BF6A96969FF62ADBCD|11.49,14.07,1,0.000000|0.00,0.00|1
70
0
0
ATTDEF
8
0
10
26.165668
20
40.010778
30
0.0
40
3.5
1

3

2
FP_LCS_ORIG
70
0
0
ATTDEF
8
0
10
26.165668
20
30.010778
30
0.0
40
3.5
1

3

2
FP_LCS_HOT
70
0
0
ATTDEF
8
0
10
36.165668
20
40.010778
30
0.0
40
3.5
1

3

2
FP_LCS_INTERN
70
0
0
ATTDEF
8
0
10
0.000000
20
0.000000
30
0.0
40
3.5
1

3

2
CTYPE1:7EFF2864CC6B24E52615D8E2B8D418C|29.41,-40.50,0,90.000000|0.00,0.00|1
70
0
0
ATTDEF
8
0
10
0.000000
20
0.000000
30
0.0
40
3.5
1

3

2
CTYPE1:9C7B0FAA462C5492E476B6875D1FB82E|5.59,-40.43,0,-90.000000|0.00,0.00|1
70
0
0
ATTDEF
8
0
10
0.000000
20
0.000000
30
0.0
40
3.5
1

3

2
CTYPE1:6179F5EA4194A53D4361CD8896EBC7A5|42.43,-2.50,0,-90.000000|0.00,0.00|1
70
0
0
ATTDEF
8
0
10
0.000000
20
0.000000
30
0.0
40
3.5
1

3

2
CTYPE1:D1DBD2954724BCC14BE75AD8404BA9B|32.78,-36.17,0,90.000000|0.00,0.00|1
70
0
0
ATTDEF
8
0
10
0.000000
20
0.000000
30
0.0
40
3.5
1

3

2
DESC:Parante lateral corrediza
70
0
0
ATTDEF
8
0
10
0.000000
20
0.000000
30
0.0
40
3.5
1

3

2
DENS:1.399
70
0
0
ATTDEF
8
0
10
0.000000
20
0.000000
30
0.0
40
3.5
1

3

2
TDEV:0
70
0
0
ATTDEF
8
0
10
0.000000
20
0.000000
30
0.0
40
3.5
1

3

2
TDEV2:0
70
0
0
ATTDEF
8
0
10
0.000000
20
0.000000
30
0.0
40
3.5
1

3

2
TDEV3:0
70
0
0
ATTDEF
8
0
10
0.000000
20
0.000000
30
0.0
40
3.5
1

3

2
TDEV4:0
70
0
0
ATTDEF
8
0
10
0.000000
20
0.000000
30
0.0
40
3.5
1

3

2
TDEV5:0
70
0
0
ATTDEF
8
0
10
0.000000
20
0.000000
30
0.0
40
3.5
1

3

2
PANE_WIDTH:12
70
0
0
ATTDEF
8
0
10
0.000000
20
0.000000
30
0.0
40
3.5
1

3

2
MIN_VETRO:0
70
0
0
ATTDEF
8
0
10
0.000000
20
0.000000
30
0.0
40
3.5
1

3

2
MAX_VETRO:0
70
0
0
ATTDEF
8
0
10
0.000000
20
0.000000
30
0.0
40
3.5
1

3

2
JX:0
70
0
0
ATTDEF
8
0
10
0.000000
20
0.000000
30
0.0
40
3.5
1

3

2
WX:0
70
0
0
ATTDEF
8
0
10
0.000000
20
0.000000
30
0.0
40
3.5
1

3

2
JY:0
70
0
0
ATTDEF
8
0
10
0.000000
20
0.000000
30
0.0
40
3.5
1

3

2
WY:0
70
0
0
ENDSEC
0
EOF
