0
SECTION
2
ENTITIES
0
ARC
8
0
10
52.500000
20
9.250000
30
0.0
40
0.500000
50
0.000000
51
90.000000
0
LINE
8
0
10
53.000000
20
9.250000
30
0.0
11
53.000000
21
8.700000
31
0.0
0
ARC
8
0
10
53.500000
20
8.700000
30
0.0
40
0.500000
50
180.000000
51
270.000000
0
LINE
8
0
10
53.500000
20
8.200000
30
0.0
11
57.500000
21
8.200000
31
0.0
0
ARC
8
0
10
57.500000
20
9.200000
30
0.0
40
1.000000
50
270.000000
51
0.000000
0
LINE
8
0
10
58.500000
20
9.200000
30
0.0
11
58.500000
21
15.700000
31
0.0
0
ARC
8
0
10
57.500000
20
15.700000
30
0.0
40
1.000000
50
0.000000
51
90.000000
0
LINE
8
0
10
57.500000
20
16.700000
30
0.0
11
52.000000
21
16.700000
31
0.0
0
ARC
8
0
10
52.000000
20
17.200000
30
0.0
40
0.500000
50
180.000000
51
270.000000
0
LINE
8
0
10
51.500000
20
17.200000
30
0.0
11
51.500000
21
22.700000
31
0.0
0
LINE
8
0
10
51.500000
20
22.700000
30
0.0
11
33.000000
21
22.700000
31
0.0
0
ARC
8
0
10
33.000000
20
23.700000
30
0.0
40
1.000000
50
180.000000
51
270.000000
0
LINE
8
0
10
32.000000
20
23.700000
30
0.0
11
32.000000
21
27.200000
31
0.0
0
ARC
8
0
10
31.500000
20
27.200000
30
0.0
40
0.500000
50
0.000000
51
90.000000
0
LINE
8
0
10
31.500000
20
27.700000
30
0.0
11
21.000000
21
27.700000
31
0.0
0
ARC
8
0
10
21.000000
20
27.200000
30
0.0
40
0.500000
50
90.000000
51
180.000000
0
LINE
8
0
10
20.500000
20
27.200000
30
0.0
11
20.500000
21
23.700000
31
0.0
0
ARC
8
0
10
19.500000
20
23.700000
30
0.0
40
1.000000
50
270.000000
51
0.000000
0
LINE
8
0
10
19.500000
20
22.700000
30
0.0
11
15.000000
21
22.700000
31
0.0
0
LINE
8
0
10
15.000000
20
22.700000
30
0.0
11
15.000000
21
21.200000
31
0.0
0
LINE
8
0
10
15.000000
20
21.200000
30
0.0
11
14.000000
21
21.200000
31
0.0
0
ARC
8
0
10
14.000000
20
21.700000
30
0.0
40
0.500000
50
180.000000
51
270.000000
0
LINE
8
0
10
13.500000
20
21.700000
30
0.0
11
13.500000
21
22.200000
31
0.0
0
ARC
8
0
10
13.000000
20
22.200000
30
0.0
40
0.500000
50
0.000000
51
90.000000
0
LINE
8
0
10
13.000000
20
22.700000
30
0.0
11
2.500000
21
22.700000
31
0.0
0
ARC
8
0
10
2.500000
20
21.700000
30
0.0
40
1.000000
50
90.000000
51
180.000000
0
LINE
8
0
10
1.500000
20
21.700000
30
0.0
11
1.500000
21
9.200000
31
0.0
0
ARC
8
0
10
2.500000
20
9.200000
30
0.0
40
1.000000
50
180.000000
51
270.000000
0
LINE
8
0
10
2.500000
20
8.200000
30
0.0
11
13.000000
21
8.200000
31
0.0
0
ARC
8
0
10
13.000000
20
8.700000
30
0.0
40
0.500000
50
270.000000
51
0.000000
0
LINE
8
0
10
13.500000
20
8.700000
30
0.0
11
13.500000
21
9.250000
31
0.0
0
ARC
8
0
10
14.000000
20
9.250000
30
0.0
40
0.500000
50
90.000000
51
180.000000
0
LINE
8
0
10
14.000000
20
9.750000
30
0.0
11
15.000000
21
9.750000
31
0.0
0
LINE
8
0
10
15.000000
20
9.750000
30
0.0
11
15.000000
21
8.200000
31
0.0
0
LINE
8
0
10
15.000000
20
8.200000
30
0.0
11
51.500000
21
8.200000
31
0.0
0
LINE
8
0
10
51.500000
20
8.200000
30
0.0
11
51.500000
21
9.750000
31
0.0
0
LINE
8
0
10
51.500000
20
9.750000
30
0.0
11
52.500000
21
9.750000
31
0.0
0
ARC
8
0
10
1.673106
20
2.249502
30
0.0
40
0.500000
50
330.000000
51
60.000000
0
LINE
8
0
10
1.923106
20
2.682515
30
0.0
11
1.200000
21
3.100000
31
0.0
0
LINE
8
0
10
1.200000
20
3.100000
30
0.0
11
1.200000
21
6.200000
31
0.0
0
ARC
8
0
10
1.700000
20
6.200000
30
0.0
40
0.500000
50
90.000000
51
180.000000
0
LINE
8
0
10
1.700000
20
6.700000
30
0.0
11
4.200000
21
6.700000
31
0.0
0
ARC
8
0
10
4.200000
20
6.200000
30
0.0
40
0.500000
50
0.000000
51
90.000000
0
LINE
8
0
10
4.700000
20
6.200000
30
0.0
11
4.700000
21
5.500000
31
0.0
0
LINE
8
0
10
4.700000
20
5.500000
30
0.0
11
4.501706
21
5.500000
31
0.0
0
ARC
8
0
10
4.501706
20
5.000000
30
0.0
40
0.500000
50
90.000000
51
180.000000
0
LINE
8
0
10
4.001706
20
5.000000
30
0.0
11
4.001706
21
4.500000
31
0.0
0
LINE
8
0
10
4.001706
20
4.500000
30
0.0
11
4.700000
21
1.893930
31
0.0
0
LINE
8
0
10
4.700000
20
1.893930
30
0.0
11
4.700000
21
1.000000
31
0.0
0
LINE
8
0
10
4.700000
20
1.000000
30
0.0
11
4.001706
21
1.000000
31
0.0
0
LINE
8
0
10
4.001706
20
1.000000
30
0.0
11
4.001706
21
0.000000
31
0.0
0
LINE
8
0
10
4.001706
20
0.000000
30
0.0
11
6.407180
21
0.000000
31
0.0
0
LINE
8
0
10
6.407180
20
0.000000
30
0.0
11
7.100000
21
1.200000
31
0.0
0
LINE
8
0
10
7.100000
20
1.200000
30
0.0
11
5.900000
21
1.200000
31
0.0
0
LINE
8
0
10
5.900000
20
1.200000
30
0.0
11
5.900000
21
6.200000
31
0.0
0
ARC
8
0
10
6.400000
20
6.200000
30
0.0
40
0.500000
50
90.000000
51
180.000000
0
LINE
8
0
10
6.400000
20
6.700000
30
0.0
11
24.650000
21
6.700000
31
0.0
0
LINE
8
0
10
24.650000
20
6.700000
30
0.0
11
25.150000
21
6.200000
31
0.0
0
LINE
8
0
10
25.150000
20
6.200000
30
0.0
11
25.650000
21
6.700000
31
0.0
0
LINE
8
0
10
25.650000
20
6.700000
30
0.0
11
26.650000
21
6.700000
31
0.0
0
LINE
8
0
10
26.650000
20
6.700000
30
0.0
11
27.150000
21
6.200000
31
0.0
0
LINE
8
0
10
27.150000
20
6.200000
30
0.0
11
27.650000
21
6.700000
31
0.0
0
LINE
8
0
10
27.650000
20
6.700000
30
0.0
11
53.600000
21
6.700000
31
0.0
0
ARC
8
0
10
53.600000
20
6.200000
30
0.0
40
0.500000
50
0.000000
51
90.000000
0
LINE
8
0
10
54.100000
20
6.200000
30
0.0
11
54.100000
21
1.200000
31
0.0
0
LINE
8
0
10
54.100000
20
1.200000
30
0.0
11
52.900000
21
1.200000
31
0.0
0
LINE
8
0
10
52.900000
20
1.200000
30
0.0
11
53.592820
21
0.000000
31
0.0
0
LINE
8
0
10
53.592820
20
0.000000
30
0.0
11
55.998294
21
0.000000
31
0.0
0
LINE
8
0
10
55.998294
20
0.000000
30
0.0
11
55.998294
21
1.000000
31
0.0
0
LINE
8
0
10
55.998294
20
1.000000
30
0.0
11
55.300000
21
1.000000
31
0.0
0
LINE
8
0
10
55.300000
20
1.000000
30
0.0
11
55.300000
21
1.893930
31
0.0
0
LINE
8
0
10
55.300000
20
1.893930
30
0.0
11
55.998294
21
4.500000
31
0.0
0
LINE
8
0
10
55.998294
20
4.500000
30
0.0
11
55.998294
21
5.000000
31
0.0
0
ARC
8
0
10
55.498294
20
5.000000
30
0.0
40
0.500000
50
0.000000
51
90.000000
0
LINE
8
0
10
55.498294
20
5.500000
30
0.0
11
55.300000
21
5.500000
31
0.0
0
LINE
8
0
10
55.300000
20
5.500000
30
0.0
11
55.300000
21
6.200000
31
0.0
0
ARC
8
0
10
55.800000
20
6.200000
30
0.0
40
0.500000
50
90.000000
51
180.000000
0
LINE
8
0
10
55.800000
20
6.700000
30
0.0
11
58.300000
21
6.700000
31
0.0
0
ARC
8
0
10
58.300000
20
6.200000
30
0.0
40
0.500000
50
0.000000
51
90.000000
0
LINE
8
0
10
58.800000
20
6.200000
30
0.0
11
58.800000
21
3.100000
31
0.0
0
LINE
8
0
10
58.800000
20
3.100000
30
0.0
11
58.076894
21
2.682515
31
0.0
0
ARC
8
0
10
58.326894
20
2.249502
30
0.0
40
0.500000
50
120.000000
51
210.000000
0
LINE
8
0
10
57.893881
20
1.999502
30
0.0
11
58.903957
21
0.250000
31
0.0
0
ARC
8
0
10
59.336969
20
0.500000
30
0.0
40
0.500000
50
210.000000
51
270.000000
0
LINE
8
0
10
59.336969
20
0.000000
30
0.0
11
60.000000
21
0.000000
31
0.0
0
LINE
8
0
10
60.000000
20
0.000000
30
0.0
11
60.000000
21
18.200000
31
0.0
0
LINE
8
0
10
60.000000
20
18.200000
30
0.0
11
53.000000
21
18.200000
31
0.0
0
LINE
8
0
10
53.000000
20
18.200000
30
0.0
11
53.000000
21
29.200000
31
0.0
0
LINE
8
0
10
53.000000
20
29.200000
30
0.0
11
50.500000
21
29.200000
31
0.0
0
LINE
8
0
10
50.500000
20
29.200000
30
0.0
11
49.500000
21
28.200000
31
0.0
0
LINE
8
0
10
49.500000
20
28.200000
30
0.0
11
49.500000
21
27.200000
31
0.0
0
LINE
8
0
10
49.500000
20
27.200000
30
0.0
11
51.500000
21
27.200000
31
0.0
0
LINE
8
0
10
51.500000
20
27.200000
30
0.0
11
51.500000
21
24.200000
31
0.0
0
LINE
8
0
10
51.500000
20
24.200000
30
0.0
11
33.500000
21
24.200000
31
0.0
0
LINE
8
0
10
33.500000
20
24.200000
30
0.0
11
33.500000
21
27.200000
31
0.0
0
LINE
8
0
10
33.500000
20
27.200000
30
0.0
11
35.500000
21
27.200000
31
0.0
0
LINE
8
0
10
35.500000
20
27.200000
30
0.0
11
35.500000
21
28.200000
31
0.0
0
LINE
8
0
10
35.500000
20
28.200000
30
0.0
11
34.500000
21
29.200000
31
0.0
0
LINE
8
0
10
34.500000
20
29.200000
30
0.0
11
18.442820
21
29.200000
31
0.0
0
LINE
8
0
10
18.442820
20
29.200000
30
0.0
11
17.750000
21
27.700000
31
0.0
0
LINE
8
0
10
17.750000
20
27.700000
30
0.0
11
19.000000
21
27.700000
31
0.0
0
LINE
8
0
10
19.000000
20
27.700000
30
0.0
11
19.000000
21
24.700000
31
0.0
0
ARC
8
0
10
18.500000
20
24.700000
30
0.0
40
0.500000
50
270.000000
51
0.000000
0
LINE
8
0
10
18.500000
20
24.200000
30
0.0
11
12.500000
21
24.200000
31
0.0
0
ARC
8
0
10
12.500000
20
24.700000
30
0.0
40
0.500000
50
180.000000
51
270.000000
0
LINE
8
0
10
12.000000
20
24.700000
30
0.0
11
12.000000
21
27.700000
31
0.0
0
LINE
8
0
10
12.000000
20
27.700000
30
0.0
11
13.250000
21
27.700000
31
0.0
0
LINE
8
0
10
13.250000
20
27.700000
30
0.0
11
12.557180
21
29.200000
31
0.0
0
LINE
8
0
10
12.557180
20
29.200000
30
0.0
11
11.000000
21
29.200000
31
0.0
0
ARC
8
0
10
11.000000
20
28.700000
30
0.0
40
0.500000
50
90.000000
51
180.000000
0
LINE
8
0
10
10.500000
20
28.700000
30
0.0
11
10.500000
21
25.200000
31
0.0
0
ARC
8
0
10
9.500000
20
25.200000
30
0.0
40
1.000000
50
270.000000
51
0.000000
0
LINE
8
0
10
9.500000
20
24.200000
30
0.0
11
2.500000
21
24.200000
31
0.0
0
ARC
8
0
10
2.500000
20
25.200000
30
0.0
40
1.000000
50
180.000000
51
270.000000
0
LINE
8
0
10
1.500000
20
25.200000
30
0.0
11
1.500000
21
41.300000
31
0.0
0
ARC
8
0
10
2.500000
20
41.300000
30
0.0
40
1.000000
50
90.000000
51
180.000000
0
LINE
8
0
10
2.500000
20
42.300000
30
0.0
11
4.690105
21
42.300000
31
0.0
0
ARC
8
0
10
4.690105
20
42.800000
30
0.0
40
0.500000
50
270.000000
51
0.000000
0
LINE
8
0
10
5.190105
20
42.800000
30
0.0
11
5.190105
21
44.057180
31
0.0
0
LINE
8
0
10
5.190105
20
44.057180
30
0.0
11
3.990105
21
44.750000
31
0.0
0
LINE
8
0
10
3.990105
20
44.750000
30
0.0
11
3.990105
21
43.500000
31
0.0
0
LINE
8
0
10
3.990105
20
43.500000
30
0.0
11
1.500000
21
43.500000
31
0.0
0
LINE
8
0
10
1.500000
20
43.500000
30
0.0
11
1.500000
21
50.000000
31
0.0
0
LINE
8
0
10
1.500000
20
50.000000
30
0.0
11
3.990105
21
50.000000
31
0.0
0
LINE
8
0
10
3.990105
20
50.000000
30
0.0
11
3.990105
21
48.750000
31
0.0
0
LINE
8
0
10
3.990105
20
48.750000
30
0.0
11
5.190105
21
49.442820
31
0.0
0
LINE
8
0
10
5.190105
20
49.442820
30
0.0
11
5.190105
21
51.200000
31
0.0
0
LINE
8
0
10
5.190105
20
51.200000
30
0.0
11
0.000000
21
51.200000
31
0.0
0
LINE
8
0
10
0.000000
20
51.200000
30
0.0
11
0.000000
21
0.000000
31
0.0
0
LINE
8
0
10
0.000000
20
0.000000
30
0.0
11
0.663031
21
0.000000
31
0.0
0
ARC
8
0
10
0.663031
20
0.500000
30
0.0
40
0.500000
50
270.000000
51
330.000000
0
LINE
8
0
10
1.096043
20
0.250000
30
0.0
11
2.106119
21
1.999502
31
0.0
0
ATTDEF
8
0
10
53.000000
20
29.200000
30
0.0
40
3.5
1

3

2
VC_START
70
0
0
ATTDEF
8
0
10
60.000000
20
0.000000
30
0.0
40
3.5
1

3

2
VC_END
70
0
0
ATTDEF
8
0
10
0.000000
20
0.000000
30
0.0
40
3.5
1

3

2
REAR_VIEW
70
0
0
ATTDEF
8
0
10
0.000000
20
0.000000
30
0.0
40
3.5
1

3

2
BL01:6200.000000,,1
70
0
0
ATTDEF
8
0
10
0.000000
20
0.000000
30
0.0
40
3.5
1

3

2
OPTI:1500.000000,1,0,3000.000000,6900.000000,500.000000,0,0.000000,0
70
0
0
ATTDEF
8
0
10
0.000000
20
0.000000
30
0.0
40
3.5
1

3

2
GLASS_MIN:0.000000
70
0
0
ATTDEF
8
0
10
0.000000
20
0.000000
30
0.0
40
3.5
1

3

2
GLASS_MAX:0.000000
70
0
0
ATTDEF
8
0
10
0.000000
20
0.000000
30
0.0
40
3.5
1

3

2
JX:0.000000
70
0
0
ATTDEF
8
0
10
0.000000
20
0.000000
30
0.0
40
3.5
1

3

2
WX:0.000000
70
0
0
ATTDEF
8
0
10
0.000000
20
0.000000
30
0.0
40
3.5
1

3

2
JY:0.000000
70
0
0
ATTDEF
8
0
10
0.000000
20
0.000000
30
0.0
40
3.5
1

3

2
WY:0.000000
70
0
0
ATTDEF
8
0
10
0.000000
20
0.000000
30
0.0
40
3.5
1

3

2
CTYPE1:6D7A5DC24408C0988C7D008C59330A8A|50.86,-7.30,0,90.000000|0.00,0.00|1
70
0
0
ATTDEF
8
0
10
0.000000
20
0.000000
30
0.0
40
3.5
1

3

2
FP_LCS_ORIG
70
0
0
ATTDEF
8
0
10
10.000000
20
0.000000
30
0.0
40
3.5
1

3

2
FP_LCS_HOT
70
0
0
ATTDEF
8
0
10
0.000000
20
10.000000
30
0.0
40
3.5
1

3

2
FP_LCS_INTERN
70
0
0
ATTDEF
8
0
10
0.000000
20
0.000000
30
0.0
40
3.5
1

3

2
CTYPE1:5E4FE66F457DEDE61597D3B260527D9D|4.00,-24.70,1,90.000000|0.00,0.00|1
70
0
0
ATTDEF
8
0
10
0.000000
20
0.000000
30
0.0
40
3.5
1

3

2
CTYPE1:EAFE03ED4E99639AF9EE68A92FB59F36|4.15,-4.97,0,0.000000|0.00,0.00|1
70
0
0
ATTDEF
8
0
10
0.000000
20
0.000000
30
0.0
40
3.5
1

3

2
CTYPE1:AF93D35548AD22B241FFE18A4E7D4139|5.19,22.00,1,-90.000000|0.00,0.00|1
70
0
0
ATTDEF
8
0
10
0.000000
20
0.000000
30
0.0
40
3.5
1

3

2
DESC:Marco ventana de abrir
70
0
0
ATTDEF
8
0
10
0.000000
20
0.000000
30
0.0
40
3.5
1

3

2
DENS:0.986
70
0
0
ATTDEF
8
0
10
0.000000
20
0.000000
30
0.0
40
3.5
1

3

2
TDEV:0
70
0
0
ATTDEF
8
0
10
0.000000
20
0.000000
30
0.0
40
3.5
1

3

2
TDEV2:0
70
0
0
ATTDEF
8
0
10
0.000000
20
0.000000
30
0.0
40
3.5
1

3

2
TDEV3:0
70
0
0
ATTDEF
8
0
10
0.000000
20
0.000000
30
0.0
40
3.5
1

3

2
TDEV4:0
70
0
0
ATTDEF
8
0
10
0.000000
20
0.000000
30
0.0
40
3.5
1

3

2
TDEV5:0
70
0
0
ATTDEF
8
0
10
0.000000
20
0.000000
30
0.0
40
3.5
1

3

2
PANE_WIDTH:48
70
0
0
ATTDEF
8
0
10
0.000000
20
0.000000
30
0.0
40
3.5
1

3

2
MIN_VETRO:0
70
0
0
ATTDEF
8
0
10
0.000000
20
0.000000
30
0.0
40
3.5
1

3

2
MAX_VETRO:0
70
0
0
ATTDEF
8
0
10
0.000000
20
0.000000
30
0.0
40
3.5
1

3

2
JX:0
70
0
0
ATTDEF
8
0
10
0.000000
20
0.000000
30
0.0
40
3.5
1

3

2
WX:0
70
0
0
ATTDEF
8
0
10
0.000000
20
0.000000
30
0.0
40
3.5
1

3

2
JY:0
70
0
0
ATTDEF
8
0
10
0.000000
20
0.000000
30
0.0
40
3.5
1

3

2
WY:0
70
0
0
ENDSEC
0
EOF
