0
SECTION
2
ENTITIES
0
LINE
8
0
10
189.126858
20
150.221493
30
0.0
11
188.626518
21
150.221493
31
0.0
0
ARC
8
0
10
188.626518
20
149.721153
30
0.0
40
0.500340
50
90.000000
51
180.000000
0
LINE
8
0
10
188.126177
20
149.721153
30
0.0
11
188.126177
21
142.077748
31
0.0
0
ARC
8
0
10
189.126858
20
142.077748
30
0.0
40
1.000681
50
180.000000
51
260.000000
0
LINE
8
0
10
188.953092
20
141.092270
30
0.0
11
193.930126
21
140.214685
31
0.0
0
LINE
8
0
10
193.930126
20
140.214685
30
0.0
11
198.907160
21
141.092270
31
0.0
0
ARC
8
0
10
198.733394
20
142.077748
30
0.0
40
1.000681
50
280.000000
51
0.000000
0
LINE
8
0
10
199.734074
20
142.077748
30
0.0
11
199.734074
21
162.229662
31
0.0
0
ARC
8
0
10
200.734755
20
162.229662
30
0.0
40
1.000681
50
90.000000
51
180.000000
0
LINE
8
0
10
200.734755
20
163.230343
30
0.0
11
252.469952
21
163.230343
31
0.0
0
ARC
8
0
10
252.469952
20
162.229662
30
0.0
40
1.000681
50
0.000000
51
90.000000
0
LINE
8
0
10
253.470633
20
162.229662
30
0.0
11
253.470633
21
142.444650
31
0.0
0
LINE
8
0
10
253.470633
20
142.444650
30
0.0
11
249.467910
21
141.738862
31
0.0
0
LINE
8
0
10
249.467910
20
141.738862
30
0.0
11
245.164982
21
142.497584
31
0.0
0
LINE
8
0
10
245.164982
20
142.497584
30
0.0
11
245.164982
21
149.721153
31
0.0
0
ARC
8
0
10
244.664642
20
149.721153
30
0.0
40
0.500340
50
0.000000
51
90.000000
0
LINE
8
0
10
244.664642
20
150.221493
30
0.0
11
244.164302
21
150.221493
31
0.0
0
ARC
8
0
10
244.164302
20
149.721153
30
0.0
40
0.500340
50
90.000000
51
180.000000
0
LINE
8
0
10
243.663961
20
149.721153
30
0.0
11
243.663961
21
142.077748
31
0.0
0
ARC
8
0
10
244.664642
20
142.077748
30
0.0
40
1.000681
50
180.000000
51
260.000000
0
LINE
8
0
10
244.490875
20
141.092270
30
0.0
11
249.467910
21
140.214685
31
0.0
0
LINE
8
0
10
249.467910
20
140.214685
30
0.0
11
254.444944
21
141.092270
31
0.0
0
ARC
8
0
10
254.271178
20
142.077748
30
0.0
40
1.000681
50
280.000000
51
0.000000
0
LINE
8
0
10
255.271858
20
142.077748
30
0.0
11
255.271858
21
163.230343
31
0.0
0
LINE
8
0
10
288.694597
20
163.230343
30
0.0
11
288.694597
21
142.077748
31
0.0
0
ARC
8
0
10
289.695278
20
142.077748
30
0.0
40
1.000681
50
180.000000
51
260.000000
0
LINE
8
0
10
289.521511
20
141.092270
30
0.0
11
294.498545
21
140.214685
31
0.0
0
LINE
8
0
10
294.498545
20
140.214685
30
0.0
11
299.475580
21
141.092270
31
0.0
0
ARC
8
0
10
299.301813
20
142.077748
30
0.0
40
1.000681
50
280.000000
51
0.000000
0
LINE
8
0
10
300.302494
20
142.077748
30
0.0
11
300.302494
21
149.721153
31
0.0
0
ARC
8
0
10
299.802154
20
149.721153
30
0.0
40
0.500340
50
0.000000
51
90.000000
0
LINE
8
0
10
299.802154
20
150.221493
30
0.0
11
299.301813
21
150.221493
31
0.0
0
ARC
8
0
10
299.301813
20
149.721153
30
0.0
40
0.500340
50
90.000000
51
180.000000
0
LINE
8
0
10
298.801473
20
149.721153
30
0.0
11
298.801473
21
142.497584
31
0.0
0
LINE
8
0
10
298.801473
20
142.497584
30
0.0
11
294.498545
21
141.738862
31
0.0
0
LINE
8
0
10
294.498545
20
141.738862
30
0.0
11
290.495822
21
142.444650
31
0.0
0
LINE
8
0
10
290.495822
20
142.444650
30
0.0
11
290.495822
21
162.229662
31
0.0
0
ARC
8
0
10
291.496503
20
162.229662
30
0.0
40
1.000681
50
90.000000
51
180.000000
0
LINE
8
0
10
291.496503
20
163.230343
30
0.0
11
327.707938
21
163.230343
31
0.0
0
ARC
8
0
10
327.707938
20
162.229662
30
0.0
40
1.000681
50
16.013394
51
90.000000
0
ARC
8
0
10
257.973697
20
142.216047
30
0.0
40
73.550038
50
359.898525
51
16.013394
0
ARC
8
0
10
332.017313
20
141.215366
30
0.0
40
1.000681
50
119.561547
51
359.225709
0
ARC
8
0
10
257.973697
20
142.216047
30
0.0
40
75.051059
50
359.225709
51
16.127620
0
ARC
8
0
10
327.187250
20
162.229662
30
0.0
40
3.002042
50
16.127620
51
90.000000
0
LINE
8
0
10
327.187250
20
165.231705
30
0.0
11
303.004332
21
165.231705
31
0.0
0
ARC
8
0
10
303.004332
20
166.232386
30
0.0
40
1.000681
50
180.000000
51
270.000000
0
LINE
8
0
10
302.003651
20
166.232386
30
0.0
11
302.003651
21
193.951243
31
0.0
0
LINE
8
0
10
302.003651
20
193.951243
30
0.0
11
301.437710
21
193.951243
31
0.0
0
ARC
8
0
10
301.437710
20
193.450903
30
0.0
40
0.500340
50
90.000000
51
150.000000
0
LINE
8
0
10
301.004403
20
193.701073
30
0.0
11
299.969255
21
191.908144
31
0.0
0
ARC
8
0
10
300.402562
20
191.657973
30
0.0
40
0.500340
50
150.000000
51
240.000000
0
LINE
8
0
10
300.152392
20
191.224666
30
0.0
11
300.802834
21
190.849133
31
0.0
0
LINE
8
0
10
300.802834
20
190.849133
30
0.0
11
300.802834
21
187.747023
31
0.0
0
ARC
8
0
10
300.302494
20
187.747023
30
0.0
40
0.500340
50
270.000000
51
0.000000
0
LINE
8
0
10
300.302494
20
187.246682
30
0.0
11
297.800792
21
187.246682
31
0.0
0
ARC
8
0
10
297.800792
20
187.747023
30
0.0
40
0.500340
50
180.000000
51
270.000000
0
LINE
8
0
10
297.300452
20
187.747023
30
0.0
11
297.300452
21
188.447499
31
0.0
0
LINE
8
0
10
297.300452
20
188.447499
30
0.0
11
297.500588
21
188.447499
31
0.0
0
ARC
8
0
10
297.500588
20
188.947840
30
0.0
40
0.500340
50
270.000000
51
0.000000
0
LINE
8
0
10
298.000928
20
188.947840
30
0.0
11
298.000928
21
189.448180
31
0.0
0
LINE
8
0
10
298.000928
20
189.448180
30
0.0
11
297.300452
21
192.062394
31
0.0
0
LINE
8
0
10
297.300452
20
192.062394
30
0.0
11
297.300452
21
192.950563
31
0.0
0
LINE
8
0
10
297.300452
20
192.950563
30
0.0
11
298.000928
21
192.950563
31
0.0
0
LINE
8
0
10
298.000928
20
192.950563
30
0.0
11
298.000928
21
193.951243
31
0.0
0
LINE
8
0
10
298.000928
20
193.951243
30
0.0
11
295.592110
21
193.951243
31
0.0
0
LINE
8
0
10
295.592110
20
193.951243
30
0.0
11
294.898818
21
192.750427
31
0.0
0
LINE
8
0
10
294.898818
20
192.750427
30
0.0
11
296.099635
21
192.750427
31
0.0
0
LINE
8
0
10
296.099635
20
192.750427
30
0.0
11
296.099635
21
187.747023
31
0.0
0
ARC
8
0
10
295.599294
20
187.747023
30
0.0
40
0.500340
50
270.000000
51
0.000000
0
LINE
8
0
10
295.599294
20
187.246682
30
0.0
11
248.367161
21
187.246682
31
0.0
0
ARC
8
0
10
248.367161
20
187.747023
30
0.0
40
0.500340
50
180.000000
51
270.000000
0
LINE
8
0
10
247.866821
20
187.747023
30
0.0
11
247.866821
21
192.750427
31
0.0
0
LINE
8
0
10
247.866821
20
192.750427
30
0.0
11
249.067637
21
192.750427
31
0.0
0
LINE
8
0
10
249.067637
20
192.750427
30
0.0
11
248.374345
21
193.951243
31
0.0
0
LINE
8
0
10
248.374345
20
193.951243
30
0.0
11
246.365799
21
193.951243
31
0.0
0
LINE
8
0
10
246.365799
20
193.951243
30
0.0
11
246.365799
21
188.247363
31
0.0
0
ARC
8
0
10
245.365119
20
188.247363
30
0.0
40
1.000681
50
270.000000
51
0.000000
0
LINE
8
0
10
245.365119
20
187.246682
30
0.0
11
243.063553
21
187.246682
31
0.0
0
ARC
8
0
10
243.063553
20
188.247363
30
0.0
40
1.000681
50
180.000000
51
270.000000
0
LINE
8
0
10
242.062872
20
188.247363
30
0.0
11
242.062872
21
193.951243
31
0.0
0
LINE
8
0
10
242.062872
20
193.951243
30
0.0
11
240.054326
21
193.951243
31
0.0
0
LINE
8
0
10
240.054326
20
193.951243
30
0.0
11
239.361034
21
192.750427
31
0.0
0
LINE
8
0
10
239.361034
20
192.750427
30
0.0
11
240.561851
21
192.750427
31
0.0
0
LINE
8
0
10
240.561851
20
192.750427
30
0.0
11
240.561851
21
187.747023
31
0.0
0
ARC
8
0
10
240.061510
20
187.747023
30
0.0
40
0.500340
50
270.000000
51
0.000000
0
LINE
8
0
10
240.061510
20
187.246682
30
0.0
11
192.829377
21
187.246682
31
0.0
0
ARC
8
0
10
192.829377
20
187.747023
30
0.0
40
0.500340
50
180.000000
51
270.000000
0
LINE
8
0
10
192.329037
20
187.747023
30
0.0
11
192.329037
21
192.750427
31
0.0
0
LINE
8
0
10
192.329037
20
192.750427
30
0.0
11
193.529854
21
192.750427
31
0.0
0
LINE
8
0
10
193.529854
20
192.750427
30
0.0
11
192.836561
21
193.951243
31
0.0
0
LINE
8
0
10
192.836561
20
193.951243
30
0.0
11
190.427743
21
193.951243
31
0.0
0
LINE
8
0
10
190.427743
20
193.951243
30
0.0
11
190.427743
21
192.950563
31
0.0
0
LINE
8
0
10
190.427743
20
192.950563
30
0.0
11
191.128220
21
192.950563
31
0.0
0
LINE
8
0
10
191.128220
20
192.950563
30
0.0
11
191.128220
21
192.062394
31
0.0
0
LINE
8
0
10
191.128220
20
192.062394
30
0.0
11
190.427743
21
189.448180
31
0.0
0
LINE
8
0
10
190.427743
20
189.448180
30
0.0
11
190.427743
21
188.947840
31
0.0
0
ARC
8
0
10
190.928084
20
188.947840
30
0.0
40
0.500340
50
180.000000
51
270.000000
0
LINE
8
0
10
190.928084
20
188.447499
30
0.0
11
191.128220
21
188.447499
31
0.0
0
LINE
8
0
10
191.128220
20
188.447499
30
0.0
11
191.128220
21
187.747023
31
0.0
0
ARC
8
0
10
190.627879
20
187.747023
30
0.0
40
0.500340
50
270.000000
51
0.000000
0
LINE
8
0
10
190.627879
20
187.246682
30
0.0
11
188.126177
21
187.246682
31
0.0
0
ARC
8
0
10
188.126177
20
187.747023
30
0.0
40
0.500340
50
180.000000
51
270.000000
0
LINE
8
0
10
187.625837
20
187.747023
30
0.0
11
187.625837
21
190.849133
31
0.0
0
LINE
8
0
10
187.625837
20
190.849133
30
0.0
11
188.276279
21
191.224666
31
0.0
0
ARC
8
0
10
188.026109
20
191.657973
30
0.0
40
0.500340
50
300.000000
51
30.000000
0
LINE
8
0
10
188.459417
20
191.908144
30
0.0
11
187.424269
21
193.701073
31
0.0
0
ARC
8
0
10
186.990961
20
193.450903
30
0.0
40
0.500340
50
30.000000
51
90.000000
0
LINE
8
0
10
186.990961
20
193.951243
30
0.0
11
186.425020
21
193.951243
31
0.0
0
LINE
8
0
10
186.425020
20
193.951243
30
0.0
11
186.425020
21
166.232386
31
0.0
0
ARC
8
0
10
185.424339
20
166.232386
30
0.0
40
1.000681
50
270.000000
51
0.000000
0
LINE
8
0
10
185.424339
20
165.231705
30
0.0
11
161.241421
21
165.231705
31
0.0
0
ARC
8
0
10
161.241421
20
162.229662
30
0.0
40
3.002042
50
90.000000
51
163.872380
0
ARC
8
0
10
230.454975
20
142.216047
30
0.0
40
75.051059
50
163.872380
51
180.774291
0
ARC
8
0
10
156.411358
20
141.215366
30
0.0
40
1.000681
50
180.774291
51
60.438453
0
ARC
8
0
10
230.454975
20
142.216047
30
0.0
40
73.550038
50
163.986606
51
180.101475
0
ARC
8
0
10
160.720733
20
162.229662
30
0.0
40
1.000681
50
90.000000
51
163.986606
0
LINE
8
0
10
160.720733
20
163.230343
30
0.0
11
196.932168
21
163.230343
31
0.0
0
ARC
8
0
10
196.932168
20
162.229662
30
0.0
40
1.000681
50
0.000000
51
90.000000
0
LINE
8
0
10
197.932849
20
162.229662
30
0.0
11
197.932849
21
142.444650
31
0.0
0
LINE
8
0
10
197.932849
20
142.444650
30
0.0
11
193.930126
21
141.738862
31
0.0
0
LINE
8
0
10
193.930126
20
141.738862
30
0.0
11
189.627198
21
142.497584
31
0.0
0
LINE
8
0
10
189.627198
20
142.497584
30
0.0
11
189.627198
21
149.721153
31
0.0
0
ARC
8
0
10
189.126858
20
149.721153
30
0.0
40
0.500340
50
0.000000
51
90.000000
0
ARC
8
0
10
203.638858
20
166.232386
30
0.0
40
1.000681
50
160.123126
51
270.000000
0
LINE
8
0
10
203.638858
20
165.231705
30
0.0
11
229.252029
21
165.231705
31
0.0
0
ARC
8
0
10
229.252029
20
166.232386
30
0.0
40
1.000681
50
270.000000
51
19.876874
0
ARC
8
0
10
233.957358
20
167.933543
30
0.0
40
4.002723
50
138.590378
51
199.876874
0
ARC
8
0
10
231.705826
20
169.919207
30
0.0
40
1.000681
50
0.000000
51
138.590378
0
LINE
8
0
10
232.706507
20
169.919207
30
0.0
11
232.706507
21
169.159122
31
0.0
0
LINE
8
0
10
232.706507
20
169.159122
30
0.0
11
231.776425
21
169.159122
31
0.0
0
ARC
8
0
10
233.957358
20
167.933543
30
0.0
40
2.501702
50
150.666126
51
209.333874
0
LINE
8
0
10
231.776425
20
166.707964
30
0.0
11
232.706507
21
166.707964
31
0.0
0
LINE
8
0
10
232.706507
20
166.707964
30
0.0
11
232.706507
21
165.767005
31
0.0
0
ARC
8
0
10
233.957358
20
167.933543
30
0.0
40
2.501702
50
240.000000
51
300.000000
0
LINE
8
0
10
235.208209
20
165.767005
30
0.0
11
235.208209
21
166.707964
31
0.0
0
LINE
8
0
10
235.208209
20
166.707964
30
0.0
11
236.138290
21
166.707964
31
0.0
0
ARC
8
0
10
233.957358
20
167.933543
30
0.0
40
2.501702
50
330.666126
51
29.333874
0
LINE
8
0
10
236.138290
20
169.159122
30
0.0
11
235.208209
21
169.159122
31
0.0
0
LINE
8
0
10
235.208209
20
169.159122
30
0.0
11
235.208209
21
169.919207
31
0.0
0
ARC
8
0
10
236.208889
20
169.919207
30
0.0
40
1.000681
50
41.409622
51
180.000000
0
ARC
8
0
10
233.957358
20
167.933543
30
0.0
40
4.002723
50
340.123126
51
41.409622
0
ARC
8
0
10
238.662686
20
166.232386
30
0.0
40
1.000681
50
160.123126
51
270.000000
0
LINE
8
0
10
238.662686
20
165.231705
30
0.0
11
249.765985
21
165.231705
31
0.0
0
ARC
8
0
10
249.765985
20
166.232386
30
0.0
40
1.000681
50
270.000000
51
19.876874
0
ARC
8
0
10
254.471314
20
167.933543
30
0.0
40
4.002723
50
138.590378
51
199.876874
0
ARC
8
0
10
252.219782
20
169.919207
30
0.0
40
1.000681
50
0.000000
51
138.590378
0
LINE
8
0
10
253.220463
20
169.919207
30
0.0
11
253.220463
21
169.159122
31
0.0
0
LINE
8
0
10
253.220463
20
169.159122
30
0.0
11
252.290381
21
169.159122
31
0.0
0
ARC
8
0
10
254.471314
20
167.933543
30
0.0
40
2.501702
50
150.666126
51
209.333874
0
LINE
8
0
10
252.290381
20
166.707964
30
0.0
11
253.220463
21
166.707964
31
0.0
0
LINE
8
0
10
253.220463
20
166.707964
30
0.0
11
253.220463
21
165.767005
31
0.0
0
ARC
8
0
10
254.471314
20
167.933543
30
0.0
40
2.501702
50
240.000000
51
300.000000
0
LINE
8
0
10
255.722165
20
165.767005
30
0.0
11
255.722165
21
166.707964
31
0.0
0
LINE
8
0
10
255.722165
20
166.707964
30
0.0
11
256.652247
21
166.707964
31
0.0
0
ARC
8
0
10
254.471314
20
167.933543
30
0.0
40
2.501702
50
330.666126
51
29.333874
0
LINE
8
0
10
256.652247
20
169.159122
30
0.0
11
255.722165
21
169.159122
31
0.0
0
LINE
8
0
10
255.722165
20
169.159122
30
0.0
11
255.722165
21
169.919207
31
0.0
0
ARC
8
0
10
256.722846
20
169.919207
30
0.0
40
1.000681
50
41.409622
51
180.000000
0
ARC
8
0
10
254.471314
20
167.933543
30
0.0
40
4.002723
50
340.123126
51
41.409622
0
ARC
8
0
10
259.176642
20
166.232386
30
0.0
40
1.000681
50
160.123126
51
270.000000
0
LINE
8
0
10
259.176642
20
165.231705
30
0.0
11
284.789813
21
165.231705
31
0.0
0
ARC
8
0
10
284.789813
20
166.232386
30
0.0
40
1.000681
50
270.000000
51
19.876874
0
ARC
8
0
10
289.495141
20
167.933543
30
0.0
40
4.002723
50
138.590378
51
199.876874
0
ARC
8
0
10
287.243610
20
169.919207
30
0.0
40
1.000681
50
0.000000
51
138.590378
0
LINE
8
0
10
288.244290
20
169.919207
30
0.0
11
288.244290
21
169.159122
31
0.0
0
LINE
8
0
10
288.244290
20
169.159122
30
0.0
11
287.314208
21
169.159122
31
0.0
0
ARC
8
0
10
289.495141
20
167.933543
30
0.0
40
2.501702
50
150.666126
51
209.333874
0
LINE
8
0
10
287.314208
20
166.707964
30
0.0
11
288.244290
21
166.707964
31
0.0
0
LINE
8
0
10
288.244290
20
166.707964
30
0.0
11
288.244290
21
165.767005
31
0.0
0
ARC
8
0
10
289.495141
20
167.933543
30
0.0
40
2.501702
50
240.000000
51
300.000000
0
LINE
8
0
10
290.745992
20
165.767005
30
0.0
11
290.745992
21
166.707964
31
0.0
0
LINE
8
0
10
290.745992
20
166.707964
30
0.0
11
291.676074
21
166.707964
31
0.0
0
ARC
8
0
10
289.495141
20
167.933543
30
0.0
40
2.501702
50
330.666126
51
29.333874
0
LINE
8
0
10
291.676074
20
169.159122
30
0.0
11
290.745992
21
169.159122
31
0.0
0
LINE
8
0
10
290.745992
20
169.159122
30
0.0
11
290.745992
21
169.919207
31
0.0
0
ARC
8
0
10
291.746673
20
169.919207
30
0.0
40
1.000681
50
41.409622
51
180.000000
0
ARC
8
0
10
289.495141
20
167.933543
30
0.0
40
4.002723
50
340.123126
51
41.409622
0
ARC
8
0
10
294.200470
20
166.232386
30
0.0
40
1.000681
50
160.123126
51
270.000000
0
LINE
8
0
10
294.200470
20
165.231705
30
0.0
11
299.501949
21
165.231705
31
0.0
0
ARC
8
0
10
299.501949
20
165.732045
30
0.0
40
0.500340
50
270.000000
51
0.000000
0
LINE
8
0
10
300.002290
20
165.732045
30
0.0
11
300.002290
21
184.744980
31
0.0
0
ARC
8
0
10
299.501949
20
184.744980
30
0.0
40
0.500340
50
0.000000
51
90.000000
0
LINE
8
0
10
299.501949
20
185.245321
30
0.0
11
188.926722
21
185.245321
31
0.0
0
ARC
8
0
10
188.926722
20
184.744980
30
0.0
40
0.500340
50
90.000000
51
180.000000
0
LINE
8
0
10
188.426382
20
184.744980
30
0.0
11
188.426382
21
165.732045
31
0.0
0
ARC
8
0
10
188.926722
20
165.732045
30
0.0
40
0.500340
50
180.000000
51
270.000000
0
LINE
8
0
10
188.926722
20
165.231705
30
0.0
11
194.228201
21
165.231705
31
0.0
0
ARC
8
0
10
194.228201
20
166.232386
30
0.0
40
1.000681
50
270.000000
51
19.876874
0
ARC
8
0
10
198.933530
20
167.933543
30
0.0
40
4.002723
50
138.590378
51
199.876874
0
ARC
8
0
10
196.681998
20
169.919207
30
0.0
40
1.000681
50
0.000000
51
138.590378
0
LINE
8
0
10
197.682679
20
169.919207
30
0.0
11
197.682679
21
169.159122
31
0.0
0
LINE
8
0
10
197.682679
20
169.159122
30
0.0
11
196.752597
21
169.159122
31
0.0
0
ARC
8
0
10
198.933530
20
167.933543
30
0.0
40
2.501702
50
150.666126
51
209.333874
0
LINE
8
0
10
196.752597
20
166.707964
30
0.0
11
197.682679
21
166.707964
31
0.0
0
LINE
8
0
10
197.682679
20
166.707964
30
0.0
11
197.682679
21
165.767005
31
0.0
0
ARC
8
0
10
198.933530
20
167.933543
30
0.0
40
2.501702
50
240.000000
51
300.000000
0
LINE
8
0
10
200.184381
20
165.767005
30
0.0
11
200.184381
21
166.707964
31
0.0
0
LINE
8
0
10
200.184381
20
166.707964
30
0.0
11
201.114463
21
166.707964
31
0.0
0
ARC
8
0
10
198.933530
20
167.933543
30
0.0
40
2.501702
50
330.666126
51
29.333874
0
LINE
8
0
10
201.114463
20
169.159122
30
0.0
11
200.184381
21
169.159122
31
0.0
0
LINE
8
0
10
200.184381
20
169.159122
30
0.0
11
200.184381
21
169.919207
31
0.0
0
ARC
8
0
10
201.185062
20
169.919207
30
0.0
40
1.000681
50
41.409622
51
180.000000
0
ARC
8
0
10
198.933530
20
167.933543
30
0.0
40
4.002723
50
340.123126
51
41.409622
0
LINE
8
0
10
255.271858
20
163.230343
30
0.0
11
288.694597
21
163.230343
31
0.0
0
ATTDEF
8
0
10
156.411358
20
140.214685
30
0.0
40
3.5
1

3

2
VC_START
70
0
0
ATTDEF
8
0
10
191.632152
20
193.951243
30
0.0
40
3.5
1

3

2
VC_END
70
0
0
ATTDEF
8
0
10
155.410768
20
193.951243
30
0.0
40
3.5
1

3

2
FRONT_VIEW
70
0
0
ATTDEF
8
0
10
155.410768
20
193.951243
30
0.0
40
3.5
1

3

2
OPTI:500.000000,1,0,3000.000000,6900.000000,500.000000,0,0.000000,0
70
0
0
ATTDEF
8
0
10
155.410768
20
193.951243
30
0.0
40
3.5
1

3

2
GLASS_MIN:0.000000
70
0
0
ATTDEF
8
0
10
155.410768
20
193.951243
30
0.0
40
3.5
1

3

2
GLASS_MAX:0.000000
70
0
0
ATTDEF
8
0
10
155.410768
20
193.951243
30
0.0
40
3.5
1

3

2
JX:0.000000
70
0
0
ATTDEF
8
0
10
155.410768
20
193.951243
30
0.0
40
3.5
1

3

2
WX:0.000000
70
0
0
ATTDEF
8
0
10
155.410768
20
193.951243
30
0.0
40
3.5
1

3

2
JY:0.000000
70
0
0
ATTDEF
8
0
10
155.410768
20
193.951243
30
0.0
40
3.5
1

3

2
WY:0.000000
70
0
0
ATTDEF
8
0
10
-1.756054
20
-1.584347
30
0.0
40
3.5
1

3

2
BL01:6200.000,,1
70
0
0
ATTDEF
8
0
10
0.000000
20
0.000000
30
0.0
40
3.5
1

3

2
CTYPE1:1973C4D145A414C076ED95BB65D39676|31.00,-44.93,0,0.000000|0.00,0.00|1
70
0
0
ATTDEF
8
0
10
155.410768
20
193.951243
30
0.0
40
3.5
1

3

2
FP_LCS_ORIG
70
0
0
ATTDEF
8
0
10
165.410768
20
193.951243
30
0.0
40
3.5
1

3

2
FP_LCS_HOT
70
0
0
ATTDEF
8
0
10
155.410768
20
183.951243
30
0.0
40
3.5
1

3

2
FP_LCS_INTERN
70
0
0
ATTDEF
8
0
10
0.000000
20
0.000000
30
0.0
40
3.5
1

3

2
DESC:Umbral y dintel corrediza de 3 hojas
70
0
0
ATTDEF
8
0
10
0.000000
20
0.000000
30
0.0
40
3.5
1

3

2
DENS:2.908000
70
0
0
ATTDEF
8
0
10
0.000000
20
0.000000
30
0.0
40
3.5
1

3

2
TDEV:0.000000
70
0
0
ATTDEF
8
0
10
0.000000
20
0.000000
30
0.0
40
3.5
1

3

2
TDEV2:0.000000
70
0
0
ATTDEF
8
0
10
0.000000
20
0.000000
30
0.0
40
3.5
1

3

2
TDEV3:0.000000
70
0
0
ATTDEF
8
0
10
0.000000
20
0.000000
30
0.0
40
3.5
1

3

2
TDEV4:0.000000
70
0
0
ATTDEF
8
0
10
0.000000
20
0.000000
30
0.0
40
3.5
1

3

2
TDEV5:0.000000
70
0
0
ATTDEF
8
0
10
0.000000
20
0.000000
30
0.0
40
3.5
1

3

2
PANE_WIDTH:0
70
0
0
ATTDEF
8
0
10
0.000000
20
0.000000
30
0.0
40
3.5
1

3

2
MIN_VETRO:0
70
0
0
ATTDEF
8
0
10
0.000000
20
0.000000
30
0.0
40
3.5
1

3

2
MAX_VETRO:0
70
0
0
ATTDEF
8
0
10
0.000000
20
0.000000
30
0.0
40
3.5
1

3

2
JX:0
70
0
0
ATTDEF
8
0
10
0.000000
20
0.000000
30
0.0
40
3.5
1

3

2
WX:0
70
0
0
ATTDEF
8
0
10
0.000000
20
0.000000
30
0.0
40
3.5
1

3

2
JY:0
70
0
0
ATTDEF
8
0
10
0.000000
20
0.000000
30
0.0
40
3.5
1

3

2
WY:0
70
0
0
ENDSEC
0
EOF
