0
SECTION
2
ENTITIES
0
ARC
8
0
10
63.840000
20
58.010000
30
0.0
40
0.590000
50
90.000000
51
180.000000
0
ARC
8
0
10
63.840000
20
57.990000
30
0.0
40
0.590000
50
180.000000
51
270.000000
0
LINE
8
0
10
65.000000
20
58.600000
30
0.0
11
63.840000
21
58.600000
31
0.0
0
LINE
8
0
10
63.840000
20
57.400000
30
0.0
11
64.000000
21
57.400000
31
0.0
0
ARC
8
0
10
65.000000
20
57.600000
30
0.0
40
1.000000
50
0.000000
51
90.000000
0
ARC
8
0
10
64.000000
20
56.900000
30
0.0
40
0.500000
50
0.000000
51
90.000000
0
LINE
8
0
10
66.000000
20
12.923146
30
0.0
11
66.000000
21
57.600000
31
0.0
0
LINE
8
0
10
64.500000
20
56.900000
30
0.0
11
64.500000
21
56.700000
31
0.0
0
ARC
8
0
10
58.000000
20
12.923146
30
0.0
40
8.000000
50
333.860917
51
0.000000
0
ARC
8
0
10
64.000000
20
56.700000
30
0.0
40
0.500000
50
270.000000
51
0.000000
0
ARC
8
0
10
50.100000
20
16.800000
30
0.0
40
16.800000
50
270.000000
51
333.860917
0
LINE
8
0
10
64.000000
20
56.200000
30
0.0
11
57.500000
21
56.200000
31
0.0
0
LINE
8
0
10
1.000000
20
0.000000
30
0.0
11
50.100000
21
0.000000
31
0.0
0
ARC
8
0
10
57.500000
20
56.700000
30
0.0
40
0.500000
50
180.000000
51
270.000000
0
ARC
8
0
10
1.000000
20
1.000000
30
0.0
40
1.000000
50
180.000000
51
270.000000
0
LINE
8
0
10
57.000000
20
56.700000
30
0.0
11
57.000000
21
56.900000
31
0.0
0
LINE
8
0
10
0.000000
20
27.250000
30
0.0
11
0.000000
21
1.000000
31
0.0
0
ARC
8
0
10
57.500000
20
56.900000
30
0.0
40
0.500000
50
90.000000
51
180.000000
0
ARC
8
0
10
0.750000
20
27.250000
30
0.0
40
0.750000
50
90.000000
51
180.000000
0
LINE
8
0
10
57.500000
20
57.400000
30
0.0
11
57.660000
21
57.400000
31
0.0
0
LINE
8
0
10
1.500000
20
28.000000
30
0.0
11
0.750000
21
28.000000
31
0.0
0
ARC
8
0
10
57.660000
20
57.990000
30
0.0
40
0.590000
50
270.000000
51
0.000000
0
LINE
8
0
10
1.500000
20
18.500000
30
0.0
11
1.500000
21
28.000000
31
0.0
0
ARC
8
0
10
57.660000
20
58.010000
30
0.0
40
0.590000
50
0.000000
51
90.000000
0
ARC
8
0
10
2.000000
20
18.500000
30
0.0
40
0.500000
50
180.000000
51
270.000000
0
LINE
8
0
10
57.660000
20
58.600000
30
0.0
11
56.500000
21
58.600000
31
0.0
0
LINE
8
0
10
16.000000
20
18.000000
30
0.0
11
2.000000
21
18.000000
31
0.0
0
ARC
8
0
10
56.500000
20
57.600000
30
0.0
40
1.000000
50
90.000000
51
180.000000
0
ARC
8
0
10
16.000000
20
18.500000
30
0.0
40
0.500000
50
270.000000
51
0.000000
0
LINE
8
0
10
55.500000
20
57.600000
30
0.0
11
55.500000
21
56.500000
31
0.0
0
LINE
8
0
10
16.500000
20
49.500000
30
0.0
11
16.500000
21
18.500000
31
0.0
0
ARC
8
0
10
53.500000
20
56.500000
30
0.0
40
2.000000
50
270.000000
51
0.000000
0
ARC
8
0
10
16.000000
20
49.500000
30
0.0
40
0.500000
50
0.000000
51
90.000000
0
LINE
8
0
10
53.500000
20
54.500000
30
0.0
11
42.000000
21
54.500000
31
0.0
0
LINE
8
0
10
2.000000
20
50.000000
30
0.0
11
16.000000
21
50.000000
31
0.0
0
ARC
8
0
10
42.000000
20
55.500000
30
0.0
40
1.000000
50
180.000000
51
270.000000
0
ARC
8
0
10
2.000000
20
49.500000
30
0.0
40
0.500000
50
90.000000
51
180.000000
0
LINE
8
0
10
41.000000
20
55.500000
30
0.0
11
41.000000
21
56.600000
31
0.0
0
LINE
8
0
10
1.500000
20
40.000000
30
0.0
11
1.500000
21
49.500000
31
0.0
0
ARC
8
0
10
39.000000
20
56.600000
30
0.0
40
2.000000
50
0.000000
51
90.000000
0
LINE
8
0
10
0.750000
20
40.000000
30
0.0
11
1.500000
21
40.000000
31
0.0
0
LINE
8
0
10
39.000000
20
58.600000
30
0.0
11
28.500000
21
58.600000
31
0.0
0
ARC
8
0
10
0.750000
20
40.750000
30
0.0
40
0.750000
50
180.000000
51
270.000000
0
ARC
8
0
10
28.500000
20
58.100000
30
0.0
40
0.500000
50
90.000000
51
263.000000
0
LINE
8
0
10
0.000000
20
51.500000
30
0.0
11
0.000000
21
40.750000
31
0.0
0
LINE
8
0
10
28.439065
20
57.603727
30
0.0
11
37.621869
21
56.476220
31
0.0
0
ARC
8
0
10
1.000000
20
51.500000
30
0.0
40
1.000000
50
90.000000
51
180.000000
0
ARC
8
0
10
37.500000
20
55.483674
30
0.0
40
1.000000
50
0.000000
51
83.000000
0
LINE
8
0
10
37.500000
20
52.500000
30
0.0
11
1.000000
21
52.500000
31
0.0
0
LINE
8
0
10
38.500000
20
55.483674
30
0.0
11
38.500000
21
53.500000
31
0.0
0
ARC
8
0
10
37.500000
20
53.500000
30
0.0
40
1.000000
50
270.000000
51
0.000000
0
ARC
8
0
10
18.700000
20
18.500000
30
0.0
40
0.500000
50
180.000000
51
270.000000
0
LINE
8
0
10
18.200000
20
18.500000
30
0.0
11
18.200000
21
49.500000
31
0.0
0
LINE
8
0
10
63.800000
20
18.000000
30
0.0
11
18.700000
21
18.000000
31
0.0
0
ARC
8
0
10
18.700000
20
49.500000
30
0.0
40
0.500000
50
90.000000
51
180.000000
0
ARC
8
0
10
63.800000
20
18.500000
30
0.0
40
0.500000
50
270.000000
51
0.000000
0
LINE
8
0
10
18.700000
20
50.000000
30
0.0
11
63.800000
21
50.000000
31
0.0
0
LINE
8
0
10
64.300000
20
49.500000
30
0.0
11
64.300000
21
18.500000
31
0.0
0
ARC
8
0
10
63.800000
20
49.500000
30
0.0
40
0.500000
50
0.000000
51
90.000000
0
LINE
8
0
10
6.500000
20
13.500000
30
0.0
11
58.931761
21
13.500000
31
0.0
0
ARC
8
0
10
58.931761
20
11.500000
30
0.0
40
2.000000
50
329.031743
51
90.000000
0
ARC
8
0
10
6.500000
20
11.500000
30
0.0
40
2.000000
50
90.000000
51
180.000000
0
ARC
8
0
10
50.100000
20
16.800000
30
0.0
40
12.300000
50
270.000000
51
329.031743
0
LINE
8
0
10
4.500000
20
6.500000
30
0.0
11
4.500000
21
11.500000
31
0.0
0
LINE
8
0
10
50.100000
20
4.500000
30
0.0
11
6.500000
21
4.500000
31
0.0
0
ARC
8
0
10
6.500000
20
6.500000
30
0.0
40
2.000000
50
180.000000
51
270.000000
0
ATTDEF
8
0
10
16.500000
20
34.000000
30
0.0
40
3.5
1

3

2
HC_START
70
0
0
ATTDEF
8
0
10
66.000000
20
35.261573
30
0.0
40
3.5
1

3

2
HC_END
70
0
0
ATTDEF
8
0
10
66.000000
20
58.600000
30
0.0
40
3.5
1

3

2
FRONT_VIEW
70
0
0
ATTDEF
8
0
10
66.000000
20
58.600000
30
0.0
40
3.5
1

3

2
OPTI:1500.000000,1,0,3000.000000,6900.000000,500.000000,0,0.000000,0
70
0
0
ATTDEF
8
0
10
66.000000
20
58.600000
30
0.0
40
3.5
1

3

2
GLASS_MIN:0.000000
70
0
0
ATTDEF
8
0
10
66.000000
20
58.600000
30
0.0
40
3.5
1

3

2
GLASS_MAX:0.000000
70
0
0
ATTDEF
8
0
10
66.000000
20
58.600000
30
0.0
40
3.5
1

3

2
WX:0.000000
70
0
0
ATTDEF
8
0
10
66.000000
20
58.600000
30
0.0
40
3.5
1

3

2
JY:0.000000
70
0
0
ATTDEF
8
0
10
66.000000
20
58.600000
30
0.0
40
3.5
1

3

2
WY:0.000000
70
0
0
ATTDEF
8
0
10
66.000000
20
58.600000
30
0.0
40
3.5
1

3

2
FP_LCS_ORIG
70
0
0
ATTDEF
8
0
10
66.000000
20
48.600000
30
0.0
40
3.5
1

3

2
FP_LCS_HOT
70
0
0
ATTDEF
8
0
10
56.000000
20
58.600000
30
0.0
40
3.5
1

3

2
FP_LCS_INTERN
70
0
0
ATTDEF
8
0
10
0.000000
20
0.000000
30
0.0
40
3.5
1

3

2
BL01:6200.000,,1
70
0
0
ATTDEF
8
0
10
0.000000
20
0.000000
30
0.0
40
3.5
1

3

2
CTYPE1:14B464CF426494A6CA87809BC1C69280|1.40,-40.82,0,90.000000|0.00,0.00|1
70
0
0
ATTDEF
8
0
10
0.000000
20
0.000000
30
0.0
40
3.5
1

3

2
DESC:Parante reforzado 60 mm p/vidrio simple
70
0
0
ATTDEF
8
0
10
0.000000
20
0.000000
30
0.0
40
3.5
1

3

2
DENS:2.88
70
0
0
ATTDEF
8
0
10
0.000000
20
0.000000
30
0.0
40
3.5
1

3

2
TDEV:0
70
0
0
ATTDEF
8
0
10
0.000000
20
0.000000
30
0.0
40
3.5
1

3

2
TDEV2:0
70
0
0
ATTDEF
8
0
10
0.000000
20
0.000000
30
0.0
40
3.5
1

3

2
TDEV3:0
70
0
0
ATTDEF
8
0
10
0.000000
20
0.000000
30
0.0
40
3.5
1

3

2
TDEV4:0
70
0
0
ATTDEF
8
0
10
0.000000
20
0.000000
30
0.0
40
3.5
1

3

2
TDEV5:0
70
0
0
ATTDEF
8
0
10
0.000000
20
0.000000
30
0.0
40
3.5
1

3

2
PANE_WIDTH:0
70
0
0
ATTDEF
8
0
10
0.000000
20
0.000000
30
0.0
40
3.5
1

3

2
MIN_VETRO:0
70
0
0
ATTDEF
8
0
10
0.000000
20
0.000000
30
0.0
40
3.5
1

3

2
MAX_VETRO:0
70
0
0
ATTDEF
8
0
10
0.000000
20
0.000000
30
0.0
40
3.5
1

3

2
JX:0
70
0
0
ATTDEF
8
0
10
0.000000
20
0.000000
30
0.0
40
3.5
1

3

2
WX:0
70
0
0
ATTDEF
8
0
10
0.000000
20
0.000000
30
0.0
40
3.5
1

3

2
JY:0
70
0
0
ATTDEF
8
0
10
0.000000
20
0.000000
30
0.0
40
3.5
1

3

2
WY:0
70
0
0
ENDSEC
0
EOF
