0
SECTION
2
ENTITIES
0
LINE
8
0
10
0.000000
20
71.600000
30
0.0
11
0.000000
21
0.500000
31
0.0
0
ARC
8
0
10
0.500000
20
0.500000
30
0.0
40
0.500000
50
180.000000
51
270.000000
0
LINE
8
0
10
0.500000
20
0.000000
30
0.0
11
0.911325
21
0.000000
31
0.0
0
ARC
8
0
10
0.911325
20
0.500000
30
0.0
40
0.500000
50
270.000000
51
330.000000
0
LINE
8
0
10
1.344338
20
0.250000
30
0.0
11
1.933013
21
1.269615
31
0.0
0
ARC
8
0
10
1.500000
20
1.519615
30
0.0
40
0.500000
50
330.000000
51
60.000000
0
LINE
8
0
10
1.750000
20
1.952628
30
0.0
11
1.200000
21
2.270171
31
0.0
0
LINE
8
0
10
1.200000
20
2.270171
30
0.0
11
1.200000
21
4.950000
31
0.0
0
ARC
8
0
10
2.950000
20
4.950000
30
0.0
40
1.750000
50
0.000000
51
180.000000
0
LINE
8
0
10
1.700000
20
47.100000
30
0.0
11
1.700000
21
69.400000
31
0.0
0
LINE
8
0
10
4.700000
20
4.950000
30
0.0
11
4.700000
21
1.453939
31
0.0
0
ARC
8
0
10
3.700000
20
47.100000
30
0.0
40
2.000000
50
180.000000
51
270.000000
0
ARC
8
0
10
4.200000
20
1.453939
30
0.0
40
0.500000
50
287.457603
51
0.000000
0
LINE
8
0
10
10.800000
20
45.100000
30
0.0
11
3.700000
21
45.100000
31
0.0
0
ARC
8
0
10
4.500000
20
0.500000
30
0.0
40
0.500000
50
107.457603
51
270.000000
0
ARC
8
0
10
11.300000
20
45.100000
30
0.0
40
0.500000
50
0.000000
51
180.000000
0
LINE
8
0
10
4.500000
20
0.000000
30
0.0
11
6.500000
21
0.000000
31
0.0
0
LINE
8
0
10
12.800000
20
45.100000
30
0.0
11
11.800000
21
45.100000
31
0.0
0
ARC
8
0
10
6.500000
20
0.600000
30
0.0
40
0.600000
50
270.000000
51
90.000000
0
ARC
8
0
10
13.300000
20
45.100000
30
0.0
40
0.500000
50
0.000000
51
180.000000
0
LINE
8
0
10
6.500000
20
1.200000
30
0.0
11
5.900000
21
1.200000
31
0.0
0
LINE
8
0
10
16.300000
20
45.100000
30
0.0
11
13.800000
21
45.100000
31
0.0
0
LINE
8
0
10
5.900000
20
1.200000
30
0.0
11
5.900000
21
6.200000
31
0.0
0
ARC
8
0
10
16.300000
20
46.100000
30
0.0
40
1.000000
50
270.000000
51
0.000000
0
ARC
8
0
10
6.400000
20
6.200000
30
0.0
40
0.500000
50
90.000000
51
180.000000
0
LINE
8
0
10
17.300000
20
49.600000
30
0.0
11
17.300000
21
46.100000
31
0.0
0
LINE
8
0
10
6.400000
20
6.700000
30
0.0
11
31.750000
21
6.700000
31
0.0
0
ARC
8
0
10
17.800000
20
49.600000
30
0.0
40
0.500000
50
90.000000
51
180.000000
0
ARC
8
0
10
32.250000
20
6.700000
30
0.0
40
0.500000
50
180.000000
51
0.000000
0
LINE
8
0
10
19.237363
20
50.100000
30
0.0
11
17.800000
21
50.100000
31
0.0
0
LINE
8
0
10
32.750000
20
6.700000
30
0.0
11
33.750000
21
6.700000
31
0.0
0
ARC
8
0
10
19.237363
20
49.600000
30
0.0
40
0.500000
50
24.791281
51
90.000000
0
ARC
8
0
10
34.250000
20
6.700000
30
0.0
40
0.500000
50
180.000000
51
0.000000
0
LINE
8
0
10
20.250000
20
48.600000
30
0.0
11
19.691283
21
49.809657
31
0.0
0
LINE
8
0
10
34.750000
20
6.700000
30
0.0
11
53.600000
21
6.700000
31
0.0
0
LINE
8
0
10
19.500000
20
48.600000
30
0.0
11
20.250000
21
48.600000
31
0.0
0
ARC
8
0
10
53.600000
20
6.200000
30
0.0
40
0.500000
50
0.000000
51
90.000000
0
ARC
8
0
10
19.500000
20
48.100000
30
0.0
40
0.500000
50
90.000000
51
180.000000
0
LINE
8
0
10
54.100000
20
6.200000
30
0.0
11
54.100000
21
1.200000
31
0.0
0
LINE
8
0
10
19.000000
20
45.600000
30
0.0
11
19.000000
21
48.100000
31
0.0
0
LINE
8
0
10
54.100000
20
1.200000
30
0.0
11
53.500000
21
1.200000
31
0.0
0
ARC
8
0
10
19.500000
20
45.600000
30
0.0
40
0.500000
50
180.000000
51
270.000000
0
ARC
8
0
10
53.500000
20
0.600000
30
0.0
40
0.600000
50
90.000000
51
270.000000
0
LINE
8
0
10
25.500000
20
45.100000
30
0.0
11
19.500000
21
45.100000
31
0.0
0
LINE
8
0
10
53.500000
20
0.000000
30
0.0
11
55.500000
21
0.000000
31
0.0
0
ARC
8
0
10
25.500000
20
45.600000
30
0.0
40
0.500000
50
270.000000
51
0.000000
0
ARC
8
0
10
55.500000
20
0.500000
30
0.0
40
0.500000
50
270.000000
51
72.542397
0
LINE
8
0
10
26.000000
20
48.100000
30
0.0
11
26.000000
21
45.600000
31
0.0
0
ARC
8
0
10
55.800000
20
1.453939
30
0.0
40
0.500000
50
180.000000
51
252.542397
0
ARC
8
0
10
25.500000
20
48.100000
30
0.0
40
0.500000
50
0.000000
51
90.000000
0
LINE
8
0
10
55.300000
20
1.453939
30
0.0
11
55.300000
21
4.950000
31
0.0
0
LINE
8
0
10
24.750000
20
48.600000
30
0.0
11
25.500000
21
48.600000
31
0.0
0
ARC
8
0
10
57.050000
20
4.950000
30
0.0
40
1.750000
50
0.000000
51
180.000000
0
LINE
8
0
10
25.308717
20
49.809657
30
0.0
11
24.750000
21
48.600000
31
0.0
0
LINE
8
0
10
58.800000
20
4.950000
30
0.0
11
58.800000
21
2.270171
31
0.0
0
ARC
8
0
10
25.762637
20
49.600000
30
0.0
40
0.500000
50
90.000000
51
155.208719
0
LINE
8
0
10
58.800000
20
2.270171
30
0.0
11
58.250000
21
1.952628
31
0.0
0
LINE
8
0
10
41.292893
20
50.100000
30
0.0
11
25.762637
21
50.100000
31
0.0
0
ARC
8
0
10
58.500000
20
1.519615
30
0.0
40
0.500000
50
120.000000
51
210.000000
0
ARC
8
0
10
41.292893
20
49.600000
30
0.0
40
0.500000
50
45.000000
51
90.000000
0
LINE
8
0
10
58.066987
20
1.269615
30
0.0
11
58.655662
21
0.250000
31
0.0
0
LINE
8
0
10
42.500000
20
49.100000
30
0.0
11
41.646447
21
49.953553
31
0.0
0
ARC
8
0
10
59.088675
20
0.500000
30
0.0
40
0.500000
50
210.000000
51
270.000000
0
LINE
8
0
10
42.500000
20
48.100000
30
0.0
11
42.500000
21
49.100000
31
0.0
0
LINE
8
0
10
59.088675
20
0.000000
30
0.0
11
59.500000
21
0.000000
31
0.0
0
LINE
8
0
10
41.000000
20
48.100000
30
0.0
11
42.500000
21
48.100000
31
0.0
0
ARC
8
0
10
59.500000
20
0.500000
30
0.0
40
0.500000
50
270.000000
51
0.000000
0
ARC
8
0
10
41.000000
20
47.600000
30
0.0
40
0.500000
50
90.000000
51
180.000000
0
LINE
8
0
10
60.000000
20
0.500000
30
0.0
11
60.000000
21
49.600000
31
0.0
0
LINE
8
0
10
40.500000
20
45.600000
30
0.0
11
40.500000
21
47.600000
31
0.0
0
ARC
8
0
10
59.500000
20
49.600000
30
0.0
40
0.500000
50
0.000000
51
90.000000
0
ARC
8
0
10
41.000000
20
45.600000
30
0.0
40
0.500000
50
180.000000
51
270.000000
0
LINE
8
0
10
59.500000
20
50.100000
30
0.0
11
57.500000
21
50.100000
31
0.0
0
LINE
8
0
10
58.000000
20
45.100000
30
0.0
11
41.000000
21
45.100000
31
0.0
0
LINE
8
0
10
57.500000
20
50.100000
30
0.0
11
56.500000
21
49.100000
31
0.0
0
ARC
8
0
10
58.000000
20
45.600000
30
0.0
40
0.500000
50
270.000000
51
0.000000
0
LINE
8
0
10
56.500000
20
49.100000
30
0.0
11
56.500000
21
48.100000
31
0.0
0
LINE
8
0
10
58.500000
20
47.600000
30
0.0
11
58.500000
21
45.600000
31
0.0
0
LINE
8
0
10
56.500000
20
48.100000
30
0.0
11
58.000000
21
48.100000
31
0.0
0
ARC
8
0
10
58.000000
20
47.600000
30
0.0
40
0.500000
50
0.000000
51
90.000000
0
ARC
8
0
10
2.700000
20
42.400000
30
0.0
40
1.000000
50
90.000000
51
180.000000
0
LINE
8
0
10
2.700000
20
43.400000
30
0.0
11
19.100000
21
43.400000
31
0.0
0
LINE
8
0
10
1.700000
20
9.400000
30
0.0
11
1.700000
21
42.400000
31
0.0
0
ARC
8
0
10
19.100000
20
42.400000
30
0.0
40
1.000000
50
0.000000
51
90.000000
0
ARC
8
0
10
2.700000
20
9.400000
30
0.0
40
1.000000
50
180.000000
51
270.000000
0
LINE
8
0
10
20.100000
20
42.400000
30
0.0
11
20.100000
21
9.400000
31
0.0
0
LINE
8
0
10
19.100000
20
8.400000
30
0.0
11
2.700000
21
8.400000
31
0.0
0
ARC
8
0
10
19.100000
20
9.400000
30
0.0
40
1.000000
50
270.000000
51
0.000000
0
ARC
8
0
10
32.250000
20
48.400000
30
0.0
40
0.500000
50
180.000000
51
0.000000
0
LINE
8
0
10
32.750000
20
48.400000
30
0.0
11
33.750000
21
48.400000
31
0.0
0
LINE
8
0
10
28.200000
20
48.400000
30
0.0
11
31.750000
21
48.400000
31
0.0
0
ARC
8
0
10
34.250000
20
48.400000
30
0.0
40
0.500000
50
180.000000
51
0.000000
0
ARC
8
0
10
28.200000
20
47.900000
30
0.0
40
0.500000
50
90.000000
51
180.000000
0
LINE
8
0
10
34.750000
20
48.400000
30
0.0
11
38.300000
21
48.400000
31
0.0
0
LINE
8
0
10
27.700000
20
44.400000
30
0.0
11
27.700000
21
47.900000
31
0.0
0
ARC
8
0
10
38.300000
20
47.900000
30
0.0
40
0.500000
50
0.000000
51
90.000000
0
ARC
8
0
10
26.700000
20
44.400000
30
0.0
40
1.000000
50
270.000000
51
0.000000
0
LINE
8
0
10
38.800000
20
47.900000
30
0.0
11
38.800000
21
44.400000
31
0.0
0
LINE
8
0
10
22.800000
20
43.400000
30
0.0
11
26.700000
21
43.400000
31
0.0
0
ARC
8
0
10
39.972894
20
44.587472
30
0.0
40
1.187782
50
189.081199
51
268.692342
0
ARC
8
0
10
22.800000
20
42.400000
30
0.0
40
1.000000
50
90.000000
51
180.000000
0
LINE
8
0
10
39.945787
20
43.400000
30
0.0
11
57.300000
21
43.400000
31
0.0
0
LINE
8
0
10
21.800000
20
25.400000
30
0.0
11
21.800000
21
42.400000
31
0.0
0
ARC
8
0
10
57.300000
20
42.400000
30
0.0
40
1.000000
50
0.000000
51
90.000000
0
ARC
8
0
10
22.800000
20
25.400000
30
0.0
40
1.000000
50
180.000000
51
270.000000
0
LINE
8
0
10
58.300000
20
42.400000
30
0.0
11
58.300000
21
25.400000
31
0.0
0
LINE
8
0
10
23.800000
20
24.400000
30
0.0
11
22.800000
21
24.400000
31
0.0
0
ARC
8
0
10
57.300000
20
25.400000
30
0.0
40
1.000000
50
270.000000
51
0.000000
0
ARC
8
0
10
23.800000
20
23.900000
30
0.0
40
0.500000
50
0.000000
51
90.000000
0
LINE
8
0
10
57.300000
20
24.400000
30
0.0
11
56.300000
21
24.400000
31
0.0
0
LINE
8
0
10
24.300000
20
23.400000
30
0.0
11
24.300000
21
23.900000
31
0.0
0
ARC
8
0
10
56.300000
20
23.900000
30
0.0
40
0.500000
50
90.000000
51
180.000000
0
ARC
8
0
10
23.800000
20
23.400000
30
0.0
40
0.500000
50
270.000000
51
0.000000
0
LINE
8
0
10
55.800000
20
23.900000
30
0.0
11
55.800000
21
23.400000
31
0.0
0
LINE
8
0
10
22.300000
20
22.900000
30
0.0
11
23.800000
21
22.900000
31
0.0
0
ARC
8
0
10
56.300000
20
23.400000
30
0.0
40
0.500000
50
180.000000
51
270.000000
0
ARC
8
0
10
22.300000
20
22.400000
30
0.0
40
0.500000
50
90.000000
51
180.000000
0
LINE
8
0
10
56.300000
20
22.900000
30
0.0
11
57.800000
21
22.900000
31
0.0
0
LINE
8
0
10
21.800000
20
8.900000
30
0.0
11
21.800000
21
22.400000
31
0.0
0
ARC
8
0
10
57.800000
20
22.400000
30
0.0
40
0.500000
50
0.000000
51
90.000000
0
ARC
8
0
10
22.300000
20
8.900000
30
0.0
40
0.500000
50
180.000000
51
270.000000
0
LINE
8
0
10
58.300000
20
22.400000
30
0.0
11
58.300000
21
8.900000
31
0.0
0
LINE
8
0
10
57.800000
20
8.400000
30
0.0
11
22.300000
21
8.400000
31
0.0
0
ARC
8
0
10
57.800000
20
8.900000
30
0.0
40
0.500000
50
270.000000
51
0.000000
0
LINE
8
0
10
8.800000
20
70.900000
30
0.0
11
10.300000
21
70.900000
31
0.0
0
ARC
8
0
10
10.300000
20
70.400000
30
0.0
40
0.500000
50
0.000000
51
90.000000
0
ARC
8
0
10
8.800000
20
70.400000
30
0.0
40
0.500000
50
90.000000
51
180.000000
0
LINE
8
0
10
10.800000
20
70.400000
30
0.0
11
10.800000
21
69.650000
31
0.0
0
LINE
8
0
10
8.300000
20
64.900000
30
0.0
11
8.300000
21
70.400000
31
0.0
0
LINE
8
0
10
10.800000
20
69.650000
30
0.0
11
11.750000
21
70.198483
31
0.0
0
ARC
8
0
10
8.800000
20
64.900000
30
0.0
40
0.500000
50
180.000000
51
270.000000
0
ARC
8
0
10
11.500000
20
70.631495
30
0.0
40
0.500000
50
300.000000
51
0.000000
0
LINE
8
0
10
10.300000
20
64.400000
30
0.0
11
8.800000
21
64.400000
31
0.0
0
LINE
8
0
10
12.000000
20
70.631495
30
0.0
11
12.000000
21
71.600000
31
0.0
0
ARC
8
0
10
10.300000
20
64.900000
30
0.0
40
0.500000
50
270.000000
51
0.000000
0
ARC
8
0
10
11.500000
20
71.600000
30
0.0
40
0.500000
50
0.000000
51
90.000000
0
LINE
8
0
10
10.800000
20
65.650000
30
0.0
11
10.800000
21
64.900000
31
0.0
0
LINE
8
0
10
11.500000
20
72.100000
30
0.0
11
0.500000
21
72.100000
31
0.0
0
LINE
8
0
10
11.750000
20
65.101517
30
0.0
11
10.800000
21
65.650000
31
0.0
0
ARC
8
0
10
0.500000
20
71.600000
30
0.0
40
0.500000
50
90.000000
51
180.000000
0
ARC
8
0
10
11.500000
20
64.668505
30
0.0
40
0.500000
50
0.000000
51
60.000000
0
LINE
8
0
10
12.000000
20
64.200000
30
0.0
11
12.000000
21
64.668505
31
0.0
0
ARC
8
0
10
11.000000
20
64.200000
30
0.0
40
1.000000
50
270.000000
51
0.000000
0
LINE
8
0
10
7.800000
20
63.200000
30
0.0
11
11.000000
21
63.200000
31
0.0
0
ARC
8
0
10
7.800000
20
64.200000
30
0.0
40
1.000000
50
180.000000
51
270.000000
0
LINE
8
0
10
6.800000
20
69.400000
30
0.0
11
6.800000
21
64.200000
31
0.0
0
ARC
8
0
10
5.800000
20
69.400000
30
0.0
40
1.000000
50
0.000000
51
90.000000
0
LINE
8
0
10
2.700000
20
70.400000
30
0.0
11
5.800000
21
70.400000
31
0.0
0
ARC
8
0
10
2.700000
20
69.400000
30
0.0
40
1.000000
50
90.000000
51
180.000000
0
ATTDEF
8
0
10
0.000000
20
0.000000
30
0.0
40
3.5
1

3

2
FRONT_VIEW
70
0
0
ATTDEF
8
0
10
0.000000
20
0.000000
30
0.0
40
3.5
1

3

2
OPTI:1500.000000,1,0,3000.000000,6900.000000,500.000000,0,0.000000,0
70
0
0
ATTDEF
8
0
10
0.000000
20
0.000000
30
0.0
40
3.5
1

3

2
GLASS_MIN:0.000000
70
0
0
ATTDEF
8
0
10
0.000000
20
0.000000
30
0.0
40
3.5
1

3

2
GLASS_MAX:0.000000
70
0
0
ATTDEF
8
0
10
0.000000
20
0.000000
30
0.0
40
3.5
1

3

2
WY:0.000000
70
0
0
ATTDEF
8
0
10
33.527765
20
50.100000
30
0.0
40
3.5
1

3

2
VC_START
70
0
0
ATTDEF
8
0
10
5.500000
20
0.000000
30
0.0
40
3.5
1

3

2
VC_END
70
0
0
ATTDEF
8
0
10
0.000000
20
0.000000
30
0.0
40
3.5
1

3

2
BL01:6200.000,,1
70
0
0
ATTDEF
8
0
10
0.000000
20
0.000000
30
0.0
40
3.5
1

3

2
FP_LCS_ORIG
70
0
0
ATTDEF
8
0
10
10.000000
20
0.000000
30
0.0
40
3.5
1

3

2
FP_LCS_HOT
70
0
0
ATTDEF
8
0
10
0.000000
20
10.000000
30
0.0
40
3.5
1

3

2
FP_LCS_INTERN
70
0
0
ATTDEF
8
0
10
0.000000
20
0.000000
30
0.0
40
3.5
1

3

2
PANE_WIDTH:48.000000
70
0
0
ATTDEF
8
0
10
0.000000
20
0.000000
30
0.0
40
3.5
1

3

2
CTYPE1:5B9BEC784787F5C1800A72B2D85C9C56|12.00,22.00,2,90.000000|0.00,0.00|1
70
0
0
ATTDEF
8
0
10
0.000000
20
0.000000
30
0.0
40
3.5
1

3

2
DESC:Marco PF con caja de agua
70
0
0
ATTDEF
8
0
10
0.000000
20
0.000000
30
0.0
40
3.5
1

3

2
DENS:1.507
70
0
0
ATTDEF
8
0
10
0.000000
20
0.000000
30
0.0
40
3.5
1

3

2
TDEV:0
70
0
0
ATTDEF
8
0
10
0.000000
20
0.000000
30
0.0
40
3.5
1

3

2
TDEV2:0
70
0
0
ATTDEF
8
0
10
0.000000
20
0.000000
30
0.0
40
3.5
1

3

2
TDEV3:0
70
0
0
ATTDEF
8
0
10
0.000000
20
0.000000
30
0.0
40
3.5
1

3

2
TDEV4:0
70
0
0
ATTDEF
8
0
10
0.000000
20
0.000000
30
0.0
40
3.5
1

3

2
TDEV5:0
70
0
0
ATTDEF
8
0
10
0.000000
20
0.000000
30
0.0
40
3.5
1

3

2
PANE_WIDTH:48
70
0
0
ATTDEF
8
0
10
0.000000
20
0.000000
30
0.0
40
3.5
1

3

2
MIN_VETRO:0
70
0
0
ATTDEF
8
0
10
0.000000
20
0.000000
30
0.0
40
3.5
1

3

2
MAX_VETRO:0
70
0
0
ATTDEF
8
0
10
0.000000
20
0.000000
30
0.0
40
3.5
1

3

2
JX:0
70
0
0
ATTDEF
8
0
10
0.000000
20
0.000000
30
0.0
40
3.5
1

3

2
WX:0
70
0
0
ATTDEF
8
0
10
0.000000
20
0.000000
30
0.0
40
3.5
1

3

2
JY:0
70
0
0
ATTDEF
8
0
10
0.000000
20
0.000000
30
0.0
40
3.5
1

3

2
WY:0
70
0
0
ENDSEC
0
EOF
