0
SECTION
2
ENTITIES
0
LINE
8
0
10
0.000000
20
12.923146
30
0.0
11
0.000000
21
40.650000
31
0.0
0
ARC
8
0
10
0.750000
20
40.650000
30
0.0
40
0.750000
50
90.000000
51
180.000000
0
LINE
8
0
10
66.000000
20
79.000000
30
0.0
11
66.000000
21
12.923146
31
0.0
0
LINE
8
0
10
0.750000
20
41.400000
30
0.0
11
1.500000
21
41.400000
31
0.0
0
ARC
8
0
10
65.000000
20
79.000000
30
0.0
40
1.000000
50
0.000000
51
90.000000
0
LINE
8
0
10
1.500000
20
41.400000
30
0.0
11
1.500000
21
39.900000
31
0.0
0
LINE
8
0
10
63.840000
20
80.000000
30
0.0
11
65.000000
21
80.000000
31
0.0
0
ARC
8
0
10
2.000000
20
39.900000
30
0.0
40
0.500000
50
180.000000
51
270.000000
0
ARC
8
0
10
63.840000
20
79.410000
30
0.0
40
0.590000
50
90.000000
51
180.000000
0
LINE
8
0
10
2.000000
20
39.400000
30
0.0
11
16.000000
21
39.400000
31
0.0
0
ARC
8
0
10
63.840000
20
79.390000
30
0.0
40
0.590000
50
180.000000
51
270.000000
0
ARC
8
0
10
16.000000
20
39.900000
30
0.0
40
0.500000
50
270.000000
51
0.000000
0
LINE
8
0
10
64.000000
20
78.800000
30
0.0
11
63.840000
21
78.800000
31
0.0
0
LINE
8
0
10
16.500000
20
39.900000
30
0.0
11
16.500000
21
70.900000
31
0.0
0
ARC
8
0
10
64.000000
20
78.300000
30
0.0
40
0.500000
50
0.000000
51
90.000000
0
ARC
8
0
10
16.000000
20
70.900000
30
0.0
40
0.500000
50
0.000000
51
90.000000
0
LINE
8
0
10
64.500000
20
78.100000
30
0.0
11
64.500000
21
78.300000
31
0.0
0
LINE
8
0
10
16.000000
20
71.400000
30
0.0
11
2.000000
21
71.400000
31
0.0
0
ARC
8
0
10
64.000000
20
78.100000
30
0.0
40
0.500000
50
270.000000
51
0.000000
0
ARC
8
0
10
2.000000
20
70.900000
30
0.0
40
0.500000
50
90.000000
51
180.000000
0
LINE
8
0
10
57.500000
20
77.600000
30
0.0
11
64.000000
21
77.600000
31
0.0
0
LINE
8
0
10
1.500000
20
70.900000
30
0.0
11
1.500000
21
69.400000
31
0.0
0
ARC
8
0
10
57.500000
20
78.100000
30
0.0
40
0.500000
50
180.000000
51
270.000000
0
LINE
8
0
10
1.500000
20
69.400000
30
0.0
11
0.750000
21
69.400000
31
0.0
0
LINE
8
0
10
57.000000
20
78.300000
30
0.0
11
57.000000
21
78.100000
31
0.0
0
ARC
8
0
10
0.750000
20
70.150000
30
0.0
40
0.750000
50
180.000000
51
270.000000
0
ARC
8
0
10
57.500000
20
78.300000
30
0.0
40
0.500000
50
90.000000
51
180.000000
0
LINE
8
0
10
0.000000
20
70.150000
30
0.0
11
0.000000
21
72.900000
31
0.0
0
LINE
8
0
10
57.660000
20
78.800000
30
0.0
11
57.500000
21
78.800000
31
0.0
0
ARC
8
0
10
1.000000
20
72.900000
30
0.0
40
1.000000
50
90.000000
51
180.000000
0
ARC
8
0
10
57.660000
20
79.390000
30
0.0
40
0.590000
50
270.000000
51
0.000000
0
LINE
8
0
10
1.000000
20
73.900000
30
0.0
11
37.500000
21
73.900000
31
0.0
0
ARC
8
0
10
57.660000
20
79.410000
30
0.0
40
0.590000
50
0.000000
51
90.000000
0
ARC
8
0
10
37.500000
20
74.900000
30
0.0
40
1.000000
50
270.000000
51
0.000000
0
LINE
8
0
10
56.500000
20
80.000000
30
0.0
11
57.660000
21
80.000000
31
0.0
0
LINE
8
0
10
38.500000
20
74.900000
30
0.0
11
38.500000
21
76.883674
31
0.0
0
ARC
8
0
10
56.500000
20
79.000000
30
0.0
40
1.000000
50
90.000000
51
180.000000
0
ARC
8
0
10
37.500000
20
76.883674
30
0.0
40
1.000000
50
0.000000
51
83.000000
0
LINE
8
0
10
55.500000
20
75.900000
30
0.0
11
55.500000
21
79.000000
31
0.0
0
LINE
8
0
10
37.621869
20
77.876220
30
0.0
11
28.439065
21
79.003727
31
0.0
0
ARC
8
0
10
53.500000
20
75.900000
30
0.0
40
2.000000
50
270.000000
51
0.000000
0
ARC
8
0
10
28.500000
20
79.500000
30
0.0
40
0.500000
50
90.000000
51
263.000000
0
LINE
8
0
10
42.000000
20
73.900000
30
0.0
11
53.500000
21
73.900000
31
0.0
0
LINE
8
0
10
28.500000
20
80.000000
30
0.0
11
39.000000
21
80.000000
31
0.0
0
ARC
8
0
10
42.000000
20
74.900000
30
0.0
40
1.000000
50
180.000000
51
270.000000
0
ARC
8
0
10
39.000000
20
78.000000
30
0.0
40
2.000000
50
0.000000
51
90.000000
0
LINE
8
0
10
41.000000
20
78.000000
30
0.0
11
41.000000
21
74.900000
31
0.0
0
LINE
8
0
10
4.500000
20
12.380724
30
0.0
11
4.500000
21
32.900000
31
0.0
0
ARC
8
0
10
6.500000
20
32.900000
30
0.0
40
2.000000
50
90.000000
51
180.000000
0
LINE
8
0
10
6.500000
20
34.900000
30
0.0
11
59.500000
21
34.900000
31
0.0
0
LINE
8
0
10
61.500000
20
32.900000
30
0.0
11
61.500000
21
12.380724
31
0.0
0
ARC
8
0
10
59.500000
20
32.900000
30
0.0
40
2.000000
50
0.000000
51
90.000000
0
ARC
8
0
10
18.700000
20
39.900000
30
0.0
40
0.500000
50
180.000000
51
270.000000
0
LINE
8
0
10
18.200000
20
39.900000
30
0.0
11
18.200000
21
70.900000
31
0.0
0
LINE
8
0
10
63.800000
20
39.400000
30
0.0
11
18.700000
21
39.400000
31
0.0
0
ARC
8
0
10
18.700000
20
70.900000
30
0.0
40
0.500000
50
90.000000
51
180.000000
0
ARC
8
0
10
63.800000
20
39.900000
30
0.0
40
0.500000
50
270.000000
51
0.000000
0
LINE
8
0
10
18.700000
20
71.400000
30
0.0
11
63.800000
21
71.400000
31
0.0
0
LINE
8
0
10
64.300000
20
70.900000
30
0.0
11
64.300000
21
39.900000
31
0.0
0
ARC
8
0
10
63.800000
20
70.900000
30
0.0
40
0.500000
50
0.000000
51
90.000000
0
ARC
8
0
10
50.100000
20
16.800000
30
0.0
40
16.800000
50
270.000000
51
333.860917
0
ARC
8
0
10
58.000000
20
12.923146
30
0.0
40
8.000000
50
333.860917
51
0.000000
0
ARC
8
0
10
50.100000
20
16.800000
30
0.0
40
12.300000
50
270.000000
51
336.977887
0
ARC
8
0
10
60.500000
20
12.380724
30
0.0
40
1.000000
50
336.977887
51
0.000000
0
ARC
8
0
10
15.900000
20
16.800000
30
0.0
40
16.800000
50
206.139083
51
270.000000
0
LINE
8
0
10
50.100000
20
0.000000
30
0.0
11
15.900000
21
0.000000
31
0.0
0
ARC
8
0
10
15.900000
20
16.800000
30
0.0
40
12.300000
50
203.022113
51
270.000000
0
LINE
8
0
10
50.100000
20
4.500000
30
0.0
11
15.900000
21
4.500000
31
0.0
0
ATTDEF
8
0
10
16.500000
20
55.400000
30
0.0
40
3.5
1

3

2
HC_START
70
0
0
ATTDEF
8
0
10
66.000000
20
45.961573
30
0.0
40
3.5
1

3

2
HC_END
70
0
0
ATTDEF
8
0
10
66.000000
20
80.000000
30
0.0
40
3.5
1

3

2
FRONT_VIEW
70
0
0
ATTDEF
8
0
10
66.000000
20
80.000000
30
0.0
40
3.5
1

3

2
BL01:6200.000000,,1
70
0
0
ATTDEF
8
0
10
66.000000
20
80.000000
30
0.0
40
3.5
1

3

2
OPTI:1500.000000,1,0,3000.000000,6900.000000,500.000000,0,0.000000,0
70
0
0
ATTDEF
8
0
10
66.000000
20
80.000000
30
0.0
40
3.5
1

3

2
GLASS_MIN:0.000000
70
0
0
ATTDEF
8
0
10
66.000000
20
80.000000
30
0.0
40
3.5
1

3

2
GLASS_MAX:0.000000
70
0
0
ATTDEF
8
0
10
66.000000
20
80.000000
30
0.0
40
3.5
1

3

2
JX:0.000000
70
0
0
ATTDEF
8
0
10
66.000000
20
80.000000
30
0.0
40
3.5
1

3

2
WX:0.000000
70
0
0
ATTDEF
8
0
10
66.000000
20
80.000000
30
0.0
40
3.5
1

3

2
JY:0.000000
70
0
0
ATTDEF
8
0
10
66.000000
20
80.000000
30
0.0
40
3.5
1

3

2
WY:0.000000
70
0
0
ATTDEF
8
0
10
66.000000
20
80.000000
30
0.0
40
3.5
1

3

2
FP_LCS_ORIG
70
0
0
ATTDEF
8
0
10
66.000000
20
70.000000
30
0.0
40
3.5
1

3

2
FP_LCS_HOT
70
0
0
ATTDEF
8
0
10
56.000000
20
80.000000
30
0.0
40
3.5
1

3

2
FP_LCS_INTERN
70
0
0
ATTDEF
8
0
10
0.000000
20
0.000000
30
0.0
40
3.5
1

3

2
CTYPE1:66DB43ED458EC23997E13695F488ED4A|13.38,-49.61,2,90.000000|0.00,0.00|1
70
0
0
ATTDEF
8
0
10
0.000000
20
0.000000
30
0.0
40
3.5
1

3

2
CTYPE1:4C25D7224B481FF864744CB1C8C56687|10.59,16.50,1,0.000000|0.00,0.00|1
70
0
0
ATTDEF
8
0
10
0.000000
20
0.000000
30
0.0
40
3.5
1

3

2
CTYPE1:2277EA264B875F301E8E3487ACF98CF0|38.60,16.50,0,0.000000|0.00,0.00|1
70
0
0
ATTDEF
8
0
10
0.000000
20
0.000000
30
0.0
40
3.5
1

3

2
DESC:Parante central reforzado 80 mm p/DVH
70
0
0
ATTDEF
8
0
10
0.000000
20
0.000000
30
0.0
40
3.5
1

3

2
DENS:3.189
70
0
0
ATTDEF
8
0
10
0.000000
20
0.000000
30
0.0
40
3.5
1

3

2
TDEV:0
70
0
0
ATTDEF
8
0
10
0.000000
20
0.000000
30
0.0
40
3.5
1

3

2
TDEV2:0
70
0
0
ATTDEF
8
0
10
0.000000
20
0.000000
30
0.0
40
3.5
1

3

2
TDEV3:0
70
0
0
ATTDEF
8
0
10
0.000000
20
0.000000
30
0.0
40
3.5
1

3

2
TDEV4:0
70
0
0
ATTDEF
8
0
10
0.000000
20
0.000000
30
0.0
40
3.5
1

3

2
TDEV5:0
70
0
0
ATTDEF
8
0
10
0.000000
20
0.000000
30
0.0
40
3.5
1

3

2
PANE_WIDTH:28
70
0
0
ATTDEF
8
0
10
0.000000
20
0.000000
30
0.0
40
3.5
1

3

2
MIN_VETRO:0
70
0
0
ATTDEF
8
0
10
0.000000
20
0.000000
30
0.0
40
3.5
1

3

2
MAX_VETRO:0
70
0
0
ATTDEF
8
0
10
0.000000
20
0.000000
30
0.0
40
3.5
1

3

2
JX:0
70
0
0
ATTDEF
8
0
10
0.000000
20
0.000000
30
0.0
40
3.5
1

3

2
WX:0
70
0
0
ATTDEF
8
0
10
0.000000
20
0.000000
30
0.0
40
3.5
1

3

2
JY:0
70
0
0
ATTDEF
8
0
10
0.000000
20
0.000000
30
0.0
40
3.5
1

3

2
WY:0
70
0
0
ENDSEC
0
EOF
