0
SECTION
2
ENTITIES
0
LINE
8
0
10
0.000000
20
62.000000
30
0.0
11
0.000000
21
99.500000
31
0.0
0
ARC
8
0
10
3.800000
20
62.000000
30
0.0
40
3.800000
50
180.000000
51
270.000000
0
ARC
8
0
10
0.500000
20
99.500000
30
0.0
40
0.500000
50
90.000000
51
180.000000
0
LINE
8
0
10
28.993152
20
58.200000
30
0.0
11
3.800000
21
58.200000
31
0.0
0
LINE
8
0
10
0.500000
20
100.000000
30
0.0
11
1.300000
21
100.000000
31
0.0
0
ARC
8
0
10
28.993152
20
56.200000
30
0.0
40
2.000000
50
0.000000
51
90.000000
0
ARC
8
0
10
1.300000
20
99.500000
30
0.0
40
0.500000
50
0.000000
51
90.000000
0
LINE
8
0
10
30.993152
20
0.500000
30
0.0
11
30.993152
21
56.200000
31
0.0
0
LINE
8
0
10
1.800000
20
99.500000
30
0.0
11
1.800000
21
62.000000
31
0.0
0
ARC
8
0
10
3.800000
20
62.000000
30
0.0
40
2.000000
50
180.000000
51
270.000000
0
LINE
8
0
10
3.800000
20
60.000000
30
0.0
11
41.493152
21
60.000000
31
0.0
0
ARC
8
0
10
41.493152
20
61.000000
30
0.0
40
1.000000
50
270.000000
51
0.000000
0
LINE
8
0
10
42.493152
20
61.000000
30
0.0
11
42.493152
21
79.932453
31
0.0
0
ARC
8
0
10
41.493152
20
79.932453
30
0.0
40
1.000000
50
0.000000
51
80.000000
0
LINE
8
0
10
41.666800
20
80.917260
30
0.0
11
38.493152
21
81.476860
31
0.0
0
LINE
8
0
10
38.493152
20
81.476860
30
0.0
11
35.019503
21
80.864362
31
0.0
0
ARC
8
0
10
35.193152
20
79.879554
30
0.0
40
1.000000
50
100.000000
51
180.000000
0
LINE
8
0
10
34.193152
20
79.879554
30
0.0
11
34.193152
21
73.500000
31
0.0
0
ARC
8
0
10
33.693152
20
73.500000
30
0.0
40
0.500000
50
270.000000
51
0.000000
0
LINE
8
0
10
33.693152
20
73.000000
30
0.0
11
33.193152
21
73.000000
31
0.0
0
ARC
8
0
10
33.193152
20
73.500000
30
0.0
40
0.500000
50
180.000000
51
270.000000
0
LINE
8
0
10
32.693152
20
73.500000
30
0.0
11
32.693152
21
81.138204
31
0.0
0
ARC
8
0
10
33.693152
20
81.138204
30
0.0
40
1.000000
50
100.000000
51
180.000000
0
LINE
8
0
10
33.519503
20
82.123012
30
0.0
11
38.493152
21
83.000000
31
0.0
0
LINE
8
0
10
38.493152
20
83.000000
30
0.0
11
43.466800
21
82.123012
31
0.0
0
ARC
8
0
10
43.293152
20
81.138204
30
0.0
40
1.000000
50
0.000000
51
80.000000
0
LINE
8
0
10
44.293152
20
81.138204
30
0.0
11
44.293152
21
60.500590
31
0.0
0
ARC
8
0
10
44.793152
20
60.500590
30
0.0
40
0.500000
50
180.000000
51
270.000000
0
LINE
8
0
10
44.793152
20
60.000590
30
0.0
11
59.493152
21
60.000590
31
0.0
0
ARC
8
0
10
59.993152
20
60.000590
30
0.0
40
0.500000
50
0.000000
51
180.000000
0
LINE
8
0
10
60.493152
20
60.000590
30
0.0
11
61.493152
21
60.000590
31
0.0
0
ARC
8
0
10
61.993152
20
60.000590
30
0.0
40
0.500000
50
0.000000
51
180.000000
0
LINE
8
0
10
62.493152
20
60.000590
30
0.0
11
77.193152
21
60.000590
31
0.0
0
ARC
8
0
10
77.193152
20
60.500590
30
0.0
40
0.500000
50
270.000000
51
0.000000
0
LINE
8
0
10
77.693152
20
60.500590
30
0.0
11
77.693152
21
81.138204
31
0.0
0
ARC
8
0
10
78.693152
20
81.138204
30
0.0
40
1.000000
50
100.000000
51
180.000000
0
LINE
8
0
10
78.519503
20
82.123012
30
0.0
11
83.493152
21
83.000000
31
0.0
0
LINE
8
0
10
83.493152
20
83.000000
30
0.0
11
88.466800
21
82.123012
31
0.0
0
ARC
8
0
10
88.293152
20
81.138204
30
0.0
40
1.000000
50
0.000000
51
80.000000
0
LINE
8
0
10
89.293152
20
81.138204
30
0.0
11
89.293152
21
73.500000
31
0.0
0
ARC
8
0
10
88.793152
20
73.500000
30
0.0
40
0.500000
50
270.000000
51
0.000000
0
LINE
8
0
10
88.793152
20
73.000000
30
0.0
11
88.293152
21
73.000000
31
0.0
0
ARC
8
0
10
88.293152
20
73.500000
30
0.0
40
0.500000
50
180.000000
51
270.000000
0
LINE
8
0
10
87.793152
20
73.500000
30
0.0
11
87.793152
21
79.879554
31
0.0
0
ARC
8
0
10
86.793152
20
79.879554
30
0.0
40
1.000000
50
0.000000
51
80.000000
0
LINE
8
0
10
86.966800
20
80.864362
30
0.0
11
83.493152
21
81.476860
31
0.0
0
LINE
8
0
10
83.493152
20
81.476860
30
0.0
11
80.319503
21
80.917260
31
0.0
0
ARC
8
0
10
80.493152
20
79.932453
30
0.0
40
1.000000
50
100.000000
51
180.000000
0
LINE
8
0
10
79.493152
20
79.932453
30
0.0
11
79.493152
21
61.000000
31
0.0
0
ARC
8
0
10
80.493152
20
61.000000
30
0.0
40
1.000000
50
180.000000
51
270.000000
0
LINE
8
0
10
80.493152
20
60.000000
30
0.0
11
90.493152
21
60.000000
31
0.0
0
ARC
8
0
10
90.493152
20
59.500000
30
0.0
40
0.500000
50
0.000000
51
90.000000
0
LINE
8
0
10
90.993152
20
59.500000
30
0.0
11
90.993152
21
0.500000
31
0.0
0
LINE
8
0
10
32.493152
20
57.200000
30
0.0
11
32.493152
21
40.773229
31
0.0
0
ARC
8
0
10
33.493152
20
57.200000
30
0.0
40
1.000000
50
90.000000
51
180.000000
0
LINE
8
0
10
88.493152
20
58.200000
30
0.0
11
33.493152
21
58.200000
31
0.0
0
ARC
8
0
10
88.493152
20
57.200000
30
0.0
40
1.000000
50
0.000000
51
90.000000
0
LINE
8
0
10
89.493152
20
40.773229
30
0.0
11
89.493152
21
57.200000
31
0.0
0
ARC
8
0
10
31.493152
20
0.500000
30
0.0
40
0.500000
50
180.000000
51
294.288088
0
ARC
8
0
10
31.904476
20
0.500000
30
0.0
40
0.500000
50
245.711912
51
330.000000
0
LINE
8
0
10
32.926164
20
1.269615
30
0.0
11
32.337489
21
0.250000
31
0.0
0
ARC
8
0
10
32.493152
20
1.519615
30
0.0
40
0.500000
50
330.000000
51
60.000000
0
LINE
8
0
10
32.443152
20
2.125833
30
0.0
11
32.743152
21
1.952628
31
0.0
0
ARC
8
0
10
32.693152
20
2.558846
30
0.0
40
0.500000
50
180.000000
51
240.000000
0
LINE
8
0
10
32.193152
20
4.950000
30
0.0
11
32.193152
21
2.558846
31
0.0
0
ARC
8
0
10
33.943152
20
4.950000
30
0.0
40
1.750000
50
0.000000
51
180.000000
0
LINE
8
0
10
35.693152
20
1.453939
30
0.0
11
35.693152
21
4.950000
31
0.0
0
ARC
8
0
10
35.193152
20
1.453939
30
0.0
40
0.500000
50
287.457603
51
0.000000
0
ARC
8
0
10
35.493152
20
0.500000
30
0.0
40
0.500000
50
107.457603
51
270.000000
0
LINE
8
0
10
37.493152
20
0.000000
30
0.0
11
35.493152
21
0.000000
31
0.0
0
ARC
8
0
10
37.493152
20
0.600000
30
0.0
40
0.600000
50
270.000000
51
90.000000
0
LINE
8
0
10
36.893152
20
1.200000
30
0.0
11
37.493152
21
1.200000
31
0.0
0
LINE
8
0
10
36.893152
20
6.200000
30
0.0
11
36.893152
21
1.200000
31
0.0
0
ARC
8
0
10
37.393152
20
6.200000
30
0.0
40
0.500000
50
90.000000
51
180.000000
0
LINE
8
0
10
40.393152
20
6.700000
30
0.0
11
37.393152
21
6.700000
31
0.0
0
ARC
8
0
10
40.393152
20
7.200000
30
0.0
40
0.500000
50
270.000000
51
0.000000
0
LINE
8
0
10
40.893152
20
7.700000
30
0.0
11
40.893152
21
7.200000
31
0.0
0
ARC
8
0
10
40.393152
20
7.700000
30
0.0
40
0.500000
50
0.000000
51
90.000000
0
LINE
8
0
10
33.493152
20
8.200000
30
0.0
11
40.393152
21
8.200000
31
0.0
0
ARC
8
0
10
33.493152
20
9.200000
30
0.0
40
1.000000
50
180.000000
51
270.000000
0
LINE
8
0
10
32.493152
20
12.200000
30
0.0
11
32.493152
21
9.200000
31
0.0
0
ARC
8
0
10
33.493152
20
12.200000
30
0.0
40
1.000000
50
90.000000
51
180.000000
0
LINE
8
0
10
56.328390
20
13.200000
30
0.0
11
33.493152
21
13.200000
31
0.0
0
ARC
8
0
10
56.328390
20
12.200000
30
0.0
40
1.000000
50
342.174294
51
90.000000
0
ARC
8
0
10
60.993152
20
10.700000
30
0.0
40
3.900000
50
162.174294
51
223.860322
0
ARC
8
0
10
58.902161
20
8.690582
30
0.0
40
1.000000
50
223.860322
51
0.000000
0
LINE
8
0
10
59.902161
20
9.109010
30
0.0
11
59.902161
21
8.690582
31
0.0
0
ARC
8
0
10
59.402161
20
9.109010
30
0.0
40
0.500000
50
0.000000
51
90.000000
0
LINE
8
0
10
59.082463
20
9.609010
30
0.0
11
59.402161
21
9.609010
31
0.0
0
ARC
8
0
10
59.082463
20
10.109010
30
0.0
40
0.500000
50
197.187230
51
270.000000
0
ARC
8
0
10
60.993152
20
10.700000
30
0.0
40
2.500000
50
162.812770
51
197.187230
0
ARC
8
0
10
59.082463
20
11.290990
30
0.0
40
0.500000
50
90.000000
51
162.812770
0
LINE
8
0
10
59.402161
20
11.790990
30
0.0
11
59.082463
21
11.790990
31
0.0
0
ARC
8
0
10
59.402161
20
12.290990
30
0.0
40
0.500000
50
270.000000
51
0.000000
0
LINE
8
0
10
59.902161
20
12.610688
30
0.0
11
59.902161
21
12.290990
31
0.0
0
ARC
8
0
10
60.402161
20
12.610688
30
0.0
40
0.500000
50
107.187230
51
180.000000
0
ARC
8
0
10
60.993152
20
10.700000
30
0.0
40
2.500000
50
72.812770
51
107.187230
0
ARC
8
0
10
61.584142
20
12.610688
30
0.0
40
0.500000
50
0.000000
51
72.812770
0
LINE
8
0
10
62.084142
20
12.290990
30
0.0
11
62.084142
21
12.610688
31
0.0
0
ARC
8
0
10
62.584142
20
12.290990
30
0.0
40
0.500000
50
180.000000
51
270.000000
0
LINE
8
0
10
62.903840
20
11.790990
30
0.0
11
62.584142
21
11.790990
31
0.0
0
ARC
8
0
10
62.903840
20
11.290990
30
0.0
40
0.500000
50
17.187230
51
90.000000
0
ARC
8
0
10
60.993152
20
10.700000
30
0.0
40
2.500000
50
342.812770
51
17.187230
0
ARC
8
0
10
90.493152
20
0.500000
30
0.0
40
0.500000
50
245.711912
51
0.000000
0
ARC
8
0
10
62.903840
20
10.109010
30
0.0
40
0.500000
50
270.000000
51
342.812770
0
ARC
8
0
10
90.081827
20
0.500000
30
0.0
40
0.500000
50
210.000000
51
294.288088
0
LINE
8
0
10
62.584142
20
9.609010
30
0.0
11
62.903840
21
9.609010
31
0.0
0
LINE
8
0
10
89.648814
20
0.250000
30
0.0
11
89.060139
21
1.269615
31
0.0
0
ARC
8
0
10
62.584142
20
9.109010
30
0.0
40
0.500000
50
90.000000
51
180.000000
0
ARC
8
0
10
89.493152
20
1.519615
30
0.0
40
0.500000
50
120.000000
51
210.000000
0
LINE
8
0
10
62.084142
20
8.690582
30
0.0
11
62.084142
21
9.109010
31
0.0
0
LINE
8
0
10
89.243152
20
1.952628
30
0.0
11
89.543152
21
2.125833
31
0.0
0
ARC
8
0
10
63.084142
20
8.690582
30
0.0
40
1.000000
50
180.000000
51
316.139678
0
ARC
8
0
10
89.293152
20
2.558846
30
0.0
40
0.500000
50
300.000000
51
0.000000
0
ARC
8
0
10
60.993152
20
10.700000
30
0.0
40
3.900000
50
316.139678
51
17.825706
0
LINE
8
0
10
89.793152
20
2.558846
30
0.0
11
89.793152
21
4.950000
31
0.0
0
ARC
8
0
10
65.657913
20
12.200000
30
0.0
40
1.000000
50
90.000000
51
197.825706
0
ARC
8
0
10
88.043152
20
4.950000
30
0.0
40
1.750000
50
0.000000
51
180.000000
0
LINE
8
0
10
80.093152
20
13.200000
30
0.0
11
65.657913
21
13.200000
31
0.0
0
LINE
8
0
10
86.293152
20
4.950000
30
0.0
11
86.293152
21
1.453939
31
0.0
0
ARC
8
0
10
80.093152
20
12.700000
30
0.0
40
0.500000
50
0.000000
51
90.000000
0
ARC
8
0
10
86.793152
20
1.453939
30
0.0
40
0.500000
50
180.000000
51
252.542397
0
LINE
8
0
10
80.593152
20
7.700000
30
0.0
11
80.593152
21
12.700000
31
0.0
0
ARC
8
0
10
86.493152
20
0.500000
30
0.0
40
0.500000
50
270.000000
51
72.542397
0
ARC
8
0
10
81.593152
20
7.700000
30
0.0
40
1.000000
50
180.000000
51
270.000000
0
LINE
8
0
10
86.493152
20
0.000000
30
0.0
11
84.493152
21
0.000000
31
0.0
0
LINE
8
0
10
84.593152
20
6.700000
30
0.0
11
81.593152
21
6.700000
31
0.0
0
ARC
8
0
10
84.493152
20
0.600000
30
0.0
40
0.600000
50
90.000000
51
270.000000
0
ARC
8
0
10
84.593152
20
6.200000
30
0.0
40
0.500000
50
0.000000
51
90.000000
0
LINE
8
0
10
84.493152
20
1.200000
30
0.0
11
85.093152
21
1.200000
31
0.0
0
LINE
8
0
10
85.093152
20
1.200000
30
0.0
11
85.093152
21
6.200000
31
0.0
0
ARC
8
0
10
33.493152
20
40.773229
30
0.0
40
1.000000
50
180.000000
51
268.445441
0
LINE
8
0
10
33.466023
20
39.773597
30
0.0
11
43.601667
21
39.498528
31
0.0
0
ARC
8
0
10
43.493152
20
35.500000
30
0.0
40
4.000000
50
314.186547
51
88.445441
0
ARC
8
0
10
45.584142
20
33.348777
30
0.0
40
1.000000
50
180.000000
51
314.186547
0
ARC
8
0
10
88.493152
20
40.773229
30
0.0
40
1.000000
50
271.554559
51
0.000000
0
LINE
8
0
10
44.584142
20
33.348777
30
0.0
11
44.584142
21
33.909010
31
0.0
0
LINE
8
0
10
78.384636
20
39.498528
30
0.0
11
88.520280
21
39.773597
31
0.0
0
ARC
8
0
10
45.084142
20
33.909010
30
0.0
40
0.500000
50
90.000000
51
180.000000
0
ARC
8
0
10
78.493152
20
35.500000
30
0.0
40
4.000000
50
91.554559
51
225.813453
0
LINE
8
0
10
45.084142
20
34.409010
30
0.0
11
45.403840
21
34.409010
31
0.0
0
ARC
8
0
10
76.402161
20
33.348777
30
0.0
40
1.000000
50
225.813453
51
0.000000
0
ARC
8
0
10
45.403840
20
34.909010
30
0.0
40
0.500000
50
270.000000
51
342.812770
0
LINE
8
0
10
77.402161
20
33.909010
30
0.0
11
77.402161
21
33.348777
31
0.0
0
ARC
8
0
10
43.493152
20
35.500000
30
0.0
40
2.500000
50
342.812770
51
17.187230
0
ARC
8
0
10
76.902161
20
33.909010
30
0.0
40
0.500000
50
0.000000
51
90.000000
0
ARC
8
0
10
45.403840
20
36.090990
30
0.0
40
0.500000
50
17.187230
51
90.000000
0
LINE
8
0
10
76.582463
20
34.409010
30
0.0
11
76.902161
21
34.409010
31
0.0
0
LINE
8
0
10
45.403840
20
36.590990
30
0.0
11
45.084142
21
36.590990
31
0.0
0
ARC
8
0
10
76.582463
20
34.909010
30
0.0
40
0.500000
50
197.187230
51
270.000000
0
ARC
8
0
10
45.084142
20
37.090990
30
0.0
40
0.500000
50
180.000000
51
270.000000
0
ARC
8
0
10
78.493152
20
35.500000
30
0.0
40
2.500000
50
162.812770
51
197.187230
0
LINE
8
0
10
44.584142
20
37.090990
30
0.0
11
44.584142
21
37.410688
31
0.0
0
ARC
8
0
10
76.582463
20
36.090990
30
0.0
40
0.500000
50
90.000000
51
162.812770
0
ARC
8
0
10
44.084142
20
37.410688
30
0.0
40
0.500000
50
0.000000
51
72.812770
0
LINE
8
0
10
76.902161
20
36.590990
30
0.0
11
76.582463
21
36.590990
31
0.0
0
ARC
8
0
10
43.493152
20
35.500000
30
0.0
40
2.500000
50
72.812770
51
107.187230
0
ARC
8
0
10
76.902161
20
37.090990
30
0.0
40
0.500000
50
270.000000
51
0.000000
0
ARC
8
0
10
42.902161
20
37.410688
30
0.0
40
0.500000
50
107.187230
51
180.000000
0
LINE
8
0
10
77.402161
20
37.410688
30
0.0
11
77.402161
21
37.090990
31
0.0
0
LINE
8
0
10
42.402161
20
37.410688
30
0.0
11
42.402161
21
37.090990
31
0.0
0
ARC
8
0
10
77.902161
20
37.410688
30
0.0
40
0.500000
50
107.187230
51
180.000000
0
ARC
8
0
10
41.902161
20
37.090990
30
0.0
40
0.500000
50
270.000000
51
0.000000
0
ARC
8
0
10
78.493152
20
35.500000
30
0.0
40
2.500000
50
72.812770
51
107.187230
0
LINE
8
0
10
41.902161
20
36.590990
30
0.0
11
41.582463
21
36.590990
31
0.0
0
ARC
8
0
10
79.084142
20
37.410688
30
0.0
40
0.500000
50
0.000000
51
72.812770
0
ARC
8
0
10
41.582463
20
36.090990
30
0.0
40
0.500000
50
90.000000
51
162.812770
0
LINE
8
0
10
79.584142
20
37.090990
30
0.0
11
79.584142
21
37.410688
31
0.0
0
ARC
8
0
10
43.493152
20
35.500000
30
0.0
40
2.500000
50
162.812770
51
197.187230
0
ARC
8
0
10
80.084142
20
37.090990
30
0.0
40
0.500000
50
180.000000
51
270.000000
0
ARC
8
0
10
41.582463
20
34.909010
30
0.0
40
0.500000
50
197.187230
51
270.000000
0
LINE
8
0
10
80.403840
20
36.590990
30
0.0
11
80.084142
21
36.590990
31
0.0
0
LINE
8
0
10
41.582463
20
34.409010
30
0.0
11
41.902161
21
34.409010
31
0.0
0
ARC
8
0
10
80.403840
20
36.090990
30
0.0
40
0.500000
50
17.187230
51
90.000000
0
ARC
8
0
10
41.902161
20
33.909010
30
0.0
40
0.500000
50
0.000000
51
90.000000
0
ARC
8
0
10
78.493152
20
35.500000
30
0.0
40
2.500000
50
342.812770
51
17.187230
0
LINE
8
0
10
42.402161
20
33.909010
30
0.0
11
42.402161
21
33.348777
31
0.0
0
ARC
8
0
10
80.403840
20
34.909010
30
0.0
40
0.500000
50
270.000000
51
342.812770
0
ARC
8
0
10
41.402161
20
33.348777
30
0.0
40
1.000000
50
225.813453
51
0.000000
0
LINE
8
0
10
80.084142
20
34.409010
30
0.0
11
80.403840
21
34.409010
31
0.0
0
ARC
8
0
10
43.493152
20
35.500000
30
0.0
40
4.000000
50
162.542397
51
225.813453
0
ARC
8
0
10
80.084142
20
33.909010
30
0.0
40
0.500000
50
90.000000
51
180.000000
0
ARC
8
0
10
38.723456
20
37.000000
30
0.0
40
1.000000
50
342.542397
51
90.000000
0
LINE
8
0
10
79.584142
20
33.348777
30
0.0
11
79.584142
21
33.909010
31
0.0
0
LINE
8
0
10
38.723456
20
38.000000
30
0.0
11
33.493152
21
38.000000
31
0.0
0
ARC
8
0
10
80.584142
20
33.348777
30
0.0
40
1.000000
50
180.000000
51
314.186547
0
ARC
8
0
10
33.493152
20
37.000000
30
0.0
40
1.000000
50
90.000000
51
180.000000
0
ARC
8
0
10
78.493152
20
35.500000
30
0.0
40
4.000000
50
314.186547
51
17.457603
0
LINE
8
0
10
32.493152
20
37.000000
30
0.0
11
32.493152
21
15.700000
31
0.0
0
ARC
8
0
10
83.262848
20
37.000000
30
0.0
40
1.000000
50
90.000000
51
197.457603
0
ARC
8
0
10
33.493152
20
15.700000
30
0.0
40
1.000000
50
180.000000
51
270.000000
0
LINE
8
0
10
88.493152
20
38.000000
30
0.0
11
83.262848
21
38.000000
31
0.0
0
LINE
8
0
10
33.493152
20
14.700000
30
0.0
11
81.093152
21
14.700000
31
0.0
0
ARC
8
0
10
88.493152
20
37.000000
30
0.0
40
1.000000
50
0.000000
51
90.000000
0
ARC
8
0
10
81.093152
20
13.700000
30
0.0
40
1.000000
50
0.000000
51
90.000000
0
LINE
8
0
10
89.493152
20
8.700000
30
0.0
11
89.493152
21
37.000000
31
0.0
0
LINE
8
0
10
82.093152
20
13.700000
30
0.0
11
82.093152
21
8.700000
31
0.0
0
ARC
8
0
10
88.993152
20
8.700000
30
0.0
40
0.500000
50
270.000000
51
0.000000
0
ARC
8
0
10
82.593152
20
8.700000
30
0.0
40
0.500000
50
180.000000
51
270.000000
0
LINE
8
0
10
82.593152
20
8.200000
30
0.0
11
88.993152
21
8.200000
31
0.0
0
ATTDEF
8
0
10
0.000000
20
0.000000
30
0.0
40
3.5
1

3

2
FRONT_VIEW
70
0
0
ATTDEF
8
0
10
0.000000
20
0.000000
30
0.0
40
3.5
1

3

2
OPTI:1500.000000,1,0,3000.000000,6900.000000,500.000000,0,0.000000,0
70
0
0
ATTDEF
8
0
10
0.000000
20
0.000000
30
0.0
40
3.5
1

3

2
GLASS_MIN:0.000000
70
0
0
ATTDEF
8
0
10
0.000000
20
0.000000
30
0.0
40
3.5
1

3

2
GLASS_MAX:0.000000
70
0
0
ATTDEF
8
0
10
0.000000
20
0.000000
30
0.0
40
3.5
1

3

2
WX:0.000000
70
0
0
ATTDEF
8
0
10
0.000000
20
0.000000
30
0.0
40
3.5
1

3

2
JY:0.000000
70
0
0
ATTDEF
8
0
10
0.000000
20
0.000000
30
0.0
40
3.5
1

3

2
WY:0.000000
70
0
0
ATTDEF
8
0
10
38.493152
20
83.000000
30
0.0
40
3.5
1

3

2
VC_START
70
0
0
ATTDEF
8
0
10
36.493152
20
0.000000
30
0.0
40
3.5
1

3

2
VC_END
70
0
0
ATTDEF
8
0
10
0.000000
20
0.000000
30
0.0
40
3.5
1

3

2
BL01:6200.000,,1
70
0
0
ATTDEF
8
0
10
90.993152
20
0.000000
30
0.0
40
3.5
1

3

2
FP_LCS_ORIG
70
0
0
ATTDEF
8
0
10
80.993152
20
0.000000
30
0.0
40
3.5
1

3

2
FP_LCS_HOT
70
0
0
ATTDEF
8
0
10
90.993152
20
10.000000
30
0.0
40
3.5
1

3

2
FP_LCS_INTERN
70
0
0
ATTDEF
8
0
10
0.000000
20
0.000000
30
0.0
40
3.5
1

3

2
DESC:Umbral alto
70
0
0
ATTDEF
8
0
10
0.000000
20
0.000000
30
0.0
40
3.5
1

3

2
DENS:2.114
70
0
0
ATTDEF
8
0
10
0.000000
20
0.000000
30
0.0
40
3.5
1

3

2
TDEV:0
70
0
0
ATTDEF
8
0
10
0.000000
20
0.000000
30
0.0
40
3.5
1

3

2
TDEV2:0
70
0
0
ATTDEF
8
0
10
0.000000
20
0.000000
30
0.0
40
3.5
1

3

2
TDEV3:0
70
0
0
ATTDEF
8
0
10
0.000000
20
0.000000
30
0.0
40
3.5
1

3

2
TDEV4:0
70
0
0
ATTDEF
8
0
10
0.000000
20
0.000000
30
0.0
40
3.5
1

3

2
TDEV5:0
70
0
0
ATTDEF
8
0
10
0.000000
20
0.000000
30
0.0
40
3.5
1

3

2
PANE_WIDTH:0
70
0
0
ATTDEF
8
0
10
0.000000
20
0.000000
30
0.0
40
3.5
1

3

2
MIN_VETRO:0
70
0
0
ATTDEF
8
0
10
0.000000
20
0.000000
30
0.0
40
3.5
1

3

2
MAX_VETRO:0
70
0
0
ATTDEF
8
0
10
0.000000
20
0.000000
30
0.0
40
3.5
1

3

2
JX:0
70
0
0
ATTDEF
8
0
10
0.000000
20
0.000000
30
0.0
40
3.5
1

3

2
WX:0
70
0
0
ATTDEF
8
0
10
0.000000
20
0.000000
30
0.0
40
3.5
1

3

2
JY:0
70
0
0
ATTDEF
8
0
10
0.000000
20
0.000000
30
0.0
40
3.5
1

3

2
WY:0
70
0
0
ENDSEC
0
EOF
