0
SECTION
2
ENTITIES
0
ARC
8
0
10
53.500000
20
95.900000
30
0.0
40
2.000000
50
270.000000
51
0.000000
0
LINE
8
0
10
53.500000
20
93.900000
30
0.0
11
42.000000
21
93.900000
31
0.0
0
LINE
8
0
10
55.500000
20
99.000000
30
0.0
11
55.500000
21
95.900000
31
0.0
0
ARC
8
0
10
42.000000
20
94.900000
30
0.0
40
1.000000
50
180.000000
51
270.000000
0
ARC
8
0
10
56.500000
20
99.000000
30
0.0
40
1.000000
50
90.000000
51
180.000000
0
LINE
8
0
10
41.000000
20
94.900000
30
0.0
11
41.000000
21
98.000000
31
0.0
0
LINE
8
0
10
57.660000
20
100.000000
30
0.0
11
56.500000
21
100.000000
31
0.0
0
ARC
8
0
10
39.000000
20
98.000000
30
0.0
40
2.000000
50
0.000000
51
90.000000
0
ARC
8
0
10
57.660000
20
99.410000
30
0.0
40
0.590000
50
0.000000
51
90.000000
0
LINE
8
0
10
39.000000
20
100.000000
30
0.0
11
28.500000
21
100.000000
31
0.0
0
ARC
8
0
10
57.660000
20
99.390000
30
0.0
40
0.590000
50
270.000000
51
0.000000
0
ARC
8
0
10
28.500000
20
99.500000
30
0.0
40
0.500000
50
90.000000
51
263.000000
0
LINE
8
0
10
57.500000
20
98.800000
30
0.0
11
57.660000
21
98.800000
31
0.0
0
LINE
8
0
10
28.439065
20
99.003727
30
0.0
11
37.621869
21
97.876220
31
0.0
0
ARC
8
0
10
57.500000
20
98.300000
30
0.0
40
0.500000
50
90.000000
51
180.000000
0
ARC
8
0
10
37.500000
20
96.883674
30
0.0
40
1.000000
50
0.000000
51
83.000000
0
LINE
8
0
10
57.000000
20
98.100000
30
0.0
11
57.000000
21
98.300000
31
0.0
0
LINE
8
0
10
38.500000
20
96.883674
30
0.0
11
38.500000
21
94.900000
31
0.0
0
ARC
8
0
10
57.500000
20
98.100000
30
0.0
40
0.500000
50
180.000000
51
270.000000
0
ARC
8
0
10
37.500000
20
94.900000
30
0.0
40
1.000000
50
270.000000
51
0.000000
0
LINE
8
0
10
64.000000
20
97.600000
30
0.0
11
57.500000
21
97.600000
31
0.0
0
LINE
8
0
10
37.500000
20
93.900000
30
0.0
11
1.000000
21
93.900000
31
0.0
0
ARC
8
0
10
64.000000
20
98.100000
30
0.0
40
0.500000
50
270.000000
51
0.000000
0
ARC
8
0
10
1.000000
20
92.900000
30
0.0
40
1.000000
50
90.000000
51
180.000000
0
LINE
8
0
10
64.500000
20
98.300000
30
0.0
11
64.500000
21
98.100000
31
0.0
0
LINE
8
0
10
0.000000
20
92.900000
30
0.0
11
0.000000
21
82.150000
31
0.0
0
ARC
8
0
10
64.000000
20
98.300000
30
0.0
40
0.500000
50
0.000000
51
90.000000
0
ARC
8
0
10
0.750000
20
82.150000
30
0.0
40
0.750000
50
180.000000
51
270.000000
0
LINE
8
0
10
63.840000
20
98.800000
30
0.0
11
64.000000
21
98.800000
31
0.0
0
LINE
8
0
10
0.750000
20
81.400000
30
0.0
11
1.500000
21
81.400000
31
0.0
0
ARC
8
0
10
63.840000
20
99.390000
30
0.0
40
0.590000
50
180.000000
51
270.000000
0
LINE
8
0
10
1.500000
20
81.400000
30
0.0
11
1.500000
21
90.900000
31
0.0
0
ARC
8
0
10
63.840000
20
99.410000
30
0.0
40
0.590000
50
90.000000
51
180.000000
0
ARC
8
0
10
2.000000
20
90.900000
30
0.0
40
0.500000
50
90.000000
51
180.000000
0
LINE
8
0
10
65.000000
20
100.000000
30
0.0
11
63.840000
21
100.000000
31
0.0
0
LINE
8
0
10
2.000000
20
91.400000
30
0.0
11
16.000000
21
91.400000
31
0.0
0
ARC
8
0
10
65.000000
20
99.000000
30
0.0
40
1.000000
50
0.000000
51
90.000000
0
ARC
8
0
10
16.000000
20
90.900000
30
0.0
40
0.500000
50
0.000000
51
90.000000
0
LINE
8
0
10
66.000000
20
12.923146
30
0.0
11
66.000000
21
99.000000
31
0.0
0
LINE
8
0
10
16.500000
20
90.900000
30
0.0
11
16.500000
21
59.900000
31
0.0
0
ARC
8
0
10
58.000000
20
12.923146
30
0.0
40
8.000000
50
333.860917
51
0.000000
0
ARC
8
0
10
16.000000
20
59.900000
30
0.0
40
0.500000
50
270.000000
51
0.000000
0
ARC
8
0
10
50.100000
20
16.800000
30
0.0
40
16.800000
50
270.000000
51
333.860917
0
LINE
8
0
10
16.000000
20
59.400000
30
0.0
11
2.000000
21
59.400000
31
0.0
0
LINE
8
0
10
15.900000
20
0.000000
30
0.0
11
50.100000
21
0.000000
31
0.0
0
ARC
8
0
10
2.000000
20
59.900000
30
0.0
40
0.500000
50
180.000000
51
270.000000
0
ARC
8
0
10
15.900000
20
16.800000
30
0.0
40
16.800000
50
206.139083
51
270.000000
0
LINE
8
0
10
1.500000
20
59.900000
30
0.0
11
1.500000
21
69.400000
31
0.0
0
ARC
8
0
10
8.000000
20
12.923146
30
0.0
40
8.000000
50
180.000000
51
206.139083
0
LINE
8
0
10
1.500000
20
69.400000
30
0.0
11
0.750000
21
69.400000
31
0.0
0
LINE
8
0
10
0.000000
20
68.650000
30
0.0
11
0.000000
21
12.923146
31
0.0
0
ARC
8
0
10
0.750000
20
68.650000
30
0.0
40
0.750000
50
90.000000
51
180.000000
0
ARC
8
0
10
15.900000
20
16.800000
30
0.0
40
12.300000
50
206.139083
51
270.000000
0
ARC
8
0
10
8.000000
20
12.923146
30
0.0
40
3.500000
50
180.000000
51
206.139083
0
LINE
8
0
10
50.100000
20
4.500000
30
0.0
11
15.900000
21
4.500000
31
0.0
0
LINE
8
0
10
4.500000
20
12.923146
30
0.0
11
4.500000
21
52.900000
31
0.0
0
ARC
8
0
10
50.100000
20
16.800000
30
0.0
40
12.300000
50
270.000000
51
333.860917
0
ARC
8
0
10
6.500000
20
52.900000
30
0.0
40
2.000000
50
90.000000
51
180.000000
0
ARC
8
0
10
58.000000
20
12.923146
30
0.0
40
3.500000
50
333.860917
51
0.000000
0
LINE
8
0
10
6.500000
20
54.900000
30
0.0
11
59.500000
21
54.900000
31
0.0
0
LINE
8
0
10
61.500000
20
52.900000
30
0.0
11
61.500000
21
12.923146
31
0.0
0
ARC
8
0
10
59.500000
20
52.900000
30
0.0
40
2.000000
50
0.000000
51
90.000000
0
ARC
8
0
10
63.800000
20
90.900000
30
0.0
40
0.500000
50
0.000000
51
90.000000
0
LINE
8
0
10
64.300000
20
90.900000
30
0.0
11
64.300000
21
59.900000
31
0.0
0
LINE
8
0
10
18.700000
20
91.400000
30
0.0
11
63.800000
21
91.400000
31
0.0
0
ARC
8
0
10
63.800000
20
59.900000
30
0.0
40
0.500000
50
270.000000
51
0.000000
0
ARC
8
0
10
18.700000
20
90.900000
30
0.0
40
0.500000
50
90.000000
51
180.000000
0
LINE
8
0
10
63.800000
20
59.400000
30
0.0
11
18.700000
21
59.400000
31
0.0
0
LINE
8
0
10
18.200000
20
59.900000
30
0.0
11
18.200000
21
90.900000
31
0.0
0
ARC
8
0
10
18.700000
20
59.900000
30
0.0
40
0.500000
50
180.000000
51
270.000000
0
ATTDEF
8
0
10
16.500000
20
75.400000
30
0.0
40
3.5
1

3

2
HC_START
70
0
0
ATTDEF
8
0
10
66.000000
20
55.961573
30
0.0
40
3.5
1

3

2
HC_END
70
0
0
ATTDEF
8
0
10
66.000000
20
100.000000
30
0.0
40
3.5
1

3

2
FRONT_VIEW
70
0
0
ATTDEF
8
0
10
66.000000
20
100.000000
30
0.0
40
3.5
1

3

2
OPTI:1500.000000,1,0,3000.000000,6900.000000,500.000000,0,0.000000,0
70
0
0
ATTDEF
8
0
10
66.000000
20
100.000000
30
0.0
40
3.5
1

3

2
GLASS_MIN:0.000000
70
0
0
ATTDEF
8
0
10
66.000000
20
100.000000
30
0.0
40
3.5
1

3

2
GLASS_MAX:0.000000
70
0
0
ATTDEF
8
0
10
66.000000
20
100.000000
30
0.0
40
3.5
1

3

2
WX:0.000000
70
0
0
ATTDEF
8
0
10
66.000000
20
100.000000
30
0.0
40
3.5
1

3

2
JY:0.000000
70
0
0
ATTDEF
8
0
10
66.000000
20
100.000000
30
0.0
40
3.5
1

3

2
WY:0.000000
70
0
0
ATTDEF
8
0
10
66.000000
20
100.000000
30
0.0
40
3.5
1

3

2
FP_LCS_ORIG
70
0
0
ATTDEF
8
0
10
66.000000
20
90.000000
30
0.0
40
3.5
1

3

2
FP_LCS_HOT
70
0
0
ATTDEF
8
0
10
56.000000
20
100.000000
30
0.0
40
3.5
1

3

2
FP_LCS_INTERN
70
0
0
ATTDEF
8
0
10
0.000000
20
0.000000
30
0.0
40
3.5
1

3

2
BL01:6200.000,,1
70
0
0
ATTDEF
8
0
10
0.000000
20
0.000000
30
0.0
40
3.5
1

3

2
PANE_WIDTH:12.000000
70
0
0
ATTDEF
8
0
10
0.000000
20
0.000000
30
0.0
40
3.5
1

3

2
DESC:Parante central de 100 mm p/vidrio simple
70
0
0
ATTDEF
8
0
10
0.000000
20
0.000000
30
0.0
40
3.5
1

3

2
DENS:3.74
70
0
0
ATTDEF
8
0
10
0.000000
20
0.000000
30
0.0
40
3.5
1

3

2
TDEV:0
70
0
0
ATTDEF
8
0
10
0.000000
20
0.000000
30
0.0
40
3.5
1

3

2
TDEV2:0
70
0
0
ATTDEF
8
0
10
0.000000
20
0.000000
30
0.0
40
3.5
1

3

2
TDEV3:0
70
0
0
ATTDEF
8
0
10
0.000000
20
0.000000
30
0.0
40
3.5
1

3

2
TDEV4:0
70
0
0
ATTDEF
8
0
10
0.000000
20
0.000000
30
0.0
40
3.5
1

3

2
TDEV5:0
70
0
0
ATTDEF
8
0
10
0.000000
20
0.000000
30
0.0
40
3.5
1

3

2
PANE_WIDTH:12
70
0
0
ATTDEF
8
0
10
0.000000
20
0.000000
30
0.0
40
3.5
1

3

2
MIN_VETRO:0
70
0
0
ATTDEF
8
0
10
0.000000
20
0.000000
30
0.0
40
3.5
1

3

2
MAX_VETRO:0
70
0
0
ATTDEF
8
0
10
0.000000
20
0.000000
30
0.0
40
3.5
1

3

2
JX:0
70
0
0
ATTDEF
8
0
10
0.000000
20
0.000000
30
0.0
40
3.5
1

3

2
WX:0
70
0
0
ATTDEF
8
0
10
0.000000
20
0.000000
30
0.0
40
3.5
1

3

2
JY:0
70
0
0
ATTDEF
8
0
10
0.000000
20
0.000000
30
0.0
40
3.5
1

3

2
WY:0
70
0
0
ENDSEC
0
EOF
