0
SECTION
2
ENTITIES
0
LINE
8
0
10
3.993108
20
1.000000
30
0.0
11
3.993108
21
6.098797
31
0.0
0
ARC
8
0
10
3.493108
20
6.098797
30
0.0
40
0.500000
50
360.000000
51
90.000000
0
LINE
8
0
10
3.493108
20
6.598797
30
0.0
11
2.293108
21
6.598797
31
0.0
0
ARC
8
0
10
2.293108
20
7.598797
30
0.0
40
1.000000
50
180.000000
51
270.000000
0
LINE
8
0
10
1.293108
20
7.598797
30
0.0
11
1.293108
21
8.798797
31
0.0
0
ARC
8
0
10
1.893108
20
8.798797
30
0.0
40
0.600000
50
360.000000
51
180.000000
0
LINE
8
0
10
2.493108
20
8.798797
30
0.0
11
2.493108
21
8.598797
31
0.0
0
ARC
8
0
10
2.993108
20
8.598797
30
0.0
40
0.500000
50
180.000000
51
270.000000
0
LINE
8
0
10
2.993108
20
8.098797
30
0.0
11
3.493108
21
8.098797
31
0.0
0
ARC
8
0
10
3.493108
20
8.598797
30
0.0
40
0.500000
50
270.000000
51
360.000000
0
LINE
8
0
10
3.993108
20
8.598797
30
0.0
11
3.993108
21
15.098797
31
0.0
0
ARC
8
0
10
3.493108
20
15.098797
30
0.0
40
0.500000
50
360.000000
51
90.000000
0
LINE
8
0
10
3.493108
20
15.598797
30
0.0
11
2.993108
21
15.598797
31
0.0
0
ARC
8
0
10
2.993108
20
15.098797
30
0.0
40
0.500000
50
90.000000
51
180.000000
0
LINE
8
0
10
2.493108
20
15.098797
30
0.0
11
2.493108
21
14.898797
31
0.0
0
ARC
8
0
10
1.893108
20
14.898797
30
0.0
40
0.600000
50
180.000000
51
360.000000
0
LINE
8
0
10
1.293108
20
14.898797
30
0.0
11
1.293108
21
16.098797
31
0.0
0
ARC
8
0
10
2.293108
20
16.098797
30
0.0
40
1.000000
50
90.000000
51
180.000000
0
LINE
8
0
10
2.293108
20
17.098797
30
0.0
11
3.493108
21
17.098797
31
0.0
0
ARC
8
0
10
3.493108
20
17.598797
30
0.0
40
0.500000
50
270.000000
51
360.000000
0
LINE
8
0
10
3.993108
20
17.598797
30
0.0
11
3.993108
21
30.400862
31
0.0
0
ARC
8
0
10
3.493108
20
30.400862
30
0.0
40
0.500000
50
360.000000
51
90.000000
0
LINE
8
0
10
3.493108
20
30.900862
30
0.0
11
1.191729
21
30.900862
31
0.0
0
ARC
8
0
10
1.191729
20
31.400862
30
0.0
40
0.500000
50
180.000000
51
270.000000
0
LINE
8
0
10
0.691729
20
31.400862
30
0.0
11
0.691729
21
34.801425
31
0.0
0
ARC
8
0
10
1.191729
20
34.801425
30
0.0
40
0.500000
50
20.000000
51
180.000000
0
LINE
8
0
10
1.661575
20
34.972435
30
0.0
11
2.358066
21
33.058842
31
0.0
0
ARC
8
0
10
3.297759
20
33.400862
30
0.0
40
1.000000
50
200.000000
51
270.000000
0
LINE
8
0
10
3.297759
20
32.400862
30
0.0
11
4.993108
21
32.400862
31
0.0
0
ARC
8
0
10
4.993108
20
31.900862
30
0.0
40
0.500000
50
360.000000
51
90.000000
0
LINE
8
0
10
5.493108
20
31.900862
30
0.0
11
5.493108
21
2.000000
31
0.0
0
ARC
8
0
10
5.993108
20
2.000000
30
0.0
40
0.500000
50
180.000000
51
270.000000
0
LINE
8
0
10
5.993108
20
1.500000
30
0.0
11
29.402008
21
1.500000
31
0.0
0
ARC
8
0
10
29.402008
20
2.000000
30
0.0
40
0.500000
50
270.000000
51
360.000000
0
LINE
8
0
10
29.902008
20
2.000000
30
0.0
11
29.902008
21
7.501691
31
0.0
0
ARC
8
0
10
30.399741
20
7.501691
30
0.0
40
0.497733
50
30.000000
51
180.000000
0
LINE
8
0
10
30.830790
20
7.750557
30
0.0
11
31.902008
21
5.895153
31
0.0
0
LINE
8
0
10
31.902008
20
5.895153
30
0.0
11
31.397474
21
5.895153
31
0.0
0
ARC
8
0
10
31.397474
20
5.395153
30
0.0
40
0.500000
50
90.000000
51
180.000000
0
LINE
8
0
10
30.897474
20
5.395153
30
0.0
11
30.897474
21
2.000000
31
0.0
0
ARC
8
0
10
31.397474
20
2.000000
30
0.0
40
0.500000
50
180.000000
51
270.000000
0
LINE
8
0
10
31.397474
20
1.500000
30
0.0
11
33.308516
21
1.500000
31
0.0
0
ARC
8
0
10
33.308516
20
3.500000
30
0.0
40
2.000000
50
270.000000
51
315.000000
0
LINE
8
0
10
34.722729
20
2.085786
30
0.0
11
36.851111
21
4.214168
31
0.0
0
ARC
8
0
10
36.992532
20
4.072747
30
0.0
40
0.200000
50
348.861707
51
135.000000
0
ARC
8
0
10
32.282946
20
5.000000
30
0.0
40
5.000000
50
270.000000
51
348.861707
0
LINE
8
0
10
32.282946
20
0.000000
30
0.0
11
4.993108
21
0.000000
31
0.0
0
ARC
8
0
10
4.993108
20
1.000000
30
0.0
40
1.000000
50
180.000000
51
270.000000
0
LINE
8
0
10
7.083108
20
3.000000
30
0.0
11
7.083108
21
34.404551
31
0.0
0
LINE
8
0
10
7.083108
20
34.404551
30
0.0
11
4.209448
21
34.404551
31
0.0
0
ARC
8
0
10
4.209448
20
34.904551
30
0.0
40
0.500000
50
200.000000
51
270.000000
0
LINE
8
0
10
3.739601
20
34.733541
30
0.0
11
1.454769
21
41.011066
31
0.0
0
ARC
8
0
10
0.750000
20
40.754551
30
0.0
40
0.750000
50
20.000000
51
200.000000
0
LINE
8
0
10
0.045230
20
40.498036
30
0.0
11
2.689290
21
33.233541
31
0.0
0
ARC
8
0
10
3.159136
20
33.404551
30
0.0
40
0.500000
50
200.000000
51
270.000000
0
LINE
8
0
10
3.159136
20
32.904551
30
0.0
11
5.583108
21
32.904551
31
0.0
0
LINE
8
0
10
5.583108
20
32.904551
30
0.0
11
5.583108
21
1.500000
31
0.0
0
LINE
8
0
10
5.583108
20
1.500000
30
0.0
11
15.333108
21
1.500000
31
0.0
0
LINE
8
0
10
15.333108
20
1.500000
30
0.0
11
15.333108
21
16.800000
31
0.0
0
ARC
8
0
10
14.833108
20
16.800000
30
0.0
40
0.500000
50
360.000000
51
154.130418
0
LINE
8
0
10
14.383213
20
17.018162
30
0.0
11
13.233108
21
14.646410
31
0.0
0
LINE
8
0
10
13.233108
20
14.646410
30
0.0
11
13.833108
21
14.300000
31
0.0
0
LINE
8
0
10
13.833108
20
14.300000
30
0.0
11
13.833108
21
3.000000
31
0.0
0
LINE
8
0
10
13.833108
20
3.000000
30
0.0
11
7.083108
21
3.000000
31
0.0
0
ATTDEF
8
0
10
0.000000
20
0.000000
30
0.0
40
3.5
1

3

2
DENS:0.000000
70
0
0
ATTDEF
8
0
10
0.000000
20
0.000000
30
0.0
40
3.5
1

3

2
GLASS_MIN:0.000000
70
0
0
ATTDEF
8
0
10
0.000000
20
0.000000
30
0.0
40
3.5
1

3

2
GLASS_MAX:0.000000
70
0
0
ATTDEF
8
0
10
0.000000
20
0.000000
30
0.0
40
3.5
1

3

2
DESC:7650 - BA1019916
70
0
0
ATTDEF
8
0
10
0.000000
20
0.000000
30
0.0
40
3.5
1

3

2
BL01:6500.000000,,1
70
0
0
ATTDEF
8
0
10
0.000000
20
0.000000
30
0.0
40
3.5
1

3

2
HW_START
70
0
0
ATTDEF
8
0
10
37.188765
20
41.504551
30
0.0
40
3.5
1

3

2
HW_END
70
0
0
ATTDEF
8
0
10
13.833108
20
3.000000
30
0.0
40
3.5
1

3

2
VC_START
70
0
0
ATTDEF
8
0
10
4.993108
20
0.000000
30
0.0
40
3.5
1

3

2
VC_END
70
0
0
ATTDEF
8
0
10
0.000000
20
0.000000
30
0.0
40
3.5
1

3

2
FP_LCS_ORIG
70
0
0
ATTDEF
8
0
10
10.000000
20
0.000000
30
0.0
40
3.5
1

3

2
FP_LCS_HOT
70
0
0
ATTDEF
8
0
10
0.000000
20
10.000000
30
0.0
40
3.5
1

3

2
FP_LCS_INTERN
70
0
0
ENDSEC
0
EOF
