0
SECTION
2
ENTITIES
0
LINE
8
0
10
0.500000
20
0.000000
30
0.0
11
2.249915
21
0.000000
31
0.0
0
ARC
8
0
10
2.249915
20
0.600000
30
0.0
40
0.600000
50
270.000000
51
90.000000
0
LINE
8
0
10
2.249915
20
1.200000
30
0.0
11
2.100000
21
1.200000
31
0.0
0
ARC
8
0
10
2.100000
20
1.700000
30
0.0
40
0.500000
50
180.000000
51
270.000000
0
LINE
8
0
10
1.600000
20
1.700000
30
0.0
11
1.600000
21
1.900000
31
0.0
0
ARC
8
0
10
2.100000
20
1.900000
30
0.0
40
0.500000
50
90.000000
51
180.000000
0
LINE
8
0
10
2.100000
20
2.400000
30
0.0
11
8.600000
21
2.400000
31
0.0
0
ARC
8
0
10
8.600000
20
1.900000
30
0.0
40
0.500000
50
360.000000
51
90.000000
0
LINE
8
0
10
9.100000
20
1.900000
30
0.0
11
9.100000
21
1.700000
31
0.0
0
ARC
8
0
10
8.600000
20
1.700000
30
0.0
40
0.500000
50
270.000000
51
360.000000
0
LINE
8
0
10
8.600000
20
1.200000
30
0.0
11
8.450085
21
1.200000
31
0.0
0
ARC
8
0
10
8.450085
20
0.600000
30
0.0
40
0.600000
50
90.000000
51
270.000000
0
LINE
8
0
10
8.450085
20
0.000000
30
0.0
11
19.946604
21
0.000000
31
0.0
0
ARC
8
0
10
19.946604
20
0.600000
30
0.0
40
0.600000
50
270.000000
51
90.000000
0
LINE
8
0
10
19.946604
20
1.200000
30
0.0
11
19.796689
21
1.200000
31
0.0
0
ARC
8
0
10
19.796689
20
1.700000
30
0.0
40
0.500000
50
180.000000
51
270.000000
0
LINE
8
0
10
19.296689
20
1.700000
30
0.0
11
19.296689
21
1.900000
31
0.0
0
ARC
8
0
10
19.796689
20
1.900000
30
0.0
40
0.500000
50
90.000000
51
180.000000
0
LINE
8
0
10
19.796689
20
2.400000
30
0.0
11
26.296689
21
2.400000
31
0.0
0
ARC
8
0
10
26.296689
20
1.900000
30
0.0
40
0.500000
50
360.000000
51
90.000000
0
LINE
8
0
10
26.796689
20
1.900000
30
0.0
11
26.796689
21
1.700000
31
0.0
0
ARC
8
0
10
26.296689
20
1.700000
30
0.0
40
0.500000
50
270.000000
51
360.000000
0
LINE
8
0
10
26.296689
20
1.200000
30
0.0
11
26.146774
21
1.200000
31
0.0
0
ARC
8
0
10
26.146774
20
0.600000
30
0.0
40
0.600000
50
90.000000
51
270.000000
0
LINE
8
0
10
26.146774
20
0.000000
30
0.0
11
43.496689
21
0.000000
31
0.0
0
ARC
8
0
10
43.496689
20
0.500000
30
0.0
40
0.500000
50
270.000000
51
360.000000
0
LINE
8
0
10
43.996689
20
0.500000
30
0.0
11
43.996689
21
16.200000
31
0.0
0
ARC
8
0
10
43.496689
20
16.200000
30
0.0
40
0.500000
50
360.000000
51
90.000000
0
LINE
8
0
10
43.496689
20
16.700000
30
0.0
11
40.696689
21
16.700000
31
0.0
0
ARC
8
0
10
40.696689
20
17.200000
30
0.0
40
0.500000
50
180.000000
51
270.000000
0
LINE
8
0
10
40.196689
20
17.200000
30
0.0
11
40.196689
21
18.700000
31
0.0
0
ARC
8
0
10
40.696689
20
18.700000
30
0.0
40
0.500000
50
90.000000
51
180.000000
0
LINE
8
0
10
40.696689
20
19.200000
30
0.0
11
41.696689
21
19.200000
31
0.0
0
ARC
8
0
10
41.696689
20
19.700000
30
0.0
40
0.500000
50
270.000000
51
360.000000
0
LINE
8
0
10
42.196689
20
19.700000
30
0.0
11
42.196689
21
21.200000
31
0.0
0
ARC
8
0
10
41.696689
20
21.200000
30
0.0
40
0.500000
50
360.000000
51
90.000000
0
LINE
8
0
10
41.696689
20
21.700000
30
0.0
11
39.096689
21
21.700000
31
0.0
0
ARC
8
0
10
39.096689
20
21.200000
30
0.0
40
0.500000
50
90.000000
51
180.000000
0
LINE
8
0
10
38.596689
20
21.200000
30
0.0
11
38.596689
21
16.100000
31
0.0
0
ARC
8
0
10
39.596689
20
16.100000
30
0.0
40
1.000000
50
180.000000
51
270.000000
0
LINE
8
0
10
39.596689
20
15.100000
30
0.0
11
41.396689
21
15.100000
31
0.0
0
ARC
8
0
10
41.396689
20
14.100000
30
0.0
40
1.000000
50
360.000000
51
90.000000
0
LINE
8
0
10
42.396689
20
14.100000
30
0.0
11
42.396689
21
2.600000
31
0.0
0
ARC
8
0
10
41.396689
20
2.600000
30
0.0
40
1.000000
50
270.000000
51
360.000000
0
LINE
8
0
10
41.396689
20
1.600000
30
0.0
11
29.396689
21
1.600000
31
0.0
0
ARC
8
0
10
29.396689
20
2.600000
30
0.0
40
1.000000
50
180.000000
51
270.000000
0
LINE
8
0
10
28.396689
20
2.600000
30
0.0
11
28.396689
21
21.200000
31
0.0
0
ARC
8
0
10
27.896689
20
21.200000
30
0.0
40
0.500000
50
360.000000
51
90.000000
0
LINE
8
0
10
27.896689
20
21.700000
30
0.0
11
25.296689
21
21.700000
31
0.0
0
ARC
8
0
10
25.296689
20
21.200000
30
0.0
40
0.500000
50
90.000000
51
180.000000
0
LINE
8
0
10
24.796689
20
21.200000
30
0.0
11
24.796689
21
19.700000
31
0.0
0
ARC
8
0
10
25.296689
20
19.700000
30
0.0
40
0.500000
50
180.000000
51
270.000000
0
LINE
8
0
10
25.296689
20
19.200000
30
0.0
11
26.296689
21
19.200000
31
0.0
0
ARC
8
0
10
26.296689
20
18.700000
30
0.0
40
0.500000
50
360.000000
51
90.000000
0
LINE
8
0
10
26.796689
20
18.700000
30
0.0
11
26.796689
21
5.000000
31
0.0
0
ARC
8
0
10
25.796689
20
5.000000
30
0.0
40
1.000000
50
270.000000
51
360.000000
0
LINE
8
0
10
25.796689
20
4.000000
30
0.0
11
18.696689
21
4.000000
31
0.0
0
ARC
8
0
10
18.696689
20
3.000000
30
0.0
40
1.000000
50
90.000000
51
180.000000
0
LINE
8
0
10
17.696689
20
3.000000
30
0.0
11
17.696689
21
2.100000
31
0.0
0
ARC
8
0
10
17.196689
20
2.100000
30
0.0
40
0.500000
50
270.000000
51
360.000000
0
LINE
8
0
10
17.196689
20
1.600000
30
0.0
11
11.200000
21
1.600000
31
0.0
0
ARC
8
0
10
11.200000
20
2.100000
30
0.0
40
0.500000
50
180.000000
51
270.000000
0
LINE
8
0
10
10.700000
20
2.100000
30
0.0
11
10.700000
21
3.000000
31
0.0
0
ARC
8
0
10
9.700000
20
3.000000
30
0.0
40
1.000000
50
360.000000
51
90.000000
0
LINE
8
0
10
9.700000
20
4.000000
30
0.0
11
2.600000
21
4.000000
31
0.0
0
ARC
8
0
10
2.600000
20
5.000000
30
0.0
40
1.000000
50
180.000000
51
270.000000
0
LINE
8
0
10
1.600000
20
5.000000
30
0.0
11
1.600000
21
7.500000
31
0.0
0
ARC
8
0
10
1.100000
20
7.500000
30
0.0
40
0.500000
50
360.000000
51
90.000000
0
LINE
8
0
10
1.100000
20
8.000000
30
0.0
11
0.500000
21
8.000000
31
0.0
0
ARC
8
0
10
0.500000
20
7.500000
30
0.0
40
0.500000
50
90.000000
51
180.000000
0
LINE
8
0
10
0.000000
20
7.500000
30
0.0
11
0.000000
21
0.500000
31
0.0
0
ARC
8
0
10
0.500000
20
0.500000
30
0.0
40
0.500000
50
180.000000
51
270.000000
0
ATTDEF
8
0
10
26.596689
20
21.700000
30
0.0
40
3.5
1

3

2
VC_START
70
0
0
ATTDEF
8
0
10
1.374958
20
0.000000
30
0.0
40
3.5
1

3

2
VC_END
70
0
0
ATTDEF
8
0
10
0.000000
20
0.000000
30
0.0
40
3.5
1

3

2
FP_LCS_ORIG
70
0
0
ATTDEF
8
0
10
10.000000
20
0.000000
30
0.0
40
3.5
1

3

2
FP_LCS_HOT
70
0
0
ATTDEF
8
0
10
0.000000
20
10.000000
30
0.0
40
3.5
1

3

2
FP_LCS_INTERN
70
0
0
ENDSEC
0
EOF
