0
SECTION
2
ENTITIES
0
LINE
8
0
10
38.504551
20
8.250000
30
0.0
11
7.100000
21
8.250000
31
0.0
0
LINE
8
0
10
7.100000
20
8.250000
30
0.0
11
7.100000
21
11.123660
31
0.0
0
ARC
8
0
10
6.600000
20
11.123660
30
0.0
40
0.500000
50
360.000000
51
70.000000
0
LINE
8
0
10
6.771010
20
11.593507
30
0.0
11
0.493485
21
13.878339
31
0.0
0
ARC
8
0
10
0.750000
20
14.583108
30
0.0
40
0.750000
50
70.000000
51
250.000000
0
LINE
8
0
10
1.006515
20
15.287878
30
0.0
11
8.271010
21
12.643818
31
0.0
0
ARC
8
0
10
8.100000
20
12.173972
30
0.0
40
0.500000
50
360.000000
51
70.000000
0
LINE
8
0
10
8.600000
20
12.173972
30
0.0
11
8.600000
21
9.750000
31
0.0
0
LINE
8
0
10
8.600000
20
9.750000
30
0.0
11
40.004551
21
9.750000
31
0.0
0
LINE
8
0
10
40.004551
20
9.750000
30
0.0
11
40.004551
21
0.000000
31
0.0
0
LINE
8
0
10
40.004551
20
0.000000
30
0.0
11
24.704551
21
0.000000
31
0.0
0
ARC
8
0
10
24.704551
20
0.500000
30
0.0
40
0.500000
50
115.869582
51
270.000000
0
LINE
8
0
10
24.486389
20
0.949895
30
0.0
11
26.858141
21
2.100000
31
0.0
0
LINE
8
0
10
26.858141
20
2.100000
30
0.0
11
27.204551
21
1.500000
31
0.0
0
LINE
8
0
10
27.204551
20
1.500000
30
0.0
11
38.504551
21
1.500000
31
0.0
0
LINE
8
0
10
38.504551
20
1.500000
30
0.0
11
38.504551
21
8.250000
31
0.0
0
ATTDEF
8
0
10
7.100000
20
8.250000
30
0.0
40
3.5
1

3

2
HC_START
70
0
0
ATTDEF
8
0
10
40.004551
20
9.750000
30
0.0
40
3.5
1

3

2
HC_END
70
0
0
ATTDEF
8
0
10
40.004551
20
15.333108
30
0.0
40
3.5
1

3

2
DESC:Perfil central PVC para cruce
70
0
0
ATTDEF
8
0
10
40.004551
20
15.333108
30
0.0
40
3.5
1

3

2
DENS:0.000000
70
0
0
ATTDEF
8
0
10
40.004551
20
15.333108
30
0.0
40
3.5
1

3

2
TDEV:0.000000
70
0
0
ATTDEF
8
0
10
40.004551
20
15.333108
30
0.0
40
3.5
1

3

2
TDEV2:0.000000
70
0
0
ATTDEF
8
0
10
40.004551
20
15.333108
30
0.0
40
3.5
1

3

2
TDEV3:0.000000
70
0
0
ATTDEF
8
0
10
40.004551
20
15.333108
30
0.0
40
3.5
1

3

2
TDEV4:0.000000
70
0
0
ATTDEF
8
0
10
40.004551
20
15.333108
30
0.0
40
3.5
1

3

2
TDEV5:0.000000
70
0
0
ATTDEF
8
0
10
40.004551
20
15.333108
30
0.0
40
3.5
1

3

2
FRONT_VIEW
70
0
0
ATTDEF
8
0
10
40.004551
20
15.333108
30
0.0
40
3.5
1

3

2
BL01:6500.000000,,1
70
0
0
ATTDEF
8
0
10
40.004551
20
15.333108
30
0.0
40
3.5
1

3

2
OPTI:500.000000,1,0,3000.000000,6500.000000,500.000000,0,0.000000,0
70
0
0
ATTDEF
8
0
10
40.004551
20
15.333108
30
0.0
40
3.5
1

3

2
PANE_WIDTH:0.000000
70
0
0
ATTDEF
8
0
10
40.004551
20
15.333108
30
0.0
40
3.5
1

3

2
GLASS_MIN:0.000000
70
0
0
ATTDEF
8
0
10
40.004551
20
15.333108
30
0.0
40
3.5
1

3

2
GLASS_MAX:0.000000
70
0
0
ATTDEF
8
0
10
40.004551
20
15.333108
30
0.0
40
3.5
1

3

2
JX:0.000000
70
0
0
ATTDEF
8
0
10
40.004551
20
15.333108
30
0.0
40
3.5
1

3

2
WX:0.000000
70
0
0
ATTDEF
8
0
10
40.004551
20
15.333108
30
0.0
40
3.5
1

3

2
JY:0.000000
70
0
0
ATTDEF
8
0
10
40.004551
20
15.333108
30
0.0
40
3.5
1

3

2
WY:0.000000
70
0
0
ATTDEF
8
0
10
40.004551
20
15.333108
30
0.0
40
3.5
1

3

2
FP_LCS_ORIG
70
0
0
ATTDEF
8
0
10
40.004551
20
5.333108
30
0.0
40
3.5
1

3

2
FP_LCS_HOT
70
0
0
ATTDEF
8
0
10
30.004551
20
15.333108
30
0.0
40
3.5
1

3

2
FP_LCS_INTERN
70
0
0
ENDSEC
0
EOF
