0
SECTION
2
ENTITIES
0
LINE
8
0
10
29.700000
20
1.200000
30
0.0
11
29.700000
21
21.300000
31
0.0
0
ARC
8
0
10
29.500000
20
21.300000
30
0.0
40
0.200000
50
360.000000
51
90.000000
0
LINE
8
0
10
29.500000
20
21.500000
30
0.0
11
28.600000
21
21.500000
31
0.0
0
ARC
8
0
10
28.600000
20
21.300000
30
0.0
40
0.200000
50
90.000000
51
180.000000
0
LINE
8
0
10
28.400000
20
21.300000
30
0.0
11
28.400000
21
1.500000
31
0.0
0
ARC
8
0
10
28.200000
20
1.500000
30
0.0
40
0.200000
50
270.000000
51
360.000000
0
LINE
8
0
10
28.200000
20
1.300000
30
0.0
11
19.150000
21
1.300000
31
0.0
0
LINE
8
0
10
19.150000
20
1.300000
30
0.0
11
1.500000
21
1.300000
31
0.0
0
ARC
8
0
10
1.500000
20
1.500000
30
0.0
40
0.200000
50
180.000000
51
270.000000
0
LINE
8
0
10
1.300000
20
1.500000
30
0.0
11
1.300000
21
21.300000
31
0.0
0
ARC
8
0
10
1.100000
20
21.300000
30
0.0
40
0.200000
50
360.000000
51
90.000000
0
LINE
8
0
10
1.100000
20
21.500000
30
0.0
11
0.200000
21
21.500000
31
0.0
0
ARC
8
0
10
0.200000
20
21.300000
30
0.0
40
0.200000
50
90.000000
51
180.000000
0
LINE
8
0
10
0.000000
20
21.300000
30
0.0
11
0.000000
21
1.200000
31
0.0
0
ARC
8
0
10
1.200000
20
1.200000
30
0.0
40
1.200000
50
180.000000
51
270.000000
0
LINE
8
0
10
1.200000
20
0.000000
30
0.0
11
28.500000
21
0.000000
31
0.0
0
ARC
8
0
10
28.500000
20
1.200000
30
0.0
40
1.200000
50
270.000000
51
360.000000
0
ATTDEF
8
0
10
0.650000
20
21.500000
30
0.0
40
3.5
1

3

2
VC_START
70
0
0
ATTDEF
8
0
10
1.200000
20
0.000000
30
0.0
40
3.5
1

3

2
VC_END
70
0
0
ATTDEF
8
0
10
0.000000
20
0.000000
30
0.0
40
3.5
1

3

2
DESC:Perfil en U de PVC para marco
70
0
0
ATTDEF
8
0
10
0.000000
20
0.000000
30
0.0
40
3.5
1

3

2
DENS:0.000000
70
0
0
ATTDEF
8
0
10
0.000000
20
0.000000
30
0.0
40
3.5
1

3

2
TDEV:0.000000
70
0
0
ATTDEF
8
0
10
0.000000
20
0.000000
30
0.0
40
3.5
1

3

2
TDEV2:0.000000
70
0
0
ATTDEF
8
0
10
0.000000
20
0.000000
30
0.0
40
3.5
1

3

2
TDEV3:0.000000
70
0
0
ATTDEF
8
0
10
0.000000
20
0.000000
30
0.0
40
3.5
1

3

2
TDEV4:0.000000
70
0
0
ATTDEF
8
0
10
0.000000
20
0.000000
30
0.0
40
3.5
1

3

2
TDEV5:0.000000
70
0
0
ATTDEF
8
0
10
0.000000
20
0.000000
30
0.0
40
3.5
1

3

2
REAR_VIEW
70
0
0
ATTDEF
8
0
10
0.000000
20
0.000000
30
0.0
40
3.5
1

3

2
BL01:6500.000000,,1
70
0
0
ATTDEF
8
0
10
0.000000
20
0.000000
30
0.0
40
3.5
1

3

2
OPTI:500.000000,1,0,3000.000000,6500.000000,500.000000,0,0.000000,0
70
0
0
ATTDEF
8
0
10
0.000000
20
0.000000
30
0.0
40
3.5
1

3

2
PANE_WIDTH:0.000000
70
0
0
ATTDEF
8
0
10
0.000000
20
0.000000
30
0.0
40
3.5
1

3

2
GLASS_MIN:0.000000
70
0
0
ATTDEF
8
0
10
0.000000
20
0.000000
30
0.0
40
3.5
1

3

2
GLASS_MAX:0.000000
70
0
0
ATTDEF
8
0
10
0.000000
20
0.000000
30
0.0
40
3.5
1

3

2
JX:0.000000
70
0
0
ATTDEF
8
0
10
0.000000
20
0.000000
30
0.0
40
3.5
1

3

2
WX:0.000000
70
0
0
ATTDEF
8
0
10
0.000000
20
0.000000
30
0.0
40
3.5
1

3

2
JY:0.000000
70
0
0
ATTDEF
8
0
10
0.000000
20
0.000000
30
0.0
40
3.5
1

3

2
WY:0.000000
70
0
0
ATTDEF
8
0
10
0.000000
20
0.000000
30
0.0
40
3.5
1

3

2
FP_LCS_ORIG
70
0
0
ATTDEF
8
0
10
10.000000
20
0.000000
30
0.0
40
3.5
1

3

2
FP_LCS_HOT
70
0
0
ATTDEF
8
0
10
0.000000
20
10.000000
30
0.0
40
3.5
1

3

2
FP_LCS_INTERN
70
0
0
ENDSEC
0
EOF
