0
SECTION
2
ENTITIES
0
ARC
8
0
10
13.750000
20
12.903553
30
0.0
40
0.250000
50
315.000000
51
360.000000
0
LINE
8
0
10
14.000000
20
12.903553
30
0.0
11
14.000000
21
13.350000
31
0.0
0
ARC
8
0
10
13.750000
20
13.350000
30
0.0
40
0.250000
50
360.000000
51
90.000000
0
LINE
8
0
10
13.750000
20
13.600000
30
0.0
11
0.350000
21
13.600000
31
0.0
0
ARC
8
0
10
0.350000
20
13.350000
30
0.0
40
0.250000
50
90.000000
51
180.000000
0
LINE
8
0
10
0.100000
20
13.350000
30
0.0
11
0.100000
21
12.903553
31
0.0
0
ARC
8
0
10
0.350000
20
12.903553
30
0.0
40
0.250000
50
180.000000
51
225.000000
0
LINE
8
0
10
0.173223
20
12.726777
30
0.0
11
0.326777
21
12.573223
31
0.0
0
ARC
8
0
10
0.150000
20
12.396447
30
0.0
40
0.250000
50
360.000000
51
45.000000
0
LINE
8
0
10
0.400000
20
12.396447
30
0.0
11
0.400000
21
12.203553
31
0.0
0
ARC
8
0
10
0.150000
20
12.203553
30
0.0
40
0.250000
50
315.000000
51
360.000000
0
LINE
8
0
10
0.326777
20
12.026777
30
0.0
11
0.173223
21
11.873223
31
0.0
0
ARC
8
0
10
0.350000
20
11.696447
30
0.0
40
0.250000
50
135.000000
51
180.000000
0
LINE
8
0
10
0.100000
20
11.696447
30
0.0
11
0.100000
21
11.103553
31
0.0
0
ARC
8
0
10
0.350000
20
11.103553
30
0.0
40
0.250000
50
180.000000
51
225.000000
0
LINE
8
0
10
0.173223
20
10.926777
30
0.0
11
0.626777
21
10.473223
31
0.0
0
ARC
8
0
10
0.450000
20
10.296447
30
0.0
40
0.250000
50
360.000000
51
45.000000
0
LINE
8
0
10
0.700000
20
10.296447
30
0.0
11
0.700000
21
1.607107
31
0.0
0
ARC
8
0
10
0.450000
20
1.607107
30
0.0
40
0.250000
50
315.000000
51
360.000000
0
LINE
8
0
10
0.626777
20
1.430330
30
0.0
11
0.073223
21
0.876777
31
0.0
0
ARC
8
0
10
0.250000
20
0.700000
30
0.0
40
0.250000
50
135.000000
51
225.000000
0
LINE
8
0
10
0.073223
20
0.523223
30
0.0
11
0.523223
21
0.073223
31
0.0
0
ARC
8
0
10
0.700000
20
0.250000
30
0.0
40
0.250000
50
225.000000
51
270.000000
0
LINE
8
0
10
0.700000
20
0.000000
30
0.0
11
1.400000
21
0.000000
31
0.0
0
ARC
8
0
10
1.400000
20
0.500000
30
0.0
40
0.500000
50
270.000000
51
360.000000
0
LINE
8
0
10
1.900000
20
0.500000
30
0.0
11
1.900000
21
11.550000
31
0.0
0
ARC
8
0
10
2.150000
20
11.550000
30
0.0
40
0.250000
50
90.000000
51
180.000000
0
LINE
8
0
10
2.150000
20
11.800000
30
0.0
11
11.950000
21
11.800000
31
0.0
0
ARC
8
0
10
11.950000
20
11.550000
30
0.0
40
0.250000
50
360.000000
51
90.000000
0
LINE
8
0
10
12.200000
20
11.550000
30
0.0
11
12.200000
21
0.500000
31
0.0
0
ARC
8
0
10
12.700000
20
0.500000
30
0.0
40
0.500000
50
180.000000
51
270.000000
0
LINE
8
0
10
12.700000
20
0.000000
30
0.0
11
13.400000
21
0.000000
31
0.0
0
ARC
8
0
10
13.400000
20
0.250000
30
0.0
40
0.250000
50
270.000000
51
315.000000
0
LINE
8
0
10
13.576777
20
0.073223
30
0.0
11
14.026777
21
0.523223
31
0.0
0
ARC
8
0
10
13.850000
20
0.700000
30
0.0
40
0.250000
50
315.000000
51
45.000000
0
LINE
8
0
10
14.026777
20
0.876777
30
0.0
11
13.473223
21
1.430330
31
0.0
0
ARC
8
0
10
13.650000
20
1.607107
30
0.0
40
0.250000
50
180.000000
51
225.000000
0
LINE
8
0
10
13.400000
20
1.607107
30
0.0
11
13.400000
21
10.296447
31
0.0
0
ARC
8
0
10
13.650000
20
10.296447
30
0.0
40
0.250000
50
135.000000
51
180.000000
0
LINE
8
0
10
13.473223
20
10.473223
30
0.0
11
13.926777
21
10.926777
31
0.0
0
ARC
8
0
10
13.750000
20
11.103553
30
0.0
40
0.250000
50
315.000000
51
360.000000
0
LINE
8
0
10
14.000000
20
11.103553
30
0.0
11
14.000000
21
11.696447
31
0.0
0
ARC
8
0
10
13.750000
20
11.696447
30
0.0
40
0.250000
50
360.000000
51
45.000000
0
LINE
8
0
10
13.926777
20
11.873223
30
0.0
11
13.773223
21
12.026777
31
0.0
0
ARC
8
0
10
13.950000
20
12.203553
30
0.0
40
0.250000
50
180.000000
51
225.000000
0
LINE
8
0
10
13.700000
20
12.203553
30
0.0
11
13.700000
21
12.396447
31
0.0
0
ARC
8
0
10
13.950000
20
12.396447
30
0.0
40
0.250000
50
135.000000
51
180.000000
0
LINE
8
0
10
13.773223
20
12.573223
30
0.0
11
13.926777
21
12.726777
31
0.0
0
ATTDEF
8
0
10
0.000000
20
0.000000
30
0.0
40
3.5
1

3

2
DESC:Tapa guia lateral y superior
70
0
0
ATTDEF
8
0
10
0.000000
20
0.000000
30
0.0
40
3.5
1

3

2
DENS:0.149000
70
0
0
ATTDEF
8
0
10
0.000000
20
0.000000
30
0.0
40
3.5
1

3

2
TDEV:0.000000
70
0
0
ATTDEF
8
0
10
0.000000
20
0.000000
30
0.0
40
3.5
1

3

2
TDEV2:0.000000
70
0
0
ATTDEF
8
0
10
0.000000
20
0.000000
30
0.0
40
3.5
1

3

2
TDEV3:0.000000
70
0
0
ATTDEF
8
0
10
0.000000
20
0.000000
30
0.0
40
3.5
1

3

2
TDEV4:0.000000
70
0
0
ATTDEF
8
0
10
0.000000
20
0.000000
30
0.0
40
3.5
1

3

2
TDEV5:0.000000
70
0
0
ATTDEF
8
0
10
0.000000
20
0.000000
30
0.0
40
3.5
1

3

2
FRONT_VIEW
70
0
0
ATTDEF
8
0
10
0.000000
20
0.000000
30
0.0
40
3.5
1

3

2
BL01:6500.000000,,1
70
0
0
ATTDEF
8
0
10
0.000000
20
0.000000
30
0.0
40
3.5
1

3

2
OPTI:500.000000,1,0,3000.000000,6500.000000,500.000000,0,0.000000,0
70
0
0
ATTDEF
8
0
10
0.000000
20
0.000000
30
0.0
40
3.5
1

3

2
PANE_WIDTH:0.000000
70
0
0
ATTDEF
8
0
10
0.000000
20
0.000000
30
0.0
40
3.5
1

3

2
GLASS_MIN:0.000000
70
0
0
ATTDEF
8
0
10
0.000000
20
0.000000
30
0.0
40
3.5
1

3

2
GLASS_MAX:0.000000
70
0
0
ATTDEF
8
0
10
0.000000
20
0.000000
30
0.0
40
3.5
1

3

2
JX:0.000000
70
0
0
ATTDEF
8
0
10
0.000000
20
0.000000
30
0.0
40
3.5
1

3

2
WX:0.000000
70
0
0
ATTDEF
8
0
10
0.000000
20
0.000000
30
0.0
40
3.5
1

3

2
JY:0.000000
70
0
0
ATTDEF
8
0
10
0.000000
20
0.000000
30
0.0
40
3.5
1

3

2
WY:0.000000
70
0
0
ATTDEF
8
0
10
0.350000
20
13.600000
30
0.0
40
3.5
1

3

2
VC_START
70
0
0
ATTDEF
8
0
10
1.050000
20
0.000000
30
0.0
40
3.5
1

3

2
VC_END
70
0
0
ATTDEF
8
0
10
0.000000
20
0.000000
30
0.0
40
3.5
1

3

2
FP_LCS_ORIG
70
0
0
ATTDEF
8
0
10
10.000000
20
0.000000
30
0.0
40
3.5
1

3

2
FP_LCS_HOT
70
0
0
ATTDEF
8
0
10
0.000000
20
10.000000
30
0.0
40
3.5
1

3

2
FP_LCS_INTERN
70
0
0
ENDSEC
0
EOF
