0
SECTION
2
ENTITIES
0
ARC
8
0
10
6.207107
20
24.050000
30
0.0
40
0.250000
50
90.000000
51
160.528779
0
ARC
8
0
10
5.500000
20
24.300000
30
0.0
40
0.500000
50
199.471221
51
340.528779
0
ARC
8
0
10
4.792893
20
24.050000
30
0.0
40
0.250000
50
19.471221
51
90.000000
0
LINE
8
0
10
0.250000
20
24.300000
30
0.0
11
4.792893
21
24.300000
31
0.0
0
ARC
8
0
10
0.250000
20
24.050000
30
0.0
40
0.250000
50
90.000000
51
180.000000
0
LINE
8
0
10
0.000000
20
23.300000
30
0.0
11
0.000000
21
24.050000
31
0.0
0
ARC
8
0
10
1.000000
20
23.300000
30
0.0
40
1.000000
50
180.000000
51
302.859880
0
ARC
8
0
10
1.678233
20
22.250000
30
0.0
40
0.250000
50
90.000000
51
122.859880
0
LINE
8
0
10
7.083485
20
22.500000
30
0.0
11
1.678233
21
22.500000
31
0.0
0
ARC
8
0
10
7.083485
20
22.250000
30
0.0
40
0.250000
50
42.843643
51
90.000000
0
ARC
8
0
10
8.000000
20
23.100000
30
0.0
40
1.000000
50
222.843643
51
317.156357
0
ARC
8
0
10
8.916515
20
22.250000
30
0.0
40
0.250000
50
90.000000
51
137.156357
0
LINE
8
0
10
10.450000
20
22.500000
30
0.0
11
8.916515
21
22.500000
31
0.0
0
ARC
8
0
10
10.450000
20
22.250000
30
0.0
40
0.250000
50
360.000000
51
90.000000
0
LINE
8
0
10
10.700000
20
0.250000
30
0.0
11
10.700000
21
22.250000
31
0.0
0
ARC
8
0
10
10.950000
20
0.250000
30
0.0
40
0.250000
50
180.000000
51
270.000000
0
LINE
8
0
10
11.200000
20
0.000000
30
0.0
11
10.950000
21
0.000000
31
0.0
0
ARC
8
0
10
11.200000
20
1.000000
30
0.0
40
1.000000
50
270.000000
51
360.000000
0
LINE
8
0
10
12.200000
20
21.587302
30
0.0
11
12.200000
21
1.000000
31
0.0
0
ARC
8
0
10
14.200000
20
21.587302
30
0.0
40
2.000000
50
135.000000
51
180.000000
0
LINE
8
0
10
14.142136
20
24.357864
30
0.0
11
12.785786
21
23.001515
31
0.0
0
ARC
8
0
10
0.000000
20
38.500000
30
0.0
40
20.000000
50
315.000000
51
360.000000
0
LINE
8
0
10
20.000000
20
49.000000
30
0.0
11
20.000000
21
38.500000
31
0.0
0
ARC
8
0
10
18.600000
20
49.000000
30
0.0
40
1.400000
50
360.000000
51
180.000000
0
LINE
8
0
10
17.200000
20
45.114214
30
0.0
11
17.200000
21
49.000000
31
0.0
0
ARC
8
0
10
18.200000
20
45.114214
30
0.0
40
1.000000
50
180.000000
51
225.000000
0
LINE
8
0
10
18.207107
20
43.692893
30
0.0
11
17.492893
21
44.407107
31
0.0
0
ARC
8
0
10
17.500000
20
42.985786
30
0.0
40
1.000000
50
360.000000
51
45.000000
0
LINE
8
0
10
18.500000
20
38.500000
30
0.0
11
18.500000
21
42.985786
31
0.0
0
ARC
8
0
10
0.000000
20
38.500000
30
0.0
40
18.500000
50
315.000000
51
360.000000
0
LINE
8
0
10
12.036174
20
24.373223
30
0.0
11
13.081475
21
25.418525
31
0.0
0
ARC
8
0
10
11.859398
20
24.550000
30
0.0
40
0.250000
50
270.000000
51
315.000000
0
LINE
8
0
10
6.207107
20
24.300000
30
0.0
11
11.859398
21
24.300000
31
0.0
0
ATTDEF
8
0
10
0.000000
20
0.000000
30
0.0
40
3.5
1

3

2
DESC:Guia de condensacion
70
0
0
ATTDEF
8
0
10
0.000000
20
0.000000
30
0.0
40
3.5
1

3

2
DENS:0.289000
70
0
0
ATTDEF
8
0
10
0.000000
20
0.000000
30
0.0
40
3.5
1

3

2
TDEV:0.000000
70
0
0
ATTDEF
8
0
10
0.000000
20
0.000000
30
0.0
40
3.5
1

3

2
TDEV2:0.000000
70
0
0
ATTDEF
8
0
10
0.000000
20
0.000000
30
0.0
40
3.5
1

3

2
TDEV3:0.000000
70
0
0
ATTDEF
8
0
10
0.000000
20
0.000000
30
0.0
40
3.5
1

3

2
TDEV4:0.000000
70
0
0
ATTDEF
8
0
10
0.000000
20
0.000000
30
0.0
40
3.5
1

3

2
TDEV5:0.000000
70
0
0
ATTDEF
8
0
10
0.000000
20
0.000000
30
0.0
40
3.5
1

3

2
FRONT_VIEW
70
0
0
ATTDEF
8
0
10
0.000000
20
0.000000
30
0.0
40
3.5
1

3

2
BL01:6500.000000,,1
70
0
0
ATTDEF
8
0
10
0.000000
20
0.000000
30
0.0
40
3.5
1

3

2
OPTI:500.000000,1,0,3000.000000,6500.000000,500.000000,0,0.000000,0
70
0
0
ATTDEF
8
0
10
0.000000
20
0.000000
30
0.0
40
3.5
1

3

2
PANE_WIDTH:0.000000
70
0
0
ATTDEF
8
0
10
0.000000
20
0.000000
30
0.0
40
3.5
1

3

2
GLASS_MIN:0.000000
70
0
0
ATTDEF
8
0
10
0.000000
20
0.000000
30
0.0
40
3.5
1

3

2
GLASS_MAX:0.000000
70
0
0
ATTDEF
8
0
10
0.000000
20
0.000000
30
0.0
40
3.5
1

3

2
JX:0.000000
70
0
0
ATTDEF
8
0
10
0.000000
20
0.000000
30
0.0
40
3.5
1

3

2
WX:0.000000
70
0
0
ATTDEF
8
0
10
0.000000
20
0.000000
30
0.0
40
3.5
1

3

2
JY:0.000000
70
0
0
ATTDEF
8
0
10
0.000000
20
0.000000
30
0.0
40
3.5
1

3

2
WY:0.000000
70
0
0
ATTDEF
8
0
10
2.521447
20
24.300000
30
0.0
40
3.5
1

3

2
VC_START
70
0
0
ATTDEF
8
0
10
10.950000
20
0.000000
30
0.0
40
3.5
1

3

2
VC_END
70
0
0
ATTDEF
8
0
10
0.000000
20
0.000000
30
0.0
40
3.5
1

3

2
FP_LCS_ORIG
70
0
0
ATTDEF
8
0
10
10.000000
20
0.000000
30
0.0
40
3.5
1

3

2
FP_LCS_HOT
70
0
0
ATTDEF
8
0
10
0.000000
20
10.000000
30
0.0
40
3.5
1

3

2
FP_LCS_INTERN
70
0
0
ENDSEC
0
EOF
