0
SECTION
2
ENTITIES
0
LINE
8
0
10
8.553590
20
116.076393
30
0.0
11
8.400000
21
116.076393
31
0.0
0
ARC
8
0
10
8.400000
20
115.676393
30
0.0
40
0.400000
50
90.000000
51
180.000000
0
LINE
8
0
10
8.000000
20
115.676393
30
0.0
11
8.000000
21
112.276393
31
0.0
0
ARC
8
0
10
8.400000
20
112.276393
30
0.0
40
0.400000
50
180.000000
51
270.000000
0
LINE
8
0
10
8.400000
20
111.876393
30
0.0
11
8.553590
21
111.876393
31
0.0
0
ARC
8
0
10
8.553590
20
112.276393
30
0.0
40
0.400000
50
270.000000
51
300.000000
0
LINE
8
0
10
8.753590
20
111.929983
30
0.0
11
10.460770
21
112.915624
31
0.0
0
ARC
8
0
10
11.060770
20
111.876393
30
0.0
40
1.200000
50
90.000000
51
120.000000
0
LINE
8
0
10
11.060770
20
113.076393
30
0.0
11
12.067931
21
113.076393
31
0.0
0
ARC
8
0
10
12.067931
20
114.076393
30
0.0
40
1.000000
50
270.000000
51
338.000000
0
LINE
8
0
10
12.995115
20
113.701787
30
0.0
11
13.676702
21
115.388775
31
0.0
0
ARC
8
0
10
13.954857
20
115.276393
30
0.0
40
0.300000
50
90.000000
51
158.000000
0
LINE
8
0
10
13.954857
20
115.576393
30
0.0
11
14.045143
21
115.576393
31
0.0
0
ARC
8
0
10
14.045143
20
115.276393
30
0.0
40
0.300000
50
22.000000
51
90.000000
0
LINE
8
0
10
14.323298
20
115.388775
30
0.0
11
15.004885
21
113.701787
31
0.0
0
ARC
8
0
10
15.932069
20
114.076393
30
0.0
40
1.000000
50
202.000000
51
270.000000
0
LINE
8
0
10
15.932069
20
113.076393
30
0.0
11
16.939230
21
113.076393
31
0.0
0
ARC
8
0
10
16.939230
20
111.876393
30
0.0
40
1.200000
50
60.000000
51
90.000000
0
LINE
8
0
10
17.539230
20
112.915624
30
0.0
11
19.246410
21
111.929983
31
0.0
0
ARC
8
0
10
19.446410
20
112.276393
30
0.0
40
0.400000
50
240.000000
51
270.000000
0
LINE
8
0
10
19.446410
20
111.876393
30
0.0
11
19.600000
21
111.876393
31
0.0
0
ARC
8
0
10
19.600000
20
112.276393
30
0.0
40
0.400000
50
270.000000
51
360.000000
0
LINE
8
0
10
20.000000
20
112.276393
30
0.0
11
20.000000
21
115.676393
31
0.0
0
ARC
8
0
10
19.600000
20
115.676393
30
0.0
40
0.400000
50
360.000000
51
90.000000
0
LINE
8
0
10
19.600000
20
116.076393
30
0.0
11
19.446410
21
116.076393
31
0.0
0
ARC
8
0
10
19.446410
20
115.676393
30
0.0
40
0.400000
50
90.000000
51
120.000000
0
LINE
8
0
10
19.246410
20
116.022803
30
0.0
11
17.539230
21
115.037163
31
0.0
0
ARC
8
0
10
16.939230
20
116.076393
30
0.0
40
1.200000
50
270.000000
51
300.000000
0
LINE
8
0
10
16.939230
20
114.876393
30
0.0
11
16.761950
21
114.876393
31
0.0
0
ARC
8
0
10
16.761950
20
115.176393
30
0.0
40
0.300000
50
202.000000
51
270.000000
0
LINE
8
0
10
16.483795
20
115.064011
30
0.0
11
15.488991
21
117.526236
31
0.0
0
ARC
8
0
10
15.118118
20
117.376393
30
0.0
40
0.400000
50
22.000000
51
90.000000
0
LINE
8
0
10
15.118118
20
117.776393
30
0.0
11
12.881882
21
117.776393
31
0.0
0
ARC
8
0
10
12.881882
20
117.376393
30
0.0
40
0.400000
50
90.000000
51
158.000000
0
LINE
8
0
10
12.511009
20
117.526236
30
0.0
11
11.516205
21
115.064011
31
0.0
0
ARC
8
0
10
11.238050
20
115.176393
30
0.0
40
0.300000
50
270.000000
51
338.000000
0
LINE
8
0
10
11.238050
20
114.876393
30
0.0
11
11.060770
21
114.876393
31
0.0
0
ARC
8
0
10
11.060770
20
116.076393
30
0.0
40
1.200000
50
240.000000
51
270.000000
0
LINE
8
0
10
10.460770
20
115.037163
30
0.0
11
8.753590
21
116.022803
31
0.0
0
ARC
8
0
10
8.553590
20
115.676393
30
0.0
40
0.400000
50
60.000000
51
90.000000
0
LINE
8
0
10
8.553590
20
23.923607
30
0.0
11
8.400000
21
23.923607
31
0.0
0
ARC
8
0
10
8.400000
20
24.323607
30
0.0
40
0.400000
50
180.000000
51
270.000000
0
LINE
8
0
10
8.000000
20
24.323607
30
0.0
11
8.000000
21
27.723607
31
0.0
0
ARC
8
0
10
8.400000
20
27.723607
30
0.0
40
0.400000
50
90.000000
51
180.000000
0
LINE
8
0
10
8.400000
20
28.123607
30
0.0
11
8.553590
21
28.123607
31
0.0
0
ARC
8
0
10
8.553590
20
27.723607
30
0.0
40
0.400000
50
60.000000
51
90.000000
0
LINE
8
0
10
8.753590
20
28.070017
30
0.0
11
10.460770
21
27.084376
31
0.0
0
ARC
8
0
10
11.060770
20
28.123607
30
0.0
40
1.200000
50
240.000000
51
270.000000
0
LINE
8
0
10
11.060770
20
26.923607
30
0.0
11
12.067931
21
26.923607
31
0.0
0
ARC
8
0
10
12.067931
20
25.923607
30
0.0
40
1.000000
50
22.000000
51
90.000000
0
LINE
8
0
10
12.995115
20
26.298213
30
0.0
11
13.676702
21
24.611225
31
0.0
0
ARC
8
0
10
13.954857
20
24.723607
30
0.0
40
0.300000
50
202.000000
51
270.000000
0
LINE
8
0
10
13.954857
20
24.423607
30
0.0
11
14.045143
21
24.423607
31
0.0
0
ARC
8
0
10
14.045143
20
24.723607
30
0.0
40
0.300000
50
270.000000
51
338.000000
0
LINE
8
0
10
14.323298
20
24.611225
30
0.0
11
15.004885
21
26.298213
31
0.0
0
ARC
8
0
10
15.932069
20
25.923607
30
0.0
40
1.000000
50
90.000000
51
158.000000
0
LINE
8
0
10
15.932069
20
26.923607
30
0.0
11
16.939230
21
26.923607
31
0.0
0
ARC
8
0
10
16.939230
20
28.123607
30
0.0
40
1.200000
50
270.000000
51
300.000000
0
LINE
8
0
10
17.539230
20
27.084376
30
0.0
11
19.246410
21
28.070017
31
0.0
0
ARC
8
0
10
19.446410
20
27.723607
30
0.0
40
0.400000
50
90.000000
51
120.000000
0
LINE
8
0
10
19.446410
20
28.123607
30
0.0
11
19.600000
21
28.123607
31
0.0
0
ARC
8
0
10
19.600000
20
27.723607
30
0.0
40
0.400000
50
360.000000
51
90.000000
0
LINE
8
0
10
20.000000
20
27.723607
30
0.0
11
20.000000
21
24.323607
31
0.0
0
ARC
8
0
10
19.600000
20
24.323607
30
0.0
40
0.400000
50
270.000000
51
360.000000
0
LINE
8
0
10
19.600000
20
23.923607
30
0.0
11
19.446410
21
23.923607
31
0.0
0
ARC
8
0
10
19.446410
20
24.323607
30
0.0
40
0.400000
50
240.000000
51
270.000000
0
LINE
8
0
10
19.246410
20
23.977197
30
0.0
11
17.539230
21
24.962837
31
0.0
0
ARC
8
0
10
16.939230
20
23.923607
30
0.0
40
1.200000
50
60.000000
51
90.000000
0
LINE
8
0
10
16.939230
20
25.123607
30
0.0
11
16.761950
21
25.123607
31
0.0
0
ARC
8
0
10
16.761950
20
24.823607
30
0.0
40
0.300000
50
90.000000
51
158.000000
0
LINE
8
0
10
16.483795
20
24.935989
30
0.0
11
15.488991
21
22.473764
31
0.0
0
ARC
8
0
10
15.118118
20
22.623607
30
0.0
40
0.400000
50
270.000000
51
338.000000
0
LINE
8
0
10
15.118118
20
22.223607
30
0.0
11
12.881882
21
22.223607
31
0.0
0
ARC
8
0
10
12.881882
20
22.623607
30
0.0
40
0.400000
50
202.000000
51
270.000000
0
LINE
8
0
10
12.511009
20
22.473764
30
0.0
11
11.516205
21
24.935989
31
0.0
0
ARC
8
0
10
11.238050
20
24.823607
30
0.0
40
0.300000
50
22.000000
51
90.000000
0
LINE
8
0
10
11.238050
20
25.123607
30
0.0
11
11.060770
21
25.123607
31
0.0
0
ARC
8
0
10
11.060770
20
23.923607
30
0.0
40
1.200000
50
90.000000
51
120.000000
0
LINE
8
0
10
10.460770
20
24.962837
30
0.0
11
8.753590
21
23.977197
31
0.0
0
ARC
8
0
10
8.553590
20
24.323607
30
0.0
40
0.400000
50
270.000000
51
300.000000
0
LINE
8
0
10
1.400000
20
24.400000
30
0.0
11
1.400000
21
115.600000
31
0.0
0
ARC
8
0
10
2.400000
20
115.600000
30
0.0
40
1.000000
50
90.000000
51
180.000000
0
LINE
8
0
10
2.400000
20
116.600000
30
0.0
11
5.400000
21
116.600000
31
0.0
0
ARC
8
0
10
5.400000
20
115.600000
30
0.0
40
1.000000
50
360.000000
51
90.000000
0
LINE
8
0
10
6.400000
20
115.600000
30
0.0
11
6.400000
21
110.600000
31
0.0
0
ARC
8
0
10
6.900000
20
110.600000
30
0.0
40
0.500000
50
180.000000
51
270.000000
0
LINE
8
0
10
6.900000
20
110.100000
30
0.0
11
7.200000
21
110.100000
31
0.0
0
ARC
8
0
10
7.200000
20
109.600000
30
0.0
40
0.500000
50
360.000000
51
90.000000
0
LINE
8
0
10
7.700000
20
109.600000
30
0.0
11
7.700000
21
30.400000
31
0.0
0
ARC
8
0
10
7.200000
20
30.400000
30
0.0
40
0.500000
50
270.000000
51
360.000000
0
LINE
8
0
10
7.200000
20
29.900000
30
0.0
11
6.900000
21
29.900000
31
0.0
0
ARC
8
0
10
6.900000
20
29.400000
30
0.0
40
0.500000
50
90.000000
51
180.000000
0
LINE
8
0
10
6.400000
20
29.400000
30
0.0
11
6.400000
21
24.400000
31
0.0
0
ARC
8
0
10
5.400000
20
24.400000
30
0.0
40
1.000000
50
270.000000
51
360.000000
0
LINE
8
0
10
5.400000
20
23.400000
30
0.0
11
2.400000
21
23.400000
31
0.0
0
ARC
8
0
10
2.400000
20
24.400000
30
0.0
40
1.000000
50
180.000000
51
270.000000
0
LINE
8
0
10
9.617609
20
24.111370
30
0.0
11
8.595582
21
23.391266
31
0.0
0
ARC
8
0
10
8.307595
20
23.800000
30
0.0
40
0.500000
50
270.000000
51
305.167932
0
LINE
8
0
10
8.307595
20
23.300000
30
0.0
11
8.100000
21
23.300000
31
0.0
0
ARC
8
0
10
8.100000
20
23.600000
30
0.0
40
0.300000
50
131.810315
51
270.000000
0
ARC
8
0
10
7.700000
20
24.047214
30
0.0
40
0.300000
50
311.810315
51
360.000000
0
LINE
8
0
10
8.000000
20
24.047214
30
0.0
11
8.000000
21
28.000000
31
0.0
0
ARC
8
0
10
8.300000
20
28.000000
30
0.0
40
0.300000
50
90.000000
51
180.000000
0
LINE
8
0
10
8.300000
20
28.300000
30
0.0
11
8.600000
21
28.300000
31
0.0
0
LINE
8
0
10
8.600000
20
28.300000
30
0.0
11
10.195798
21
27.325921
31
0.0
0
ARC
8
0
10
10.300000
20
27.496631
30
0.0
40
0.200000
50
238.600000
51
360.000000
0
LINE
8
0
10
10.500000
20
27.496631
30
0.0
11
10.500000
21
28.922214
31
0.0
0
ARC
8
0
10
9.500000
20
28.922214
30
0.0
40
1.000000
50
360.000000
51
58.600000
0
LINE
8
0
10
10.021010
20
29.775765
30
0.0
11
9.900000
21
29.838729
31
0.0
0
ARC
8
0
10
10.300000
20
30.755244
30
0.0
40
1.000000
50
180.000000
51
246.421822
0
LINE
8
0
10
9.300000
20
30.755244
30
0.0
11
9.300000
21
109.222955
31
0.0
0
ARC
8
0
10
10.300000
20
109.222955
30
0.0
40
1.000000
50
121.400000
51
180.000000
0
LINE
8
0
10
9.778990
20
110.076506
30
0.0
11
10.021010
21
110.224235
31
0.0
0
ARC
8
0
10
9.500000
20
111.077786
30
0.0
40
1.000000
50
301.400000
51
360.000000
0
LINE
8
0
10
10.500000
20
111.077786
30
0.0
11
10.500000
21
112.503369
31
0.0
0
ARC
8
0
10
10.300000
20
112.503369
30
0.0
40
0.200000
50
360.000000
51
121.400000
0
LINE
8
0
10
10.195798
20
112.674079
30
0.0
11
8.600000
21
111.700000
31
0.0
0
LINE
8
0
10
8.600000
20
111.700000
30
0.0
11
8.300000
21
111.700000
31
0.0
0
ARC
8
0
10
8.300000
20
112.000000
30
0.0
40
0.300000
50
180.000000
51
270.000000
0
LINE
8
0
10
8.000000
20
112.000000
30
0.0
11
8.000000
21
115.952786
31
0.0
0
ARC
8
0
10
7.700000
20
115.952786
30
0.0
40
0.300000
50
360.000000
51
48.189685
0
ARC
8
0
10
8.100000
20
116.400000
30
0.0
40
0.300000
50
90.000000
51
228.189685
0
LINE
8
0
10
8.100000
20
116.700000
30
0.0
11
8.307595
21
116.700000
31
0.0
0
ARC
8
0
10
8.307595
20
116.200000
30
0.0
40
0.500000
50
54.832068
51
90.000000
0
LINE
8
0
10
8.595582
20
116.608734
30
0.0
11
9.617609
21
115.888630
31
0.0
0
ARC
8
0
10
9.502414
20
115.725136
30
0.0
40
0.200000
50
354.832068
51
54.832068
0
LINE
8
0
10
9.701601
20
115.707121
30
0.0
11
9.685999
21
115.534620
31
0.0
0
ARC
8
0
10
9.885186
20
115.516605
30
0.0
40
0.200000
50
174.832068
51
294.832068
0
LINE
8
0
10
9.969178
20
115.335096
30
0.0
11
10.535337
21
115.597083
31
0.0
0
LINE
8
0
10
10.535337
20
115.597083
30
0.0
11
11.590851
21
117.843427
31
0.0
0
ARC
8
0
10
11.319331
20
117.971009
30
0.0
40
0.300000
50
334.832068
51
90.000000
0
LINE
8
0
10
11.320211
20
118.271008
30
0.0
11
9.830368
21
118.275375
31
0.0
0
ARC
8
0
10
9.829489
20
117.975376
30
0.0
40
0.300000
50
90.000000
51
153.304539
0
ARC
8
0
10
9.382785
20
118.200000
30
0.0
40
0.200000
50
270.000000
51
333.304539
0
LINE
8
0
10
9.382785
20
118.000000
30
0.0
11
2.400000
21
118.000000
31
0.0
0
ARC
8
0
10
2.400000
20
119.000000
30
0.0
40
1.000000
50
180.000000
51
270.000000
0
LINE
8
0
10
1.400000
20
119.000000
30
0.0
11
1.400000
21
130.600000
31
0.0
0
ARC
8
0
10
1.900000
20
130.600000
30
0.0
40
0.500000
50
90.000000
51
180.000000
0
LINE
8
0
10
1.900000
20
131.100000
30
0.0
11
4.500000
21
131.100000
31
0.0
0
ARC
8
0
10
4.500000
20
131.600000
30
0.0
40
0.500000
50
270.000000
51
360.000000
0
LINE
8
0
10
5.000000
20
131.600000
30
0.0
11
5.000000
21
132.714915
31
0.0
0
ARC
8
0
10
4.500000
20
132.714915
30
0.0
40
0.500000
50
360.000000
51
60.000000
0
LINE
8
0
10
4.750000
20
133.147927
30
0.0
11
4.100000
21
133.523205
31
0.0
0
ARC
8
0
10
4.000000
20
133.350000
30
0.0
40
0.200000
50
60.000000
51
180.000000
0
LINE
8
0
10
3.800000
20
133.350000
30
0.0
11
3.800000
21
132.800000
31
0.0
0
ARC
8
0
10
3.300000
20
132.800000
30
0.0
40
0.500000
50
270.000000
51
360.000000
0
LINE
8
0
10
3.300000
20
132.300000
30
0.0
11
1.900000
21
132.300000
31
0.0
0
ARC
8
0
10
1.900000
20
132.800000
30
0.0
40
0.500000
50
180.000000
51
270.000000
0
LINE
8
0
10
1.400000
20
132.800000
30
0.0
11
1.400000
21
138.300000
31
0.0
0
ARC
8
0
10
1.900000
20
138.300000
30
0.0
40
0.500000
50
90.000000
51
180.000000
0
LINE
8
0
10
1.900000
20
138.800000
30
0.0
11
3.300000
21
138.800000
31
0.0
0
ARC
8
0
10
3.300000
20
138.300000
30
0.0
40
0.500000
50
360.000000
51
90.000000
0
LINE
8
0
10
3.800000
20
138.300000
30
0.0
11
3.800000
21
137.750000
31
0.0
0
ARC
8
0
10
4.000000
20
137.750000
30
0.0
40
0.200000
50
180.000000
51
300.000000
0
LINE
8
0
10
4.100000
20
137.576795
30
0.0
11
4.750000
21
137.952073
31
0.0
0
ARC
8
0
10
4.500000
20
138.385085
30
0.0
40
0.500000
50
300.000000
51
360.000000
0
LINE
8
0
10
5.000000
20
138.385085
30
0.0
11
5.000000
21
139.500000
31
0.0
0
ARC
8
0
10
4.500000
20
139.500000
30
0.0
40
0.500000
50
360.000000
51
90.000000
0
LINE
8
0
10
4.500000
20
140.000000
30
0.0
11
0.500000
21
140.000000
31
0.0
0
ARC
8
0
10
0.500000
20
139.500000
30
0.0
40
0.500000
50
90.000000
51
180.000000
0
LINE
8
0
10
0.000000
20
139.500000
30
0.0
11
0.000000
21
0.500000
31
0.0
0
ARC
8
0
10
0.500000
20
0.500000
30
0.0
40
0.500000
50
180.000000
51
270.000000
0
LINE
8
0
10
0.500000
20
0.000000
30
0.0
11
4.500000
21
0.000000
31
0.0
0
ARC
8
0
10
4.500000
20
0.500000
30
0.0
40
0.500000
50
270.000000
51
360.000000
0
LINE
8
0
10
5.000000
20
0.500000
30
0.0
11
5.000000
21
1.614915
31
0.0
0
ARC
8
0
10
4.500000
20
1.614915
30
0.0
40
0.500000
50
360.000000
51
60.000000
0
LINE
8
0
10
4.750000
20
2.047927
30
0.0
11
4.100000
21
2.423205
31
0.0
0
ARC
8
0
10
4.000000
20
2.250000
30
0.0
40
0.200000
50
60.000000
51
180.000000
0
LINE
8
0
10
3.800000
20
2.250000
30
0.0
11
3.800000
21
1.700000
31
0.0
0
ARC
8
0
10
3.300000
20
1.700000
30
0.0
40
0.500000
50
270.000000
51
360.000000
0
LINE
8
0
10
3.300000
20
1.200000
30
0.0
11
1.900000
21
1.200000
31
0.0
0
ARC
8
0
10
1.900000
20
1.700000
30
0.0
40
0.500000
50
180.000000
51
270.000000
0
LINE
8
0
10
1.400000
20
1.700000
30
0.0
11
1.400000
21
7.200000
31
0.0
0
ARC
8
0
10
1.900000
20
7.200000
30
0.0
40
0.500000
50
90.000000
51
180.000000
0
LINE
8
0
10
1.900000
20
7.700000
30
0.0
11
3.300000
21
7.700000
31
0.0
0
ARC
8
0
10
3.300000
20
7.200000
30
0.0
40
0.500000
50
360.000000
51
90.000000
0
LINE
8
0
10
3.800000
20
7.200000
30
0.0
11
3.800000
21
6.650000
31
0.0
0
ARC
8
0
10
4.000000
20
6.650000
30
0.0
40
0.200000
50
180.000000
51
300.000000
0
LINE
8
0
10
4.100000
20
6.476795
30
0.0
11
4.750000
21
6.852073
31
0.0
0
ARC
8
0
10
4.500000
20
7.285085
30
0.0
40
0.500000
50
300.000000
51
360.000000
0
LINE
8
0
10
5.000000
20
7.285085
30
0.0
11
5.000000
21
8.400000
31
0.0
0
ARC
8
0
10
4.500000
20
8.400000
30
0.0
40
0.500000
50
360.000000
51
90.000000
0
LINE
8
0
10
4.500000
20
8.900000
30
0.0
11
1.900000
21
8.900000
31
0.0
0
ARC
8
0
10
1.900000
20
9.400000
30
0.0
40
0.500000
50
180.000000
51
270.000000
0
LINE
8
0
10
1.400000
20
9.400000
30
0.0
11
1.400000
21
21.000000
31
0.0
0
ARC
8
0
10
2.400000
20
21.000000
30
0.0
40
1.000000
50
90.000000
51
180.000000
0
LINE
8
0
10
2.400000
20
22.000000
30
0.0
11
9.382785
21
22.000000
31
0.0
0
ARC
8
0
10
9.382785
20
21.800000
30
0.0
40
0.200000
50
26.695462
51
90.000000
0
ARC
8
0
10
9.829489
20
22.024624
30
0.0
40
0.300000
50
206.695462
51
270.000000
0
LINE
8
0
10
9.830368
20
21.724625
30
0.0
11
11.320211
21
21.728992
31
0.0
0
ARC
8
0
10
11.319331
20
22.028991
30
0.0
40
0.300000
50
270.000000
51
25.167932
0
LINE
8
0
10
11.590851
20
22.156573
30
0.0
11
10.535337
21
24.402917
31
0.0
0
LINE
8
0
10
10.535337
20
24.402917
30
0.0
11
9.969178
21
24.664904
31
0.0
0
ARC
8
0
10
9.885186
20
24.483395
30
0.0
40
0.200000
50
65.167932
51
185.167932
0
LINE
8
0
10
9.685999
20
24.465380
30
0.0
11
9.701601
21
24.292879
31
0.0
0
ARC
8
0
10
9.502414
20
24.274864
30
0.0
40
0.200000
50
305.167932
51
5.167932
0
ARC
8
0
10
22.600000
20
115.600000
30
0.0
40
1.000000
50
90.000000
51
180.000000
0
LINE
8
0
10
22.600000
20
116.600000
30
0.0
11
29.774821
21
116.600000
31
0.0
0
ARC
8
0
10
29.774821
20
115.600000
30
0.0
40
1.000000
50
335.330001
51
90.000000
0
ARC
8
0
10
35.000000
20
113.200000
30
0.0
40
4.750000
50
155.330001
51
222.305623
0
ARC
8
0
10
32.411522
20
110.844202
30
0.0
40
1.250000
50
222.305623
51
360.000000
0
LINE
8
0
10
33.661522
20
110.844202
30
0.0
11
33.661522
21
111.361522
31
0.0
0
ARC
8
0
10
33.161522
20
111.361522
30
0.0
40
0.500000
50
360.000000
51
90.000000
0
LINE
8
0
10
33.161522
20
111.861522
30
0.0
11
32.644803
21
111.861522
31
0.0
0
ARC
8
0
10
32.644803
20
112.361522
30
0.0
40
0.500000
50
199.596319
51
270.000000
0
ARC
8
0
10
35.000000
20
113.200000
30
0.0
40
3.000000
50
160.403681
51
199.596319
0
ARC
8
0
10
32.644803
20
114.038478
30
0.0
40
0.500000
50
90.000000
51
160.403681
0
LINE
8
0
10
32.644803
20
114.538478
30
0.0
11
33.161522
21
114.538478
31
0.0
0
ARC
8
0
10
33.161522
20
115.038478
30
0.0
40
0.500000
50
270.000000
51
360.000000
0
LINE
8
0
10
33.661522
20
115.038478
30
0.0
11
33.661522
21
115.555197
31
0.0
0
ARC
8
0
10
34.161522
20
115.555197
30
0.0
40
0.500000
50
109.596319
51
180.000000
0
ARC
8
0
10
35.000000
20
113.200000
30
0.0
40
3.000000
50
70.403681
51
109.596319
0
ARC
8
0
10
35.838478
20
115.555197
30
0.0
40
0.500000
50
360.000000
51
70.403681
0
LINE
8
0
10
36.338478
20
115.555197
30
0.0
11
36.338478
21
115.038478
31
0.0
0
ARC
8
0
10
36.838478
20
115.038478
30
0.0
40
0.500000
50
180.000000
51
270.000000
0
LINE
8
0
10
36.838478
20
114.538478
30
0.0
11
37.355197
21
114.538478
31
0.0
0
ARC
8
0
10
37.355197
20
114.038478
30
0.0
40
0.500000
50
19.596319
51
90.000000
0
ARC
8
0
10
35.000000
20
113.200000
30
0.0
40
3.000000
50
340.403681
51
19.596319
0
ARC
8
0
10
37.355197
20
112.361522
30
0.0
40
0.500000
50
270.000000
51
340.403681
0
LINE
8
0
10
37.355197
20
111.861522
30
0.0
11
36.838478
21
111.861522
31
0.0
0
ARC
8
0
10
36.838478
20
111.361522
30
0.0
40
0.500000
50
90.000000
51
180.000000
0
LINE
8
0
10
36.338478
20
111.361522
30
0.0
11
36.338478
21
110.844202
31
0.0
0
ARC
8
0
10
37.588478
20
110.844202
30
0.0
40
1.250000
50
180.000000
51
317.694377
0
ARC
8
0
10
35.000000
20
113.200000
30
0.0
40
4.750000
50
317.694377
51
24.669999
0
ARC
8
0
10
40.225179
20
115.600000
30
0.0
40
1.000000
50
90.000000
51
204.669999
0
LINE
8
0
10
40.225179
20
116.600000
30
0.0
11
49.600000
21
116.600000
31
0.0
0
ARC
8
0
10
49.600000
20
115.600000
30
0.0
40
1.000000
50
360.000000
51
90.000000
0
LINE
8
0
10
50.600000
20
115.600000
30
0.0
11
50.600000
21
24.400000
31
0.0
0
ARC
8
0
10
49.600000
20
24.400000
30
0.0
40
1.000000
50
270.000000
51
360.000000
0
LINE
8
0
10
49.600000
20
23.400000
30
0.0
11
40.225179
21
23.400000
31
0.0
0
ARC
8
0
10
40.225179
20
24.400000
30
0.0
40
1.000000
50
155.330001
51
270.000000
0
ARC
8
0
10
35.000000
20
26.800000
30
0.0
40
4.750000
50
335.330001
51
42.305623
0
ARC
8
0
10
37.588478
20
29.155798
30
0.0
40
1.250000
50
42.305623
51
180.000000
0
LINE
8
0
10
36.338478
20
29.155798
30
0.0
11
36.338478
21
28.638478
31
0.0
0
ARC
8
0
10
36.838478
20
28.638478
30
0.0
40
0.500000
50
180.000000
51
270.000000
0
LINE
8
0
10
36.838478
20
28.138478
30
0.0
11
37.355197
21
28.138478
31
0.0
0
ARC
8
0
10
37.355197
20
27.638478
30
0.0
40
0.500000
50
19.596319
51
90.000000
0
ARC
8
0
10
35.000000
20
26.800000
30
0.0
40
3.000000
50
340.403681
51
19.596319
0
ARC
8
0
10
37.355197
20
25.961522
30
0.0
40
0.500000
50
270.000000
51
340.403681
0
LINE
8
0
10
37.355197
20
25.461522
30
0.0
11
36.838478
21
25.461522
31
0.0
0
ARC
8
0
10
36.838478
20
24.961522
30
0.0
40
0.500000
50
90.000000
51
180.000000
0
LINE
8
0
10
36.338478
20
24.961522
30
0.0
11
36.338478
21
24.444803
31
0.0
0
ARC
8
0
10
35.838478
20
24.444803
30
0.0
40
0.500000
50
289.596319
51
360.000000
0
ARC
8
0
10
35.000000
20
26.800000
30
0.0
40
3.000000
50
250.403681
51
289.596319
0
ARC
8
0
10
34.161522
20
24.444803
30
0.0
40
0.500000
50
180.000000
51
250.403681
0
LINE
8
0
10
33.661522
20
24.444803
30
0.0
11
33.661522
21
24.961522
31
0.0
0
ARC
8
0
10
33.161522
20
24.961522
30
0.0
40
0.500000
50
360.000000
51
90.000000
0
LINE
8
0
10
33.161522
20
25.461522
30
0.0
11
32.644803
21
25.461522
31
0.0
0
ARC
8
0
10
32.644803
20
25.961522
30
0.0
40
0.500000
50
199.596319
51
270.000000
0
ARC
8
0
10
35.000000
20
26.800000
30
0.0
40
3.000000
50
160.403681
51
199.596319
0
ARC
8
0
10
32.644803
20
27.638478
30
0.0
40
0.500000
50
90.000000
51
160.403681
0
LINE
8
0
10
32.644803
20
28.138478
30
0.0
11
33.161522
21
28.138478
31
0.0
0
ARC
8
0
10
33.161522
20
28.638478
30
0.0
40
0.500000
50
270.000000
51
360.000000
0
LINE
8
0
10
33.661522
20
28.638478
30
0.0
11
33.661522
21
29.155798
31
0.0
0
ARC
8
0
10
32.411522
20
29.155798
30
0.0
40
1.250000
50
360.000000
51
137.694377
0
ARC
8
0
10
35.000000
20
26.800000
30
0.0
40
4.750000
50
137.694377
51
204.669999
0
ARC
8
0
10
29.774821
20
24.400000
30
0.0
40
1.000000
50
270.000000
51
24.669999
0
LINE
8
0
10
29.774821
20
23.400000
30
0.0
11
22.600000
21
23.400000
31
0.0
0
ARC
8
0
10
22.600000
20
24.400000
30
0.0
40
1.000000
50
180.000000
51
270.000000
0
LINE
8
0
10
21.600000
20
24.400000
30
0.0
11
21.600000
21
115.600000
31
0.0
0
ARC
8
0
10
18.500000
20
28.922214
30
0.0
40
1.000000
50
121.400000
51
180.000000
0
LINE
8
0
10
17.500000
20
27.496631
30
0.0
11
17.500000
21
28.922214
31
0.0
0
ARC
8
0
10
17.700000
20
27.496631
30
0.0
40
0.200000
50
180.000000
51
301.400000
0
LINE
8
0
10
19.400000
20
28.300000
30
0.0
11
17.804202
21
27.325921
31
0.0
0
LINE
8
0
10
19.700000
20
28.300000
30
0.0
11
19.400000
21
28.300000
31
0.0
0
ARC
8
0
10
19.700000
20
28.000000
30
0.0
40
0.300000
50
360.000000
51
90.000000
0
LINE
8
0
10
20.000000
20
24.047214
30
0.0
11
20.000000
21
28.000000
31
0.0
0
ARC
8
0
10
20.300000
20
24.047214
30
0.0
40
0.300000
50
180.000000
51
228.189685
0
ARC
8
0
10
19.900000
20
23.600000
30
0.0
40
0.300000
50
270.000000
51
48.189685
0
LINE
8
0
10
19.692405
20
23.300000
30
0.0
11
19.900000
21
23.300000
31
0.0
0
ARC
8
0
10
19.692405
20
23.800000
30
0.0
40
0.500000
50
234.832068
51
270.000000
0
LINE
8
0
10
18.382391
20
24.111370
30
0.0
11
19.404418
21
23.391266
31
0.0
0
ARC
8
0
10
18.497586
20
24.274864
30
0.0
40
0.200000
50
174.832068
51
234.832068
0
LINE
8
0
10
18.314001
20
24.465380
30
0.0
11
18.298399
21
24.292879
31
0.0
0
ARC
8
0
10
18.114814
20
24.483395
30
0.0
40
0.200000
50
354.832068
51
114.832068
0
LINE
8
0
10
17.464663
20
24.402917
30
0.0
11
18.030822
21
24.664904
31
0.0
0
LINE
8
0
10
16.409149
20
22.156573
30
0.0
11
17.464663
21
24.402917
31
0.0
0
ARC
8
0
10
16.680669
20
22.028991
30
0.0
40
0.300000
50
154.832068
51
270.000000
0
LINE
8
0
10
18.169632
20
21.724625
30
0.0
11
16.679789
21
21.728992
31
0.0
0
ARC
8
0
10
18.170511
20
22.024624
30
0.0
40
0.300000
50
270.000000
51
333.304538
0
ARC
8
0
10
18.617215
20
21.800000
30
0.0
40
0.200000
50
90.000000
51
153.304538
0
LINE
8
0
10
30.700000
20
22.000000
30
0.0
11
18.617215
21
22.000000
31
0.0
0
ARC
8
0
10
30.700000
20
21.500000
30
0.0
40
0.500000
50
360.000000
51
90.000000
0
LINE
8
0
10
31.200000
20
17.500000
30
0.0
11
31.200000
21
21.500000
31
0.0
0
ARC
8
0
10
31.700000
20
17.500000
30
0.0
40
0.500000
50
180.000000
51
270.000000
0
LINE
8
0
10
33.392893
20
17.000000
30
0.0
11
31.700000
21
17.000000
31
0.0
0
ARC
8
0
10
33.392893
20
17.500000
30
0.0
40
0.500000
50
270.000000
51
315.000000
0
LINE
8
0
10
34.453553
20
17.853553
30
0.0
11
33.746447
21
17.146447
31
0.0
0
ARC
8
0
10
34.100000
20
18.207107
30
0.0
40
0.500000
50
315.000000
51
360.000000
0
LINE
8
0
10
34.600000
20
18.750000
30
0.0
11
34.600000
21
18.207107
31
0.0
0
ARC
8
0
10
34.350000
20
18.750000
30
0.0
40
0.250000
50
360.000000
51
90.000000
0
LINE
8
0
10
33.100000
20
19.000000
30
0.0
11
34.350000
21
19.000000
31
0.0
0
ARC
8
0
10
33.100000
20
19.500000
30
0.0
40
0.500000
50
180.000000
51
270.000000
0
LINE
8
0
10
32.600000
20
21.500000
30
0.0
11
32.600000
21
19.500000
31
0.0
0
ARC
8
0
10
33.100000
20
21.500000
30
0.0
40
0.500000
50
90.000000
51
180.000000
0
LINE
8
0
10
50.100000
20
22.000000
30
0.0
11
33.100000
21
22.000000
31
0.0
0
ARC
8
0
10
50.100000
20
21.500000
30
0.0
40
0.500000
50
360.000000
51
90.000000
0
LINE
8
0
10
50.600000
20
19.500000
30
0.0
11
50.600000
21
21.500000
31
0.0
0
ARC
8
0
10
50.100000
20
19.500000
30
0.0
40
0.500000
50
270.000000
51
360.000000
0
LINE
8
0
10
48.850000
20
19.000000
30
0.0
11
50.100000
21
19.000000
31
0.0
0
ARC
8
0
10
48.850000
20
18.750000
30
0.0
40
0.250000
50
90.000000
51
180.000000
0
LINE
8
0
10
48.600000
20
18.207107
30
0.0
11
48.600000
21
18.750000
31
0.0
0
ARC
8
0
10
49.100000
20
18.207107
30
0.0
40
0.500000
50
180.000000
51
225.000000
0
LINE
8
0
10
49.453553
20
17.146447
30
0.0
11
48.746447
21
17.853553
31
0.0
0
ARC
8
0
10
49.807107
20
17.500000
30
0.0
40
0.500000
50
225.000000
51
270.000000
0
LINE
8
0
10
51.500000
20
17.000000
30
0.0
11
49.807107
21
17.000000
31
0.0
0
ARC
8
0
10
51.500000
20
17.500000
30
0.0
40
0.500000
50
270.000000
51
360.000000
0
LINE
8
0
10
52.000000
20
122.500000
30
0.0
11
52.000000
21
17.500000
31
0.0
0
ARC
8
0
10
51.500000
20
122.500000
30
0.0
40
0.500000
50
360.000000
51
90.000000
0
LINE
8
0
10
49.807107
20
123.000000
30
0.0
11
51.500000
21
123.000000
31
0.0
0
ARC
8
0
10
49.807107
20
122.500000
30
0.0
40
0.500000
50
90.000000
51
135.000000
0
LINE
8
0
10
48.746447
20
122.146447
30
0.0
11
49.453553
21
122.853553
31
0.0
0
ARC
8
0
10
49.100000
20
121.792893
30
0.0
40
0.500000
50
135.000000
51
180.000000
0
LINE
8
0
10
48.600000
20
121.250000
30
0.0
11
48.600000
21
121.792893
31
0.0
0
ARC
8
0
10
48.850000
20
121.250000
30
0.0
40
0.250000
50
180.000000
51
270.000000
0
LINE
8
0
10
50.100000
20
121.000000
30
0.0
11
48.850000
21
121.000000
31
0.0
0
ARC
8
0
10
50.100000
20
120.500000
30
0.0
40
0.500000
50
360.000000
51
90.000000
0
LINE
8
0
10
50.600000
20
118.500000
30
0.0
11
50.600000
21
120.500000
31
0.0
0
ARC
8
0
10
50.100000
20
118.500000
30
0.0
40
0.500000
50
270.000000
51
360.000000
0
LINE
8
0
10
33.100000
20
118.000000
30
0.0
11
50.100000
21
118.000000
31
0.0
0
ARC
8
0
10
33.100000
20
118.500000
30
0.0
40
0.500000
50
180.000000
51
270.000000
0
LINE
8
0
10
32.600000
20
120.500000
30
0.0
11
32.600000
21
118.500000
31
0.0
0
ARC
8
0
10
33.100000
20
120.500000
30
0.0
40
0.500000
50
90.000000
51
180.000000
0
LINE
8
0
10
34.350000
20
121.000000
30
0.0
11
33.100000
21
121.000000
31
0.0
0
ARC
8
0
10
34.350000
20
121.250000
30
0.0
40
0.250000
50
270.000000
51
360.000000
0
LINE
8
0
10
34.600000
20
121.792893
30
0.0
11
34.600000
21
121.250000
31
0.0
0
ARC
8
0
10
34.100000
20
121.792893
30
0.0
40
0.500000
50
360.000000
51
45.000000
0
LINE
8
0
10
33.746447
20
122.853553
30
0.0
11
34.453553
21
122.146447
31
0.0
0
ARC
8
0
10
33.392893
20
122.500000
30
0.0
40
0.500000
50
45.000000
51
90.000000
0
LINE
8
0
10
31.700000
20
123.000000
30
0.0
11
33.392893
21
123.000000
31
0.0
0
ARC
8
0
10
31.700000
20
122.500000
30
0.0
40
0.500000
50
90.000000
51
180.000000
0
LINE
8
0
10
31.200000
20
118.500000
30
0.0
11
31.200000
21
122.500000
31
0.0
0
ARC
8
0
10
30.700000
20
118.500000
30
0.0
40
0.500000
50
270.000000
51
360.000000
0
LINE
8
0
10
18.617215
20
118.000000
30
0.0
11
30.700000
21
118.000000
31
0.0
0
ARC
8
0
10
18.617215
20
118.200000
30
0.0
40
0.200000
50
206.695461
51
270.000000
0
ARC
8
0
10
18.170511
20
117.975376
30
0.0
40
0.300000
50
26.695461
51
90.000000
0
LINE
8
0
10
16.679789
20
118.271008
30
0.0
11
18.169632
21
118.275375
31
0.0
0
ARC
8
0
10
16.680669
20
117.971009
30
0.0
40
0.300000
50
90.000000
51
205.167932
0
LINE
8
0
10
17.464663
20
115.597083
30
0.0
11
16.409149
21
117.843427
31
0.0
0
LINE
8
0
10
18.030822
20
115.335096
30
0.0
11
17.464663
21
115.597083
31
0.0
0
ARC
8
0
10
18.114814
20
115.516605
30
0.0
40
0.200000
50
245.167932
51
5.167932
0
LINE
8
0
10
18.298399
20
115.707121
30
0.0
11
18.314001
21
115.534620
31
0.0
0
ARC
8
0
10
18.497586
20
115.725136
30
0.0
40
0.200000
50
125.167932
51
185.167932
0
LINE
8
0
10
19.404418
20
116.608734
30
0.0
11
18.382391
21
115.888630
31
0.0
0
ARC
8
0
10
19.692405
20
116.200000
30
0.0
40
0.500000
50
90.000000
51
125.167932
0
LINE
8
0
10
19.900000
20
116.700000
30
0.0
11
19.692405
21
116.700000
31
0.0
0
ARC
8
0
10
19.900000
20
116.400000
30
0.0
40
0.300000
50
311.810315
51
90.000000
0
ARC
8
0
10
20.300000
20
115.952786
30
0.0
40
0.300000
50
131.810315
51
180.000000
0
LINE
8
0
10
20.000000
20
112.000000
30
0.0
11
20.000000
21
115.952786
31
0.0
0
ARC
8
0
10
19.700000
20
112.000000
30
0.0
40
0.300000
50
270.000000
51
360.000000
0
LINE
8
0
10
19.400000
20
111.700000
30
0.0
11
19.700000
21
111.700000
31
0.0
0
LINE
8
0
10
17.804202
20
112.674079
30
0.0
11
19.400000
21
111.700000
31
0.0
0
ARC
8
0
10
17.700000
20
112.503369
30
0.0
40
0.200000
50
58.600000
51
180.000000
0
LINE
8
0
10
17.500000
20
111.077786
30
0.0
11
17.500000
21
112.503369
31
0.0
0
ARC
8
0
10
18.500000
20
111.077786
30
0.0
40
1.000000
50
180.000000
51
238.600000
0
LINE
8
0
10
19.521010
20
109.282983
30
0.0
11
17.978990
21
110.224235
31
0.0
0
ARC
8
0
10
19.000000
20
108.429432
30
0.0
40
1.000000
50
360.000000
51
58.600000
0
LINE
8
0
10
20.000000
20
31.570568
30
0.0
11
20.000000
21
108.429432
31
0.0
0
ARC
8
0
10
19.000000
20
31.570568
30
0.0
40
1.000000
50
301.400000
51
360.000000
0
LINE
8
0
10
17.978990
20
29.775765
30
0.0
11
19.521010
21
30.717017
31
0.0
0
ATTDEF
8
0
10
0.000000
20
140.000000
30
0.0
40
3.5
1

3

2
HW_START
70
0
0
ATTDEF
8
0
10
52.000000
20
140.000000
30
0.0
40
3.5
1

3

2
HW_END
70
0
0
ATTDEF
8
0
10
51.500000
20
123.000000
30
0.0
40
3.5
1

3

2
VC_START
70
0
0
ATTDEF
8
0
10
51.500000
20
17.000000
30
0.0
40
3.5
1

3

2
VC_END
70
0
0
LINE
8
0
10
8.503311
20
0.300000
30
0.0
11
10.253226
21
0.300000
31
0.0
0
ARC
8
0
10
10.253226
20
0.900000
30
0.0
40
0.600000
50
270.000000
51
90.000000
0
LINE
8
0
10
10.253226
20
1.500000
30
0.0
11
10.103311
21
1.500000
31
0.0
0
ARC
8
0
10
10.103311
20
2.000000
30
0.0
40
0.500000
50
180.000000
51
270.000000
0
LINE
8
0
10
9.603311
20
2.000000
30
0.0
11
9.603311
21
2.200000
31
0.0
0
ARC
8
0
10
10.103311
20
2.200000
30
0.0
40
0.500000
50
90.000000
51
180.000000
0
LINE
8
0
10
10.103311
20
2.700000
30
0.0
11
16.603311
21
2.700000
31
0.0
0
ARC
8
0
10
16.603311
20
2.200000
30
0.0
40
0.500000
50
360.000000
51
90.000000
0
LINE
8
0
10
17.103311
20
2.200000
30
0.0
11
17.103311
21
2.000000
31
0.0
0
ARC
8
0
10
16.603311
20
2.000000
30
0.0
40
0.500000
50
270.000000
51
360.000000
0
LINE
8
0
10
16.603311
20
1.500000
30
0.0
11
16.453396
21
1.500000
31
0.0
0
ARC
8
0
10
16.453396
20
0.900000
30
0.0
40
0.600000
50
90.000000
51
270.000000
0
LINE
8
0
10
16.453396
20
0.300000
30
0.0
11
27.949915
21
0.300000
31
0.0
0
ARC
8
0
10
27.949915
20
0.900000
30
0.0
40
0.600000
50
270.000000
51
90.000000
0
LINE
8
0
10
27.949915
20
1.500000
30
0.0
11
27.800000
21
1.500000
31
0.0
0
ARC
8
0
10
27.800000
20
2.000000
30
0.0
40
0.500000
50
180.000000
51
270.000000
0
LINE
8
0
10
27.300000
20
2.000000
30
0.0
11
27.300000
21
2.200000
31
0.0
0
ARC
8
0
10
27.800000
20
2.200000
30
0.0
40
0.500000
50
90.000000
51
180.000000
0
LINE
8
0
10
27.800000
20
2.700000
30
0.0
11
34.300000
21
2.700000
31
0.0
0
ARC
8
0
10
34.300000
20
2.200000
30
0.0
40
0.500000
50
360.000000
51
90.000000
0
LINE
8
0
10
34.800000
20
2.200000
30
0.0
11
34.800000
21
2.000000
31
0.0
0
ARC
8
0
10
34.300000
20
2.000000
30
0.0
40
0.500000
50
270.000000
51
360.000000
0
LINE
8
0
10
34.300000
20
1.500000
30
0.0
11
34.150085
21
1.500000
31
0.0
0
ARC
8
0
10
34.150085
20
0.900000
30
0.0
40
0.600000
50
90.000000
51
270.000000
0
LINE
8
0
10
34.150085
20
0.300000
30
0.0
11
51.500000
21
0.300000
31
0.0
0
ARC
8
0
10
51.500000
20
0.800000
30
0.0
40
0.500000
50
270.000000
51
360.000000
0
LINE
8
0
10
52.000000
20
0.800000
30
0.0
11
52.000000
21
16.500000
31
0.0
0
ARC
8
0
10
51.500000
20
16.500000
30
0.0
40
0.500000
50
360.000000
51
90.000000
0
LINE
8
0
10
51.500000
20
17.000000
30
0.0
11
48.700000
21
17.000000
31
0.0
0
ARC
8
0
10
48.700000
20
17.500000
30
0.0
40
0.500000
50
180.000000
51
270.000000
0
LINE
8
0
10
48.200000
20
17.500000
30
0.0
11
48.200000
21
19.000000
31
0.0
0
ARC
8
0
10
48.700000
20
19.000000
30
0.0
40
0.500000
50
90.000000
51
180.000000
0
LINE
8
0
10
48.700000
20
19.500000
30
0.0
11
49.700000
21
19.500000
31
0.0
0
ARC
8
0
10
49.700000
20
20.000000
30
0.0
40
0.500000
50
270.000000
51
360.000000
0
LINE
8
0
10
50.200000
20
20.000000
30
0.0
11
50.200000
21
21.500000
31
0.0
0
ARC
8
0
10
49.700000
20
21.500000
30
0.0
40
0.500000
50
360.000000
51
90.000000
0
LINE
8
0
10
49.700000
20
22.000000
30
0.0
11
47.100000
21
22.000000
31
0.0
0
ARC
8
0
10
47.100000
20
21.500000
30
0.0
40
0.500000
50
90.000000
51
180.000000
0
LINE
8
0
10
46.600000
20
21.500000
30
0.0
11
46.600000
21
16.400000
31
0.0
0
ARC
8
0
10
47.600000
20
16.400000
30
0.0
40
1.000000
50
180.000000
51
270.000000
0
LINE
8
0
10
47.600000
20
15.400000
30
0.0
11
49.400000
21
15.400000
31
0.0
0
ARC
8
0
10
49.400000
20
14.400000
30
0.0
40
1.000000
50
360.000000
51
90.000000
0
LINE
8
0
10
50.400000
20
14.400000
30
0.0
11
50.400000
21
2.900000
31
0.0
0
ARC
8
0
10
49.400000
20
2.900000
30
0.0
40
1.000000
50
270.000000
51
360.000000
0
LINE
8
0
10
49.400000
20
1.900000
30
0.0
11
37.400000
21
1.900000
31
0.0
0
ARC
8
0
10
37.400000
20
2.900000
30
0.0
40
1.000000
50
180.000000
51
270.000000
0
LINE
8
0
10
36.400000
20
2.900000
30
0.0
11
36.400000
21
21.500000
31
0.0
0
ARC
8
0
10
35.900000
20
21.500000
30
0.0
40
0.500000
50
360.000000
51
90.000000
0
LINE
8
0
10
35.900000
20
22.000000
30
0.0
11
33.300000
21
22.000000
31
0.0
0
ARC
8
0
10
33.300000
20
21.500000
30
0.0
40
0.500000
50
90.000000
51
180.000000
0
LINE
8
0
10
32.800000
20
21.500000
30
0.0
11
32.800000
21
20.000000
31
0.0
0
ARC
8
0
10
33.300000
20
20.000000
30
0.0
40
0.500000
50
180.000000
51
270.000000
0
LINE
8
0
10
33.300000
20
19.500000
30
0.0
11
34.300000
21
19.500000
31
0.0
0
ARC
8
0
10
34.300000
20
19.000000
30
0.0
40
0.500000
50
360.000000
51
90.000000
0
LINE
8
0
10
34.800000
20
19.000000
30
0.0
11
34.800000
21
5.300000
31
0.0
0
ARC
8
0
10
33.800000
20
5.300000
30
0.0
40
1.000000
50
270.000000
51
360.000000
0
LINE
8
0
10
33.800000
20
4.300000
30
0.0
11
26.700000
21
4.300000
31
0.0
0
ARC
8
0
10
26.700000
20
3.300000
30
0.0
40
1.000000
50
90.000000
51
180.000000
0
LINE
8
0
10
25.700000
20
3.300000
30
0.0
11
25.700000
21
2.400000
31
0.0
0
ARC
8
0
10
25.200000
20
2.400000
30
0.0
40
0.500000
50
270.000000
51
360.000000
0
LINE
8
0
10
25.200000
20
1.900000
30
0.0
11
19.203311
21
1.900000
31
0.0
0
ARC
8
0
10
19.203311
20
2.400000
30
0.0
40
0.500000
50
180.000000
51
270.000000
0
LINE
8
0
10
18.703311
20
2.400000
30
0.0
11
18.703311
21
3.300000
31
0.0
0
ARC
8
0
10
17.703311
20
3.300000
30
0.0
40
1.000000
50
360.000000
51
90.000000
0
LINE
8
0
10
17.703311
20
4.300000
30
0.0
11
10.603311
21
4.300000
31
0.0
0
ARC
8
0
10
10.603311
20
5.300000
30
0.0
40
1.000000
50
180.000000
51
270.000000
0
LINE
8
0
10
9.603311
20
5.300000
30
0.0
11
9.603311
21
7.800000
31
0.0
0
ARC
8
0
10
9.103311
20
7.800000
30
0.0
40
0.500000
50
360.000000
51
90.000000
0
LINE
8
0
10
9.103311
20
8.300000
30
0.0
11
8.503311
21
8.300000
31
0.0
0
ARC
8
0
10
8.503311
20
7.800000
30
0.0
40
0.500000
50
90.000000
51
180.000000
0
LINE
8
0
10
8.003311
20
7.800000
30
0.0
11
8.003311
21
0.800000
31
0.0
0
ARC
8
0
10
8.503311
20
0.800000
30
0.0
40
0.500000
50
180.000000
51
270.000000
0
ATTDEF
8
0
10
8.003311
20
22.000000
30
0.0
40
3.5
1

3

2
HW_START
70
0
0
ATTDEF
8
0
10
52.000000
20
22.000000
30
0.0
40
3.5
1

3

2
HW_END
70
0
0
ATTDEF
8
0
10
0.000000
20
0.000000
30
0.0
40
3.5
1

3

2
DENS:0.000000
70
0
0
ATTDEF
8
0
10
0.000000
20
0.000000
30
0.0
40
3.5
1

3

2
GLASS_MIN:0.000000
70
0
0
ATTDEF
8
0
10
0.000000
20
0.000000
30
0.0
40
3.5
1

3

2
GLASS_MAX:0.000000
70
0
0
ATTDEF
8
0
10
0.000000
20
0.000000
30
0.0
40
3.5
1

3

2
DESC:RPT-038 - 8497
70
0
0
ATTDEF
8
0
10
0.000000
20
0.000000
30
0.0
40
3.5
1

3

2
BL01:6500.000000,,1
70
0
0
ENDSEC
0
EOF
