  0
SECTION
  2
ENTITIES
  0
POLYLINE
  8
0
  6
CONTINUOUS
 62
     6
 66
     1
 10
0.0
 20
0.0
 30
0.0
  0
VERTEX
  8
0
  6
CONTINUOUS
 62
     6
 10
193.900112
 20
63.157779
 30
0.0
 42
-0.945079
  0
VERTEX
  8
0
  6
CONTINUOUS
 62
     6
 10
195.363825
 20
66.440504
 30
0.0
  0
VERTEX
  8
0
  6
CONTINUOUS
 62
     6
 10
199.485642
 20
64.875055
 30
0.0
 42
1.44949
  0
VERTEX
  8
0
  6
CONTINUOUS
 62
     6
 10
199.485642
 20
68.240504
 30
0.0
  0
VERTEX
  8
0
  6
CONTINUOUS
 62
     6
 10
195.363825
 20
66.675055
 30
0.0
 42
-1.44949
  0
VERTEX
  8
0
  6
CONTINUOUS
 62
     6
 10
195.363825
 20
70.040504
 30
0.0
  0
VERTEX
  8
0
  6
CONTINUOUS
 62
     6
 10
199.485642
 20
68.475055
 30
0.0
 42
1.44949
  0
VERTEX
  8
0
  6
CONTINUOUS
 62
     6
 10
199.485642
 20
71.840504
 30
0.0
  0
VERTEX
  8
0
  6
CONTINUOUS
 62
     6
 10
195.363825
 20
70.275055
 30
0.0
 42
-1.44949
  0
VERTEX
  8
0
  6
CONTINUOUS
 62
     6
 10
195.363825
 20
73.640504
 30
0.0
  0
VERTEX
  8
0
  6
CONTINUOUS
 62
     6
 10
199.485642
 20
72.075055
 30
0.0
 42
1.44949
  0
VERTEX
  8
0
  6
CONTINUOUS
 62
     6
 10
199.485642
 20
75.440504
 30
0.0
  0
VERTEX
  8
0
  6
CONTINUOUS
 62
     6
 10
195.363825
 20
73.875055
 30
0.0
 42
-1.44949
  0
VERTEX
  8
0
  6
CONTINUOUS
 62
     6
 10
195.363825
 20
77.240504
 30
0.0
  0
VERTEX
  8
0
  6
CONTINUOUS
 62
     6
 10
199.485642
 20
75.675055
 30
0.0
 42
1.44949
  0
VERTEX
  8
0
  6
CONTINUOUS
 62
     6
 10
199.485642
 20
79.040504
 30
0.0
  0
VERTEX
  8
0
  6
CONTINUOUS
 62
     6
 10
195.363825
 20
77.475055
 30
0.0
 42
-1.44949
  0
VERTEX
  8
0
  6
CONTINUOUS
 62
     6
 10
195.363825
 20
80.840504
 30
0.0
  0
VERTEX
  8
0
  6
CONTINUOUS
 62
     6
 10
199.485642
 20
79.275055
 30
0.0
 42
1.44949
  0
VERTEX
  8
0
  6
CONTINUOUS
 62
     6
 10
199.485642
 20
82.640504
 30
0.0
  0
VERTEX
  8
0
  6
CONTINUOUS
 62
     6
 10
195.363825
 20
81.075055
 30
0.0
 42
-1.44949
  0
VERTEX
  8
0
  6
CONTINUOUS
 62
     6
 10
195.363825
 20
84.440504
 30
0.0
  0
VERTEX
  8
0
  6
CONTINUOUS
 62
     6
 10
199.485642
 20
82.875055
 30
0.0
 42
1.44949
  0
VERTEX
  8
0
  6
CONTINUOUS
 62
     6
 10
199.485642
 20
86.240504
 30
0.0
  0
VERTEX
  8
0
  6
CONTINUOUS
 62
     6
 10
195.363825
 20
84.675055
 30
0.0
 42
-1.44949
  0
VERTEX
  8
0
  6
CONTINUOUS
 62
     6
 10
195.363825
 20
88.040504
 30
0.0
  0
VERTEX
  8
0
  6
CONTINUOUS
 62
     6
 10
199.485642
 20
86.475055
 30
0.0
 42
1.44949
  0
VERTEX
  8
0
  6
CONTINUOUS
 62
     6
 10
199.485642
 20
89.840504
 30
0.0
  0
VERTEX
  8
0
  6
CONTINUOUS
 62
     6
 10
195.363825
 20
88.275055
 30
0.0
 42
-1.44949
  0
VERTEX
  8
0
  6
CONTINUOUS
 62
     6
 10
195.363825
 20
91.640504
 30
0.0
  0
VERTEX
  8
0
  6
CONTINUOUS
 62
     6
 10
199.485642
 20
90.075055
 30
0.0
 42
1.44949
  0
VERTEX
  8
0
  6
CONTINUOUS
 62
     6
 10
199.485642
 20
93.440504
 30
0.0
  0
VERTEX
  8
0
  6
CONTINUOUS
 62
     6
 10
195.363825
 20
91.875055
 30
0.0
 42
-1.44949
  0
VERTEX
  8
0
  6
CONTINUOUS
 62
     6
 10
195.363825
 20
95.240504
 30
0.0
  0
VERTEX
  8
0
  6
CONTINUOUS
 62
     6
 10
199.485642
 20
93.675055
 30
0.0
 42
1.44949
  0
VERTEX
  8
0
  6
CONTINUOUS
 62
     6
 10
199.485642
 20
97.040504
 30
0.0
  0
VERTEX
  8
0
  6
CONTINUOUS
 62
     6
 10
195.363825
 20
95.475055
 30
0.0
 42
-1.44949
  0
VERTEX
  8
0
  6
CONTINUOUS
 62
     6
 10
195.363825
 20
98.840504
 30
0.0
  0
VERTEX
  8
0
  6
CONTINUOUS
 62
     6
 10
199.485642
 20
97.275055
 30
0.0
 42
1.44949
  0
VERTEX
  8
0
  6
CONTINUOUS
 62
     6
 10
199.485642
 20
100.640504
 30
0.0
  0
VERTEX
  8
0
  6
CONTINUOUS
 62
     6
 10
195.363825
 20
99.075055
 30
0.0
 42
-1.44949
  0
VERTEX
  8
0
  6
CONTINUOUS
 62
     6
 10
195.363825
 20
102.440504
 30
0.0
  0
VERTEX
  8
0
  6
CONTINUOUS
 62
     6
 10
199.485642
 20
100.875055
 30
0.0
 42
1.44949
  0
VERTEX
  8
0
  6
CONTINUOUS
 62
     6
 10
199.485642
 20
104.240504
 30
0.0
  0
VERTEX
  8
0
  6
CONTINUOUS
 62
     6
 10
195.363825
 20
102.675055
 30
0.0
 42
-1.44949
  0
VERTEX
  8
0
  6
CONTINUOUS
 62
     6
 10
195.363825
 20
106.040504
 30
0.0
  0
VERTEX
  8
0
  6
CONTINUOUS
 62
     6
 10
199.485642
 20
104.475055
 30
0.0
 42
1.44949
  0
VERTEX
  8
0
  6
CONTINUOUS
 62
     6
 10
199.485642
 20
107.840504
 30
0.0
  0
VERTEX
  8
0
  6
CONTINUOUS
 62
     6
 10
195.363825
 20
106.275055
 30
0.0
 42
-1.44949
  0
VERTEX
  8
0
  6
CONTINUOUS
 62
     6
 10
195.363825
 20
109.640504
 30
0.0
  0
VERTEX
  8
0
  6
CONTINUOUS
 62
     6
 10
199.485642
 20
108.075055
 30
0.0
 42
1.44949
  0
VERTEX
  8
0
  6
CONTINUOUS
 62
     6
 10
199.485642
 20
111.440504
 30
0.0
  0
VERTEX
  8
0
  6
CONTINUOUS
 62
     6
 10
195.363825
 20
109.875055
 30
0.0
 42
-0.945079
  0
VERTEX
  8
0
  6
CONTINUOUS
 62
     6
 10
193.900112
 20
113.157779
 30
0.0
  0
SEQEND
  8
0
  6
CONTINUOUS
 62
     6
  0
LINE
  8
0
 10
192.924733
 20
113.157779
 30
0.0
 11
192.924733
 21
63.157779
 31
0.0
  0
LINE
  8
0
 10
191.924733
 20
113.157779
 30
0.0
 11
191.924733
 21
63.157779
 31
0.0
  0
LINE
  8
0
 10
202.924733
 20
113.157779
 30
0.0
 11
202.924733
 21
63.157779
 31
0.0
  0
LINE
  8
0
 10
201.924733
 20
113.157779
 30
0.0
 11
201.924733
 21
63.157779
 31
0.0
  0
POLYLINE
  8
0
  6
CONTINUOUS
 62
     6
 66
     1
 10
0.0
 20
0.0
 30
0.0
  0
VERTEX
  8
0
  6
CONTINUOUS
 62
     6
 10
201.913588
 20
63.157779
 30
0.0
 42
0.489988
  0
VERTEX
  8
0
  6
CONTINUOUS
 62
     6
 10
199.485642
 20
64.640504
 30
0.0
  0
VERTEX
  8
0
  6
CONTINUOUS
 62
     6
 10
195.581638
 20
63.157779
 30
0.0
 42
-1.44949
  0
SEQEND
  8
0
  6
CONTINUOUS
 62
     6
  0
LINE
  8
0
 10
191.924733
 20
63.157779
 30
0.0
 11
202.924733
 21
63.157779
 31
0.0
  0
POLYLINE
  8
0
  6
CONTINUOUS
 62
     6
 66
     1
 10
0.0
 20
0.0
 30
0.0
  0
VERTEX
  8
0
  6
CONTINUOUS
 62
     6
 10
195.581638
 20
113.157779
 30
0.0
  0
VERTEX
  8
0
  6
CONTINUOUS
 62
     6
 10
199.485642
 20
111.675055
 30
0.0
 42
0.489988
  0
VERTEX
  8
0
  6
CONTINUOUS
 62
     6
 10
201.913588
 20
113.157779
 30
0.0
  0
SEQEND
  8
0
  6
CONTINUOUS
 62
     6
  0
ENDSEC
  0
EOF
