  0
SECTION
  2
ENTITIES
  0
POLYLINE
  8
0
  6
CONTINUOUS
 62
     6
 66
     1
 10
0.0
 20
0.0
 30
0.0
  0
VERTEX
  8
0
  6
CONTINUOUS
 62
     6
 10
241.722766
 20
125.831485
 30
0.0
 42
0.636532
  0
VERTEX
  8
0
  6
CONTINUOUS
 62
     6
 10
245.102532
 20
122.549442
 30
0.0
  0
VERTEX
  8
0
  6
CONTINUOUS
 62
     6
 10
253.056267
 20
124.810646
 30
0.0
 42
-1.44949
  0
VERTEX
  8
0
  6
CONTINUOUS
 62
     6
 10
253.056267
 20
119.949442
 30
0.0
  0
VERTEX
  8
0
  6
CONTINUOUS
 62
     6
 10
245.102532
 20
122.210646
 30
0.0
 42
1.44949
  0
VERTEX
  8
0
  6
CONTINUOUS
 62
     6
 10
245.102532
 20
117.349442
 30
0.0
  0
VERTEX
  8
0
  6
CONTINUOUS
 62
     6
 10
253.056267
 20
119.610646
 30
0.0
 42
-1.44949
  0
VERTEX
  8
0
  6
CONTINUOUS
 62
     6
 10
253.056267
 20
114.749442
 30
0.0
  0
VERTEX
  8
0
  6
CONTINUOUS
 62
     6
 10
245.102532
 20
117.010646
 30
0.0
 42
1.44949
  0
VERTEX
  8
0
  6
CONTINUOUS
 62
     6
 10
245.102532
 20
112.149442
 30
0.0
  0
VERTEX
  8
0
  6
CONTINUOUS
 62
     6
 10
253.056267
 20
114.410646
 30
0.0
 42
-1.44949
  0
VERTEX
  8
0
  6
CONTINUOUS
 62
     6
 10
253.056267
 20
109.549442
 30
0.0
  0
VERTEX
  8
0
  6
CONTINUOUS
 62
     6
 10
245.102532
 20
111.810646
 30
0.0
 42
1.44949
  0
VERTEX
  8
0
  6
CONTINUOUS
 62
     6
 10
245.102532
 20
106.949442
 30
0.0
  0
VERTEX
  8
0
  6
CONTINUOUS
 62
     6
 10
253.056267
 20
109.210646
 30
0.0
 42
-1.44949
  0
VERTEX
  8
0
  6
CONTINUOUS
 62
     6
 10
253.056267
 20
104.349442
 30
0.0
  0
VERTEX
  8
0
  6
CONTINUOUS
 62
     6
 10
245.102532
 20
106.610646
 30
0.0
 42
1.44949
  0
VERTEX
  8
0
  6
CONTINUOUS
 62
     6
 10
245.102532
 20
101.749442
 30
0.0
  0
VERTEX
  8
0
  6
CONTINUOUS
 62
     6
 10
253.056267
 20
104.010646
 30
0.0
 42
-1.44949
  0
VERTEX
  8
0
  6
CONTINUOUS
 62
     6
 10
253.056267
 20
99.149442
 30
0.0
  0
VERTEX
  8
0
  6
CONTINUOUS
 62
     6
 10
245.102532
 20
101.410646
 30
0.0
 42
1.44949
  0
VERTEX
  8
0
  6
CONTINUOUS
 62
     6
 10
245.102532
 20
96.549442
 30
0.0
  0
VERTEX
  8
0
  6
CONTINUOUS
 62
     6
 10
253.056267
 20
98.810646
 30
0.0
 42
-1.44949
  0
VERTEX
  8
0
  6
CONTINUOUS
 62
     6
 10
253.056267
 20
93.949442
 30
0.0
  0
VERTEX
  8
0
  6
CONTINUOUS
 62
     6
 10
245.102532
 20
96.210646
 30
0.0
 42
1.44949
  0
VERTEX
  8
0
  6
CONTINUOUS
 62
     6
 10
245.102532
 20
91.349442
 30
0.0
  0
VERTEX
  8
0
  6
CONTINUOUS
 62
     6
 10
253.056267
 20
93.610646
 30
0.0
 42
-1.44949
  0
VERTEX
  8
0
  6
CONTINUOUS
 62
     6
 10
253.056267
 20
88.749442
 30
0.0
  0
VERTEX
  8
0
  6
CONTINUOUS
 62
     6
 10
245.102532
 20
91.010646
 30
0.0
 42
1.44949
  0
VERTEX
  8
0
  6
CONTINUOUS
 62
     6
 10
245.102532
 20
86.149442
 30
0.0
  0
VERTEX
  8
0
  6
CONTINUOUS
 62
     6
 10
253.056267
 20
88.410646
 30
0.0
 42
-1.44949
  0
VERTEX
  8
0
  6
CONTINUOUS
 62
     6
 10
253.056267
 20
83.549442
 30
0.0
  0
VERTEX
  8
0
  6
CONTINUOUS
 62
     6
 10
245.102532
 20
85.810646
 30
0.0
 42
1.44949
  0
VERTEX
  8
0
  6
CONTINUOUS
 62
     6
 10
245.102532
 20
80.949442
 30
0.0
  0
VERTEX
  8
0
  6
CONTINUOUS
 62
     6
 10
253.056267
 20
83.210646
 30
0.0
 42
-1.44949
  0
VERTEX
  8
0
  6
CONTINUOUS
 62
     6
 10
253.056267
 20
78.349442
 30
0.0
  0
VERTEX
  8
0
  6
CONTINUOUS
 62
     6
 10
245.102532
 20
80.610646
 30
0.0
 42
0.960565
  0
VERTEX
  8
0
  6
CONTINUOUS
 62
     6
 10
243.06393
 20
75.831485
 30
0.0
  0
SEQEND
  8
0
  6
CONTINUOUS
 62
     6
  0
LINE
  8
0
 10
240.579399
 20
125.831485
 30
0.0
 11
240.579399
 21
75.831485
 31
0.0
  0
LINE
  8
0
 10
241.579399
 20
125.831485
 30
0.0
 11
241.579399
 21
75.831485
 31
0.0
  0
POLYLINE
  8
0
  6
CONTINUOUS
 62
     6
 66
     1
 10
0.0
 20
0.0
 30
0.0
  0
VERTEX
  8
0
  6
CONTINUOUS
 62
     6
 10
245.318551
 20
75.831485
 30
0.0
  0
VERTEX
  8
0
  6
CONTINUOUS
 62
     6
 10
253.056267
 20
78.010646
 30
0.0
 42
-0.494486
  0
VERTEX
  8
0
  6
CONTINUOUS
 62
     6
 10
256.567212
 20
75.831485
 30
0.0
  0
SEQEND
  8
0
  6
CONTINUOUS
 62
     6
  0
LINE
  8
0
 10
240.579399
 20
75.831485
 30
0.0
 11
257.579399
 21
75.831485
 31
0.0
  0
POLYLINE
  8
0
  6
CONTINUOUS
 62
     6
 66
     1
 10
0.0
 20
0.0
 30
0.0
  0
VERTEX
  8
0
  6
CONTINUOUS
 62
     6
 10
255.903598
 20
125.831485
 30
0.0
 42
-0.308283
  0
VERTEX
  8
0
  6
CONTINUOUS
 62
     6
 10
253.056267
 20
125.149442
 30
0.0
  0
VERTEX
  8
0
  6
CONTINUOUS
 62
     6
 10
249.260452
 20
125.831485
 30
0.0
 42
1.013103
  0
SEQEND
  8
0
  6
CONTINUOUS
 62
     6
  0
LINE
  8
0
 10
257.579399
 20
125.831485
 30
0.0
 11
257.579399
 21
75.831485
 31
0.0
  0
LINE
  8
0
 10
256.579399
 20
125.831485
 30
0.0
 11
256.579399
 21
75.831485
 31
0.0
  0
ENDSEC
  0
EOF
