0
SECTION
2
ENTITIES
0
LINE
8
0
10
0.000000
20
0.000000
30
0.0
11
2.000000
21
0.000000
31
0.0
0
LINE
8
0
10
2.000000
20
0.000000
30
0.0
11
2.000000
21
40.000000
31
0.0
0
LINE
8
0
10
2.000000
20
40.000000
30
0.0
11
0.000000
21
40.000000
31
0.0
0
LINE
8
0
10
0.000000
20
40.000000
30
0.0
11
0.000000
21
0.000000
31
0.0
0
ATTDEF
8
0
10
2.000000
20
40.000000
30
0.0
40
3.5
1

3

2
FP_LCS_ORIG
70
0
0
ATTDEF
8
0
10
-8.000000
20
40.000000
30
0.0
40
3.5
1

3

2
FP_LCS_HOT
70
0
0
ATTDEF
8
0
10
2.000000
20
30.000000
30
0.0
40
3.5
1

3

2
FP_LCS_INTERN
70
0
0
ENDSEC
0
EOF
