  0
SECTION
  2
ENTITIES
  0
POLYLINE
  8
0
  6
CONTINUOUS
 62
     6
 66
     1
 10
0.0
 20
0.0
 30
0.0
  0
VERTEX
  8
0
  6
CONTINUOUS
 62
     6
 10
95.871331
 20
75.831485
 30
0.0
 42
-0.860016
  0
VERTEX
  8
0
  6
CONTINUOUS
 62
     6
 10
102.279148
 20
87.201475
 30
0.0
  0
VERTEX
  8
0
  6
CONTINUOUS
 62
     6
 10
117.392475
 20
81.461496
 30
0.0
 42
1.44949
  0
VERTEX
  8
0
  6
CONTINUOUS
 62
     6
 10
117.392475
 20
93.801475
 30
0.0
  0
VERTEX
  8
0
  6
CONTINUOUS
 62
     6
 10
102.279148
 20
88.061496
 30
0.0
 42
-1.44949
  0
VERTEX
  8
0
  6
CONTINUOUS
 62
     6
 10
102.279148
 20
100.401475
 30
0.0
  0
VERTEX
  8
0
  6
CONTINUOUS
 62
     6
 10
117.392475
 20
94.661496
 30
0.0
 42
1.44949
  0
VERTEX
  8
0
  6
CONTINUOUS
 62
     6
 10
117.392475
 20
107.001475
 30
0.0
  0
VERTEX
  8
0
  6
CONTINUOUS
 62
     6
 10
102.279148
 20
101.261496
 30
0.0
 42
-1.44949
  0
VERTEX
  8
0
  6
CONTINUOUS
 62
     6
 10
102.279148
 20
113.601475
 30
0.0
  0
VERTEX
  8
0
  6
CONTINUOUS
 62
     6
 10
117.392475
 20
107.861496
 30
0.0
 42
1.44949
  0
VERTEX
  8
0
  6
CONTINUOUS
 62
     6
 10
117.392475
 20
120.201475
 30
0.0
  0
VERTEX
  8
0
  6
CONTINUOUS
 62
     6
 10
102.279148
 20
114.461496
 30
0.0
 42
-0.860016
  0
VERTEX
  8
0
  6
CONTINUOUS
 62
     6
 10
95.871331
 20
125.831485
 30
0.0
  0
SEQEND
  8
0
  6
CONTINUOUS
 62
     6
  0
LINE
  8
0
 10
126.335812
 20
125.831485
 30
0.0
 11
126.335812
 21
75.831485
 31
0.0
  0
LINE
  8
0
 10
93.335812
 20
125.831485
 30
0.0
 11
93.335812
 21
75.831485
 31
0.0
  0
LINE
  8
0
 10
92.335812
 20
125.831485
 30
0.0
 11
92.335812
 21
75.831485
 31
0.0
  0
LINE
  8
0
 10
127.335812
 20
125.831485
 30
0.0
 11
127.335812
 21
75.831485
 31
0.0
  0
POLYLINE
  8
0
  6
CONTINUOUS
 62
     6
 66
     1
 10
0.0
 20
0.0
 30
0.0
  0
VERTEX
  8
0
  6
CONTINUOUS
 62
     6
 10
126.185618
 20
75.831485
 30
0.0
 42
0.458627
  0
VERTEX
  8
0
  6
CONTINUOUS
 62
     6
 10
117.392475
 20
80.601475
 30
0.0
  0
VERTEX
  8
0
  6
CONTINUOUS
 62
     6
 10
104.833125
 20
75.831485
 30
0.0
 42
-1.44949
  0
SEQEND
  8
0
  6
CONTINUOUS
 62
     6
  0
LINE
  8
0
 10
127.335812
 20
75.831485
 30
0.0
 11
92.335812
 21
75.831485
 31
0.0
  0
POLYLINE
  8
0
  6
CONTINUOUS
 62
     6
 66
     1
 10
0.0
 20
0.0
 30
0.0
  0
VERTEX
  8
0
  6
CONTINUOUS
 62
     6
 10
104.833125
 20
125.831485
 30
0.0
  0
VERTEX
  8
0
  6
CONTINUOUS
 62
     6
 10
117.392475
 20
121.061496
 30
0.0
 42
0.458627
  0
VERTEX
  8
0
  6
CONTINUOUS
 62
     6
 10
126.185618
 20
125.831485
 30
0.0
  0
SEQEND
  8
0
  6
CONTINUOUS
 62
     6
  0
ENDSEC
  0
EOF
