0
SECTION
2
ENTITIES
0
LINE
8
0
10
0.000000
20
100.000000
30
0.0
11
0.000000
21
0.000000
31
0.0
0
LINE
8
0
10
0.000000
20
0.000000
30
0.0
11
2.000000
21
0.000000
31
0.0
0
LINE
8
0
10
2.000000
20
0.000000
30
0.0
11
2.000000
21
100.000000
31
0.0
0
LINE
8
0
10
2.000000
20
0.000000
30
0.0
11
38.000000
21
0.000000
31
0.0
0
LINE
8
0
10
38.000000
20
100.000000
30
0.0
11
38.000000
21
0.000000
31
0.0
0
LINE
8
0
10
38.000000
20
0.000000
30
0.0
11
40.000000
21
0.000000
31
0.0
0
LINE
8
0
10
40.000000
20
0.000000
30
0.0
11
40.000000
21
100.000000
31
0.0
0
ARC
8
0
10
8.250000
20
0.000000
30
0.0
40
6.250000
50
75.019103
51
180.000000
0
LINE
8
0
10
9.865606
20
6.037575
30
0.0
11
30.134394
21
0.212425
31
0.0
0
ARC
8
0
10
31.750000
20
6.250000
30
0.0
40
6.250000
50
255.019103
51
104.980897
0
LINE
8
0
10
30.134394
20
12.287575
30
0.0
11
9.865606
21
6.462425
31
0.0
0
ARC
8
0
10
8.250000
20
12.500000
30
0.0
40
6.250000
50
180.000000
51
284.980897
0
ARC
8
0
10
8.250000
20
25.000000
30
0.0
40
6.250000
50
180.000000
51
284.980897
0
LINE
8
0
10
30.134394
20
24.787575
30
0.0
11
9.865606
21
18.962425
31
0.0
0
ARC
8
0
10
31.750000
20
18.750000
30
0.0
40
6.250000
50
255.019103
51
104.980897
0
LINE
8
0
10
9.865606
20
18.537575
30
0.0
11
30.134394
21
12.712425
31
0.0
0
ARC
8
0
10
8.250000
20
12.500000
30
0.0
40
6.250000
50
75.019103
51
180.000000
0
ARC
8
0
10
8.250000
20
37.500000
30
0.0
40
6.250000
50
180.000000
51
284.980897
0
LINE
8
0
10
30.134394
20
37.287575
30
0.0
11
9.865606
21
31.462425
31
0.0
0
ARC
8
0
10
31.750000
20
31.250000
30
0.0
40
6.250000
50
255.019103
51
104.980897
0
LINE
8
0
10
9.865606
20
31.037575
30
0.0
11
30.134394
21
25.212425
31
0.0
0
ARC
8
0
10
8.250000
20
25.000000
30
0.0
40
6.250000
50
75.019103
51
180.000000
0
ARC
8
0
10
8.250000
20
50.000000
30
0.0
40
6.250000
50
180.000000
51
284.980897
0
LINE
8
0
10
30.134394
20
49.787575
30
0.0
11
9.865606
21
43.962425
31
0.0
0
ARC
8
0
10
31.750000
20
43.750000
30
0.0
40
6.250000
50
255.019103
51
104.980897
0
LINE
8
0
10
9.865606
20
43.537575
30
0.0
11
30.134394
21
37.712425
31
0.0
0
ARC
8
0
10
8.250000
20
37.500000
30
0.0
40
6.250000
50
75.019103
51
180.000000
0
ARC
8
0
10
8.250000
20
62.500000
30
0.0
40
6.250000
50
180.000000
51
284.980897
0
LINE
8
0
10
30.134394
20
62.287575
30
0.0
11
9.865606
21
56.462425
31
0.0
0
ARC
8
0
10
31.750000
20
56.250000
30
0.0
40
6.250000
50
255.019103
51
104.980897
0
LINE
8
0
10
9.865606
20
56.037575
30
0.0
11
30.134394
21
50.212425
31
0.0
0
ARC
8
0
10
8.250000
20
50.000000
30
0.0
40
6.250000
50
75.019103
51
180.000000
0
ARC
8
0
10
8.250000
20
75.000000
30
0.0
40
6.250000
50
180.000000
51
284.980897
0
LINE
8
0
10
30.134394
20
74.787575
30
0.0
11
9.865606
21
68.962425
31
0.0
0
ARC
8
0
10
31.750000
20
68.750000
30
0.0
40
6.250000
50
255.019103
51
104.980897
0
LINE
8
0
10
9.865606
20
68.537575
30
0.0
11
30.134394
21
62.712425
31
0.0
0
ARC
8
0
10
8.250000
20
62.500000
30
0.0
40
6.250000
50
75.019103
51
180.000000
0
ARC
8
0
10
8.250000
20
87.500000
30
0.0
40
6.250000
50
180.000000
51
284.980897
0
LINE
8
0
10
30.134394
20
87.287575
30
0.0
11
9.865606
21
81.462425
31
0.0
0
ARC
8
0
10
31.750000
20
81.250000
30
0.0
40
6.250000
50
255.019103
51
104.980897
0
LINE
8
0
10
9.865606
20
81.037575
30
0.0
11
30.134394
21
75.212425
31
0.0
0
ARC
8
0
10
8.250000
20
75.000000
30
0.0
40
6.250000
50
75.019103
51
180.000000
0
ARC
8
0
10
8.250000
20
100.000000
30
0.0
40
6.250000
50
180.000000
51
284.980897
0
LINE
8
0
10
30.134394
20
99.787575
30
0.0
11
9.865606
21
93.962425
31
0.0
0
ARC
8
0
10
31.750000
20
93.750000
30
0.0
40
6.250000
50
255.019103
51
104.980897
0
LINE
8
0
10
9.865606
20
93.537575
30
0.0
11
30.134394
21
87.712425
31
0.0
0
ARC
8
0
10
8.250000
20
87.500000
30
0.0
40
6.250000
50
75.019103
51
180.000000
0
ENDSEC
0
EOF
