  0
SECTION
  2
ENTITIES
  0
POLYLINE
  8
0
  6
CONTINUOUS
 62
     6
 66
     1
 10
0.0
 20
0.0
 30
0.0
  0
VERTEX
  8
0
  6
CONTINUOUS
 62
     6
 10
69.978998
 20
40.049407
 30
0.0
 42
-0.694975
  0
VERTEX
  8
0
  6
CONTINUOUS
 62
     6
 10
81.338475
 20
53.025295
 30
0.0
  0
VERTEX
  8
0
  6
CONTINUOUS
 62
     6
 10
102.405536
 20
45.024112
 30
0.0
 42
1.44949
  0
VERTEX
  8
0
  6
CONTINUOUS
 62
     6
 10
102.405536
 20
62.225295
 30
0.0
  0
VERTEX
  8
0
  6
CONTINUOUS
 62
     6
 10
81.338475
 20
54.224112
 30
0.0
 42
-1.44949
  0
VERTEX
  8
0
  6
CONTINUOUS
 62
     6
 10
81.338475
 20
71.425295
 30
0.0
  0
VERTEX
  8
0
  6
CONTINUOUS
 62
     6
 10
102.405536
 20
63.424112
 30
0.0
 42
1.44949
  0
VERTEX
  8
0
  6
CONTINUOUS
 62
     6
 10
102.405536
 20
80.625295
 30
0.0
  0
VERTEX
  8
0
  6
CONTINUOUS
 62
     6
 10
81.338475
 20
72.624112
 30
0.0
 42
-1.44949
  0
VERTEX
  8
0
  6
CONTINUOUS
 62
     6
 10
81.338475
 20
89.825295
 30
0.0
  0
VERTEX
  8
0
  6
CONTINUOUS
 62
     6
 10
102.405536
 20
81.824112
 30
0.0
 42
0.512049
  0
VERTEX
  8
0
  6
CONTINUOUS
 62
     6
 10
114.864349
 20
90.049407
 30
0.0
  0
SEQEND
  8
0
  6
CONTINUOUS
 62
     6
  0
LINE
  8
0
 10
66.872006
 20
40.049407
 30
0.0
 11
116.872006
 21
40.049407
 31
0.0
  0
LINE
  8
0
 10
68.872006
 20
80.38797
 30
0.0
 11
82.815002
 21
90.049407
 31
0.0
  0
LINE
  8
0
 10
68.872006
 20
69.340595
 30
0.0
 11
70.872006
 21
69.340595
 31
0.0
  0
LINE
  8
0
 10
66.872006
 20
90.049407
 30
0.0
 11
66.872006
 21
40.049407
 31
0.0
  0
LINE
  8
0
 10
68.872006
 20
90.049407
 30
0.0
 11
68.872006
 21
40.049407
 31
0.0
  0
LINE
  8
0
 10
70.872006
 20
79.340595
 30
0.0
 11
86.326532
 21
90.049407
 31
0.0
  0
LINE
  8
0
 10
70.872006
 20
79.340595
 30
0.0
 11
70.872006
 21
69.340595
 31
0.0
  0
POLYLINE
  8
0
  6
CONTINUOUS
 62
     6
 66
     1
 10
0.0
 20
0.0
 30
0.0
  0
VERTEX
  8
0
  6
CONTINUOUS
 62
     6
 10
113.505411
 20
40.049407
 30
0.0
 42
0.35986
  0
VERTEX
  8
0
  6
CONTINUOUS
 62
     6
 10
102.405536
 20
43.825295
 30
0.0
  0
VERTEX
  8
0
  6
CONTINUOUS
 62
     6
 10
92.463649
 20
40.049407
 30
0.0
 42
-1.44949
  0
SEQEND
  8
0
  6
CONTINUOUS
 62
     6
  0
LINE
  8
0
 10
116.872006
 20
90.049407
 30
0.0
 11
116.872006
 21
40.049407
 31
0.0
  0
LINE
  8
0
 10
114.872006
 20
90.049407
 30
0.0
 11
114.872006
 21
40.049407
 31
0.0
  0
ENDSEC
  0
EOF
