0
SECTION
2
ENTITIES
0
LINE
8
0
10
203.727136
20
292.506337
30
0.0
11
186.747340
21
290.766949
31
0.0
0
ARC
8
0
10
185.327137
20
294.506341
30
0.0
40
4.000003
50
210.000036
51
290.796532
0
ARC
8
0
10
222.127136
20
194.506337
30
0.0
40
4.000000
50
330.000005
51
110.796577
0
LINE
8
0
10
220.706932
20
198.245724
30
0.0
11
186.747340
21
194.766949
31
0.0
0
ARC
8
0
10
185.327135
20
198.506336
30
0.0
40
4.000000
50
69.203419
51
290.796581
0
LINE
8
0
10
186.747340
20
202.245724
30
0.0
11
220.706932
21
198.766949
31
0.0
0
ARC
8
0
10
222.127137
20
202.506336
30
0.0
40
4.000000
50
249.203419
51
110.796581
0
LINE
8
0
10
220.706932
20
206.245724
30
0.0
11
186.747340
21
202.766949
31
0.0
0
ARC
8
0
10
185.327135
20
206.506336
30
0.0
40
4.000000
50
69.203419
51
290.796581
0
LINE
8
0
10
186.747340
20
210.245724
30
0.0
11
220.706932
21
206.766949
31
0.0
0
ARC
8
0
10
222.127137
20
210.506336
30
0.0
40
4.000000
50
249.203419
51
110.796581
0
LINE
8
0
10
220.706932
20
214.245724
30
0.0
11
186.747340
21
210.766949
31
0.0
0
ARC
8
0
10
185.327135
20
214.506336
30
0.0
40
4.000000
50
69.203419
51
290.796581
0
LINE
8
0
10
186.747340
20
218.245724
30
0.0
11
220.706932
21
214.766949
31
0.0
0
ARC
8
0
10
222.127137
20
218.506336
30
0.0
40
4.000000
50
249.203419
51
110.796581
0
LINE
8
0
10
220.706932
20
222.245724
30
0.0
11
186.747340
21
218.766949
31
0.0
0
ARC
8
0
10
185.327135
20
222.506336
30
0.0
40
4.000000
50
69.203419
51
290.796581
0
LINE
8
0
10
186.747340
20
226.245724
30
0.0
11
220.706932
21
222.766949
31
0.0
0
ARC
8
0
10
222.127137
20
226.506336
30
0.0
40
4.000000
50
249.203419
51
110.796581
0
LINE
8
0
10
220.706932
20
230.245724
30
0.0
11
186.747340
21
226.766949
31
0.0
0
ARC
8
0
10
185.327135
20
230.506336
30
0.0
40
4.000000
50
69.203419
51
290.796581
0
LINE
8
0
10
186.747340
20
234.245724
30
0.0
11
220.706932
21
230.766949
31
0.0
0
ARC
8
0
10
222.127137
20
234.506336
30
0.0
40
4.000000
50
249.203419
51
110.796581
0
LINE
8
0
10
220.706932
20
238.245724
30
0.0
11
186.747340
21
234.766949
31
0.0
0
ARC
8
0
10
185.327135
20
238.506336
30
0.0
40
4.000000
50
69.203419
51
290.796581
0
LINE
8
0
10
186.747340
20
242.245724
30
0.0
11
220.706932
21
238.766949
31
0.0
0
ARC
8
0
10
222.127137
20
242.506336
30
0.0
40
4.000000
50
249.203419
51
110.796581
0
LINE
8
0
10
220.706932
20
246.245724
30
0.0
11
186.747340
21
242.766949
31
0.0
0
ARC
8
0
10
185.327135
20
246.506336
30
0.0
40
4.000000
50
69.203419
51
290.796581
0
LINE
8
0
10
186.747340
20
250.245724
30
0.0
11
220.706932
21
246.766949
31
0.0
0
ARC
8
0
10
222.127137
20
250.506336
30
0.0
40
4.000000
50
249.203419
51
110.796581
0
LINE
8
0
10
220.706932
20
254.245724
30
0.0
11
186.747340
21
250.766949
31
0.0
0
ARC
8
0
10
185.327135
20
254.506336
30
0.0
40
4.000000
50
69.203419
51
290.796581
0
LINE
8
0
10
186.747340
20
258.245724
30
0.0
11
220.706932
21
254.766949
31
0.0
0
ARC
8
0
10
222.127137
20
258.506336
30
0.0
40
4.000000
50
249.203419
51
110.796581
0
LINE
8
0
10
220.706932
20
262.245724
30
0.0
11
186.747340
21
258.766949
31
0.0
0
ARC
8
0
10
185.327135
20
262.506336
30
0.0
40
4.000000
50
69.203419
51
290.796581
0
LINE
8
0
10
186.747340
20
266.245724
30
0.0
11
220.706932
21
262.766949
31
0.0
0
ARC
8
0
10
222.127137
20
266.506336
30
0.0
40
4.000000
50
249.203419
51
110.796581
0
LINE
8
0
10
220.706932
20
270.245724
30
0.0
11
186.747340
21
266.766949
31
0.0
0
ARC
8
0
10
185.327135
20
270.506336
30
0.0
40
4.000000
50
69.203419
51
290.796581
0
LINE
8
0
10
186.747340
20
274.245724
30
0.0
11
220.706932
21
270.766949
31
0.0
0
ARC
8
0
10
222.127137
20
274.506336
30
0.0
40
4.000000
50
249.203419
51
110.796581
0
LINE
8
0
10
220.706932
20
278.245724
30
0.0
11
186.747340
21
274.766949
31
0.0
0
ARC
8
0
10
185.327135
20
278.506336
30
0.0
40
4.000000
50
69.203419
51
290.796581
0
LINE
8
0
10
186.747340
20
282.245724
30
0.0
11
220.706932
21
278.766949
31
0.0
0
ARC
8
0
10
222.127137
20
282.506336
30
0.0
40
4.000000
50
249.203419
51
110.796581
0
LINE
8
0
10
220.706932
20
286.245724
30
0.0
11
186.747340
21
282.766949
31
0.0
0
ARC
8
0
10
185.327135
20
286.506336
30
0.0
40
4.000000
50
69.203419
51
290.796581
0
LINE
8
0
10
186.747340
20
290.245724
30
0.0
11
220.706932
21
286.766949
31
0.0
0
ARC
8
0
10
222.127136
20
290.506337
30
0.0
40
4.000000
50
249.203428
51
30.000000
0
ARC
8
0
10
185.327137
20
190.506333
30
0.0
40
4.000003
50
69.203458
51
149.999954
0
LINE
8
0
10
186.747340
20
194.245724
30
0.0
11
203.727136
21
192.506337
31
0.0
0
LINE
8
0
10
180.327136
20
192.506337
30
0.0
11
227.127136
21
192.506337
31
0.0
0
LINE
8
0
10
146.827136
20
142.506337
30
0.0
11
141.827136
21
147.506337
31
0.0
0
LINE
8
0
10
154.827136
20
142.506337
30
0.0
11
154.827136
21
170.506337
31
0.0
0
LINE
8
0
10
146.827136
20
142.506337
30
0.0
11
154.827136
21
142.506337
31
0.0
0
LINE
8
0
10
147.023535
20
235.558392
30
0.0
11
146.883224
21
236.764508
31
0.0
0
LINE
8
0
10
145.893960
20
235.734094
30
0.0
11
146.883144
21
236.765036
31
0.0
0
LINE
8
0
10
171.827136
20
162.506337
30
0.0
11
171.827136
21
292.506337
31
0.0
0
LINE
8
0
10
141.827136
20
147.506337
30
0.0
11
141.827136
21
292.506337
31
0.0
0
LINE
8
0
10
181.327136
20
192.506337
30
0.0
11
181.327136
21
292.506337
31
0.0
0
LINE
8
0
10
180.327136
20
192.506337
30
0.0
11
180.327136
21
292.506337
31
0.0
0
LINE
8
0
10
165.628717
20
190.036105
30
0.0
11
165.488405
21
191.242221
31
0.0
0
LINE
8
0
10
164.499149
20
190.211710
30
0.0
11
165.488332
21
191.242652
31
0.0
0
LINE
8
0
10
166.183224
20
175.737583
30
0.0
11
167.312720
21
175.562404
31
0.0
0
LINE
8
0
10
166.182894
20
175.738287
30
0.0
11
167.172078
21
176.769229
31
0.0
0
LINE
8
0
10
166.921810
20
163.970864
30
0.0
11
167.680911
21
163.904452
31
0.0
0
LINE
8
0
10
166.921886
20
163.971009
30
0.0
11
167.534141
21
164.700666
31
0.0
0
LINE
8
0
10
158.827136
20
162.506337
30
0.0
11
171.827136
21
162.506337
31
0.0
0
LINE
8
0
10
158.827136
20
162.506337
30
0.0
11
158.827136
21
170.506337
31
0.0
0
LINE
8
0
10
142.116543
20
156.741592
30
0.0
11
141.969705
21
157.537663
31
0.0
0
LINE
8
0
10
143.878610
20
147.188744
30
0.0
11
143.731771
21
147.984814
31
0.0
0
LINE
8
0
10
143.118480
20
147.256056
30
0.0
11
143.877580
21
147.189644
31
0.0
0
LINE
8
0
10
143.572036
20
150.820159
30
0.0
11
143.431724
21
152.026274
31
0.0
0
LINE
8
0
10
142.442480
20
150.995675
30
0.0
11
143.431664
21
152.026617
31
0.0
0
LINE
8
0
10
142.442763
20
150.995071
30
0.0
11
143.572260
21
150.819892
31
0.0
0
LINE
8
0
10
143.118527
20
147.256187
30
0.0
11
143.730783
21
147.985845
31
0.0
0
LINE
8
0
10
141.827136
20
156.767699
30
0.0
11
142.115439
21
156.742476
31
0.0
0
LINE
8
0
10
145.691293
20
152.953102
30
0.0
11
145.948802
21
153.720552
31
0.0
0
LINE
8
0
10
145.059427
20
153.379164
30
0.0
11
145.691153
21
152.953059
31
0.0
0
LINE
8
0
10
145.059206
20
153.379516
30
0.0
11
145.948442
21
153.720861
31
0.0
0
LINE
8
0
10
151.225735
20
155.944578
30
0.0
11
151.078896
21
156.740649
31
0.0
0
LINE
8
0
10
150.465543
20
156.011936
30
0.0
11
151.224643
21
155.945524
31
0.0
0
LINE
8
0
10
150.465590
20
156.012075
30
0.0
11
151.077845
21
156.741733
31
0.0
0
LINE
8
0
10
141.827136
20
157.370083
30
0.0
11
141.968611
21
157.538687
31
0.0
0
LINE
8
0
10
141.827136
20
165.302810
30
0.0
11
141.888536
21
165.293287
31
0.0
0
LINE
8
0
10
141.888293
20
165.293550
30
0.0
11
141.827136
21
165.819256
31
0.0
0
LINE
8
0
10
148.781403
20
162.162500
30
0.0
11
149.038913
21
162.929950
31
0.0
0
LINE
8
0
10
148.149286
20
162.588937
30
0.0
11
149.038522
21
162.930283
31
0.0
0
LINE
8
0
10
148.149528
20
162.588562
30
0.0
11
148.781255
21
162.162457
31
0.0
0
LINE
8
0
10
149.463669
20
165.497427
30
0.0
11
149.316830
21
166.293497
31
0.0
0
LINE
8
0
10
148.703402
20
165.564769
30
0.0
11
149.462502
21
165.498356
31
0.0
0
LINE
8
0
10
148.703419
20
165.564917
30
0.0
11
149.315674
21
166.294575
31
0.0
0
LINE
8
0
10
153.272007
20
147.839847
30
0.0
11
153.529517
21
148.607297
31
0.0
0
LINE
8
0
10
152.640146
20
148.265904
30
0.0
11
153.271873
21
147.839799
31
0.0
0
LINE
8
0
10
152.639950
20
148.266240
30
0.0
11
153.529185
21
148.607585
31
0.0
0
LINE
8
0
10
152.987802
20
146.391730
30
0.0
11
152.840963
21
147.187800
31
0.0
0
LINE
8
0
10
152.227684
20
146.459104
30
0.0
11
152.986785
21
146.392692
31
0.0
0
LINE
8
0
10
152.227761
20
146.459233
30
0.0
11
152.840016
21
147.188890
31
0.0
0
LINE
8
0
10
158.827136
20
166.680123
30
0.0
11
159.452076
21
166.258595
31
0.0
0
LINE
8
0
10
158.827136
20
166.687780
30
0.0
11
159.709346
21
167.026428
31
0.0
0
LINE
8
0
10
154.312994
20
163.366327
30
0.0
11
154.827136
21
163.286586
31
0.0
0
LINE
8
0
10
154.312687
20
163.366981
30
0.0
11
154.827136
21
163.903147
31
0.0
0
LINE
8
0
10
159.452228
20
166.258643
30
0.0
11
159.709737
21
167.026093
31
0.0
0
LINE
8
0
10
151.239630
20
171.797960
30
0.0
11
151.871356
21
171.371855
31
0.0
0
LINE
8
0
10
151.239367
20
171.798359
30
0.0
11
152.128602
21
172.139704
31
0.0
0
LINE
8
0
10
143.658910
20
176.911220
30
0.0
11
144.290637
21
176.485115
31
0.0
0
LINE
8
0
10
143.658623
20
176.911635
30
0.0
11
144.547858
21
177.252980
31
0.0
0
LINE
8
0
10
144.290799
20
176.485154
30
0.0
11
144.548308
21
177.252603
31
0.0
0
LINE
8
0
10
147.701602
20
175.050275
30
0.0
11
147.554763
21
175.846346
31
0.0
0
LINE
8
0
10
146.941260
20
175.117601
30
0.0
11
147.700361
21
175.051188
31
0.0
0
LINE
8
0
10
146.941248
20
175.117760
30
0.0
11
147.553503
21
175.847417
31
0.0
0
LINE
8
0
10
145.939535
20
184.603124
30
0.0
11
145.792696
21
185.399195
31
0.0
0
LINE
8
0
10
145.179119
20
184.670433
30
0.0
11
145.938219
21
184.604020
31
0.0
0
LINE
8
0
10
145.179077
20
184.670602
30
0.0
11
145.791332
21
185.400259
31
0.0
0
LINE
8
0
10
147.380910
20
185.694552
30
0.0
11
147.638419
21
186.462002
31
0.0
0
LINE
8
0
10
146.749012
20
186.120618
30
0.0
11
147.380738
21
185.694513
31
0.0
0
LINE
8
0
10
146.748703
20
186.121056
30
0.0
11
147.637938
21
186.462402
31
0.0
0
LINE
8
0
10
154.827136
20
170.506337
30
0.0
11
158.827136
21
170.506337
31
0.0
0
LINE
8
0
10
151.871514
20
171.371898
30
0.0
11
152.129023
21
172.139348
31
0.0
0
LINE
8
0
10
152.629270
20
177.839721
30
0.0
11
153.758766
21
177.664543
31
0.0
0
LINE
8
0
10
153.758505
20
177.664828
30
0.0
11
153.618193
21
178.870943
31
0.0
0
LINE
8
0
10
152.628942
20
177.840404
30
0.0
11
153.618126
21
178.871346
31
0.0
0
LINE
8
0
10
156.810794
20
174.253261
30
0.0
11
156.663955
21
175.049332
31
0.0
0
LINE
8
0
10
156.050465
20
174.320649
30
0.0
11
156.809565
21
174.254236
31
0.0
0
LINE
8
0
10
156.050481
20
174.320805
30
0.0
11
156.662736
21
175.050463
31
0.0
0
LINE
8
0
10
165.919986
20
173.456247
30
0.0
11
165.773147
21
174.252318
31
0.0
0
LINE
8
0
10
165.159714
20
173.523851
30
0.0
11
165.771970
21
174.253508
31
0.0
0
LINE
8
0
10
165.159669
20
173.523696
30
0.0
11
165.918769
21
173.457284
31
0.0
0
LINE
8
0
10
162.542338
20
175.468041
30
0.0
11
162.799847
21
176.235491
31
0.0
0
LINE
8
0
10
161.910451
20
175.894099
30
0.0
11
162.542177
21
175.467994
31
0.0
0
LINE
8
0
10
161.910191
20
175.894505
30
0.0
11
162.799426
21
176.235850
31
0.0
0
LINE
8
0
10
154.961624
20
180.581296
30
0.0
11
155.219133
21
181.348746
31
0.0
0
LINE
8
0
10
154.329731
20
181.007359
30
0.0
11
154.961458
21
180.581254
31
0.0
0
LINE
8
0
10
154.329447
20
181.007780
30
0.0
11
155.218682
21
181.349126
31
0.0
0
LINE
8
0
10
155.048727
20
183.806110
30
0.0
11
154.901888
21
184.602180
31
0.0
0
LINE
8
0
10
154.288323
20
183.873481
30
0.0
11
155.047424
21
183.807068
31
0.0
0
LINE
8
0
10
154.288310
20
183.873648
30
0.0
11
154.900565
21
184.603305
31
0.0
0
LINE
8
0
10
158.051734
20
189.790695
30
0.0
11
158.309243
21
190.558145
31
0.0
0
LINE
8
0
10
157.419832
20
190.216757
30
0.0
11
158.051559
21
189.790652
31
0.0
0
LINE
8
0
10
157.419527
20
190.217202
30
0.0
11
158.308763
21
190.558548
31
0.0
0
LINE
8
0
10
165.632448
20
184.677439
30
0.0
11
165.889958
21
185.444889
31
0.0
0
LINE
8
0
10
165.000552
20
185.103497
30
0.0
11
165.632279
21
184.677392
31
0.0
0
LINE
8
0
10
165.000271
20
185.103926
30
0.0
11
165.889507
21
185.445272
31
0.0
0
LINE
8
0
10
164.157919
20
183.009095
30
0.0
11
164.011080
21
183.805166
31
0.0
0
LINE
8
0
10
163.397528
20
183.076529
30
0.0
11
164.156628
21
183.010116
31
0.0
0
LINE
8
0
10
163.397543
20
183.076693
30
0.0
11
164.009799
21
183.806351
31
0.0
0
LINE
8
0
10
164.499500
20
190.210977
30
0.0
11
165.628997
21
190.035799
31
0.0
0
LINE
8
0
10
167.682052
20
163.903398
30
0.0
11
167.535213
21
164.699469
31
0.0
0
LINE
8
0
10
170.123052
20
170.354786
30
0.0
11
170.380562
21
171.122236
31
0.0
0
LINE
8
0
10
169.491170
20
170.780839
30
0.0
11
170.122897
21
170.354734
31
0.0
0
LINE
8
0
10
169.490935
20
170.781229
30
0.0
11
170.380170
21
171.122574
31
0.0
0
LINE
8
0
10
167.312459
20
175.562714
30
0.0
11
167.172147
21
176.768830
31
0.0
0
LINE
8
0
10
166.690137
20
217.844952
30
0.0
11
167.321863
21
217.418847
31
0.0
0
LINE
8
0
10
166.689768
20
217.845467
30
0.0
11
167.579003
21
218.186812
31
0.0
0
LINE
8
0
10
156.651240
20
213.322746
30
0.0
11
156.908749
21
214.090196
31
0.0
0
LINE
8
0
10
156.018944
20
213.749321
30
0.0
11
156.908179
21
214.090667
31
0.0
0
LINE
8
0
10
150.945546
20
192.313116
30
0.0
11
152.075043
21
192.137938
31
0.0
0
LINE
8
0
10
150.945196
20
192.313826
30
0.0
11
151.934380
21
193.344768
31
0.0
0
LINE
8
0
10
143.416978
20
194.223265
30
0.0
11
144.176078
21
194.156852
31
0.0
0
LINE
8
0
10
143.416905
20
194.223444
30
0.0
11
144.029161
21
194.953102
31
0.0
0
LINE
8
0
10
142.890305
20
200.017205
30
0.0
11
143.147815
21
200.784655
31
0.0
0
LINE
8
0
10
142.258393
20
200.443277
30
0.0
11
142.890120
21
200.017172
31
0.0
0
LINE
8
0
10
142.258039
20
200.443754
30
0.0
11
143.147275
21
200.785099
31
0.0
0
LINE
8
0
10
144.177468
20
194.155973
30
0.0
11
144.030629
21
194.952043
31
0.0
0
LINE
8
0
10
150.471020
20
194.903950
30
0.0
11
150.728529
21
195.671400
31
0.0
0
LINE
8
0
10
149.839113
20
195.330017
30
0.0
11
150.470840
21
194.903912
31
0.0
0
LINE
8
0
10
149.838783
20
195.330478
30
0.0
11
150.728019
21
195.671823
31
0.0
0
LINE
8
0
10
142.415401
20
203.708821
30
0.0
11
142.268562
21
204.504892
31
0.0
0
LINE
8
0
10
141.827136
20
203.761023
30
0.0
11
142.413937
21
203.709684
31
0.0
0
LINE
8
0
10
141.827136
20
203.981747
30
0.0
11
142.266990
21
204.505944
31
0.0
0
LINE
8
0
10
149.261823
20
206.786511
30
0.0
11
150.391319
21
206.611332
31
0.0
0
LINE
8
0
10
150.391020
20
206.611610
30
0.0
11
150.250708
21
207.817726
31
0.0
0
LINE
8
0
10
149.261451
20
206.787249
30
0.0
11
150.250635
21
207.818191
31
0.0
0
LINE
8
0
10
151.524593
20
202.911807
30
0.0
11
151.377754
21
203.707878
31
0.0
0
LINE
8
0
10
150.764041
20
202.979145
30
0.0
11
151.523141
21
202.912732
31
0.0
0
LINE
8
0
10
150.763968
20
202.979332
30
0.0
11
151.376223
21
203.708990
31
0.0
0
LINE
8
0
10
145.980416
20
209.226603
30
0.0
11
146.237925
21
209.994053
31
0.0
0
LINE
8
0
10
145.348495
20
209.652675
30
0.0
11
145.980221
21
209.226570
31
0.0
0
LINE
8
0
10
145.348120
20
209.653176
30
0.0
11
146.237355
21
209.994521
31
0.0
0
LINE
8
0
10
149.762526
20
212.464656
30
0.0
11
149.615687
21
213.260726
31
0.0
0
LINE
8
0
10
149.001900
20
212.531977
30
0.0
11
149.761000
21
212.465564
31
0.0
0
LINE
8
0
10
149.001797
20
212.532174
30
0.0
11
149.614052
21
213.261832
31
0.0
0
LINE
8
0
10
160.633785
20
202.114793
30
0.0
11
160.486946
21
202.910863
31
0.0
0
LINE
8
0
10
159.873201
20
202.182378
30
0.0
11
160.485456
21
202.912035
31
0.0
0
LINE
8
0
10
152.074763
20
192.138219
30
0.0
11
151.934451
21
193.344335
31
0.0
0
LINE
8
0
10
153.286660
20
193.358958
30
0.0
11
153.139821
21
194.155029
31
0.0
0
LINE
8
0
10
152.526182
20
193.426313
30
0.0
11
153.285282
21
193.359900
31
0.0
0
LINE
8
0
10
152.526139
20
193.426490
30
0.0
11
153.138394
21
194.156147
31
0.0
0
LINE
8
0
10
162.395852
20
192.561944
30
0.0
11
162.249013
21
193.358015
31
0.0
0
LINE
8
0
10
161.635386
20
192.629361
30
0.0
11
162.394487
21
192.562948
31
0.0
0
LINE
8
0
10
161.635372
20
192.629536
30
0.0
11
162.247628
21
193.359193
31
0.0
0
LINE
8
0
10
161.141844
20
199.000093
30
0.0
11
161.399353
21
199.767543
31
0.0
0
LINE
8
0
10
160.509934
20
199.426155
30
0.0
11
161.141661
21
199.000050
31
0.0
0
LINE
8
0
10
160.509608
20
199.426624
30
0.0
11
161.398843
21
199.767969
31
0.0
0
LINE
8
0
10
159.873245
20
202.182193
30
0.0
11
160.632346
21
202.115780
31
0.0
0
LINE
8
0
10
153.561130
20
204.113348
30
0.0
11
153.818639
21
204.880798
31
0.0
0
LINE
8
0
10
152.929214
20
204.539415
30
0.0
11
153.560941
21
204.113310
31
0.0
0
LINE
8
0
10
152.928864
20
204.539900
30
0.0
11
153.818099
21
204.881245
31
0.0
0
LINE
8
0
10
156.019316
20
213.748813
30
0.0
11
156.651042
21
213.322708
31
0.0
0
LINE
8
0
10
158.871718
20
211.667641
30
0.0
11
158.724879
21
212.463712
31
0.0
0
LINE
8
0
10
158.111104
20
211.735025
30
0.0
11
158.870204
21
211.668612
31
0.0
0
LINE
8
0
10
158.111030
20
211.735220
30
0.0
11
158.723285
21
212.464878
31
0.0
0
LINE
8
0
10
164.231955
20
208.209491
30
0.0
11
164.489464
21
208.976941
31
0.0
0
LINE
8
0
10
163.600035
20
208.635553
30
0.0
11
164.231762
21
208.209448
31
0.0
0
LINE
8
0
10
162.815777
20
204.684372
30
0.0
11
163.945273
21
204.509194
31
0.0
0
LINE
8
0
10
162.815403
20
204.685132
30
0.0
11
163.804587
21
205.716075
31
0.0
0
LINE
8
0
10
163.944974
20
204.509497
30
0.0
11
163.804662
21
205.715612
31
0.0
0
LINE
8
0
10
163.599688
20
208.636045
30
0.0
11
164.488923
21
208.977391
31
0.0
0
LINE
8
0
10
151.528698
20
228.071472
30
0.0
11
152.160424
21
227.645367
31
0.0
0
LINE
8
0
10
151.528280
20
228.072019
30
0.0
11
152.417516
21
228.413364
31
0.0
0
LINE
8
0
10
149.070526
20
218.436002
30
0.0
11
149.328035
21
219.203451
31
0.0
0
LINE
8
0
10
148.438596
20
218.862073
30
0.0
11
149.070323
21
218.435968
31
0.0
0
LINE
8
0
10
148.438200
20
218.862597
30
0.0
11
149.327435
21
219.203943
31
0.0
0
LINE
8
0
10
147.578099
20
221.259905
30
0.0
11
148.707595
21
221.084727
31
0.0
0
LINE
8
0
10
147.577706
20
221.260671
30
0.0
11
148.566890
21
222.291614
31
0.0
0
LINE
8
0
10
147.239758
20
222.084809
30
0.0
11
147.998859
21
222.018397
31
0.0
0
LINE
8
0
10
147.239626
20
222.085017
30
0.0
11
147.851881
21
222.814674
31
0.0
0
LINE
8
0
10
148.707278
20
221.085001
30
0.0
11
148.566966
21
222.291117
31
0.0
0
LINE
8
0
10
148.000459
20
222.017504
30
0.0
11
147.853621
21
222.813575
31
0.0
0
LINE
8
0
10
144.579922
20
232.758655
30
0.0
11
144.837431
21
233.526105
31
0.0
0
LINE
8
0
10
143.947978
20
233.184732
30
0.0
11
144.579705
21
232.758627
31
0.0
0
LINE
8
0
10
143.947536
20
233.185295
30
0.0
11
144.836772
21
233.526640
31
0.0
0
LINE
8
0
10
145.894375
20
235.733300
30
0.0
11
147.023871
21
235.558122
31
0.0
0
LINE
8
0
10
146.238393
20
231.570353
30
0.0
11
146.091554
21
232.366423
31
0.0
0
LINE
8
0
10
145.477617
20
231.637641
30
0.0
11
146.236717
21
231.571229
31
0.0
0
LINE
8
0
10
145.477455
20
231.637859
30
0.0
11
146.089710
21
232.367516
31
0.0
0
LINE
8
0
10
159.109417
20
222.958212
30
0.0
11
159.741144
21
222.532107
31
0.0
0
LINE
8
0
10
159.109024
20
222.958743
30
0.0
11
159.998259
21
223.300088
31
0.0
0
LINE
8
0
10
157.109651
20
221.220490
30
0.0
11
156.962812
21
222.016561
31
0.0
0
LINE
8
0
10
156.348963
20
221.287857
30
0.0
11
157.108063
21
221.221444
31
0.0
0
LINE
8
0
10
156.348859
20
221.288062
30
0.0
11
156.961114
21
222.017720
31
0.0
0
LINE
8
0
10
162.261232
20
218.982888
30
0.0
11
162.120920
21
220.189004
31
0.0
0
LINE
8
0
10
161.131658
20
219.158555
30
0.0
11
162.120842
21
220.189497
31
0.0
0
LINE
8
0
10
161.132053
20
219.157767
30
0.0
11
162.261549
21
218.982588
31
0.0
0
LINE
8
0
10
159.741350
20
222.532144
30
0.0
11
159.998860
21
223.299594
31
0.0
0
LINE
8
0
10
166.218843
20
220.423476
30
0.0
11
166.072004
21
221.219546
31
0.0
0
LINE
8
0
10
165.458167
20
220.490905
30
0.0
11
166.217267
21
220.424492
31
0.0
0
LINE
8
0
10
165.458093
20
220.491108
30
0.0
11
166.070348
21
221.220766
31
0.0
0
LINE
8
0
10
155.347584
20
230.773339
30
0.0
11
155.200746
21
231.569409
31
0.0
0
LINE
8
0
10
154.586688
20
230.840905
30
0.0
11
155.198943
21
231.570562
31
0.0
0
LINE
8
0
10
152.160636
20
227.645400
30
0.0
11
152.418145
21
228.412850
31
0.0
0
LINE
8
0
10
154.586821
20
230.840689
30
0.0
11
155.345922
21
230.774277
31
0.0
0
LINE
8
0
10
164.456776
20
229.976324
30
0.0
11
164.309938
21
230.772395
31
0.0
0
LINE
8
0
10
163.696026
20
230.043737
30
0.0
11
164.455126
21
229.977325
31
0.0
0
LINE
8
0
10
163.695921
20
230.043950
30
0.0
11
164.308177
21
230.773608
31
0.0
0
LINE
8
0
10
162.831461
20
231.741543
30
0.0
11
163.088970
21
232.508993
31
0.0
0
LINE
8
0
10
162.199519
20
232.167610
30
0.0
11
162.831245
21
231.741505
31
0.0
0
LINE
8
0
10
162.199104
20
232.168164
30
0.0
11
163.088340
21
232.509510
31
0.0
0
LINE
8
0
10
159.448329
20
233.631161
30
0.0
11
160.577825
21
233.455983
31
0.0
0
LINE
8
0
10
160.577490
20
233.456279
30
0.0
11
160.437178
21
234.662395
31
0.0
0
LINE
8
0
10
159.447912
20
233.631978
30
0.0
11
160.437096
21
234.662920
31
0.0
0
LINE
8
0
10
170.744591
20
191.832409
30
0.0
11
171.503691
21
191.765996
31
0.0
0
LINE
8
0
10
170.744606
20
191.832581
30
0.0
11
171.356861
21
192.562239
31
0.0
0
LINE
8
0
10
168.722559
20
193.886838
30
0.0
11
168.980068
21
194.654287
31
0.0
0
LINE
8
0
10
168.090653
20
194.312895
30
0.0
11
168.722380
21
193.886790
31
0.0
0
LINE
8
0
10
168.090352
20
194.313348
30
0.0
11
168.979587
21
194.654693
31
0.0
0
LINE
8
0
10
171.505044
20
191.764930
30
0.0
11
171.358205
21
192.561001
31
0.0
0
LINE
8
0
10
169.742977
20
201.317778
30
0.0
11
169.596138
21
202.113849
31
0.0
0
LINE
8
0
10
168.982449
20
201.385241
30
0.0
11
169.741550
21
201.318828
31
0.0
0
LINE
8
0
10
168.982435
20
201.385424
30
0.0
11
169.594690
21
202.115081
31
0.0
0
LINE
8
0
10
171.812669
20
203.096236
30
0.0
11
171.827136
21
203.139352
31
0.0
0
LINE
8
0
10
171.180755
20
203.522294
30
0.0
11
171.812482
21
203.096189
31
0.0
0
LINE
8
0
10
171.180432
20
203.522769
30
0.0
11
171.827136
21
203.771016
31
0.0
0
LINE
8
0
10
167.980910
20
210.870627
30
0.0
11
167.834071
21
211.666698
31
0.0
0
LINE
8
0
10
167.220308
20
210.938073
30
0.0
11
167.979409
21
210.871660
31
0.0
0
LINE
8
0
10
167.220264
20
210.938266
30
0.0
11
167.832519
21
211.667923
31
0.0
0
LINE
8
0
10
167.322065
20
217.418889
30
0.0
11
167.579574
21
218.186339
31
0.0
0
LINE
8
0
10
170.412175
20
226.628287
30
0.0
11
170.669684
21
227.395737
31
0.0
0
LINE
8
0
10
169.780238
20
227.054350
30
0.0
11
170.411965
21
226.628245
31
0.0
0
LINE
8
0
10
169.779848
20
227.054888
30
0.0
11
170.669084
21
227.396234
31
0.0
0
LINE
8
0
10
166.979205
20
274.118463
30
0.0
11
167.610931
21
273.692358
31
0.0
0
LINE
8
0
10
166.978682
20
274.119127
30
0.0
11
167.867917
21
274.460472
31
0.0
0
LINE
8
0
10
150.061384
20
259.431884
30
0.0
11
149.914545
21
260.227955
31
0.0
0
LINE
8
0
10
149.300397
20
259.499186
30
0.0
11
150.059498
21
259.432773
31
0.0
0
LINE
8
0
10
151.062539
20
249.946354
30
0.0
11
151.821639
21
249.879941
31
0.0
0
LINE
8
0
10
151.062346
20
249.946589
30
0.0
11
151.674601
21
250.676247
31
0.0
0
LINE
8
0
10
143.715476
20
241.190474
30
0.0
11
144.474576
21
241.124061
31
0.0
0
LINE
8
0
10
143.715284
20
241.190701
30
0.0
11
144.327539
21
241.920359
31
0.0
0
LINE
8
0
10
147.670032
20
241.968053
30
0.0
11
147.927541
21
242.735503
31
0.0
0
LINE
8
0
10
147.038079
20
242.394130
30
0.0
11
147.669806
21
241.968025
31
0.0
0
LINE
8
0
10
144.476326
20
241.123201
30
0.0
11
144.329487
21
241.919272
31
0.0
0
LINE
8
0
10
147.037616
20
242.394716
30
0.0
11
147.926852
21
242.736062
31
0.0
0
LINE
8
0
10
142.714259
20
250.676050
30
0.0
11
142.567420
21
251.472121
31
0.0
0
LINE
8
0
10
141.953334
20
250.743306
30
0.0
11
142.712435
21
250.676893
31
0.0
0
LINE
8
0
10
141.953112
20
250.743544
30
0.0
11
142.565368
21
251.473201
31
0.0
0
LINE
8
0
10
143.179428
20
256.290707
30
0.0
11
143.436937
21
257.058157
31
0.0
0
LINE
8
0
10
142.547461
20
256.716788
30
0.0
11
143.179188
21
256.290683
31
0.0
0
LINE
8
0
10
142.546953
20
256.717414
30
0.0
11
143.436188
21
257.058759
31
0.0
0
LINE
8
0
10
144.210652
20
250.206695
30
0.0
11
145.340148
21
250.031516
31
0.0
0
LINE
8
0
10
145.339793
20
250.031783
30
0.0
11
145.199481
21
251.237899
31
0.0
0
LINE
8
0
10
144.210215
20
250.207517
30
0.0
11
145.199399
21
251.238459
31
0.0
0
LINE
8
0
10
150.760142
20
251.177451
30
0.0
11
151.017651
21
251.944901
31
0.0
0
LINE
8
0
10
150.128181
20
251.603528
30
0.0
11
150.759908
21
251.177423
31
0.0
0
LINE
8
0
10
150.127697
20
251.604138
30
0.0
11
151.016932
21
251.945483
31
0.0
0
LINE
8
0
10
157.764606
20
248.104556
30
0.0
11
158.894102
21
247.929378
31
0.0
0
LINE
8
0
10
158.893747
20
247.929670
30
0.0
11
158.753435
21
249.135786
31
0.0
0
LINE
8
0
10
155.250746
20
236.854798
30
0.0
11
155.508256
21
237.622248
31
0.0
0
LINE
8
0
10
154.618360
20
237.281440
30
0.0
11
155.507596
21
237.622786
31
0.0
0
LINE
8
0
10
154.618799
20
237.280870
30
0.0
11
155.250526
21
236.854765
31
0.0
0
LINE
8
0
10
153.585518
20
240.326187
30
0.0
11
153.438679
21
241.122258
31
0.0
0
LINE
8
0
10
152.824680
20
240.393521
30
0.0
11
153.583780
21
240.327109
31
0.0
0
LINE
8
0
10
152.824517
20
240.393747
30
0.0
11
153.436772
21
241.123404
31
0.0
0
LINE
8
0
10
158.340857
20
246.064196
30
0.0
11
158.598366
21
246.831646
31
0.0
0
LINE
8
0
10
157.708900
20
246.490268
30
0.0
11
158.340627
21
246.064163
31
0.0
0
LINE
8
0
10
157.708441
20
246.490862
30
0.0
11
158.597676
21
246.832207
31
0.0
0
LINE
8
0
10
162.694710
20
239.529173
30
0.0
11
162.547871
21
240.325244
31
0.0
0
LINE
8
0
10
161.933884
20
239.596569
30
0.0
11
162.692985
21
239.530157
31
0.0
0
LINE
8
0
10
161.933750
20
239.596793
30
0.0
11
162.546006
21
240.326450
31
0.0
0
LINE
8
0
10
165.921571
20
240.950941
30
0.0
11
166.179080
21
241.718391
31
0.0
0
LINE
8
0
10
165.289620
20
241.377008
30
0.0
11
165.921347
21
240.950903
31
0.0
0
LINE
8
0
10
165.289185
20
241.377586
30
0.0
11
166.178420
21
241.718931
31
0.0
0
LINE
8
0
10
151.823451
20
249.879036
30
0.0
11
151.676612
21
250.675106
31
0.0
0
LINE
8
0
10
157.764167
20
248.105400
30
0.0
11
158.753351
21
249.136343
31
0.0
0
LINE
8
0
10
159.170576
20
258.634870
30
0.0
11
159.023737
21
259.430941
31
0.0
0
LINE
8
0
10
158.409602
20
258.702234
30
0.0
11
159.168702
21
258.635821
31
0.0
0
LINE
8
0
10
158.409408
20
258.702477
30
0.0
11
159.021663
21
259.432135
31
0.0
0
LINE
8
0
10
160.932643
20
249.082022
30
0.0
11
160.785804
21
249.878092
31
0.0
0
LINE
8
0
10
160.171743
20
249.149401
30
0.0
11
160.930843
21
249.082989
31
0.0
0
LINE
8
0
10
160.171579
20
249.149635
30
0.0
11
160.783835
21
249.879292
31
0.0
0
LINE
8
0
10
161.430967
20
255.273594
30
0.0
11
161.688476
21
256.041044
31
0.0
0
LINE
8
0
10
160.799002
20
255.699667
30
0.0
11
161.430728
21
255.273562
31
0.0
0
LINE
8
0
10
160.798521
20
255.700283
30
0.0
11
161.687756
21
256.041629
31
0.0
0
LINE
8
0
10
143.656051
20
264.505175
30
0.0
11
143.515739
21
265.711291
31
0.0
0
LINE
8
0
10
142.526470
20
264.680939
30
0.0
11
143.515654
21
265.711882
31
0.0
0
LINE
8
0
10
142.526928
20
264.680089
30
0.0
11
143.656424
21
264.504911
31
0.0
0
LINE
8
0
10
149.300175
20
259.499431
30
0.0
11
149.912430
21
260.229089
31
0.0
0
LINE
8
0
10
147.538256
20
269.052018
30
0.0
11
148.297356
21
268.985605
31
0.0
0
LINE
8
0
10
147.538004
20
269.052274
30
0.0
11
148.150259
21
269.781931
31
0.0
0
LINE
8
0
10
146.269538
20
265.500105
30
0.0
11
146.527047
21
266.267555
31
0.0
0
LINE
8
0
10
145.637563
20
265.926186
30
0.0
11
146.269289
21
265.500081
31
0.0
0
LINE
8
0
10
145.637033
20
265.926835
30
0.0
11
146.526268
21
266.268181
31
0.0
0
LINE
8
0
10
148.299317
20
268.984733
30
0.0
11
148.152478
21
269.780804
31
0.0
0
LINE
8
0
10
141.827136
20
279.966413
30
0.0
11
142.036443
21
280.590208
31
0.0
0
LINE
8
0
10
141.827136
20
280.510855
30
0.0
11
142.035605
21
280.590878
31
0.0
0
LINE
8
0
10
141.827136
20
279.000882
30
0.0
11
141.972700
21
278.978306
31
0.0
0
LINE
8
0
10
141.972308
20
278.978566
30
0.0
11
141.831996
21
280.184682
31
0.0
0
LINE
8
0
10
149.359648
20
274.709503
30
0.0
11
149.617158
21
275.476953
31
0.0
0
LINE
8
0
10
148.727664
20
275.135585
30
0.0
11
149.359391
21
274.709480
31
0.0
0
LINE
8
0
10
148.727113
20
275.136257
30
0.0
11
149.616349
21
275.477602
31
0.0
0
LINE
8
0
10
146.537250
20
278.537582
30
0.0
11
146.390411
21
279.333652
31
0.0
0
LINE
8
0
10
145.776115
20
278.604850
30
0.0
11
146.535215
21
278.538437
31
0.0
0
LINE
8
0
10
145.775833
20
278.605116
30
0.0
11
146.388088
21
279.334773
31
0.0
0
LINE
8
0
10
153.850253
20
260.386850
30
0.0
11
154.107762
21
261.154299
31
0.0
0
LINE
8
0
10
153.218282
20
260.812926
30
0.0
11
153.850009
21
260.386821
31
0.0
0
LINE
8
0
10
153.217777
20
260.813559
30
0.0
11
154.107012
21
261.154905
31
0.0
0
LINE
8
0
10
156.080882
20
262.577951
30
0.0
11
157.210378
21
262.402772
31
0.0
0
LINE
8
0
10
157.210005
20
262.403061
30
0.0
11
157.069693
21
263.609177
31
0.0
0
LINE
8
0
10
156.080422
20
262.578823
30
0.0
11
157.069606
21
263.609765
31
0.0
0
LINE
8
0
10
156.940363
20
269.596248
30
0.0
11
157.197872
21
270.363698
31
0.0
0
LINE
8
0
10
156.308384
20
270.022325
30
0.0
11
156.940110
21
269.596220
31
0.0
0
LINE
8
0
10
156.307857
20
270.022981
30
0.0
11
157.197093
21
270.364326
31
0.0
0
LINE
8
0
10
157.408509
20
268.187719
30
0.0
11
157.261670
21
268.983789
31
0.0
0
LINE
8
0
10
156.647460
20
268.255066
30
0.0
11
157.406561
21
268.188653
31
0.0
0
LINE
8
0
10
156.647237
20
268.255319
30
0.0
11
157.259492
21
268.984977
31
0.0
0
LINE
8
0
10
164.521077
20
264.482992
30
0.0
11
164.778586
21
265.250442
31
0.0
0
LINE
8
0
10
163.888601
20
264.909705
30
0.0
11
164.777837
21
265.251051
31
0.0
0
LINE
8
0
10
163.889103
20
264.909065
30
0.0
11
164.520830
21
264.482960
31
0.0
0
LINE
8
0
10
166.517701
20
267.390705
30
0.0
11
166.370862
21
268.186775
31
0.0
0
LINE
8
0
10
165.756665
20
267.458114
30
0.0
11
166.515765
21
267.391701
31
0.0
0
LINE
8
0
10
165.756471
20
267.458365
30
0.0
11
166.368726
21
268.188023
31
0.0
0
LINE
8
0
10
154.397158
20
277.051345
30
0.0
11
155.526654
21
276.876167
31
0.0
0
LINE
8
0
10
155.526262
20
276.876452
30
0.0
11
155.385950
21
278.082568
31
0.0
0
LINE
8
0
10
154.885319
20
277.807898
30
0.0
11
155.644419
21
277.741485
31
0.0
0
LINE
8
0
10
154.885066
20
277.808162
30
0.0
11
155.497321
21
278.537819
31
0.0
0
LINE
8
0
10
154.396676
20
277.052246
30
0.0
11
155.385860
21
278.083188
31
0.0
0
LINE
8
0
10
155.646442
20
277.740567
30
0.0
11
155.499603
21
278.536638
31
0.0
0
LINE
8
0
10
160.030473
20
278.805646
30
0.0
11
160.287982
21
279.573096
31
0.0
0
LINE
8
0
10
159.398485
20
279.231723
30
0.0
11
160.030212
21
278.805618
31
0.0
0
LINE
8
0
10
159.397938
20
279.232403
30
0.0
11
160.287173
21
279.573748
31
0.0
0
LINE
8
0
10
164.755634
20
276.943553
30
0.0
11
164.608795
21
277.739624
31
0.0
0
LINE
8
0
10
163.994523
20
277.010946
30
0.0
11
164.753624
21
276.944533
31
0.0
0
LINE
8
0
10
163.994300
20
277.011207
30
0.0
11
164.606555
21
277.740865
31
0.0
0
LINE
8
0
10
171.803901
20
238.732159
30
0.0
11
171.657063
21
239.528229
31
0.0
0
LINE
8
0
10
171.043089
20
238.799617
30
0.0
11
171.802189
21
238.733205
31
0.0
0
LINE
8
0
10
171.042984
20
238.799838
30
0.0
11
171.655239
21
239.529496
31
0.0
0
LINE
8
0
10
171.318560
20
246.002417
30
0.0
11
171.827136
21
245.923540
31
0.0
0
LINE
8
0
10
171.318119
20
246.003284
30
0.0
11
171.827136
21
246.533789
31
0.0
0
LINE
8
0
10
169.011681
20
250.160339
30
0.0
11
169.269190
21
250.927789
31
0.0
0
LINE
8
0
10
168.379721
20
250.586407
30
0.0
11
169.011448
21
250.160302
31
0.0
0
LINE
8
0
10
168.379265
20
250.587008
30
0.0
11
169.268500
21
250.928353
31
0.0
0
LINE
8
0
10
170.041835
20
248.285007
30
0.0
11
169.894996
21
249.081078
31
0.0
0
LINE
8
0
10
169.280947
20
248.352449
30
0.0
11
170.040048
21
248.286037
31
0.0
0
LINE
8
0
10
169.280813
20
248.352681
30
0.0
11
169.893068
21
249.082338
31
0.0
0
LINE
8
0
10
168.279768
20
257.837856
30
0.0
11
168.132929
21
258.633927
31
0.0
0
LINE
8
0
10
167.518806
20
257.905281
30
0.0
11
168.277906
21
257.838869
31
0.0
0
LINE
8
0
10
167.518642
20
257.905523
30
0.0
11
168.130897
21
258.635180
31
0.0
0
LINE
8
0
10
169.634836
20
260.475812
30
0.0
11
170.764332
21
260.300634
31
0.0
0
LINE
8
0
10
170.763959
20
260.300948
30
0.0
11
170.623647
21
261.507064
31
0.0
0
LINE
8
0
10
169.634374
20
260.476707
30
0.0
11
170.623558
21
261.507649
31
0.0
0
LINE
8
0
10
171.469823
20
259.795805
30
0.0
11
171.827136
21
259.554794
31
0.0
0
LINE
8
0
10
171.469345
20
259.796429
30
0.0
11
171.827136
21
259.933772
31
0.0
0
LINE
8
0
10
167.611187
20
273.692391
30
0.0
11
167.868697
21
274.459841
31
0.0
0
LINE
8
0
10
167.951112
20
274.949206
30
0.0
11
169.080608
21
274.774028
31
0.0
0
LINE
8
0
10
169.080216
20
274.774339
30
0.0
11
168.939905
21
275.980455
31
0.0
0
LINE
8
0
10
167.950629
20
274.950129
30
0.0
11
168.939812
21
275.981071
31
0.0
0
LINE
8
0
10
166.267389
20
289.422601
30
0.0
11
167.396885
21
289.247423
31
0.0
0
LINE
8
0
10
166.266883
20
289.423552
30
0.0
11
167.256067
21
290.454494
31
0.0
0
LINE
8
0
10
144.869044
20
289.032157
30
0.0
11
145.126554
21
289.799606
31
0.0
0
LINE
8
0
10
144.237046
20
289.458243
30
0.0
11
144.868773
21
289.032138
31
0.0
0
LINE
8
0
10
144.236450
20
289.458954
30
0.0
11
145.125685
21
289.800300
31
0.0
0
LINE
8
0
10
144.775183
20
288.090430
30
0.0
11
144.628345
21
288.886501
31
0.0
0
LINE
8
0
10
144.013973
20
288.157682
30
0.0
11
144.773074
21
288.091269
31
0.0
0
LINE
8
0
10
144.013662
20
288.157958
30
0.0
11
144.625917
21
288.887616
31
0.0
0
LINE
8
0
10
153.884375
20
287.293416
30
0.0
11
153.737536
21
288.089487
31
0.0
0
LINE
8
0
10
153.122895
20
287.361004
30
0.0
11
153.735150
21
288.090661
31
0.0
0
LINE
8
0
10
152.449759
20
283.918901
30
0.0
11
152.707268
21
284.686351
31
0.0
0
LINE
8
0
10
151.817766
20
284.344983
30
0.0
11
152.449492
21
283.918878
31
0.0
0
LINE
8
0
10
151.817194
20
284.345678
30
0.0
11
152.706429
21
284.687024
31
0.0
0
LINE
8
0
10
153.123178
20
287.360730
30
0.0
11
153.882278
21
287.294317
31
0.0
0
LINE
8
0
10
152.713435
20
291.524740
30
0.0
11
153.842931
21
291.349562
31
0.0
0
LINE
8
0
10
153.842520
20
291.349844
30
0.0
11
153.707981
21
292.506337
31
0.0
0
LINE
8
0
10
152.712931
20
291.525668
30
0.0
11
153.653878
21
292.506337
31
0.0
0
LINE
8
0
10
162.993567
20
286.496402
30
0.0
11
162.846728
21
287.292472
31
0.0
0
LINE
8
0
10
162.232382
20
286.563778
30
0.0
11
162.991482
21
286.497365
31
0.0
0
LINE
8
0
10
162.232129
20
286.564050
30
0.0
11
162.844384
21
287.293707
31
0.0
0
LINE
8
0
10
163.120583
20
288.015044
30
0.0
11
163.378092
21
288.782494
31
0.0
0
LINE
8
0
10
162.488018
20
288.441824
30
0.0
11
163.377253
21
288.783170
31
0.0
0
LINE
8
0
10
162.488587
20
288.441121
30
0.0
11
163.120313
21
288.015016
31
0.0
0
LINE
8
0
10
170.701298
20
282.901789
30
0.0
11
170.958807
21
283.669239
31
0.0
0
LINE
8
0
10
170.068762
20
283.328548
30
0.0
11
170.957997
21
283.669894
31
0.0
0
LINE
8
0
10
170.069306
20
283.327861
30
0.0
11
170.701033
21
282.901756
31
0.0
0
LINE
8
0
10
171.341586
20
285.766826
30
0.0
11
171.827136
21
285.724346
31
0.0
0
LINE
8
0
10
171.341362
20
285.767095
30
0.0
11
171.827136
21
286.346018
31
0.0
0
LINE
8
0
10
167.396474
20
289.247730
30
0.0
11
167.256162
21
290.453846
31
0.0
0
LINE
8
0
10
226.127136
20
192.506337
30
0.0
11
226.127136
21
292.506337
31
0.0
0
LINE
8
0
10
227.127136
20
192.506337
30
0.0
11
227.127136
21
292.506337
31
0.0
0
ATTDEF
8
0
10
141.827136
20
142.506337
30
0.0
40
3.5
1

3

2
DESC:MARBLE + SHEET PANEL
70
0
0
ATTDEF
8
0
10
141.827136
20
142.506337
30
0.0
40
3.5
1

3

2
DENS:0.000000
70
0
0
ATTDEF
8
0
10
141.827136
20
142.506337
30
0.0
40
3.5
1

3

2
TDEV:0.000000
70
0
0
ATTDEF
8
0
10
141.827136
20
142.506337
30
0.0
40
3.5
1

3

2
FRONT_VIEW
70
0
0
ATTDEF
8
0
10
141.827136
20
142.506337
30
0.0
40
3.5
1

3

2
BL01:6500.000000,,1
70
0
0
ATTDEF
8
0
10
141.827136
20
142.506337
30
0.0
40
3.5
1

3

2
OPTI:500.000000,1,0,3000.000000,6500.000000,500.000000,0,0.000000
70
0
0
ATTDEF
8
0
10
141.827136
20
142.506337
30
0.0
40
3.5
1

3

2
PANE_WIDTH:0.000000
70
0
0
ATTDEF
8
0
10
141.827136
20
142.506337
30
0.0
40
3.5
1

3

2
FP_LCS_ORIG
70
0
0
ATTDEF
8
0
10
151.827136
20
142.506337
30
0.0
40
3.5
1

3

2
FP_LCS_HOT
70
0
0
ATTDEF
8
0
10
141.827136
20
152.506337
30
0.0
40
3.5
1

3

2
FP_LCS_INTERN
70
0
0
ENDSEC
0
EOF
