0
SECTION
2
ENTITIES
0
ARC
8
0
10
43.197792
20
45.716910
30
0.0
40
8.400000
50
270.000000
51
90.000000
0
ARC
8
0
10
12.769169
20
45.716910
30
0.0
40
8.400000
50
90.000000
51
270.000000
0
LINE
8
0
10
43.197792
20
37.316910
30
0.0
11
12.769169
21
54.116910
31
0.0
0
LINE
8
0
10
12.769169
20
37.316910
30
0.0
11
43.197792
21
54.116910
31
0.0
0
LINE
8
0
10
3.103410
20
87.877842
30
0.0
11
3.103410
21
3.280294
31
0.0
0
LINE
8
0
10
53.103410
20
3.280294
30
0.0
11
53.103410
21
87.877842
31
0.0
0
LINE
8
0
10
3.903410
20
87.877842
30
0.0
11
3.903410
21
3.280294
31
0.0
0
LINE
8
0
10
52.303410
20
3.280294
30
0.0
11
52.303410
21
87.877842
31
0.0
0
LINE
8
0
10
3.103410
20
3.280294
30
0.0
11
53.103410
21
3.280294
31
0.0
0
LINE
8
0
10
43.197792
20
3.716910
30
0.0
11
12.769169
21
20.516910
31
0.0
0
LINE
8
0
10
12.769169
20
3.716910
30
0.0
11
43.197792
21
20.516910
31
0.0
0
LINE
8
0
10
43.197792
20
20.516910
30
0.0
11
12.769169
21
37.316910
31
0.0
0
LINE
8
0
10
12.769169
20
20.516910
30
0.0
11
43.197792
21
37.316910
31
0.0
0
ARC
8
0
10
12.769169
20
28.916910
30
0.0
40
8.400000
50
90.000000
51
270.000000
0
ARC
8
0
10
12.769169
20
12.116910
30
0.0
40
8.400000
50
90.000000
51
270.000000
0
ARC
8
0
10
43.197792
20
28.916910
30
0.0
40
8.400000
50
270.000000
51
90.000000
0
ARC
8
0
10
43.197792
20
12.116910
30
0.0
40
8.400000
50
270.000000
51
90.000000
0
LINE
8
0
10
3.103410
20
87.877842
30
0.0
11
53.103410
21
87.877842
31
0.0
0
LINE
8
0
10
43.197792
20
54.116910
30
0.0
11
12.769169
21
70.916910
31
0.0
0
LINE
8
0
10
12.769169
20
54.116910
30
0.0
11
43.197792
21
70.916910
31
0.0
0
LINE
8
0
10
12.769169
20
70.916910
30
0.0
11
43.197792
21
87.716910
31
0.0
0
LINE
8
0
10
43.197792
20
70.916910
30
0.0
11
12.769169
21
87.716910
31
0.0
0
ARC
8
0
10
12.769169
20
79.316910
30
0.0
40
8.400000
50
90.000000
51
270.000000
0
ARC
8
0
10
12.769169
20
62.516910
30
0.0
40
8.400000
50
90.000000
51
270.000000
0
ARC
8
0
10
43.197792
20
79.316910
30
0.0
40
8.400000
50
270.000000
51
90.000000
0
ARC
8
0
10
43.197792
20
62.516910
30
0.0
40
8.400000
50
270.000000
51
90.000000
0
ATTDEF
8
0
10
3.103410
20
3.280294
30
0.0
40
3.5
1

3

2
DESC:PANEL MONOLITHIC BG SP. 50MM
70
0
0
ATTDEF
8
0
10
3.103410
20
3.280294
30
0.0
40
3.5
1

3

2
DENS:0.000000
70
0
0
ATTDEF
8
0
10
3.103410
20
3.280294
30
0.0
40
3.5
1

3

2
TDEV:0.000000
70
0
0
ATTDEF
8
0
10
3.103410
20
3.280294
30
0.0
40
3.5
1

3

2
FRONT_VIEW
70
0
0
ATTDEF
8
0
10
3.103410
20
3.280294
30
0.0
40
3.5
1

3

2
BL01:6500.000000,,1
70
0
0
ATTDEF
8
0
10
3.103410
20
3.280294
30
0.0
40
3.5
1

3

2
OPTI:500.000000,1,0,3000.000000,6500.000000,500.000000,0,0.000000
70
0
0
ATTDEF
8
0
10
3.103410
20
3.280294
30
0.0
40
3.5
1

3

2
PANE_WIDTH:0.000000
70
0
0
ATTDEF
8
0
10
3.103410
20
3.280294
30
0.0
40
3.5
1

3

2
FP_LCS_ORIG
70
0
0
ATTDEF
8
0
10
13.103410
20
3.280294
30
0.0
40
3.5
1

3

2
FP_LCS_HOT
70
0
0
ATTDEF
8
0
10
3.103410
20
13.280294
30
0.0
40
3.5
1

3

2
FP_LCS_INTERN
70
0
0
ENDSEC
0
EOF
