0
SECTION
2
ENTITIES
0
LINE
8
0
10
4.300000
20
16.800000
30
0.0
11
4.300000
21
18.100000
31
0.0
0
LINE
8
0
10
4.300000
20
18.100000
30
0.0
11
1.800000
21
18.100000
31
0.0
0
ARC
8
0
10
1.800000
20
18.600000
30
0.0
40
0.500000
50
180.000000
51
270.000000
0
LINE
8
0
10
1.300000
20
18.600000
30
0.0
11
1.300000
21
61.400000
31
0.0
0
ARC
8
0
10
1.800000
20
61.400000
30
0.0
40
0.500000
50
90.000000
51
180.000000
0
LINE
8
0
10
1.800000
20
61.900000
30
0.0
11
4.300000
21
61.900000
31
0.0
0
LINE
8
0
10
4.300000
20
61.900000
30
0.0
11
4.300000
21
63.200000
31
0.0
0
LINE
8
0
10
4.300000
20
63.200000
30
0.0
11
1.300000
21
63.200000
31
0.0
0
LINE
8
0
10
1.300000
20
63.200000
30
0.0
11
1.300000
21
67.300000
31
0.0
0
LINE
8
0
10
1.300000
20
67.300000
30
0.0
11
34.700000
21
67.300000
31
0.0
0
LINE
8
0
10
34.700000
20
67.300000
30
0.0
11
34.700000
21
63.200000
31
0.0
0
LINE
8
0
10
34.700000
20
63.200000
30
0.0
11
31.700000
21
63.200000
31
0.0
0
LINE
8
0
10
31.700000
20
63.200000
30
0.0
11
31.700000
21
61.900000
31
0.0
0
LINE
8
0
10
31.700000
20
61.900000
30
0.0
11
34.200000
21
61.900000
31
0.0
0
ARC
8
0
10
34.200000
20
61.400000
30
0.0
40
0.500000
50
0.000000
51
90.000000
0
LINE
8
0
10
34.700000
20
61.400000
30
0.0
11
34.700000
21
18.600000
31
0.0
0
ARC
8
0
10
34.200000
20
18.600000
30
0.0
40
0.500000
50
270.000000
51
0.000000
0
LINE
8
0
10
34.200000
20
18.100000
30
0.0
11
31.700000
21
18.100000
31
0.0
0
LINE
8
0
10
31.700000
20
18.100000
30
0.0
11
31.700000
21
16.800000
31
0.0
0
LINE
8
0
10
31.700000
20
16.800000
30
0.0
11
34.700000
21
16.800000
31
0.0
0
LINE
8
0
10
34.700000
20
16.800000
30
0.0
11
34.700000
21
5.800000
31
0.0
0
LINE
8
0
10
34.700000
20
5.800000
30
0.0
11
1.300000
21
5.800000
31
0.0
0
LINE
8
0
10
1.300000
20
5.800000
30
0.0
11
1.300000
21
16.800000
31
0.0
0
LINE
8
0
10
1.300000
20
16.800000
30
0.0
11
4.300000
21
16.800000
31
0.0
0
LINE
8
0
10
5.200000
20
0.000000
30
0.0
11
0.500000
21
0.000000
31
0.0
0
ARC
8
0
10
0.500000
20
0.500000
30
0.0
40
0.500000
50
180.000000
51
270.000000
0
LINE
8
0
10
-0.000000
20
0.500000
30
0.0
11
0.000000
21
87.400000
31
0.0
0
LINE
8
0
10
0.000000
20
87.400000
30
0.0
11
0.850000
21
87.400000
31
0.0
0
LINE
8
0
10
0.850000
20
87.400000
30
0.0
11
0.850000
21
86.600000
31
0.0
0
LINE
8
0
10
0.850000
20
86.600000
30
0.0
11
11.900000
21
86.600000
31
0.0
0
LINE
8
0
10
11.900000
20
86.600000
30
0.0
11
12.200000
21
86.300000
31
0.0
0
LINE
8
0
10
12.200000
20
86.300000
30
0.0
11
11.900000
21
86.000000
31
0.0
0
LINE
8
0
10
11.900000
20
86.000000
30
0.0
11
12.200000
21
85.700000
31
0.0
0
LINE
8
0
10
12.200000
20
85.700000
30
0.0
11
11.900000
21
85.400000
31
0.0
0
LINE
8
0
10
11.900000
20
85.400000
30
0.0
11
12.200000
21
85.100000
31
0.0
0
LINE
8
0
10
12.200000
20
85.100000
30
0.0
11
11.900000
21
84.800000
31
0.0
0
LINE
8
0
10
11.900000
20
84.800000
30
0.0
11
12.200000
21
84.500000
31
0.0
0
LINE
8
0
10
12.200000
20
84.500000
30
0.0
11
11.900000
21
84.200000
31
0.0
0
LINE
8
0
10
11.900000
20
84.200000
30
0.0
11
12.200000
21
83.900000
31
0.0
0
LINE
8
0
10
12.200000
20
83.900000
30
0.0
11
11.900000
21
83.600000
31
0.0
0
LINE
8
0
10
11.900000
20
83.600000
30
0.0
11
12.200000
21
83.300000
31
0.0
0
LINE
8
0
10
12.200000
20
83.300000
30
0.0
11
11.900000
21
83.000000
31
0.0
0
LINE
8
0
10
11.900000
20
83.000000
30
0.0
11
12.200000
21
82.700000
31
0.0
0
LINE
8
0
10
12.200000
20
82.700000
30
0.0
11
11.900000
21
82.400000
31
0.0
0
LINE
8
0
10
11.900000
20
82.400000
30
0.0
11
11.900000
21
80.950000
31
0.0
0
ARC
8
0
10
11.250000
20
80.950000
30
0.0
40
0.650000
50
180.000000
51
0.000000
0
LINE
8
0
10
10.600000
20
80.950000
30
0.0
11
10.600000
21
84.300000
31
0.0
0
ARC
8
0
10
9.600000
20
84.300000
30
0.0
40
1.000000
50
0.000000
51
90.000000
0
LINE
8
0
10
9.600000
20
85.300000
30
0.0
11
3.300000
21
85.300000
31
0.0
0
ARC
8
0
10
3.300000
20
83.300000
30
0.0
40
2.000000
50
90.000000
51
180.000000
0
LINE
8
0
10
1.300000
20
83.300000
30
0.0
11
1.300000
21
71.300000
31
0.0
0
ARC
8
0
10
3.300000
20
71.300000
30
0.0
40
2.000000
50
180.000000
51
270.000000
0
LINE
8
0
10
3.300000
20
69.300000
30
0.0
11
32.700000
21
69.300000
31
0.0
0
ARC
8
0
10
32.700000
20
71.300000
30
0.0
40
2.000000
50
270.000000
51
0.000000
0
LINE
8
0
10
34.700000
20
71.300000
30
0.0
11
34.700000
21
83.300000
31
0.0
0
ARC
8
0
10
32.700000
20
83.300000
30
0.0
40
2.000000
50
0.000000
51
90.000000
0
LINE
8
0
10
32.700000
20
85.300000
30
0.0
11
26.400000
21
85.300000
31
0.0
0
ARC
8
0
10
26.400000
20
84.300000
30
0.0
40
1.000000
50
90.000000
51
180.000000
0
LINE
8
0
10
25.400000
20
84.300000
30
0.0
11
25.400000
21
80.950000
31
0.0
0
ARC
8
0
10
24.750000
20
80.950000
30
0.0
40
0.650000
50
180.000000
51
0.000000
0
LINE
8
0
10
24.100000
20
80.950000
30
0.0
11
24.100000
21
82.400000
31
0.0
0
LINE
8
0
10
24.100000
20
82.400000
30
0.0
11
23.800000
21
82.700000
31
0.0
0
LINE
8
0
10
23.800000
20
82.700000
30
0.0
11
24.100000
21
83.000000
31
0.0
0
LINE
8
0
10
24.100000
20
83.000000
30
0.0
11
23.800000
21
83.300000
31
0.0
0
LINE
8
0
10
23.800000
20
83.300000
30
0.0
11
24.100000
21
83.600000
31
0.0
0
LINE
8
0
10
24.100000
20
83.600000
30
0.0
11
23.800000
21
83.900000
31
0.0
0
LINE
8
0
10
23.800000
20
83.900000
30
0.0
11
24.100000
21
84.200000
31
0.0
0
LINE
8
0
10
24.100000
20
84.200000
30
0.0
11
23.800000
21
84.500000
31
0.0
0
LINE
8
0
10
23.800000
20
84.500000
30
0.0
11
24.100000
21
84.800000
31
0.0
0
LINE
8
0
10
24.100000
20
84.800000
30
0.0
11
23.800000
21
85.100000
31
0.0
0
LINE
8
0
10
23.800000
20
85.100000
30
0.0
11
24.100000
21
85.400000
31
0.0
0
LINE
8
0
10
24.100000
20
85.400000
30
0.0
11
23.800000
21
85.700000
31
0.0
0
LINE
8
0
10
23.800000
20
85.700000
30
0.0
11
24.100000
21
86.000000
31
0.0
0
LINE
8
0
10
24.100000
20
86.000000
30
0.0
11
23.800000
21
86.300000
31
0.0
0
LINE
8
0
10
23.800000
20
86.300000
30
0.0
11
24.100000
21
86.600000
31
0.0
0
LINE
8
0
10
24.100000
20
86.600000
30
0.0
11
35.150000
21
86.600000
31
0.0
0
LINE
8
0
10
35.150000
20
86.600000
30
0.0
11
35.150000
21
87.400000
31
0.0
0
LINE
8
0
10
35.150000
20
87.400000
30
0.0
11
36.000000
21
87.400000
31
0.0
0
LINE
8
0
10
36.000000
20
87.400000
30
0.0
11
36.000000
21
0.500000
31
0.0
0
ARC
8
0
10
35.500000
20
0.500000
30
0.0
40
0.500000
50
270.000000
51
0.000000
0
LINE
8
0
10
35.500000
20
0.000000
30
0.0
11
30.800000
21
0.000000
31
0.0
0
LINE
8
0
10
30.800000
20
0.000000
30
0.0
11
30.800000
21
1.300000
31
0.0
0
LINE
8
0
10
30.800000
20
1.300000
30
0.0
11
34.700000
21
1.300000
31
0.0
0
LINE
8
0
10
34.700000
20
1.300000
30
0.0
11
34.700000
21
4.300000
31
0.0
0
LINE
8
0
10
34.700000
20
4.300000
30
0.0
11
1.300000
21
4.300000
31
0.0
0
LINE
8
0
10
1.300000
20
4.300000
30
0.0
11
1.300000
21
1.300000
31
0.0
0
LINE
8
0
10
1.300000
20
1.300000
30
0.0
11
5.200000
21
1.300000
31
0.0
0
LINE
8
0
10
5.200000
20
1.300000
30
0.0
11
5.200000
21
0.000000
31
0.0
0
ATTDEF
8
0
10
0.000000
20
0.000000
30
0.0
40
3.5
1

3

2
FRONT_VIEW
70
0
0
ATTDEF
8
0
10
0.000000
20
0.000000
30
0.0
40
3.5
1

3

2
OPTI:500.000000,1,0,3000.000000,6020.000000,500.000000,0,0.000000,0
70
0
0
ATTDEF
8
0
10
0.000000
20
0.000000
30
0.0
40
3.5
1

3

2
GLASS_MIN:0.000000
70
0
0
ATTDEF
8
0
10
0.000000
20
0.000000
30
0.0
40
3.5
1

3

2
GLASS_MAX:0.000000
70
0
0
ATTDEF
8
0
10
0.000000
20
0.000000
30
0.0
40
3.5
1

3

2
WX:0.000000
70
0
0
ATTDEF
8
0
10
0.000000
20
0.000000
30
0.0
40
3.5
1

3

2
JY:0.000000
70
0
0
ATTDEF
8
0
10
0.000000
20
0.000000
30
0.0
40
3.5
1

3

2
WY:0.000000
70
0
0
ATTDEF
8
0
10
18.000000
20
69.300000
30
0.0
40
3.5
1

3

2
VC_START
70
0
0
ATTDEF
8
0
10
2.850000
20
0.000000
30
0.0
40
3.5
1

3

2
VC_END
70
0
0
ATTDEF
8
0
10
0.000000
20
0.000000
30
0.0
40
3.5
1

3

2
FP_LCS_ORIG
70
0
0
ATTDEF
8
0
10
10.000000
20
0.000000
30
0.0
40
3.5
1

3

2
FP_LCS_HOT
70
0
0
ATTDEF
8
0
10
0.000000
20
10.000000
30
0.0
40
3.5
1

3

2
FP_LCS_INTERN
70
0
0
ATTDEF
8
0
10
0.000000
20
0.000000
30
0.0
40
3.5
1

3

2
BL01:6020.000,,1
70
0
0
ATTDEF
8
0
10
0.000000
20
0.000000
30
0.0
40
3.5
1

3

2
DESC:Parante
70
0
0
ATTDEF
8
0
10
0.000000
20
0.000000
30
0.0
40
3.5
1

3

2
DENS:1.12
70
0
0
ATTDEF
8
0
10
0.000000
20
0.000000
30
0.0
40
3.5
1

3

2
TDEV:0
70
0
0
ATTDEF
8
0
10
0.000000
20
0.000000
30
0.0
40
3.5
1

3

2
TDEV2:0
70
0
0
ATTDEF
8
0
10
0.000000
20
0.000000
30
0.0
40
3.5
1

3

2
TDEV3:0
70
0
0
ATTDEF
8
0
10
0.000000
20
0.000000
30
0.0
40
3.5
1

3

2
TDEV4:0
70
0
0
ATTDEF
8
0
10
0.000000
20
0.000000
30
0.0
40
3.5
1

3

2
TDEV5:0
70
0
0
ATTDEF
8
0
10
0.000000
20
0.000000
30
0.0
40
3.5
1

3

2
PANE_WIDTH:0
70
0
0
ATTDEF
8
0
10
0.000000
20
0.000000
30
0.0
40
3.5
1

3

2
MIN_VETRO:0
70
0
0
ATTDEF
8
0
10
0.000000
20
0.000000
30
0.0
40
3.5
1

3

2
MAX_VETRO:0
70
0
0
ATTDEF
8
0
10
0.000000
20
0.000000
30
0.0
40
3.5
1

3

2
JX:0
70
0
0
ATTDEF
8
0
10
0.000000
20
0.000000
30
0.0
40
3.5
1

3

2
WX:0
70
0
0
ATTDEF
8
0
10
0.000000
20
0.000000
30
0.0
40
3.5
1

3

2
JY:0
70
0
0
ATTDEF
8
0
10
0.000000
20
0.000000
30
0.0
40
3.5
1

3

2
WY:0
70
0
0
ENDSEC
0
EOF
