0
SECTION
2
ENTITIES
0
LINE
8
0
10
26.200000
20
1.300000
30
0.0
11
2.700000
21
1.300000
31
0.0
0
ARC
8
0
10
2.700000
20
2.700000
30
0.0
40
1.400000
50
180.000000
51
270.000000
0
LINE
8
0
10
1.300000
20
2.700000
30
0.0
11
1.300000
21
13.100000
31
0.0
0
ARC
8
0
10
2.700000
20
13.100000
30
0.0
40
1.400000
50
90.000000
51
180.000000
0
LINE
8
0
10
2.700000
20
14.500000
30
0.0
11
24.000000
21
14.500000
31
0.0
0
ARC
8
0
10
24.000000
20
13.100000
30
0.0
40
1.400000
50
0.000000
51
90.000000
0
LINE
8
0
10
25.400000
20
13.100000
30
0.0
11
25.400000
21
7.000000
31
0.0
0
ARC
8
0
10
26.800000
20
7.000000
30
0.0
40
1.400000
50
180.000000
51
270.000000
0
LINE
8
0
10
26.800000
20
5.600000
30
0.0
11
27.600000
21
5.600000
31
0.0
0
LINE
8
0
10
27.600000
20
5.600000
30
0.0
11
27.600000
21
2.700000
31
0.0
0
ARC
8
0
10
26.200000
20
2.700000
30
0.0
40
1.400000
50
270.000000
51
0.000000
0
LINE
8
0
10
27.700000
20
6.900000
30
0.0
11
27.700000
21
7.600000
31
0.0
0
ARC
8
0
10
28.300000
20
7.600000
30
0.0
40
0.600000
50
0.000000
51
180.000000
0
LINE
8
0
10
28.900000
20
7.600000
30
0.0
11
28.900000
21
2.300000
31
0.0
0
ARC
8
0
10
29.900000
20
2.300000
30
0.0
40
1.000000
50
180.000000
51
270.000000
0
LINE
8
0
10
29.900000
20
1.300000
30
0.0
11
32.100000
21
1.300000
31
0.0
0
ARC
8
0
10
32.100000
20
3.400000
30
0.0
40
2.100000
50
270.000000
51
62.688103
0
LINE
8
0
10
33.063552
20
5.265896
30
0.0
11
34.600000
21
11.000000
31
0.0
0
LINE
8
0
10
34.600000
20
11.000000
30
0.0
11
35.500000
21
11.000000
31
0.0
0
LINE
8
0
10
35.500000
20
11.000000
30
0.0
11
35.500000
21
1.000000
31
0.0
0
ARC
8
0
10
34.500000
20
1.000000
30
0.0
40
1.000000
50
270.000000
51
0.000000
0
LINE
8
0
10
34.500000
20
0.000000
30
0.0
11
1.000000
21
0.000000
31
0.0
0
ARC
8
0
10
1.000000
20
1.000000
30
0.0
40
1.000000
50
180.000000
51
270.000000
0
LINE
8
0
10
0.000000
20
1.000000
30
0.0
11
0.000000
21
14.800000
31
0.0
0
ARC
8
0
10
1.000000
20
14.800000
30
0.0
40
1.000000
50
90.000000
51
180.000000
0
LINE
8
0
10
1.000000
20
15.800000
30
0.0
11
3.850000
21
15.800000
31
0.0
0
ARC
8
0
10
3.850000
20
16.800000
30
0.0
40
1.000000
50
270.000000
51
0.000000
0
LINE
8
0
10
4.850000
20
16.800000
30
0.0
11
4.850000
21
27.800000
31
0.0
0
ARC
8
0
10
4.850000
20
28.800000
30
0.0
40
1.000000
50
180.000000
51
270.000000
0
LINE
8
0
10
3.850000
20
28.800000
30
0.0
11
3.850000
21
30.800000
31
0.0
0
ARC
8
0
10
4.850000
20
30.800000
30
0.0
40
1.000000
50
90.000000
51
180.000000
0
LINE
8
0
10
4.850000
20
31.800000
30
0.0
11
4.850000
21
29.800000
31
0.0
0
LINE
8
0
10
4.850000
20
29.800000
30
0.0
11
7.750000
21
29.800000
31
0.0
0
ARC
8
0
10
7.750000
20
29.300000
30
0.0
40
0.500000
50
270.000000
51
90.000000
0
LINE
8
0
10
7.750000
20
28.800000
30
0.0
11
7.165503
21
28.800000
31
0.0
0
ARC
8
0
10
7.165503
20
27.800000
30
0.0
40
1.000000
50
90.000000
51
180.881404
0
LINE
8
0
10
6.165621
20
27.784617
30
0.0
11
6.334852
21
16.784617
31
0.0
0
ARC
8
0
10
7.334734
20
16.800000
30
0.0
40
1.000000
50
180.881404
51
270.000000
0
LINE
8
0
10
7.334734
20
15.800000
30
0.0
11
14.150000
21
15.800000
31
0.0
0
LINE
8
0
10
14.150000
20
15.800000
30
0.0
11
14.450000
21
15.500000
31
0.0
0
LINE
8
0
10
14.450000
20
15.500000
30
0.0
11
14.750000
21
15.800000
31
0.0
0
LINE
8
0
10
14.750000
20
15.800000
30
0.0
11
21.565266
21
15.800000
31
0.0
0
ARC
8
0
10
21.565266
20
16.800000
30
0.0
40
1.000000
50
270.000000
51
359.118596
0
LINE
8
0
10
22.565148
20
16.784617
30
0.0
11
22.734379
21
27.784617
31
0.0
0
ARC
8
0
10
21.734497
20
27.800000
30
0.0
40
1.000000
50
359.118596
51
90.000000
0
LINE
8
0
10
21.734497
20
28.800000
30
0.0
11
21.150000
21
28.800000
31
0.0
0
ARC
8
0
10
21.150000
20
29.300000
30
0.0
40
0.500000
50
90.000000
51
270.000000
0
LINE
8
0
10
21.150000
20
29.800000
30
0.0
11
24.050000
21
29.800000
31
0.0
0
LINE
8
0
10
24.050000
20
29.800000
30
0.0
11
24.050000
21
31.800000
31
0.0
0
ARC
8
0
10
24.050000
20
30.800000
30
0.0
40
1.000000
50
0.000000
51
90.000000
0
LINE
8
0
10
25.050000
20
30.800000
30
0.0
11
25.050000
21
28.800000
31
0.0
0
ARC
8
0
10
24.050000
20
28.800000
30
0.0
40
1.000000
50
270.000000
51
0.000000
0
LINE
8
0
10
24.050000
20
27.800000
30
0.0
11
24.050000
21
21.100000
31
0.0
0
LINE
8
0
10
24.050000
20
21.100000
30
0.0
11
28.250000
21
21.100000
31
0.0
0
ARC
8
0
10
28.250000
20
20.450000
30
0.0
40
0.650000
50
270.000000
51
90.000000
0
LINE
8
0
10
28.250000
20
19.800000
30
0.0
11
24.050000
21
19.800000
31
0.0
0
LINE
8
0
10
24.050000
20
19.800000
30
0.0
11
24.050000
21
16.800000
31
0.0
0
ARC
8
0
10
25.050000
20
16.800000
30
0.0
40
1.000000
50
180.000000
51
270.000000
0
LINE
8
0
10
25.050000
20
15.800000
30
0.0
11
27.900000
21
15.800000
31
0.0
0
ARC
8
0
10
27.900000
20
14.800000
30
0.0
40
1.000000
50
0.000000
51
90.000000
0
LINE
8
0
10
28.900000
20
14.800000
30
0.0
11
28.900000
21
13.800000
31
0.0
0
ARC
8
0
10
28.300000
20
13.800000
30
0.0
40
0.600000
50
180.000000
51
0.000000
0
LINE
8
0
10
27.700000
20
13.800000
30
0.0
11
27.700000
21
14.500000
31
0.0
0
LINE
8
0
10
27.700000
20
14.500000
30
0.0
11
26.700000
21
14.500000
31
0.0
0
LINE
8
0
10
26.700000
20
14.500000
30
0.0
11
26.700000
21
6.900000
31
0.0
0
LINE
8
0
10
26.700000
20
6.900000
30
0.0
11
27.700000
21
6.900000
31
0.0
0
ATTDEF
8
0
10
10.742367
20
15.800000
30
0.0
40
3.5
1

3

2
VC_START
70
0
0
ATTDEF
8
0
10
34.500000
20
0.000000
30
0.0
40
3.5
1

3

2
VC_END
70
0
0
ATTDEF
8
0
10
35.500000
20
0.000000
30
0.0
40
3.5
1

3

2
FRONT_VIEW
70
0
0
ATTDEF
8
0
10
35.500000
20
0.000000
30
0.0
40
3.5
1

3

2
OPTI:500.000000,1,0,3000.000000,6020.000000,500.000000,0,0.000000,0
70
0
0
ATTDEF
8
0
10
35.500000
20
0.000000
30
0.0
40
3.5
1

3

2
GLASS_MIN:0.000000
70
0
0
ATTDEF
8
0
10
35.500000
20
0.000000
30
0.0
40
3.5
1

3

2
GLASS_MAX:0.000000
70
0
0
ATTDEF
8
0
10
35.500000
20
0.000000
30
0.0
40
3.5
1

3

2
JX:0.000000
70
0
0
ATTDEF
8
0
10
35.500000
20
0.000000
30
0.0
40
3.5
1

3

2
WX:0.000000
70
0
0
ATTDEF
8
0
10
35.500000
20
0.000000
30
0.0
40
3.5
1

3

2
JY:0.000000
70
0
0
ATTDEF
8
0
10
35.500000
20
0.000000
30
0.0
40
3.5
1

3

2
WY:0.000000
70
0
0
ATTDEF
8
0
10
35.500000
20
0.000000
30
0.0
40
3.5
1

3

2
FP_LCS_ORIG
70
0
0
ATTDEF
8
0
10
25.500000
20
0.000000
30
0.0
40
3.5
1

3

2
FP_LCS_HOT
70
0
0
ATTDEF
8
0
10
35.500000
20
10.000000
30
0.0
40
3.5
1

3

2
FP_LCS_INTERN
70
0
0
ATTDEF
8
0
10
0.000000
20
0.000000
30
0.0
40
3.5
1

3

2
BL01:6020.000,,1
70
0
0
ATTDEF
8
0
10
0.000000
20
0.000000
30
0.0
40
3.5
1

3

2
DESC:Parante Central Hoja Corrediza
70
0
0
ATTDEF
8
0
10
0.000000
20
0.000000
30
0.0
40
3.5
1

3

2
DENS:0.518
70
0
0
ATTDEF
8
0
10
0.000000
20
0.000000
30
0.0
40
3.5
1

3

2
TDEV:0
70
0
0
ATTDEF
8
0
10
0.000000
20
0.000000
30
0.0
40
3.5
1

3

2
TDEV2:0
70
0
0
ATTDEF
8
0
10
0.000000
20
0.000000
30
0.0
40
3.5
1

3

2
TDEV3:0
70
0
0
ATTDEF
8
0
10
0.000000
20
0.000000
30
0.0
40
3.5
1

3

2
TDEV4:0
70
0
0
ATTDEF
8
0
10
0.000000
20
0.000000
30
0.0
40
3.5
1

3

2
TDEV5:0
70
0
0
ATTDEF
8
0
10
0.000000
20
0.000000
30
0.0
40
3.5
1

3

2
PANE_WIDTH:12.4
70
0
0
ATTDEF
8
0
10
0.000000
20
0.000000
30
0.0
40
3.5
1

3

2
MIN_VETRO:0
70
0
0
ATTDEF
8
0
10
0.000000
20
0.000000
30
0.0
40
3.5
1

3

2
MAX_VETRO:0
70
0
0
ATTDEF
8
0
10
0.000000
20
0.000000
30
0.0
40
3.5
1

3

2
JX:0
70
0
0
ATTDEF
8
0
10
0.000000
20
0.000000
30
0.0
40
3.5
1

3

2
WX:0
70
0
0
ATTDEF
8
0
10
0.000000
20
0.000000
30
0.0
40
3.5
1

3

2
JY:0
70
0
0
ATTDEF
8
0
10
0.000000
20
0.000000
30
0.0
40
3.5
1

3

2
WY:0
70
0
0
ENDSEC
0
EOF
