0
SECTION
2
ENTITIES
0
ARC
8
0
10
68.000000
20
1.000000
30
0.0
40
1.000000
50
180.000000
51
0.000000
0
LINE
8
0
10
67.000000
20
1.000000
30
0.0
11
67.000000
21
3.491651
31
0.0
0
ARC
8
0
10
66.000000
20
3.491651
30
0.0
40
1.000000
50
0.000000
51
86.863642
0
LINE
8
0
10
66.054712
20
4.490153
30
0.0
11
55.054712
21
5.092892
31
0.0
0
ARC
8
0
10
55.000000
20
4.094390
30
0.0
40
1.000000
50
86.863642
51
180.000000
0
LINE
8
0
10
54.000000
20
4.094390
30
0.0
11
54.000000
21
1.000000
31
0.0
0
ARC
8
0
10
53.000000
20
1.000000
30
0.0
40
1.000000
50
180.000000
51
0.000000
0
LINE
8
0
10
52.000000
20
1.000000
30
0.0
11
52.000000
21
4.313568
31
0.0
0
ARC
8
0
10
51.000000
20
4.313568
30
0.0
40
1.000000
50
0.000000
51
86.863642
0
LINE
8
0
10
51.054712
20
5.312071
30
0.0
11
23.554712
21
6.818920
31
0.0
0
ARC
8
0
10
23.500000
20
5.820418
30
0.0
40
1.000000
50
86.863642
51
180.000000
0
LINE
8
0
10
22.500000
20
5.820418
30
0.0
11
22.500000
21
1.000000
31
0.0
0
ARC
8
0
10
21.500000
20
1.000000
30
0.0
40
1.000000
50
180.000000
51
0.000000
0
LINE
8
0
10
20.500000
20
1.000000
30
0.0
11
20.500000
21
6.039596
31
0.0
0
ARC
8
0
10
19.500000
20
6.039596
30
0.0
40
1.000000
50
0.000000
51
86.863642
0
LINE
8
0
10
19.554712
20
7.038098
30
0.0
11
3.054712
21
7.942208
31
0.0
0
ARC
8
0
10
3.000000
20
6.943705
30
0.0
40
1.000000
50
86.863642
51
180.000000
0
LINE
8
0
10
2.000000
20
6.943705
30
0.0
11
2.000000
21
1.000000
31
0.0
0
ARC
8
0
10
1.000000
20
1.000000
30
0.0
40
1.000000
50
180.000000
51
0.000000
0
LINE
8
0
10
0.000000
20
1.000000
30
0.0
11
0.000000
21
24.000000
31
0.0
0
LINE
8
0
10
0.000000
20
24.000000
30
0.0
11
2.000000
21
24.000000
31
0.0
0
LINE
8
0
10
2.000000
20
24.000000
30
0.0
11
2.000000
21
12.843117
31
0.0
0
ARC
8
0
10
5.000000
20
12.843117
30
0.0
40
3.000000
50
180.000000
51
266.863642
0
LINE
8
0
10
4.835863
20
9.847610
30
0.0
11
11.335863
21
9.491446
31
0.0
0
ARC
8
0
10
11.500000
20
12.486953
30
0.0
40
3.000000
50
266.863642
51
0.000000
0
LINE
8
0
10
14.500000
20
12.486953
30
0.0
11
14.500000
21
23.500000
31
0.0
0
ARC
8
0
10
18.500000
20
7.591563
30
0.0
40
16.403609
50
75.886189
51
104.113811
0
LINE
8
0
10
22.500000
20
23.500000
30
0.0
11
22.500000
21
17.500000
31
0.0
0
ARC
8
0
10
21.500000
20
17.500000
30
0.0
40
1.000000
50
209.397055
51
0.000000
0
LINE
8
0
10
20.628761
20
17.009141
30
0.0
11
19.800000
21
18.480132
31
0.0
0
ARC
8
0
10
18.500000
20
20.000000
30
0.0
40
2.000000
50
310.541602
51
229.458398
0
LINE
8
0
10
17.200000
20
18.480132
30
0.0
11
16.500000
21
16.500000
31
0.0
0
LINE
8
0
10
16.500000
20
16.500000
30
0.0
11
16.500000
21
9.208480
31
0.0
0
LINE
8
0
10
16.500000
20
9.208480
30
0.0
11
37.165190
21
8.076140
31
0.0
0
LINE
8
0
10
37.165190
20
8.076140
30
0.0
11
37.500000
21
7.741330
31
0.0
0
LINE
8
0
10
37.500000
20
7.741330
30
0.0
11
37.800025
21
8.041355
31
0.0
0
LINE
8
0
10
37.800025
20
8.041355
30
0.0
11
54.835863
21
7.107884
31
0.0
0
ARC
8
0
10
55.000000
20
10.103391
30
0.0
40
3.000000
50
266.863642
51
0.000000
0
LINE
8
0
10
58.000000
20
10.103391
30
0.0
11
58.000000
21
16.500000
31
0.0
0
LINE
8
0
10
58.000000
20
16.500000
30
0.0
11
57.300000
21
18.480132
31
0.0
0
ARC
8
0
10
56.000000
20
20.000000
30
0.0
40
2.000000
50
310.541602
51
229.458398
0
LINE
8
0
10
54.700000
20
18.480132
30
0.0
11
53.871239
21
17.009141
31
0.0
0
ARC
8
0
10
53.000000
20
17.500000
30
0.0
40
1.000000
50
180.000000
51
330.602945
0
LINE
8
0
10
52.000000
20
17.500000
30
0.0
11
52.000000
21
23.500000
31
0.0
0
ARC
8
0
10
56.000000
20
7.591563
30
0.0
40
16.403609
50
75.886189
51
104.113811
0
LINE
8
0
10
60.000000
20
23.500000
30
0.0
11
60.000000
21
6.824918
31
0.0
0
LINE
8
0
10
60.000000
20
6.824918
30
0.0
11
71.417931
21
6.199278
31
0.0
0
ARC
8
0
10
71.500000
20
7.697031
30
0.0
40
1.500000
50
266.863642
51
0.000000
0
LINE
8
0
10
73.000000
20
7.697031
30
0.0
11
73.000000
21
14.500000
31
0.0
0
ARC
8
0
10
75.000000
20
14.500000
30
0.0
40
2.000000
50
90.000000
51
180.000000
0
LINE
8
0
10
75.000000
20
16.500000
30
0.0
11
81.000000
21
16.500000
31
0.0
0
ARC
8
0
10
81.000000
20
17.500000
30
0.0
40
1.000000
50
270.000000
51
0.000000
0
LINE
8
0
10
82.000000
20
17.500000
30
0.0
11
82.000000
21
23.000000
31
0.0
0
ARC
8
0
10
83.000000
20
23.000000
30
0.0
40
1.000000
50
0.000000
51
180.000000
0
LINE
8
0
10
84.000000
20
23.000000
30
0.0
11
84.000000
21
17.500000
31
0.0
0
ARC
8
0
10
81.000000
20
17.500000
30
0.0
40
3.000000
50
270.000000
51
0.000000
0
LINE
8
0
10
81.000000
20
14.500000
30
0.0
11
75.000000
21
14.500000
31
0.0
0
LINE
8
0
10
75.000000
20
14.500000
30
0.0
11
75.000000
21
9.300000
31
0.0
0
LINE
8
0
10
75.000000
20
9.300000
30
0.0
11
74.700000
21
9.000000
31
0.0
0
LINE
8
0
10
74.700000
20
9.000000
30
0.0
11
75.000000
21
8.700000
31
0.0
0
LINE
8
0
10
75.000000
20
8.700000
30
0.0
11
75.000000
21
7.697031
31
0.0
0
ARC
8
0
10
71.500000
20
7.697031
30
0.0
40
3.500000
50
266.863642
51
0.000000
0
LINE
8
0
10
71.308506
20
4.202274
30
0.0
11
70.054712
21
4.270975
31
0.0
0
ARC
8
0
10
70.000000
20
3.272473
30
0.0
40
1.000000
50
86.863642
51
180.000000
0
LINE
8
0
10
69.000000
20
3.272473
30
0.0
11
69.000000
21
1.000000
31
0.0
0
ATTDEF
8
0
10
0.000000
20
0.000000
30
0.0
40
3.5
1

3

2
FRONT_VIEW
70
0
0
ATTDEF
8
0
10
0.000000
20
0.000000
30
0.0
40
3.5
1

3

2
OPTI:500.000000,1,0,3000.000000,6020.000000,500.000000,0,0.000000,0
70
0
0
ATTDEF
8
0
10
0.000000
20
0.000000
30
0.0
40
3.5
1

3

2
GLASS_MIN:0.000000
70
0
0
ATTDEF
8
0
10
0.000000
20
0.000000
30
0.0
40
3.5
1

3

2
GLASS_MAX:0.000000
70
0
0
ATTDEF
8
0
10
0.000000
20
0.000000
30
0.0
40
3.5
1

3

2
WX:0.000000
70
0
0
ATTDEF
8
0
10
0.000000
20
0.000000
30
0.0
40
3.5
1

3

2
JY:0.000000
70
0
0
ATTDEF
8
0
10
0.000000
20
0.000000
30
0.0
40
3.5
1

3

2
WY:0.000000
70
0
0
ATTDEF
8
0
10
18.500000
20
23.995171
30
0.0
40
3.5
1

3

2
VC_START
70
0
0
ATTDEF
8
0
10
21.500000
20
-0.000000
30
0.0
40
3.5
1

3

2
VC_END
70
0
0
ATTDEF
8
0
10
0.000000
20
0.000000
30
0.0
40
3.5
1

3

2
FP_LCS_ORIG
70
0
0
ATTDEF
8
0
10
10.000000
20
0.000000
30
0.0
40
3.5
1

3

2
FP_LCS_HOT
70
0
0
ATTDEF
8
0
10
0.000000
20
10.000000
30
0.0
40
3.5
1

3

2
FP_LCS_INTERN
70
0
0
ATTDEF
8
0
10
0.000000
20
0.000000
30
0.0
40
3.5
1

3

2
BL01:6020.000,,1
70
0
0
ATTDEF
8
0
10
0.000000
20
0.000000
30
0.0
40
3.5
1

3

2
DESC:Umbral Puerta Corrediza - 2 Rieles
70
0
0
ATTDEF
8
0
10
0.000000
20
0.000000
30
0.0
40
3.5
1

3

2
DENS:1.05
70
0
0
ATTDEF
8
0
10
0.000000
20
0.000000
30
0.0
40
3.5
1

3

2
TDEV:0
70
0
0
ATTDEF
8
0
10
0.000000
20
0.000000
30
0.0
40
3.5
1

3

2
TDEV2:0
70
0
0
ATTDEF
8
0
10
0.000000
20
0.000000
30
0.0
40
3.5
1

3

2
TDEV3:0
70
0
0
ATTDEF
8
0
10
0.000000
20
0.000000
30
0.0
40
3.5
1

3

2
TDEV4:0
70
0
0
ATTDEF
8
0
10
0.000000
20
0.000000
30
0.0
40
3.5
1

3

2
TDEV5:0
70
0
0
ATTDEF
8
0
10
0.000000
20
0.000000
30
0.0
40
3.5
1

3

2
PANE_WIDTH:0
70
0
0
ATTDEF
8
0
10
0.000000
20
0.000000
30
0.0
40
3.5
1

3

2
MIN_VETRO:0
70
0
0
ATTDEF
8
0
10
0.000000
20
0.000000
30
0.0
40
3.5
1

3

2
MAX_VETRO:0
70
0
0
ATTDEF
8
0
10
0.000000
20
0.000000
30
0.0
40
3.5
1

3

2
JX:0
70
0
0
ATTDEF
8
0
10
0.000000
20
0.000000
30
0.0
40
3.5
1

3

2
WX:0
70
0
0
ATTDEF
8
0
10
0.000000
20
0.000000
30
0.0
40
3.5
1

3

2
JY:0
70
0
0
ATTDEF
8
0
10
0.000000
20
0.000000
30
0.0
40
3.5
1

3

2
WY:0
70
0
0
ENDSEC
0
EOF
