0
SECTION
2
ENTITIES
0
LINE
8
0
10
3.299970
20
23.200000
30
0.0
11
3.000000
21
23.499970
31
0.0
0
LINE
8
0
10
3.000000
20
23.499970
30
0.0
11
3.000000
21
33.449990
31
0.0
0
LINE
8
0
10
3.000000
20
33.449990
30
0.0
11
3.300000
21
33.750000
31
0.0
0
LINE
8
0
10
3.300000
20
33.750000
30
0.0
11
3.000000
21
34.050000
31
0.0
0
LINE
8
0
10
3.000000
20
34.050000
30
0.0
11
3.000000
21
36.800090
31
0.0
0
LINE
8
0
10
3.000000
20
36.800090
30
0.0
11
3.500000
21
37.300000
31
0.0
0
LINE
8
0
10
3.500000
20
37.300000
30
0.0
11
3.500000
21
40.606620
31
0.0
0
ARC
8
0
10
3.200000
20
40.606620
30
0.0
40
0.300000
50
0.000000
51
88.061500
0
LINE
8
0
10
3.210148
20
40.906448
30
0.0
11
0.500000
21
38.100000
31
0.0
0
LINE
8
0
10
0.500000
20
38.100000
30
0.0
11
0.000000
21
38.100000
31
0.0
0
ARC
8
0
10
5.500000
20
38.100000
30
0.0
40
5.500000
50
90.000000
51
180.000000
0
LINE
8
0
10
5.500000
20
43.600000
30
0.0
11
5.500000
21
45.400000
31
0.0
0
LINE
8
0
10
5.500000
20
45.400000
30
0.0
11
7.200010
21
45.400000
31
0.0
0
LINE
8
0
10
7.200010
20
45.400000
30
0.0
11
7.500000
21
45.100000
31
0.0
0
LINE
8
0
10
7.500000
20
45.100000
30
0.0
11
7.800000
21
45.400000
31
0.0
0
LINE
8
0
10
7.800000
20
45.400000
30
0.0
11
73.700000
21
45.400000
31
0.0
0
LINE
8
0
10
73.700000
20
45.400000
30
0.0
11
73.700000
21
46.400000
31
0.0
0
LINE
8
0
10
73.700000
20
46.400000
30
0.0
11
79.600000
21
46.400000
31
0.0
0
LINE
8
0
10
79.600000
20
46.400000
30
0.0
11
79.600000
21
45.400000
31
0.0
0
LINE
8
0
10
79.600000
20
45.400000
30
0.0
11
78.600000
21
45.400000
31
0.0
0
LINE
8
0
10
78.600000
20
45.400000
30
0.0
11
78.600000
21
43.900000
31
0.0
0
LINE
8
0
10
78.600000
20
43.900000
30
0.0
11
77.700050
21
43.000150
31
0.0
0
LINE
8
0
10
77.700050
20
43.000150
30
0.0
11
76.550190
21
44.150000
31
0.0
0
LINE
8
0
10
76.550190
20
44.150000
30
0.0
11
75.600000
21
44.150000
31
0.0
0
LINE
8
0
10
75.600000
20
44.150000
30
0.0
11
75.600000
21
28.800000
31
0.0
0
LINE
8
0
10
75.600000
20
28.800000
30
0.0
11
77.000000
21
28.800000
31
0.0
0
ARC
8
0
10
77.000000
20
29.400000
30
0.0
40
0.600000
50
270.000000
51
0.000000
0
LINE
8
0
10
77.600000
20
29.400000
30
0.0
11
77.600000
21
30.799990
31
0.0
0
LINE
8
0
10
77.600000
20
30.799990
30
0.0
11
78.100000
21
31.300000
31
0.0
0
LINE
8
0
10
78.100000
20
31.300000
30
0.0
11
78.600000
21
31.300000
31
0.0
0
LINE
8
0
10
78.600000
20
31.300000
30
0.0
11
78.600000
21
15.100000
31
0.0
0
LINE
8
0
10
78.600000
20
15.100000
30
0.0
11
78.100000
21
15.100000
31
0.0
0
LINE
8
0
10
78.100000
20
15.100000
30
0.0
11
77.600000
21
15.600010
31
0.0
0
LINE
8
0
10
77.600000
20
15.600010
30
0.0
11
77.600000
21
17.000000
31
0.0
0
ARC
8
0
10
77.000000
20
17.000000
30
0.0
40
0.600000
50
0.000000
51
90.000000
0
LINE
8
0
10
77.000000
20
17.600000
30
0.0
11
75.600000
21
17.600000
31
0.0
0
LINE
8
0
10
75.600000
20
17.600000
30
0.0
11
75.600000
21
2.250000
31
0.0
0
LINE
8
0
10
75.600000
20
2.250000
30
0.0
11
76.550190
21
2.250000
31
0.0
0
LINE
8
0
10
76.550190
20
2.250000
30
0.0
11
77.700050
21
3.399850
31
0.0
0
LINE
8
0
10
77.700050
20
3.399850
30
0.0
11
78.600000
21
2.500000
31
0.0
0
LINE
8
0
10
78.600000
20
2.500000
30
0.0
11
78.600000
21
1.000000
31
0.0
0
LINE
8
0
10
78.600000
20
1.000000
30
0.0
11
79.600000
21
1.000000
31
0.0
0
LINE
8
0
10
79.600000
20
1.000000
30
0.0
11
79.600000
21
0.000000
31
0.0
0
LINE
8
0
10
79.600000
20
0.000000
30
0.0
11
73.700000
21
0.000000
31
0.0
0
LINE
8
0
10
73.700000
20
0.000000
30
0.0
11
73.700000
21
1.000000
31
0.0
0
LINE
8
0
10
73.700000
20
1.000000
30
0.0
11
7.800000
21
1.000000
31
0.0
0
LINE
8
0
10
7.800000
20
1.000000
30
0.0
11
7.500000
21
1.300000
31
0.0
0
LINE
8
0
10
7.500000
20
1.300000
30
0.0
11
7.200010
21
1.000000
31
0.0
0
LINE
8
0
10
7.200010
20
1.000000
30
0.0
11
5.500000
21
1.000000
31
0.0
0
LINE
8
0
10
5.500000
20
1.000000
30
0.0
11
5.500000
21
2.800000
31
0.0
0
ARC
8
0
10
5.500000
20
8.300000
30
0.0
40
5.500000
50
180.000000
51
270.000000
0
LINE
8
0
10
0.000000
20
8.300000
30
0.0
11
0.500000
21
8.300000
31
0.0
0
LINE
8
0
10
0.500000
20
8.300000
30
0.0
11
3.210148
21
5.493552
31
0.0
0
ARC
8
0
10
3.200000
20
5.793380
30
0.0
40
0.300000
50
271.938500
51
0.000000
0
LINE
8
0
10
3.500000
20
5.793380
30
0.0
11
3.500000
21
9.100000
31
0.0
0
LINE
8
0
10
3.500000
20
9.100000
30
0.0
11
3.000000
21
9.599910
31
0.0
0
LINE
8
0
10
3.000000
20
9.599910
30
0.0
11
3.000000
21
12.350000
31
0.0
0
LINE
8
0
10
3.000000
20
12.350000
30
0.0
11
3.300000
21
12.650000
31
0.0
0
LINE
8
0
10
3.300000
20
12.650000
30
0.0
11
3.000000
21
12.950010
31
0.0
0
LINE
8
0
10
3.000000
20
12.950010
30
0.0
11
3.000000
21
22.900030
31
0.0
0
LINE
8
0
10
3.000000
20
22.900030
30
0.0
11
3.299970
21
23.200000
31
0.0
0
ARC
8
0
10
10.500000
20
5.300000
30
0.0
40
1.000000
50
0.000000
51
180.000000
0
LINE
8
0
10
9.500000
20
5.300000
30
0.0
11
9.500000
21
2.800000
31
0.0
0
LINE
8
0
10
9.500000
20
2.800000
30
0.0
11
5.500000
21
4.500000
31
0.0
0
LINE
8
0
10
5.500000
20
4.500000
30
0.0
11
5.500000
21
17.150000
31
0.0
0
LINE
8
0
10
5.500000
20
17.150000
30
0.0
11
5.000000
21
17.650000
31
0.0
0
LINE
8
0
10
5.000000
20
17.650000
30
0.0
11
5.000000
21
28.750002
31
0.0
0
LINE
8
0
10
5.000000
20
28.750002
30
0.0
11
5.500000
21
29.250002
31
0.0
0
LINE
8
0
10
5.500000
20
29.250002
30
0.0
11
5.500000
21
41.900004
31
0.0
0
LINE
8
0
10
5.500000
20
41.900004
30
0.0
11
9.500000
21
43.600004
31
0.0
0
LINE
8
0
10
9.500000
20
43.600004
30
0.0
11
9.500000
21
41.100004
31
0.0
0
ARC
8
0
10
10.500000
20
41.100004
30
0.0
40
1.000000
50
180.000000
51
0.000000
0
LINE
8
0
10
11.500000
20
41.100004
30
0.0
11
11.500000
21
42.600004
31
0.0
0
ARC
8
0
10
12.500000
20
42.600004
30
0.0
40
1.000000
50
90.000000
51
180.000000
0
LINE
8
0
10
12.500000
20
43.600004
30
0.0
11
72.700000
21
43.600004
31
0.0
0
ARC
8
0
10
72.700000
20
42.600004
30
0.0
40
1.000000
50
0.000000
51
90.000000
0
LINE
8
0
10
73.700000
20
42.600004
30
0.0
11
73.700000
21
3.800000
31
0.0
0
ARC
8
0
10
72.700000
20
3.800000
30
0.0
40
1.000000
50
270.000000
51
0.000000
0
LINE
8
0
10
72.700000
20
2.800000
30
0.0
11
12.500000
21
2.800000
31
0.0
0
ARC
8
0
10
12.500000
20
3.800000
30
0.0
40
1.000000
50
180.000000
51
270.000000
0
LINE
8
0
10
11.500000
20
3.800000
30
0.0
11
11.500000
21
5.300000
31
0.0
0
ATTDEF
8
0
10
78.600000
20
23.200000
30
0.0
40
3.5
1

3

2
HC_START
70
0
0
ATTDEF
8
0
10
0.000000
20
38.100000
30
0.0
40
3.5
1

3

2
HC_END
70
0
0
ATTDEF
8
0
10
0.000000
20
46.400000
30
0.0
40
3.5
1

3

2
FRONT_VIEW
70
0
0
ATTDEF
8
0
10
0.000000
20
46.400000
30
0.0
40
3.5
1

3

2
OPTI:500.000000,1,0,3000.000000,6020.000000,500.000000,0,0.000000,0
70
0
0
ATTDEF
8
0
10
0.000000
20
46.400000
30
0.0
40
3.5
1

3

2
GLASS_MIN:0.000000
70
0
0
ATTDEF
8
0
10
0.000000
20
46.400000
30
0.0
40
3.5
1

3

2
GLASS_MAX:0.000000
70
0
0
ATTDEF
8
0
10
0.000000
20
46.400000
30
0.0
40
3.5
1

3

2
JX:0.000000
70
0
0
ATTDEF
8
0
10
0.000000
20
46.400000
30
0.0
40
3.5
1

3

2
WX:0.000000
70
0
0
ATTDEF
8
0
10
0.000000
20
46.400000
30
0.0
40
3.5
1

3

2
JY:0.000000
70
0
0
ATTDEF
8
0
10
0.000000
20
46.400000
30
0.0
40
3.5
1

3

2
WY:0.000000
70
0
0
ATTDEF
8
0
10
0.000000
20
46.400000
30
0.0
40
3.5
1

3

2
FP_LCS_ORIG
70
0
0
ATTDEF
8
0
10
0.000000
20
36.400000
30
0.0
40
3.5
1

3

2
FP_LCS_HOT
70
0
0
ATTDEF
8
0
10
10.000000
20
46.400000
30
0.0
40
3.5
1

3

2
FP_LCS_INTERN
70
0
0
ATTDEF
8
0
10
0.000000
20
0.000000
30
0.0
40
3.5
1

3

2
BL01:6020.000,,1
70
0
0
ATTDEF
8
0
10
0.000000
20
0.000000
30
0.0
40
3.5
1

3

2
DESC:Parante Hoja
70
0
0
ATTDEF
8
0
10
0.000000
20
0.000000
30
0.0
40
3.5
1

3

2
DENS:1.364
70
0
0
ATTDEF
8
0
10
0.000000
20
0.000000
30
0.0
40
3.5
1

3

2
TDEV:0
70
0
0
ATTDEF
8
0
10
0.000000
20
0.000000
30
0.0
40
3.5
1

3

2
TDEV2:0
70
0
0
ATTDEF
8
0
10
0.000000
20
0.000000
30
0.0
40
3.5
1

3

2
TDEV3:0
70
0
0
ATTDEF
8
0
10
0.000000
20
0.000000
30
0.0
40
3.5
1

3

2
TDEV4:0
70
0
0
ATTDEF
8
0
10
0.000000
20
0.000000
30
0.0
40
3.5
1

3

2
TDEV5:0
70
0
0
ATTDEF
8
0
10
0.000000
20
0.000000
30
0.0
40
3.5
1

3

2
PANE_WIDTH:0
70
0
0
ATTDEF
8
0
10
0.000000
20
0.000000
30
0.0
40
3.5
1

3

2
MIN_VETRO:0
70
0
0
ATTDEF
8
0
10
0.000000
20
0.000000
30
0.0
40
3.5
1

3

2
MAX_VETRO:0
70
0
0
ATTDEF
8
0
10
0.000000
20
0.000000
30
0.0
40
3.5
1

3

2
JX:0
70
0
0
ATTDEF
8
0
10
0.000000
20
0.000000
30
0.0
40
3.5
1

3

2
WX:0
70
0
0
ATTDEF
8
0
10
0.000000
20
0.000000
30
0.0
40
3.5
1

3

2
JY:0
70
0
0
ATTDEF
8
0
10
0.000000
20
0.000000
30
0.0
40
3.5
1

3

2
WY:0
70
0
0
ENDSEC
0
EOF
