0
SECTION
2
ENTITIES
0
LINE
8
0
10
1.400000
20
5.800000
30
0.0
11
1.400000
21
75.300000
31
0.0
0
LINE
8
0
10
1.400000
20
75.300000
30
0.0
11
16.600000
21
75.300000
31
0.0
0
LINE
8
0
10
16.600000
20
75.300000
30
0.0
11
16.600000
21
72.200000
31
0.0
0
LINE
8
0
10
16.600000
20
72.200000
30
0.0
11
17.500000
21
72.200000
31
0.0
0
LINE
8
0
10
17.500000
20
72.200000
30
0.0
11
17.700000
21
72.400000
31
0.0
0
LINE
8
0
10
17.700000
20
72.400000
30
0.0
11
17.900000
21
72.200000
31
0.0
0
LINE
8
0
10
17.900000
20
72.200000
30
0.0
11
34.000000
21
72.200000
31
0.0
0
LINE
8
0
10
34.000000
20
72.200000
30
0.0
11
34.000000
21
5.800000
31
0.0
0
LINE
8
0
10
34.000000
20
5.800000
30
0.0
11
27.300000
21
5.800000
31
0.0
0
LINE
8
0
10
27.300000
20
5.800000
30
0.0
11
26.700000
21
6.400000
31
0.0
0
LINE
8
0
10
26.700000
20
6.400000
30
0.0
11
8.700000
21
6.400000
31
0.0
0
LINE
8
0
10
8.700000
20
6.400000
30
0.0
11
8.100000
21
5.800000
31
0.0
0
LINE
8
0
10
8.100000
20
5.800000
30
0.0
11
1.400000
21
5.800000
31
0.0
0
LINE
8
0
10
24.400000
20
4.400000
30
0.0
11
18.000000
21
4.400000
31
0.0
0
LINE
8
0
10
18.000000
20
4.400000
30
0.0
11
17.700000
21
4.700000
31
0.0
0
LINE
8
0
10
17.700000
20
4.700000
30
0.0
11
17.400000
21
4.400000
31
0.0
0
LINE
8
0
10
17.400000
20
4.400000
30
0.0
11
11.000000
21
4.400000
31
0.0
0
LINE
8
0
10
11.000000
20
4.400000
30
0.0
11
10.700000
21
4.700000
31
0.0
0
LINE
8
0
10
10.700000
20
4.700000
30
0.0
11
10.400000
21
4.400000
31
0.0
0
LINE
8
0
10
10.400000
20
4.400000
30
0.0
11
3.100000
21
4.400000
31
0.0
0
ARC
8
0
10
3.100000
20
2.900000
30
0.0
40
1.500000
50
90.000000
51
270.000000
0
LINE
8
0
10
3.100000
20
1.400000
30
0.0
11
3.750000
21
1.400000
31
0.0
0
ARC
8
0
10
3.750000
20
0.700000
30
0.0
40
0.700000
50
270.000000
51
90.000000
0
LINE
8
0
10
3.750000
20
0.000000
30
0.0
11
0.000000
21
0.000000
31
0.0
0
LINE
8
0
10
0.000000
20
0.000000
30
0.0
11
0.000000
21
90.150000
31
0.0
0
ARC
8
0
10
0.450000
20
90.150000
30
0.0
40
0.450000
50
0.000000
51
180.000000
0
LINE
8
0
10
0.900000
20
90.150000
30
0.0
11
0.900000
21
89.100000
31
0.0
0
LINE
8
0
10
0.900000
20
89.100000
30
0.0
11
6.400000
21
89.100000
31
0.0
0
ARC
8
0
10
6.400000
20
88.100000
30
0.0
40
1.000000
50
270.000000
51
90.000000
0
LINE
8
0
10
6.400000
20
87.100000
30
0.0
11
2.650000
21
87.100000
31
0.0
0
ARC
8
0
10
2.650000
20
85.850000
30
0.0
40
1.250000
50
90.000000
51
270.000000
0
LINE
8
0
10
2.650000
20
84.600000
30
0.0
11
6.650000
21
84.600000
31
0.0
0
ARC
8
0
10
6.650000
20
83.850000
30
0.0
40
0.750000
50
270.000000
51
90.000000
0
LINE
8
0
10
6.650000
20
83.100000
30
0.0
11
1.400000
21
83.100000
31
0.0
0
LINE
8
0
10
1.400000
20
83.100000
30
0.0
11
1.400000
21
76.700000
31
0.0
0
LINE
8
0
10
1.400000
20
76.700000
30
0.0
11
17.500000
21
76.700000
31
0.0
0
LINE
8
0
10
17.500000
20
76.700000
30
0.0
11
17.700000
21
76.500000
31
0.0
0
LINE
8
0
10
17.700000
20
76.500000
30
0.0
11
17.900000
21
76.700000
31
0.0
0
LINE
8
0
10
17.900000
20
76.700000
30
0.0
11
20.400000
21
76.700000
31
0.0
0
LINE
8
0
10
20.400000
20
76.700000
30
0.0
11
20.400000
21
76.200000
31
0.0
0
LINE
8
0
10
20.400000
20
76.200000
30
0.0
11
19.900000
21
75.700000
31
0.0
0
LINE
8
0
10
19.900000
20
75.700000
30
0.0
11
18.400000
21
75.700000
31
0.0
0
ARC
8
0
10
18.400000
20
75.200000
30
0.0
40
0.500000
50
90.000000
51
180.000000
0
LINE
8
0
10
17.900000
20
75.200000
30
0.0
11
17.900000
21
74.200000
31
0.0
0
ARC
8
0
10
18.400000
20
74.200000
30
0.0
40
0.500000
50
180.000000
51
270.000000
0
LINE
8
0
10
18.400000
20
73.700000
30
0.0
11
33.150000
21
73.700000
31
0.0
0
LINE
8
0
10
33.150000
20
73.700000
30
0.0
11
33.150000
21
74.650000
31
0.0
0
LINE
8
0
10
33.150000
20
74.650000
30
0.0
11
32.100000
21
75.700000
31
0.0
0
LINE
8
0
10
32.100000
20
75.700000
30
0.0
11
33.000000
21
76.700000
31
0.0
0
LINE
8
0
10
33.000000
20
76.700000
30
0.0
11
34.500000
21
76.700000
31
0.0
0
LINE
8
0
10
34.500000
20
76.700000
30
0.0
11
34.500000
21
77.750000
31
0.0
0
ARC
8
0
10
34.950000
20
77.750000
30
0.0
40
0.450000
50
0.000000
51
180.000000
0
LINE
8
0
10
35.400000
20
77.750000
30
0.0
11
35.400000
21
0.000000
31
0.0
0
LINE
8
0
10
35.400000
20
0.000000
30
0.0
11
31.650000
21
0.000000
31
0.0
0
ARC
8
0
10
31.650000
20
0.700000
30
0.0
40
0.700000
50
90.000000
51
270.000000
0
LINE
8
0
10
31.650000
20
1.400000
30
0.0
11
32.300000
21
1.400000
31
0.0
0
ARC
8
0
10
32.300000
20
2.900000
30
0.0
40
1.500000
50
270.000000
51
90.000000
0
LINE
8
0
10
32.300000
20
4.400000
30
0.0
11
25.000000
21
4.400000
31
0.0
0
LINE
8
0
10
25.000000
20
4.400000
30
0.0
11
24.700000
21
4.700000
31
0.0
0
LINE
8
0
10
24.700000
20
4.700000
30
0.0
11
24.400000
21
4.400000
31
0.0
0
ATTDEF
8
0
10
9.450000
20
76.700000
30
0.0
40
3.5
1

3

2
VC_START
70
0
0
ATTDEF
8
0
10
0.000000
20
0.000000
30
0.0
40
3.5
1

3

2
VC_END
70
0
0
ATTDEF
8
0
10
0.000000
20
0.000000
30
0.0
40
3.5
1

3

2
FRONT_VIEW
70
0
0
ATTDEF
8
0
10
0.000000
20
0.000000
30
0.0
40
3.5
1

3

2
OPTI:500.000000,1,0,3000.000000,6020.000000,500.000000,0,0.000000,0
70
0
0
ATTDEF
8
0
10
0.000000
20
0.000000
30
0.0
40
3.5
1

3

2
GLASS_MIN:0.000000
70
0
0
ATTDEF
8
0
10
0.000000
20
0.000000
30
0.0
40
3.5
1

3

2
GLASS_MAX:0.000000
70
0
0
ATTDEF
8
0
10
0.000000
20
0.000000
30
0.0
40
3.5
1

3

2
JX:0.000000
70
0
0
ATTDEF
8
0
10
0.000000
20
0.000000
30
0.0
40
3.5
1

3

2
WX:0.000000
70
0
0
ATTDEF
8
0
10
0.000000
20
0.000000
30
0.0
40
3.5
1

3

2
JY:0.000000
70
0
0
ATTDEF
8
0
10
0.000000
20
0.000000
30
0.0
40
3.5
1

3

2
WY:0.000000
70
0
0
ATTDEF
8
0
10
0.000000
20
0.000000
30
0.0
40
3.5
1

3

2
FP_LCS_ORIG
70
0
0
ATTDEF
8
0
10
10.000000
20
0.000000
30
0.0
40
3.5
1

3

2
FP_LCS_HOT
70
0
0
ATTDEF
8
0
10
0.000000
20
10.000000
30
0.0
40
3.5
1

3

2
FP_LCS_INTERN
70
0
0
ATTDEF
8
0
10
0.000000
20
0.000000
30
0.0
40
3.5
1

3

2
BL01:6020.000,,1
70
0
0
ATTDEF
8
0
10
0.000000
20
0.000000
30
0.0
40
3.5
1

3

2
DESC:Parante Ancho
70
0
0
ATTDEF
8
0
10
0.000000
20
0.000000
30
0.0
40
3.5
1

3

2
DENS:1.015
70
0
0
ATTDEF
8
0
10
0.000000
20
0.000000
30
0.0
40
3.5
1

3

2
TDEV:0
70
0
0
ATTDEF
8
0
10
0.000000
20
0.000000
30
0.0
40
3.5
1

3

2
TDEV2:0
70
0
0
ATTDEF
8
0
10
0.000000
20
0.000000
30
0.0
40
3.5
1

3

2
TDEV3:0
70
0
0
ATTDEF
8
0
10
0.000000
20
0.000000
30
0.0
40
3.5
1

3

2
TDEV4:0
70
0
0
ATTDEF
8
0
10
0.000000
20
0.000000
30
0.0
40
3.5
1

3

2
TDEV5:0
70
0
0
ATTDEF
8
0
10
0.000000
20
0.000000
30
0.0
40
3.5
1

3

2
PANE_WIDTH:0
70
0
0
ATTDEF
8
0
10
0.000000
20
0.000000
30
0.0
40
3.5
1

3

2
MIN_VETRO:0
70
0
0
ATTDEF
8
0
10
0.000000
20
0.000000
30
0.0
40
3.5
1

3

2
MAX_VETRO:0
70
0
0
ATTDEF
8
0
10
0.000000
20
0.000000
30
0.0
40
3.5
1

3

2
JX:0
70
0
0
ATTDEF
8
0
10
0.000000
20
0.000000
30
0.0
40
3.5
1

3

2
WX:0
70
0
0
ATTDEF
8
0
10
0.000000
20
0.000000
30
0.0
40
3.5
1

3

2
JY:0
70
0
0
ATTDEF
8
0
10
0.000000
20
0.000000
30
0.0
40
3.5
1

3

2
WY:0
70
0
0
ENDSEC
0
EOF
