0
SECTION
2
ENTITIES
0
ARC
8
0
10
5.400000
20
27.200000
30
0.0
40
1.000000
50
270.000000
51
90.000000
0
LINE
8
0
10
5.400000
20
26.200000
30
0.0
11
2.450000
21
26.200000
31
0.0
0
ARC
8
0
10
2.450000
20
24.950000
30
0.0
40
1.250000
50
90.000000
51
270.000000
0
LINE
8
0
10
2.450000
20
23.700000
30
0.0
11
5.650000
21
23.700000
31
0.0
0
ARC
8
0
10
5.650000
20
22.950000
30
0.0
40
0.750000
50
270.000000
51
90.000000
0
LINE
8
0
10
5.650000
20
22.200000
30
0.0
11
1.200000
21
22.200000
31
0.0
0
LINE
8
0
10
1.200000
20
22.200000
30
0.0
11
1.200000
21
12.700000
31
0.0
0
LINE
8
0
10
1.200000
20
12.700000
30
0.0
11
15.300000
21
12.700000
31
0.0
0
LINE
8
0
10
15.300000
20
12.700000
30
0.0
11
15.300000
21
15.700000
31
0.0
0
LINE
8
0
10
15.300000
20
15.700000
30
0.0
11
19.000000
21
15.700000
31
0.0
0
LINE
8
0
10
19.000000
20
15.700000
30
0.0
11
19.000000
21
15.200000
31
0.0
0
LINE
8
0
10
19.000000
20
15.200000
30
0.0
11
18.500000
21
14.700000
31
0.0
0
LINE
8
0
10
18.500000
20
14.700000
30
0.0
11
17.100000
21
14.700000
31
0.0
0
ARC
8
0
10
17.100000
20
14.100000
30
0.0
40
0.600000
50
90.000000
51
180.000000
0
LINE
8
0
10
16.500000
20
14.100000
30
0.0
11
16.500000
21
13.300000
31
0.0
0
ARC
8
0
10
17.100000
20
13.300000
30
0.0
40
0.600000
50
180.000000
51
270.000000
0
LINE
8
0
10
17.100000
20
12.700000
30
0.0
11
31.750000
21
12.700000
31
0.0
0
LINE
8
0
10
31.750000
20
12.700000
30
0.0
11
31.750000
21
13.650000
31
0.0
0
LINE
8
0
10
31.750000
20
13.650000
30
0.0
11
30.700000
21
14.700000
31
0.0
0
LINE
8
0
10
30.700000
20
14.700000
30
0.0
11
31.600000
21
15.700000
31
0.0
0
LINE
8
0
10
31.600000
20
15.700000
30
0.0
11
33.000000
21
15.700000
31
0.0
0
LINE
8
0
10
33.000000
20
15.700000
30
0.0
11
33.000000
21
0.000000
31
0.0
0
LINE
8
0
10
33.000000
20
0.000000
30
0.0
11
29.500000
21
0.000000
31
0.0
0
ARC
8
0
10
29.500000
20
0.750000
30
0.0
40
0.750000
50
90.000000
51
270.000000
0
LINE
8
0
10
29.500000
20
1.500000
30
0.0
11
30.100000
21
1.500000
31
0.0
0
ARC
8
0
10
30.100000
20
3.000000
30
0.0
40
1.500000
50
270.000000
51
90.000000
0
LINE
8
0
10
30.100000
20
4.500000
30
0.0
11
20.800000
21
4.500000
31
0.0
0
LINE
8
0
10
20.800000
20
4.500000
30
0.0
11
20.500000
21
4.800000
31
0.0
0
LINE
8
0
10
20.500000
20
4.800000
30
0.0
11
20.200000
21
4.500000
31
0.0
0
LINE
8
0
10
20.200000
20
4.500000
30
0.0
11
10.900000
21
4.500000
31
0.0
0
ARC
8
0
10
10.900000
20
3.000000
30
0.0
40
1.500000
50
90.000000
51
270.000000
0
LINE
8
0
10
10.900000
20
1.500000
30
0.0
11
11.500000
21
1.500000
31
0.0
0
ARC
8
0
10
11.500000
20
0.750000
30
0.0
40
0.750000
50
270.000000
51
90.000000
0
LINE
8
0
10
11.500000
20
0.000000
30
0.0
11
8.000000
21
0.000000
31
0.0
0
LINE
8
0
10
8.000000
20
0.000000
30
0.0
11
8.000000
21
11.500000
31
0.0
0
LINE
8
0
10
8.000000
20
11.500000
30
0.0
11
0.500000
21
11.500000
31
0.0
0
ARC
8
0
10
0.500000
20
12.000000
30
0.0
40
0.500000
50
180.000000
51
270.000000
0
LINE
8
0
10
0.000000
20
12.000000
30
0.0
11
0.000000
21
27.700000
31
0.0
0
ARC
8
0
10
0.500000
20
27.700000
30
0.0
40
0.500000
50
90.000000
51
180.000000
0
LINE
8
0
10
0.500000
20
28.200000
30
0.0
11
5.400000
21
28.200000
31
0.0
0
ARC
8
0
10
12.700000
20
5.587500
30
0.0
40
0.512500
50
12.680383
51
167.319617
0
LINE
8
0
10
12.200000
20
5.700000
30
0.0
11
9.200000
21
5.700000
31
0.0
0
LINE
8
0
10
9.200000
20
5.700000
30
0.0
11
9.200000
21
11.500000
31
0.0
0
LINE
8
0
10
9.200000
20
11.500000
30
0.0
11
12.200000
21
11.500000
31
0.0
0
ARC
8
0
10
12.700000
20
11.612500
30
0.0
40
0.512500
50
192.680383
51
347.319617
0
LINE
8
0
10
13.200000
20
11.500000
30
0.0
11
27.800000
21
11.500000
31
0.0
0
ARC
8
0
10
28.300000
20
11.612500
30
0.0
40
0.512500
50
192.680383
51
347.319617
0
LINE
8
0
10
28.800000
20
11.500000
30
0.0
11
31.800000
21
11.500000
31
0.0
0
LINE
8
0
10
31.800000
20
11.500000
30
0.0
11
31.800000
21
5.700000
31
0.0
0
LINE
8
0
10
31.800000
20
5.700000
30
0.0
11
28.800000
21
5.700000
31
0.0
0
ARC
8
0
10
28.300000
20
5.587500
30
0.0
40
0.512500
50
12.680383
51
167.319617
0
LINE
8
0
10
27.800000
20
5.700000
30
0.0
11
13.200000
21
5.700000
31
0.0
0
ATTDEF
8
0
10
19.000000
20
15.700000
30
0.0
40
3.5
1

3

2
VC_START
70
0
0
ATTDEF
8
0
10
8.000000
20
0.000000
30
0.0
40
3.5
1

3

2
VC_END
70
0
0
ATTDEF
8
0
10
0.000000
20
0.000000
30
0.0
40
3.5
1

3

2
FRONT_VIEW
70
0
0
ATTDEF
8
0
10
0.000000
20
0.000000
30
0.0
40
3.5
1

3

2
OPTI:500.000000,1,0,3000.000000,6020.000000,500.000000,0,0.000000,0
70
0
0
ATTDEF
8
0
10
0.000000
20
0.000000
30
0.0
40
3.5
1

3

2
GLASS_MIN:0.000000
70
0
0
ATTDEF
8
0
10
0.000000
20
0.000000
30
0.0
40
3.5
1

3

2
GLASS_MAX:0.000000
70
0
0
ATTDEF
8
0
10
0.000000
20
0.000000
30
0.0
40
3.5
1

3

2
JX:0.000000
70
0
0
ATTDEF
8
0
10
0.000000
20
0.000000
30
0.0
40
3.5
1

3

2
WX:0.000000
70
0
0
ATTDEF
8
0
10
0.000000
20
0.000000
30
0.0
40
3.5
1

3

2
JY:0.000000
70
0
0
ATTDEF
8
0
10
0.000000
20
0.000000
30
0.0
40
3.5
1

3

2
WY:0.000000
70
0
0
ATTDEF
8
0
10
0.000000
20
0.000000
30
0.0
40
3.5
1

3

2
FP_LCS_ORIG
70
0
0
ATTDEF
8
0
10
10.000000
20
0.000000
30
0.0
40
3.5
1

3

2
FP_LCS_HOT
70
0
0
ATTDEF
8
0
10
0.000000
20
10.000000
30
0.0
40
3.5
1

3

2
FP_LCS_INTERN
70
0
0
ATTDEF
8
0
10
0.000000
20
0.000000
30
0.0
40
3.5
1

3

2
BL01:6020.000,,1
70
0
0
ATTDEF
8
0
10
0.000000
20
0.000000
30
0.0
40
3.5
1

3

2
DESC:Postigo
70
0
0
ATTDEF
8
0
10
0.000000
20
0.000000
30
0.0
40
3.5
1

3

2
DENS:0.419
70
0
0
ATTDEF
8
0
10
0.000000
20
0.000000
30
0.0
40
3.5
1

3

2
TDEV:0
70
0
0
ATTDEF
8
0
10
0.000000
20
0.000000
30
0.0
40
3.5
1

3

2
TDEV2:0
70
0
0
ATTDEF
8
0
10
0.000000
20
0.000000
30
0.0
40
3.5
1

3

2
TDEV3:0
70
0
0
ATTDEF
8
0
10
0.000000
20
0.000000
30
0.0
40
3.5
1

3

2
TDEV4:0
70
0
0
ATTDEF
8
0
10
0.000000
20
0.000000
30
0.0
40
3.5
1

3

2
TDEV5:0
70
0
0
ATTDEF
8
0
10
0.000000
20
0.000000
30
0.0
40
3.5
1

3

2
PANE_WIDTH:0
70
0
0
ATTDEF
8
0
10
0.000000
20
0.000000
30
0.0
40
3.5
1

3

2
MIN_VETRO:0
70
0
0
ATTDEF
8
0
10
0.000000
20
0.000000
30
0.0
40
3.5
1

3

2
MAX_VETRO:0
70
0
0
ATTDEF
8
0
10
0.000000
20
0.000000
30
0.0
40
3.5
1

3

2
JX:0
70
0
0
ATTDEF
8
0
10
0.000000
20
0.000000
30
0.0
40
3.5
1

3

2
WX:0
70
0
0
ATTDEF
8
0
10
0.000000
20
0.000000
30
0.0
40
3.5
1

3

2
JY:0
70
0
0
ATTDEF
8
0
10
0.000000
20
0.000000
30
0.0
40
3.5
1

3

2
WY:0
70
0
0
ENDSEC
0
EOF
