0
SECTION
2
ENTITIES
0
ARC
8
0
10
6.850000
20
4.500000
30
0.0
40
1.500000
50
90.000000
51
180.000000
0
LINE
8
0
10
5.350000
20
4.500000
30
0.0
11
5.350000
21
2.850000
31
0.0
0
ARC
8
0
10
4.000000
20
2.850000
30
0.0
40
1.350000
50
180.000000
51
0.000000
0
LINE
8
0
10
2.650000
20
2.850000
30
0.0
11
2.650000
21
75.000000
31
0.0
0
ARC
8
0
10
3.650000
20
75.000000
30
0.0
40
1.000000
50
90.000000
51
180.000000
0
LINE
8
0
10
3.650000
20
76.000000
30
0.0
11
7.250000
21
76.000000
31
0.0
0
ARC
8
0
10
7.250000
20
75.000000
30
0.0
40
1.000000
50
0.000000
51
90.000000
0
LINE
8
0
10
8.250000
20
75.000000
30
0.0
11
8.250000
21
74.000000
31
0.0
0
ARC
8
0
10
9.250000
20
74.000000
30
0.0
40
1.000000
50
180.000000
51
270.000000
0
LINE
8
0
10
9.250000
20
73.000000
30
0.0
11
43.050000
21
73.000000
31
0.0
0
ARC
8
0
10
43.050000
20
72.000000
30
0.0
40
1.000000
50
0.000000
51
90.000000
0
LINE
8
0
10
44.050000
20
72.000000
30
0.0
11
44.050000
21
2.850000
31
0.0
0
ARC
8
0
10
42.700000
20
2.850000
30
0.0
40
1.350000
50
180.000000
51
0.000000
0
LINE
8
0
10
41.350000
20
2.850000
30
0.0
11
41.350000
21
4.500000
31
0.0
0
ARC
8
0
10
39.850000
20
4.500000
30
0.0
40
1.500000
50
0.000000
51
90.000000
0
LINE
8
0
10
39.850000
20
6.000000
30
0.0
11
35.850000
21
6.000000
31
0.0
0
ARC
8
0
10
35.850000
20
4.500000
30
0.0
40
1.500000
50
90.000000
51
135.000000
0
LINE
8
0
10
34.789340
20
5.560660
30
0.0
11
34.228680
21
5.000000
31
0.0
0
LINE
8
0
10
34.228680
20
5.000000
30
0.0
11
12.471320
21
5.000000
31
0.0
0
LINE
8
0
10
12.471320
20
5.000000
30
0.0
11
11.910660
21
5.560660
31
0.0
0
ARC
8
0
10
10.850000
20
4.500000
30
0.0
40
1.500000
50
45.000000
51
90.000000
0
LINE
8
0
10
10.850000
20
6.000000
30
0.0
11
6.850000
21
6.000000
31
0.0
0
ARC
8
0
10
29.850000
20
75.100000
30
0.0
40
0.600000
50
180.000000
51
270.000000
0
LINE
8
0
10
29.850000
20
74.500000
30
0.0
11
44.650000
21
74.500000
31
0.0
0
LINE
8
0
10
44.650000
20
74.500000
30
0.0
11
44.650000
21
75.550000
31
0.0
0
LINE
8
0
10
44.650000
20
75.550000
30
0.0
11
43.700000
21
76.500000
31
0.0
0
LINE
8
0
10
43.700000
20
76.500000
30
0.0
11
44.700000
21
77.500000
31
0.0
0
LINE
8
0
10
44.700000
20
77.500000
30
0.0
11
45.800000
21
77.500000
31
0.0
0
LINE
8
0
10
45.800000
20
77.500000
30
0.0
11
45.800000
21
78.050000
31
0.0
0
ARC
8
0
10
46.250000
20
78.050000
30
0.0
40
0.450000
50
0.000000
51
180.000000
0
LINE
8
0
10
46.700000
20
78.050000
30
0.0
11
46.700000
21
76.500000
31
0.0
0
LINE
8
0
10
46.700000
20
76.500000
30
0.0
11
45.550000
21
76.500000
31
0.0
0
LINE
8
0
10
45.550000
20
76.500000
30
0.0
11
45.550000
21
2.000000
31
0.0
0
ARC
8
0
10
43.550000
20
2.000000
30
0.0
40
2.000000
50
270.000000
51
0.000000
0
LINE
8
0
10
43.550000
20
0.000000
30
0.0
11
36.850000
21
0.000000
31
0.0
0
LINE
8
0
10
36.850000
20
0.000000
30
0.0
11
36.850000
21
0.500000
31
0.0
0
LINE
8
0
10
36.850000
20
0.500000
30
0.0
11
39.850000
21
3.500000
31
0.0
0
LINE
8
0
10
39.850000
20
3.500000
30
0.0
11
39.850000
21
4.500000
31
0.0
0
LINE
8
0
10
39.850000
20
4.500000
30
0.0
11
35.850000
21
4.500000
31
0.0
0
LINE
8
0
10
35.850000
20
4.500000
30
0.0
11
33.850000
21
2.500000
31
0.0
0
LINE
8
0
10
33.850000
20
2.500000
30
0.0
11
30.650000
21
2.500000
31
0.0
0
LINE
8
0
10
30.650000
20
2.500000
30
0.0
11
30.350000
21
2.800000
31
0.0
0
LINE
8
0
10
30.350000
20
2.800000
30
0.0
11
30.050000
21
2.500000
31
0.0
0
LINE
8
0
10
30.050000
20
2.500000
30
0.0
11
23.650000
21
2.500000
31
0.0
0
LINE
8
0
10
23.650000
20
2.500000
30
0.0
11
23.350000
21
2.800000
31
0.0
0
LINE
8
0
10
23.350000
20
2.800000
30
0.0
11
23.050000
21
2.500000
31
0.0
0
LINE
8
0
10
23.050000
20
2.500000
30
0.0
11
16.650000
21
2.500000
31
0.0
0
LINE
8
0
10
16.650000
20
2.500000
30
0.0
11
16.350000
21
2.800000
31
0.0
0
LINE
8
0
10
16.350000
20
2.800000
30
0.0
11
16.050000
21
2.500000
31
0.0
0
LINE
8
0
10
16.050000
20
2.500000
30
0.0
11
12.850000
21
2.500000
31
0.0
0
LINE
8
0
10
12.850000
20
2.500000
30
0.0
11
10.850000
21
4.500000
31
0.0
0
LINE
8
0
10
10.850000
20
4.500000
30
0.0
11
6.850000
21
4.500000
31
0.0
0
LINE
8
0
10
6.850000
20
4.500000
30
0.0
11
6.850000
21
3.500000
31
0.0
0
LINE
8
0
10
6.850000
20
3.500000
30
0.0
11
9.850000
21
0.500000
31
0.0
0
LINE
8
0
10
9.850000
20
0.500000
30
0.0
11
9.850000
21
0.000000
31
0.0
0
LINE
8
0
10
9.850000
20
0.000000
30
0.0
11
3.150000
21
0.000000
31
0.0
0
ARC
8
0
10
3.150000
20
2.000000
30
0.0
40
2.000000
50
180.000000
51
270.000000
0
LINE
8
0
10
1.150000
20
2.000000
30
0.0
11
1.150000
21
89.000000
31
0.0
0
LINE
8
0
10
1.150000
20
89.000000
30
0.0
11
0.000000
21
89.000000
31
0.0
0
LINE
8
0
10
0.000000
20
89.000000
30
0.0
11
0.000000
21
90.550000
31
0.0
0
ARC
8
0
10
0.450000
20
90.550000
30
0.0
40
0.450000
50
0.000000
51
180.000000
0
LINE
8
0
10
0.900000
20
90.550000
30
0.0
11
0.900000
21
90.000000
31
0.0
0
LINE
8
0
10
0.900000
20
90.000000
30
0.0
11
6.300000
21
90.000000
31
0.0
0
ARC
8
0
10
6.300000
20
89.000000
30
0.0
40
1.000000
50
270.000000
51
90.000000
0
LINE
8
0
10
6.300000
20
88.000000
30
0.0
11
3.800000
21
88.000000
31
0.0
0
ARC
8
0
10
3.800000
20
86.750000
30
0.0
40
1.250000
50
90.000000
51
270.000000
0
LINE
8
0
10
3.800000
20
85.500000
30
0.0
11
6.550000
21
85.500000
31
0.0
0
ARC
8
0
10
6.550000
20
84.750000
30
0.0
40
0.750000
50
270.000000
51
90.000000
0
LINE
8
0
10
6.550000
20
84.000000
30
0.0
11
2.650000
21
84.000000
31
0.0
0
LINE
8
0
10
2.650000
20
84.000000
30
0.0
11
2.650000
21
77.500000
31
0.0
0
LINE
8
0
10
2.650000
20
77.500000
30
0.0
11
9.750000
21
77.500000
31
0.0
0
LINE
8
0
10
9.750000
20
77.500000
30
0.0
11
9.750000
21
74.500000
31
0.0
0
LINE
8
0
10
9.750000
20
74.500000
30
0.0
11
23.050000
21
74.500000
31
0.0
0
LINE
8
0
10
23.050000
20
74.500000
30
0.0
11
23.350000
21
74.200000
31
0.0
0
LINE
8
0
10
23.350000
20
74.200000
30
0.0
11
23.650000
21
74.500000
31
0.0
0
LINE
8
0
10
23.650000
20
74.500000
30
0.0
11
28.250000
21
74.500000
31
0.0
0
LINE
8
0
10
28.250000
20
74.500000
30
0.0
11
28.250000
21
77.500000
31
0.0
0
LINE
8
0
10
28.250000
20
77.500000
30
0.0
11
32.000000
21
77.500000
31
0.0
0
LINE
8
0
10
32.000000
20
77.500000
30
0.0
11
32.000000
21
77.000000
31
0.0
0
LINE
8
0
10
32.000000
20
77.000000
30
0.0
11
31.500000
21
76.500000
31
0.0
0
LINE
8
0
10
31.500000
20
76.500000
30
0.0
11
29.850000
21
76.500000
31
0.0
0
ARC
8
0
10
29.850000
20
75.900000
30
0.0
40
0.600000
50
90.000000
51
180.000000
0
LINE
8
0
10
29.250000
20
75.900000
30
0.0
11
29.250000
21
75.100000
31
0.0
0
ATTDEF
8
0
10
28.250000
20
77.500000
30
0.0
40
3.5
1

3

2
VC_START
70
0
0
ATTDEF
8
0
10
6.500000
20
0.000000
30
0.0
40
3.5
1

3

2
VC_END
70
0
0
ATTDEF
8
0
10
0.000000
20
0.000000
30
0.0
40
3.5
1

3

2
FRONT_VIEW
70
0
0
ATTDEF
8
0
10
0.000000
20
0.000000
30
0.0
40
3.5
1

3

2
OPTI:500.000000,1,0,3000.000000,6020.000000,500.000000,0,0.000000,0
70
0
0
ATTDEF
8
0
10
0.000000
20
0.000000
30
0.0
40
3.5
1

3

2
GLASS_MIN:0.000000
70
0
0
ATTDEF
8
0
10
0.000000
20
0.000000
30
0.0
40
3.5
1

3

2
GLASS_MAX:0.000000
70
0
0
ATTDEF
8
0
10
0.000000
20
0.000000
30
0.0
40
3.5
1

3

2
JX:0.000000
70
0
0
ATTDEF
8
0
10
0.000000
20
0.000000
30
0.0
40
3.5
1

3

2
WX:0.000000
70
0
0
ATTDEF
8
0
10
0.000000
20
0.000000
30
0.0
40
3.5
1

3

2
JY:0.000000
70
0
0
ATTDEF
8
0
10
0.000000
20
0.000000
30
0.0
40
3.5
1

3

2
WY:0.000000
70
0
0
ATTDEF
8
0
10
0.000000
20
0.000000
30
0.0
40
3.5
1

3

2
FP_LCS_ORIG
70
0
0
ATTDEF
8
0
10
10.000000
20
0.000000
30
0.0
40
3.5
1

3

2
FP_LCS_HOT
70
0
0
ATTDEF
8
0
10
0.000000
20
10.000000
30
0.0
40
3.5
1

3

2
FP_LCS_INTERN
70
0
0
ATTDEF
8
0
10
0.000000
20
0.000000
30
0.0
40
3.5
1

3

2
BL01:6020.000,,1
70
0
0
ATTDEF
8
0
10
0.000000
20
0.000000
30
0.0
40
3.5
1

3

2
DESC:Batiente de Hoja
70
0
0
ATTDEF
8
0
10
0.000000
20
0.000000
30
0.0
40
3.5
1

3

2
DENS:1.226
70
0
0
ATTDEF
8
0
10
0.000000
20
0.000000
30
0.0
40
3.5
1

3

2
TDEV:0
70
0
0
ATTDEF
8
0
10
0.000000
20
0.000000
30
0.0
40
3.5
1

3

2
TDEV2:0
70
0
0
ATTDEF
8
0
10
0.000000
20
0.000000
30
0.0
40
3.5
1

3

2
TDEV3:0
70
0
0
ATTDEF
8
0
10
0.000000
20
0.000000
30
0.0
40
3.5
1

3

2
TDEV4:0
70
0
0
ATTDEF
8
0
10
0.000000
20
0.000000
30
0.0
40
3.5
1

3

2
TDEV5:0
70
0
0
ATTDEF
8
0
10
0.000000
20
0.000000
30
0.0
40
3.5
1

3

2
PANE_WIDTH:0
70
0
0
ATTDEF
8
0
10
0.000000
20
0.000000
30
0.0
40
3.5
1

3

2
MIN_VETRO:0
70
0
0
ATTDEF
8
0
10
0.000000
20
0.000000
30
0.0
40
3.5
1

3

2
MAX_VETRO:0
70
0
0
ATTDEF
8
0
10
0.000000
20
0.000000
30
0.0
40
3.5
1

3

2
JX:0
70
0
0
ATTDEF
8
0
10
0.000000
20
0.000000
30
0.0
40
3.5
1

3

2
WX:0
70
0
0
ATTDEF
8
0
10
0.000000
20
0.000000
30
0.0
40
3.5
1

3

2
JY:0
70
0
0
ATTDEF
8
0
10
0.000000
20
0.000000
30
0.0
40
3.5
1

3

2
WY:0
70
0
0
ENDSEC
0
EOF
