0
SECTION
2
ENTITIES
0
LINE
8
0
10
1.495700
20
13.500000
30
0.0
11
1.495700
21
15.203331
31
0.0
0
LINE
8
0
10
1.495700
20
15.203331
30
0.0
11
52.495700
21
15.203331
31
0.0
0
LINE
8
0
10
52.495700
20
15.203331
30
0.0
11
52.495700
21
0.000000
31
0.0
0
LINE
8
0
10
52.495700
20
0.000000
30
0.0
11
12.495700
21
0.000000
31
0.0
0
ARC
8
0
10
12.495700
20
0.500000
30
0.0
40
0.500000
50
180.000000
51
270.000000
0
LINE
8
0
10
11.995700
20
0.500000
30
0.0
11
11.995700
21
1.000000
31
0.0
0
ARC
8
0
10
12.495700
20
1.000000
30
0.0
40
0.500000
50
90.000000
51
180.000000
0
LINE
8
0
10
12.495700
20
1.500000
30
0.0
11
13.495700
21
1.500000
31
0.0
0
ARC
8
0
10
13.495700
20
2.000000
30
0.0
40
0.500000
50
270.000000
51
0.000000
0
LINE
8
0
10
13.995700
20
2.000000
30
0.0
11
13.995700
21
13.203331
31
0.0
0
ARC
8
0
10
13.495700
20
13.203331
30
0.0
40
0.500000
50
0.000000
51
90.000000
0
LINE
8
0
10
13.495700
20
13.703331
30
0.0
11
3.495700
21
13.703331
31
0.0
0
ARC
8
0
10
3.495700
20
13.203331
30
0.0
40
0.500000
50
90.000000
51
180.000000
0
LINE
8
0
10
2.995700
20
13.203331
30
0.0
11
2.995700
21
2.000000
31
0.0
0
ARC
8
0
10
3.495700
20
2.000000
30
0.0
40
0.500000
50
180.000000
51
270.000000
0
LINE
8
0
10
3.495700
20
1.500000
30
0.0
11
4.495700
21
1.500000
31
0.0
0
ARC
8
0
10
4.495700
20
1.000000
30
0.0
40
0.500000
50
0.000000
51
90.000000
0
LINE
8
0
10
4.995700
20
1.000000
30
0.0
11
4.995700
21
0.500000
31
0.0
0
ARC
8
0
10
4.495700
20
0.500000
30
0.0
40
0.500000
50
270.000000
51
0.000000
0
LINE
8
0
10
4.495700
20
0.000000
30
0.0
11
1.495700
21
0.000000
31
0.0
0
LINE
8
0
10
1.495700
20
0.000000
30
0.0
11
1.495700
21
1.750000
31
0.0
0
LINE
8
0
10
1.495700
20
1.750000
30
0.0
11
0.000000
21
1.750000
31
0.0
0
LINE
8
0
10
0.000000
20
1.750000
30
0.0
11
0.000000
21
2.750000
31
0.0
0
LINE
8
0
10
0.000000
20
2.750000
30
0.0
11
1.495700
21
2.750000
31
0.0
0
LINE
8
0
10
1.495700
20
2.750000
30
0.0
11
1.495700
21
7.100000
31
0.0
0
LINE
8
0
10
1.495700
20
7.100000
30
0.0
11
0.000000
21
8.595700
31
0.0
0
LINE
8
0
10
0.000000
20
8.595700
30
0.0
11
1.495700
21
8.595700
31
0.0
0
LINE
8
0
10
1.495700
20
8.595700
30
0.0
11
1.495700
21
12.500000
31
0.0
0
LINE
8
0
10
1.495700
20
12.500000
30
0.0
11
0.000000
21
12.500000
31
0.0
0
LINE
8
0
10
0.000000
20
12.500000
30
0.0
11
0.000000
21
13.500000
31
0.0
0
LINE
8
0
10
0.000000
20
13.500000
30
0.0
11
1.495700
21
13.500000
31
0.0
0
LINE
8
0
10
50.995700
20
13.703331
30
0.0
11
50.995700
21
1.500000
31
0.0
0
LINE
8
0
10
50.995700
20
1.500000
30
0.0
11
15.495700
21
1.500000
31
0.0
0
LINE
8
0
10
15.495700
20
1.500000
30
0.0
11
15.495700
21
13.703331
31
0.0
0
LINE
8
0
10
15.495700
20
13.703331
30
0.0
11
50.995700
21
13.703331
31
0.0
0
ATTDEF
8
0
10
0.000000
20
0.000000
30
0.0
40
3.5
1

3

2
FRONT_VIEW
70
0
0
ATTDEF
8
0
10
0.000000
20
0.000000
30
0.0
40
3.5
1

3

2
OPTI:1500.000000,1,0,3000.000000,6900.000000,500.000000,0,0.000000,0
70
0
0
ATTDEF
8
0
10
0.000000
20
0.000000
30
0.0
40
3.5
1

3

2
GLASS_MIN:0.000000
70
0
0
ATTDEF
8
0
10
0.000000
20
0.000000
30
0.0
40
3.5
1

3

2
GLASS_MAX:0.000000
70
0
0
ATTDEF
8
0
10
0.000000
20
0.000000
30
0.0
40
3.5
1

3

2
WX:0.000000
70
0
0
ATTDEF
8
0
10
0.000000
20
0.000000
30
0.0
40
3.5
1

3

2
JY:0.000000
70
0
0
ATTDEF
8
0
10
0.000000
20
0.000000
30
0.0
40
3.5
1

3

2
WY:0.000000
70
0
0
ATTDEF
8
0
10
1.495700
20
15.203331
30
0.0
40
3.5
1

3

2
VC_START
70
0
0
ATTDEF
8
0
10
1.495700
20
0.000000
30
0.0
40
3.5
1

3

2
VC_END
70
0
0
ATTDEF
8
0
10
0.000000
20
0.000000
30
0.0
40
3.5
1

3

2
FP_LCS_ORIG
70
0
0
ATTDEF
8
0
10
10.000000
20
0.000000
30
0.0
40
3.5
1

3

2
FP_LCS_HOT
70
0
0
ATTDEF
8
0
10
0.000000
20
10.000000
30
0.0
40
3.5
1

3

2
FP_LCS_INTERN
70
0
0
ATTDEF
8
0
10
0.000000
20
0.000000
30
0.0
40
3.5
1

3

2
BL01:6200.000,,1
70
0
0
ATTDEF
8
0
10
0.000000
20
0.000000
30
0.0
40
3.5
1

3

2
DESC:Premarco
70
0
0
ATTDEF
8
0
10
0.000000
20
0.000000
30
0.0
40
3.5
1

3

2
DENS:0.545
70
0
0
ATTDEF
8
0
10
0.000000
20
0.000000
30
0.0
40
3.5
1

3

2
TDEV:0
70
0
0
ATTDEF
8
0
10
0.000000
20
0.000000
30
0.0
40
3.5
1

3

2
TDEV2:0
70
0
0
ATTDEF
8
0
10
0.000000
20
0.000000
30
0.0
40
3.5
1

3

2
TDEV3:0
70
0
0
ATTDEF
8
0
10
0.000000
20
0.000000
30
0.0
40
3.5
1

3

2
TDEV4:0
70
0
0
ATTDEF
8
0
10
0.000000
20
0.000000
30
0.0
40
3.5
1

3

2
TDEV5:0
70
0
0
ATTDEF
8
0
10
0.000000
20
0.000000
30
0.0
40
3.5
1

3

2
PANE_WIDTH:0
70
0
0
ATTDEF
8
0
10
0.000000
20
0.000000
30
0.0
40
3.5
1

3

2
MIN_VETRO:0
70
0
0
ATTDEF
8
0
10
0.000000
20
0.000000
30
0.0
40
3.5
1

3

2
MAX_VETRO:0
70
0
0
ATTDEF
8
0
10
0.000000
20
0.000000
30
0.0
40
3.5
1

3

2
JX:0
70
0
0
ATTDEF
8
0
10
0.000000
20
0.000000
30
0.0
40
3.5
1

3

2
WX:0
70
0
0
ATTDEF
8
0
10
0.000000
20
0.000000
30
0.0
40
3.5
1

3

2
JY:0
70
0
0
ATTDEF
8
0
10
0.000000
20
0.000000
30
0.0
40
3.5
1

3

2
WY:0
70
0
0
ENDSEC
0
EOF
