0
SECTION
2
ENTITIES
0
LINE
8
0
10
1.495700
20
21.500000
30
0.0
11
1.495700
21
23.203331
31
0.0
0
LINE
8
0
10
1.495700
20
23.203331
30
0.0
11
107.995700
21
23.203331
31
0.0
0
LINE
8
0
10
107.995700
20
23.203331
30
0.0
11
107.995700
21
8.000000
31
0.0
0
LINE
8
0
10
107.995700
20
8.000000
30
0.0
11
12.495700
21
8.000000
31
0.0
0
ARC
8
0
10
12.495700
20
8.500000
30
0.0
40
0.500000
50
180.000000
51
270.000000
0
LINE
8
0
10
11.995700
20
8.500000
30
0.0
11
11.995700
21
9.000000
31
0.0
0
ARC
8
0
10
12.495700
20
9.000000
30
0.0
40
0.500000
50
90.000000
51
180.000000
0
LINE
8
0
10
12.495700
20
9.500000
30
0.0
11
13.495700
21
9.500000
31
0.0
0
ARC
8
0
10
13.495700
20
10.000000
30
0.0
40
0.500000
50
270.000000
51
0.000000
0
LINE
8
0
10
13.995700
20
10.000000
30
0.0
11
13.995700
21
21.203331
31
0.0
0
ARC
8
0
10
13.495700
20
21.203331
30
0.0
40
0.500000
50
0.000000
51
90.000000
0
LINE
8
0
10
13.495700
20
21.703331
30
0.0
11
3.495700
21
21.703331
31
0.0
0
ARC
8
0
10
3.495700
20
21.203331
30
0.0
40
0.500000
50
90.000000
51
180.000000
0
LINE
8
0
10
2.995700
20
21.203331
30
0.0
11
2.995700
21
10.000000
31
0.0
0
ARC
8
0
10
3.495700
20
10.000000
30
0.0
40
0.500000
50
180.000000
51
270.000000
0
LINE
8
0
10
3.495700
20
9.500000
30
0.0
11
4.495700
21
9.500000
31
0.0
0
ARC
8
0
10
4.495700
20
9.000000
30
0.0
40
0.500000
50
0.000000
51
90.000000
0
LINE
8
0
10
4.995700
20
9.000000
30
0.0
11
4.995700
21
8.500000
31
0.0
0
ARC
8
0
10
4.495700
20
8.500000
30
0.0
40
0.500000
50
270.000000
51
0.000000
0
LINE
8
0
10
4.495700
20
8.000000
30
0.0
11
1.495700
21
8.000000
31
0.0
0
LINE
8
0
10
1.495700
20
8.000000
30
0.0
11
1.495700
21
9.750000
31
0.0
0
LINE
8
0
10
1.495700
20
9.750000
30
0.0
11
0.000000
21
9.750000
31
0.0
0
LINE
8
0
10
0.000000
20
9.750000
30
0.0
11
0.000000
21
10.750000
31
0.0
0
LINE
8
0
10
0.000000
20
10.750000
30
0.0
11
1.495700
21
10.750000
31
0.0
0
LINE
8
0
10
1.495700
20
10.750000
30
0.0
11
1.495700
21
15.100000
31
0.0
0
LINE
8
0
10
1.495700
20
15.100000
30
0.0
11
0.000000
21
16.595700
31
0.0
0
LINE
8
0
10
0.000000
20
16.595700
30
0.0
11
1.495700
21
16.595700
31
0.0
0
LINE
8
0
10
1.495700
20
16.595700
30
0.0
11
1.495700
21
20.500000
31
0.0
0
LINE
8
0
10
1.495700
20
20.500000
30
0.0
11
0.000000
21
20.500000
31
0.0
0
LINE
8
0
10
0.000000
20
20.500000
30
0.0
11
0.000000
21
21.500000
31
0.0
0
LINE
8
0
10
0.000000
20
21.500000
30
0.0
11
1.495700
21
21.500000
31
0.0
0
LINE
8
0
10
106.495700
20
21.703331
30
0.0
11
106.495700
21
9.500000
31
0.0
0
LINE
8
0
10
106.495700
20
9.500000
30
0.0
11
15.495700
21
9.500000
31
0.0
0
LINE
8
0
10
15.495700
20
9.500000
30
0.0
11
15.495700
21
21.703331
31
0.0
0
LINE
8
0
10
15.495700
20
21.703331
30
0.0
11
106.495700
21
21.703331
31
0.0
0
ATTDEF
8
0
10
1.495700
20
23.203331
30
0.0
40
3.5
1

3

2
VC_START
70
0
0
ATTDEF
8
0
10
1.495700
20
8.000000
30
0.0
40
3.5
1

3

2
VC_END
70
0
0
ARC
8
0
10
115.850401
20
27.000000
30
0.0
40
0.500000
50
210.000000
51
270.000000
0
LINE
8
0
10
115.417388
20
26.750000
30
0.0
11
114.695700
21
28.000000
31
0.0
0
LINE
8
0
10
114.695700
20
28.000000
30
0.0
11
113.495700
21
28.000000
31
0.0
0
ARC
8
0
10
113.495700
20
27.500000
30
0.0
40
0.500000
50
90.000000
51
180.000000
0
LINE
8
0
10
112.995700
20
27.500000
30
0.0
11
112.995700
21
26.818535
31
0.0
0
ARC
8
0
10
113.495700
20
26.818535
30
0.0
40
0.500000
50
180.000000
51
245.000000
0
LINE
8
0
10
113.284391
20
26.365381
30
0.0
11
114.968318
21
25.580153
31
0.0
0
ARC
8
0
10
114.545700
20
24.673845
30
0.0
40
1.000000
50
0.000000
51
65.000000
0
LINE
8
0
10
115.545700
20
24.673845
30
0.0
11
115.545700
21
24.025833
31
0.0
0
ARC
8
0
10
114.545700
20
24.025833
30
0.0
40
1.000000
50
330.000000
51
0.000000
0
LINE
8
0
10
115.411725
20
23.525833
30
0.0
11
114.137815
21
21.319355
31
0.0
0
ARC
8
0
10
113.704802
20
21.569355
30
0.0
40
0.500000
50
250.000000
51
330.000000
0
LINE
8
0
10
113.533792
20
21.099509
30
0.0
11
110.398306
21
22.240732
31
0.0
0
ARC
8
0
10
110.295700
20
21.958825
30
0.0
40
0.300000
50
70.000000
51
232.000000
0
LINE
8
0
10
110.111002
20
21.722421
30
0.0
11
113.587869
21
19.005995
31
0.0
0
ARC
8
0
10
113.895700
20
19.400000
30
0.0
40
0.500000
50
232.000000
51
330.000000
0
LINE
8
0
10
114.328713
20
19.150000
30
0.0
11
115.079194
21
20.449871
31
0.0
0
ARC
8
0
10
115.295700
20
20.324871
30
0.0
40
0.250000
50
0.000000
51
150.000000
0
LINE
8
0
10
115.545700
20
20.324871
30
0.0
11
115.545700
21
11.475129
31
0.0
0
ARC
8
0
10
115.295700
20
11.475129
30
0.0
40
0.250000
50
210.000000
51
0.000000
0
LINE
8
0
10
115.079194
20
11.350129
30
0.0
11
114.328713
21
12.650000
31
0.0
0
ARC
8
0
10
113.895700
20
12.400000
30
0.0
40
0.500000
50
30.000000
51
180.000000
0
LINE
8
0
10
113.395700
20
12.400000
30
0.0
11
113.395700
21
10.000000
31
0.0
0
LINE
8
0
10
113.395700
20
10.000000
30
0.0
11
110.995700
21
10.000000
31
0.0
0
LINE
8
0
10
110.995700
20
10.000000
30
0.0
11
110.995700
21
8.100000
31
0.0
0
ARC
8
0
10
111.595700
20
8.100000
30
0.0
40
0.600000
50
180.000000
51
0.000000
0
LINE
8
0
10
112.195700
20
8.100000
30
0.0
11
112.195700
21
8.750000
31
0.0
0
LINE
8
0
10
112.195700
20
8.750000
30
0.0
11
113.395700
21
8.750000
31
0.0
0
LINE
8
0
10
113.395700
20
8.750000
30
0.0
11
113.395700
21
6.500000
31
0.0
0
LINE
8
0
10
113.395700
20
6.500000
30
0.0
11
114.878364
21
6.500000
31
0.0
0
ARC
8
0
10
51.795700
20
15.700000
30
0.0
40
63.750000
50
348.967105
51
351.702459
0
LINE
8
0
10
114.367439
20
3.500000
30
0.0
11
113.395700
21
3.500000
31
0.0
0
LINE
8
0
10
113.395700
20
3.500000
30
0.0
11
113.395700
21
1.250000
31
0.0
0
LINE
8
0
10
113.395700
20
1.250000
30
0.0
11
112.195700
21
1.250000
31
0.0
0
LINE
8
0
10
112.195700
20
1.250000
30
0.0
11
112.195700
21
1.900000
31
0.0
0
ARC
8
0
10
111.595700
20
1.900000
30
0.0
40
0.600000
50
0.000000
51
180.000000
0
LINE
8
0
10
110.995700
20
1.900000
30
0.0
11
110.995700
21
0.000000
31
0.0
0
LINE
8
0
10
110.995700
20
0.000000
30
0.0
11
113.288057
21
0.000000
31
0.0
0
ARC
8
0
10
113.288057
20
2.000000
30
0.0
40
2.000000
50
270.000000
51
347.440091
0
ARC
8
0
10
51.795700
20
15.700000
30
0.0
40
65.000000
50
347.440091
51
0.000000
0
LINE
8
0
10
116.795700
20
15.700000
30
0.0
11
116.795700
21
26.500000
31
0.0
0
LINE
8
0
10
116.795700
20
26.500000
30
0.0
11
115.850401
21
26.500000
31
0.0
0
ATTDEF
8
0
10
0.000000
20
0.000000
30
0.0
40
3.5
1

3

2
GLASS_MIN:0.000000
70
0
0
ATTDEF
8
0
10
0.000000
20
0.000000
30
0.0
40
3.5
1

3

2
GLASS_MAX:0.000000
70
0
0
ATTDEF
8
0
10
0.000000
20
0.000000
30
0.0
40
3.5
1

3

2
HW_START
70
0
0
ATTDEF
8
0
10
116.795700
20
28.000000
30
0.0
40
3.5
1

3

2
HW_END
70
0
0
ATTDEF
8
0
10
0.000000
20
0.000000
30
0.0
40
3.5
1

3

2
FP_LCS_ORIG
70
0
0
ATTDEF
8
0
10
10.000000
20
0.000000
30
0.0
40
3.5
1

3

2
FP_LCS_HOT
70
0
0
ATTDEF
8
0
10
0.000000
20
10.000000
30
0.0
40
3.5
1

3

2
FP_LCS_INTERN
70
0
0
ATTDEF
8
0
10
0.000000
20
0.000000
30
0.0
40
3.5
1

3

2
BL01:6200.000,,1
70
0
0
ATTDEF
8
0
10
0.000000
20
0.000000
30
0.0
40
3.5
1

3

2
OPTI:1500.000000,1,0,3000.000000,6900.000000,500.000000,0,0.000000,0
70
0
0
ATTDEF
8
0
10
0.000000
20
0.000000
30
0.0
40
3.5
1

3

2
DESC:6079 - 6206
70
0
0
ATTDEF
8
0
10
0.000000
20
0.000000
30
0.0
40
3.5
1

3

2
DENS:0
70
0
0
ATTDEF
8
0
10
0.000000
20
0.000000
30
0.0
40
3.5
1

3

2
TDEV:0
70
0
0
ATTDEF
8
0
10
0.000000
20
0.000000
30
0.0
40
3.5
1

3

2
TDEV2:0
70
0
0
ATTDEF
8
0
10
0.000000
20
0.000000
30
0.0
40
3.5
1

3

2
TDEV3:0
70
0
0
ATTDEF
8
0
10
0.000000
20
0.000000
30
0.0
40
3.5
1

3

2
TDEV4:0
70
0
0
ATTDEF
8
0
10
0.000000
20
0.000000
30
0.0
40
3.5
1

3

2
TDEV5:0
70
0
0
ATTDEF
8
0
10
0.000000
20
0.000000
30
0.0
40
3.5
1

3

2
PANE_WIDTH:0
70
0
0
ATTDEF
8
0
10
0.000000
20
0.000000
30
0.0
40
3.5
1

3

2
MIN_VETRO:0
70
0
0
ATTDEF
8
0
10
0.000000
20
0.000000
30
0.0
40
3.5
1

3

2
MAX_VETRO:0
70
0
0
ATTDEF
8
0
10
0.000000
20
0.000000
30
0.0
40
3.5
1

3

2
JX:0
70
0
0
ATTDEF
8
0
10
0.000000
20
0.000000
30
0.0
40
3.5
1

3

2
WX:0
70
0
0
ATTDEF
8
0
10
0.000000
20
0.000000
30
0.0
40
3.5
1

3

2
JY:0
70
0
0
ATTDEF
8
0
10
0.000000
20
0.000000
30
0.0
40
3.5
1

3

2
WY:0
70
0
0
ENDSEC
0
EOF
