0
SECTION
2
ENTITIES
0
ARC
8
0
10
202.416308
20
27.000000
30
0.0
40
0.500000
50
210.000000
51
270.000000
0
LINE
8
0
10
201.983295
20
26.750000
30
0.0
11
201.261607
21
28.000000
31
0.0
0
LINE
8
0
10
201.261607
20
28.000000
30
0.0
11
200.061607
21
28.000000
31
0.0
0
ARC
8
0
10
200.061607
20
27.500000
30
0.0
40
0.500000
50
90.000000
51
180.000000
0
LINE
8
0
10
199.561607
20
27.500000
30
0.0
11
199.561607
21
26.818535
31
0.0
0
ARC
8
0
10
200.061607
20
26.818535
30
0.0
40
0.500000
50
180.000000
51
245.000000
0
LINE
8
0
10
199.850298
20
26.365381
30
0.0
11
201.534225
21
25.580153
31
0.0
0
ARC
8
0
10
201.111607
20
24.673845
30
0.0
40
1.000000
50
0.000000
51
65.000000
0
LINE
8
0
10
202.111607
20
24.673845
30
0.0
11
202.111607
21
24.025833
31
0.0
0
ARC
8
0
10
201.111607
20
24.025833
30
0.0
40
1.000000
50
330.000000
51
0.000000
0
LINE
8
0
10
201.977632
20
23.525833
30
0.0
11
200.703722
21
21.319355
31
0.0
0
ARC
8
0
10
200.270709
20
21.569355
30
0.0
40
0.500000
50
250.000000
51
330.000000
0
LINE
8
0
10
200.099699
20
21.099509
30
0.0
11
196.964213
21
22.240732
31
0.0
0
ARC
8
0
10
196.861607
20
21.958825
30
0.0
40
0.300000
50
70.000000
51
232.000000
0
LINE
8
0
10
196.676909
20
21.722421
30
0.0
11
200.153776
21
19.005995
31
0.0
0
ARC
8
0
10
200.461607
20
19.400000
30
0.0
40
0.500000
50
232.000000
51
330.000000
0
LINE
8
0
10
200.894620
20
19.150000
30
0.0
11
201.645101
21
20.449871
31
0.0
0
ARC
8
0
10
201.861607
20
20.324871
30
0.0
40
0.250000
50
0.000000
51
150.000000
0
LINE
8
0
10
202.111607
20
20.324871
30
0.0
11
202.111607
21
11.475129
31
0.0
0
ARC
8
0
10
201.861607
20
11.475129
30
0.0
40
0.250000
50
210.000000
51
0.000000
0
LINE
8
0
10
201.645101
20
11.350129
30
0.0
11
200.894620
21
12.650000
31
0.0
0
ARC
8
0
10
200.461607
20
12.400000
30
0.0
40
0.500000
50
30.000000
51
180.000000
0
LINE
8
0
10
199.961607
20
12.400000
30
0.0
11
199.961607
21
10.000000
31
0.0
0
LINE
8
0
10
199.961607
20
10.000000
30
0.0
11
197.561607
21
10.000000
31
0.0
0
LINE
8
0
10
197.561607
20
10.000000
30
0.0
11
197.561607
21
8.100000
31
0.0
0
ARC
8
0
10
198.161607
20
8.100000
30
0.0
40
0.600000
50
180.000000
51
0.000000
0
LINE
8
0
10
198.761607
20
8.100000
30
0.0
11
198.761607
21
8.750000
31
0.0
0
LINE
8
0
10
198.761607
20
8.750000
30
0.0
11
199.961607
21
8.750000
31
0.0
0
LINE
8
0
10
199.961607
20
8.750000
30
0.0
11
199.961607
21
6.500000
31
0.0
0
LINE
8
0
10
199.961607
20
6.500000
30
0.0
11
201.444271
21
6.500000
31
0.0
0
ARC
8
0
10
138.361607
20
15.700000
30
0.0
40
63.750000
50
348.967105
51
351.702459
0
LINE
8
0
10
200.933346
20
3.500000
30
0.0
11
199.961607
21
3.500000
31
0.0
0
LINE
8
0
10
199.961607
20
3.500000
30
0.0
11
199.961607
21
1.250000
31
0.0
0
LINE
8
0
10
199.961607
20
1.250000
30
0.0
11
198.761607
21
1.250000
31
0.0
0
LINE
8
0
10
198.761607
20
1.250000
30
0.0
11
198.761607
21
1.900000
31
0.0
0
ARC
8
0
10
198.161607
20
1.900000
30
0.0
40
0.600000
50
0.000000
51
180.000000
0
LINE
8
0
10
197.561607
20
1.900000
30
0.0
11
197.561607
21
0.000000
31
0.0
0
LINE
8
0
10
197.561607
20
0.000000
30
0.0
11
199.853964
21
0.000000
31
0.0
0
ARC
8
0
10
199.853964
20
2.000000
30
0.0
40
2.000000
50
270.000000
51
347.440091
0
ARC
8
0
10
138.361607
20
15.700000
30
0.0
40
65.000000
50
347.440091
51
0.000000
0
LINE
8
0
10
203.361607
20
15.700000
30
0.0
11
203.361607
21
26.500000
31
0.0
0
LINE
8
0
10
203.361607
20
26.500000
30
0.0
11
202.416308
21
26.500000
31
0.0
0
LINE
8
0
10
6.431466
20
12.814040
30
0.0
11
6.431466
21
11.082492
31
0.0
0
ARC
8
0
10
7.173558
20
11.082492
30
0.0
40
0.742092
50
180.000000
51
0.000000
0
LINE
8
0
10
7.915650
20
11.082492
30
0.0
11
7.915650
21
15.040317
31
0.0
0
ARC
8
0
10
7.173558
20
15.040317
30
0.0
40
0.742092
50
0.000000
51
180.000000
0
LINE
8
0
10
6.431466
20
15.040317
30
0.0
11
6.431466
21
14.298225
31
0.0
0
LINE
8
0
10
6.431466
20
14.298225
30
0.0
11
4.947282
21
14.298225
31
0.0
0
LINE
8
0
10
4.947282
20
14.298225
30
0.0
11
4.947282
21
21.719147
31
0.0
0
LINE
8
0
10
4.947282
20
21.719147
30
0.0
11
6.431466
21
21.719147
31
0.0
0
LINE
8
0
10
6.431466
20
21.719147
30
0.0
11
6.431466
21
20.977055
31
0.0
0
ARC
8
0
10
7.173558
20
20.977055
30
0.0
40
0.742092
50
180.000000
51
0.000000
0
LINE
8
0
10
7.915650
20
20.977055
30
0.0
11
7.915650
21
23.203331
31
0.0
0
LINE
8
0
10
7.915650
20
23.203331
30
0.0
11
0.000000
21
23.203331
31
0.0
0
LINE
8
0
10
0.000000
20
23.203331
30
0.0
11
0.000000
21
21.719147
31
0.0
0
LINE
8
0
10
0.000000
20
21.719147
30
0.0
11
2.671532
21
21.719147
31
0.0
0
ARC
8
0
10
2.671532
20
21.224419
30
0.0
40
0.494728
50
0.000000
51
90.000000
0
LINE
8
0
10
3.166260
20
21.224419
30
0.0
11
3.166260
21
1.732130
31
0.0
0
LINE
8
0
10
3.166260
20
1.732130
30
0.0
11
34.433078
21
1.732130
31
0.0
0
LINE
8
0
10
34.433078
20
1.732130
30
0.0
11
34.433078
21
20.728864
31
0.0
0
ARC
8
0
10
35.422534
20
20.728864
30
0.0
40
0.989456
50
90.000000
51
180.000000
0
LINE
8
0
10
35.422534
20
21.718320
30
0.0
11
83.206239
21
21.718320
31
0.0
0
ARC
8
0
10
83.206239
20
21.223592
30
0.0
40
0.494728
50
315.000000
51
90.000000
0
LINE
8
0
10
83.556065
20
20.873766
30
0.0
11
79.414413
21
16.732114
31
0.0
0
ARC
8
0
10
80.463889
20
15.682637
30
0.0
40
1.484184
50
135.000000
51
225.000000
0
LINE
8
0
10
79.414413
20
14.633160
30
0.0
11
82.316582
21
11.730990
31
0.0
0
LINE
8
0
10
82.316582
20
11.730990
30
0.0
11
82.316582
21
11.031339
31
0.0
0
LINE
8
0
10
82.316582
20
11.031339
30
0.0
11
83.016233
21
11.031339
31
0.0
0
LINE
8
0
10
83.016233
20
11.031339
30
0.0
11
83.715884
21
10.331688
31
0.0
0
LINE
8
0
10
83.715884
20
10.331688
30
0.0
11
83.715884
21
9.632037
31
0.0
0
LINE
8
0
10
83.715884
20
9.632037
30
0.0
11
84.415536
21
9.632037
31
0.0
0
LINE
8
0
10
84.415536
20
9.632037
30
0.0
11
85.884803
21
8.162769
31
0.0
0
LINE
8
0
10
85.884803
20
8.162769
30
0.0
11
86.577423
21
8.162769
31
0.0
0
LINE
8
0
10
86.577423
20
8.162769
30
0.0
11
86.577423
21
1.633185
31
0.0
0
ARC
8
0
10
87.072151
20
1.633185
30
0.0
40
0.494728
50
180.000000
51
270.000000
0
LINE
8
0
10
87.072151
20
1.138457
30
0.0
11
90.040519
21
1.138457
31
0.0
0
ARC
8
0
10
90.040519
20
1.633185
30
0.0
40
0.494728
50
270.000000
51
0.000000
0
LINE
8
0
10
90.535248
20
1.633185
30
0.0
11
90.535248
21
3.049923
31
0.0
0
ARC
8
0
10
90.269910
20
3.049923
30
0.0
40
0.265338
50
0.000000
51
150.000000
0
LINE
8
0
10
90.040120
20
3.182591
30
0.0
11
89.545791
21
2.326388
31
0.0
0
LINE
8
0
10
89.545791
20
2.326388
30
0.0
11
88.061607
21
2.326388
31
0.0
0
LINE
8
0
10
88.061607
20
2.326388
30
0.0
11
88.061607
21
9.646954
31
0.0
0
LINE
8
0
10
88.061607
20
9.646954
30
0.0
11
86.499573
21
9.646954
31
0.0
0
LINE
8
0
10
86.499573
20
9.646954
30
0.0
11
80.813715
21
15.332811
31
0.0
0
ARC
8
0
10
81.163541
20
15.682637
30
0.0
40
0.494728
50
135.000000
51
225.000000
0
LINE
8
0
10
80.813715
20
16.032462
30
0.0
11
86.499573
21
21.718320
31
0.0
0
LINE
8
0
10
86.499573
20
21.718320
30
0.0
11
88.061607
21
21.718320
31
0.0
0
LINE
8
0
10
88.061607
20
21.718320
30
0.0
11
88.061607
21
23.203331
31
0.0
0
LINE
8
0
10
88.061607
20
23.203331
30
0.0
11
29.683688
21
23.203331
31
0.0
0
LINE
8
0
10
29.683688
20
23.203331
30
0.0
11
29.683688
21
20.977055
31
0.0
0
ARC
8
0
10
30.425780
20
20.977055
30
0.0
40
0.742092
50
180.000000
51
0.000000
0
LINE
8
0
10
31.167872
20
20.977055
30
0.0
11
31.167872
21
21.719147
31
0.0
0
LINE
8
0
10
31.167872
20
21.719147
30
0.0
11
32.652057
21
21.719147
31
0.0
0
LINE
8
0
10
32.652057
20
21.719147
30
0.0
11
32.652057
21
14.298225
31
0.0
0
LINE
8
0
10
32.652057
20
14.298225
30
0.0
11
31.167872
21
14.298225
31
0.0
0
LINE
8
0
10
31.167872
20
14.298225
30
0.0
11
31.167872
21
15.040317
31
0.0
0
ARC
8
0
10
30.425780
20
15.040317
30
0.0
40
0.742092
50
0.000000
51
180.000000
0
LINE
8
0
10
29.683688
20
15.040317
30
0.0
11
29.683688
21
11.082492
31
0.0
0
ARC
8
0
10
30.425780
20
11.082492
30
0.0
40
0.742092
50
180.000000
51
0.000000
0
LINE
8
0
10
31.167872
20
11.082492
30
0.0
11
31.167872
21
12.814040
31
0.0
0
LINE
8
0
10
31.167872
20
12.814040
30
0.0
11
32.948894
21
12.814040
31
0.0
0
LINE
8
0
10
32.948894
20
12.814040
30
0.0
11
32.948894
21
3.216315
31
0.0
0
LINE
8
0
10
32.948894
20
3.216315
30
0.0
11
31.167872
21
3.216315
31
0.0
0
LINE
8
0
10
31.167872
20
3.216315
30
0.0
11
31.167872
21
4.947863
31
0.0
0
ARC
8
0
10
30.425780
20
4.947863
30
0.0
40
0.742092
50
0.000000
51
180.000000
0
LINE
8
0
10
29.683688
20
4.947863
30
0.0
11
29.683688
21
3.216315
31
0.0
0
LINE
8
0
10
29.683688
20
3.216315
30
0.0
11
7.915650
21
3.216315
31
0.0
0
LINE
8
0
10
7.915650
20
3.216315
30
0.0
11
7.915650
21
4.947863
31
0.0
0
ARC
8
0
10
7.173558
20
4.947863
30
0.0
40
0.742092
50
0.000000
51
180.000000
0
LINE
8
0
10
6.431466
20
4.947863
30
0.0
11
6.431466
21
3.216315
31
0.0
0
LINE
8
0
10
6.431466
20
3.216315
30
0.0
11
4.650445
21
3.216315
31
0.0
0
LINE
8
0
10
4.650445
20
3.216315
30
0.0
11
4.650445
21
12.814040
31
0.0
0
LINE
8
0
10
4.650445
20
12.814040
30
0.0
11
6.431466
21
12.814040
31
0.0
0
LINE
8
0
10
88.061607
20
21.500000
30
0.0
11
88.061607
21
23.203331
31
0.0
0
LINE
8
0
10
88.061607
20
23.203331
30
0.0
11
194.561607
21
23.203331
31
0.0
0
LINE
8
0
10
194.561607
20
23.203331
30
0.0
11
194.561607
21
8.000000
31
0.0
0
LINE
8
0
10
194.561607
20
8.000000
30
0.0
11
99.061607
21
8.000000
31
0.0
0
ARC
8
0
10
99.061607
20
8.500000
30
0.0
40
0.500000
50
180.000000
51
270.000000
0
LINE
8
0
10
98.561607
20
8.500000
30
0.0
11
98.561607
21
9.000000
31
0.0
0
ARC
8
0
10
99.061607
20
9.000000
30
0.0
40
0.500000
50
90.000000
51
180.000000
0
LINE
8
0
10
99.061607
20
9.500000
30
0.0
11
100.061607
21
9.500000
31
0.0
0
ARC
8
0
10
100.061607
20
10.000000
30
0.0
40
0.500000
50
270.000000
51
0.000000
0
LINE
8
0
10
100.561607
20
10.000000
30
0.0
11
100.561607
21
21.203331
31
0.0
0
ARC
8
0
10
100.061607
20
21.203331
30
0.0
40
0.500000
50
0.000000
51
90.000000
0
LINE
8
0
10
100.061607
20
21.703331
30
0.0
11
90.061607
21
21.703331
31
0.0
0
ARC
8
0
10
90.061607
20
21.203331
30
0.0
40
0.500000
50
90.000000
51
180.000000
0
LINE
8
0
10
89.561607
20
21.203331
30
0.0
11
89.561607
21
10.000000
31
0.0
0
ARC
8
0
10
90.061607
20
10.000000
30
0.0
40
0.500000
50
180.000000
51
270.000000
0
LINE
8
0
10
90.061607
20
9.500000
30
0.0
11
91.061607
21
9.500000
31
0.0
0
ARC
8
0
10
91.061607
20
9.000000
30
0.0
40
0.500000
50
0.000000
51
90.000000
0
LINE
8
0
10
91.561607
20
9.000000
30
0.0
11
91.561607
21
8.500000
31
0.0
0
ARC
8
0
10
91.061607
20
8.500000
30
0.0
40
0.500000
50
270.000000
51
0.000000
0
LINE
8
0
10
91.061607
20
8.000000
30
0.0
11
88.061607
21
8.000000
31
0.0
0
LINE
8
0
10
88.061607
20
8.000000
30
0.0
11
88.061607
21
9.750000
31
0.0
0
LINE
8
0
10
88.061607
20
9.750000
30
0.0
11
86.565907
21
9.750000
31
0.0
0
LINE
8
0
10
86.565907
20
9.750000
30
0.0
11
86.565907
21
10.750000
31
0.0
0
LINE
8
0
10
86.565907
20
10.750000
30
0.0
11
88.061607
21
10.750000
31
0.0
0
LINE
8
0
10
88.061607
20
10.750000
30
0.0
11
88.061607
21
15.100000
31
0.0
0
LINE
8
0
10
88.061607
20
15.100000
30
0.0
11
86.565907
21
16.595700
31
0.0
0
LINE
8
0
10
86.565907
20
16.595700
30
0.0
11
88.061607
21
16.595700
31
0.0
0
LINE
8
0
10
88.061607
20
16.595700
30
0.0
11
88.061607
21
20.500000
31
0.0
0
LINE
8
0
10
88.061607
20
20.500000
30
0.0
11
86.565907
21
20.500000
31
0.0
0
LINE
8
0
10
86.565907
20
20.500000
30
0.0
11
86.565907
21
21.500000
31
0.0
0
LINE
8
0
10
86.565907
20
21.500000
30
0.0
11
88.061607
21
21.500000
31
0.0
0
LINE
8
0
10
193.061607
20
21.703331
30
0.0
11
193.061607
21
9.500000
31
0.0
0
LINE
8
0
10
193.061607
20
9.500000
30
0.0
11
102.061607
21
9.500000
31
0.0
0
LINE
8
0
10
102.061607
20
9.500000
30
0.0
11
102.061607
21
21.703331
31
0.0
0
LINE
8
0
10
102.061607
20
21.703331
30
0.0
11
193.061607
21
21.703331
31
0.0
0
ATTDEF
8
0
10
0.000000
20
0.000000
30
0.0
40
3.5
1

3

2
GLASS_MIN:0.000000
70
0
0
ATTDEF
8
0
10
0.000000
20
0.000000
30
0.0
40
3.5
1

3

2
GLASS_MAX:0.000000
70
0
0
ATTDEF
8
0
10
0.000000
20
0.000000
30
0.0
40
3.5
1

3

2
HW_START
70
0
0
ATTDEF
8
0
10
203.361607
20
28.000000
30
0.0
40
3.5
1

3

2
HW_END
70
0
0
ATTDEF
8
0
10
194.561607
20
23.203331
30
0.0
40
3.5
1

3

2
VC_START
70
0
0
ATTDEF
8
0
10
146.811607
20
8.000000
30
0.0
40
3.5
1

3

2
VC_END
70
0
0
ATTDEF
8
0
10
0.000000
20
0.000000
30
0.0
40
3.5
1

3

2
FP_LCS_ORIG
70
0
0
ATTDEF
8
0
10
10.000000
20
0.000000
30
0.0
40
3.5
1

3

2
FP_LCS_HOT
70
0
0
ATTDEF
8
0
10
0.000000
20
10.000000
30
0.0
40
3.5
1

3

2
FP_LCS_INTERN
70
0
0
ATTDEF
8
0
10
0.000000
20
0.000000
30
0.0
40
3.5
1

3

2
BL01:6200.000,,1
70
0
0
ATTDEF
8
0
10
0.000000
20
0.000000
30
0.0
40
3.5
1

3

2
OPTI:1500.000000,1,0,3000.000000,6900.000000,500.000000,0,0.000000,0
70
0
0
ATTDEF
8
0
10
0.000000
20
0.000000
30
0.0
40
3.5
1

3

2
DESC:6206 - 6064 - 6079
70
0
0
ATTDEF
8
0
10
0.000000
20
0.000000
30
0.0
40
3.5
1

3

2
DENS:0
70
0
0
ATTDEF
8
0
10
0.000000
20
0.000000
30
0.0
40
3.5
1

3

2
TDEV:0
70
0
0
ATTDEF
8
0
10
0.000000
20
0.000000
30
0.0
40
3.5
1

3

2
TDEV2:0
70
0
0
ATTDEF
8
0
10
0.000000
20
0.000000
30
0.0
40
3.5
1

3

2
TDEV3:0
70
0
0
ATTDEF
8
0
10
0.000000
20
0.000000
30
0.0
40
3.5
1

3

2
TDEV4:0
70
0
0
ATTDEF
8
0
10
0.000000
20
0.000000
30
0.0
40
3.5
1

3

2
TDEV5:0
70
0
0
ATTDEF
8
0
10
0.000000
20
0.000000
30
0.0
40
3.5
1

3

2
PANE_WIDTH:0
70
0
0
ATTDEF
8
0
10
0.000000
20
0.000000
30
0.0
40
3.5
1

3

2
MIN_VETRO:0
70
0
0
ATTDEF
8
0
10
0.000000
20
0.000000
30
0.0
40
3.5
1

3

2
MAX_VETRO:0
70
0
0
ATTDEF
8
0
10
0.000000
20
0.000000
30
0.0
40
3.5
1

3

2
JX:0
70
0
0
ATTDEF
8
0
10
0.000000
20
0.000000
30
0.0
40
3.5
1

3

2
WX:0
70
0
0
ATTDEF
8
0
10
0.000000
20
0.000000
30
0.0
40
3.5
1

3

2
JY:0
70
0
0
ATTDEF
8
0
10
0.000000
20
0.000000
30
0.0
40
3.5
1

3

2
WY:0
70
0
0
ENDSEC
0
EOF
