0
SECTION
2
ENTITIES
0
LINE
8
0
10
207.879359
20
76.255153
30
0.0
11
219.580996
21
76.262963
31
0.0
0
ARC
8
0
10
219.580996
20
77.762963
30
0.0
40
1.500000
50
270.000000
51
0.444811
0
ARC
8
0
10
157.482868
20
77.280860
30
0.0
40
63.600000
50
0.444811
51
13.181415
0
ARC
8
0
10
215.902043
20
90.962963
30
0.0
40
3.600000
50
13.181415
51
90.000000
0
LINE
8
0
10
215.902043
20
94.562963
30
0.0
11
214.558700
21
94.562963
31
0.0
0
ARC
8
0
10
214.558700
20
94.062963
30
0.0
40
0.500000
50
90.000000
51
180.000000
0
LINE
8
0
10
214.058700
20
94.062963
30
0.0
11
214.058700
21
91.688708
31
0.0
0
ARC
8
0
10
212.658700
20
88.263799
30
0.0
40
3.700000
50
297.166572
51
67.766728
0
ARC
8
0
10
214.028437
20
85.594750
30
0.0
40
0.700000
50
117.166572
51
297.166572
0
ARC
8
0
10
212.658700
20
88.263799
30
0.0
40
2.300000
50
297.166572
51
202.833428
0
ARC
8
0
10
209.893789
20
87.099639
30
0.0
40
0.700000
50
202.833428
51
22.833428
0
ARC
8
0
10
212.658700
20
88.263799
30
0.0
40
3.700000
50
90.000000
51
202.833428
0
LINE
8
0
10
212.658700
20
91.963799
30
0.0
11
212.658700
21
93.962963
31
0.0
0
ARC
8
0
10
214.658700
20
93.962963
30
0.0
40
2.000000
50
90.000000
51
180.000000
0
LINE
8
0
10
214.658700
20
95.962963
30
0.0
11
215.902043
21
95.962963
31
0.0
0
ARC
8
0
10
215.902043
20
90.962963
30
0.0
40
5.000000
50
13.181415
51
90.000000
0
ARC
8
0
10
157.482868
20
77.280860
30
0.0
40
65.000000
50
359.805883
51
13.181415
0
LINE
8
0
10
222.482495
20
77.060641
30
0.0
11
222.482495
21
18.902322
31
0.0
0
ARC
8
0
10
157.482868
20
18.682103
30
0.0
40
65.000000
50
346.818585
51
0.194117
0
ARC
8
0
10
215.902043
20
5.000000
30
0.0
40
5.000000
50
270.000000
51
346.818585
0
LINE
8
0
10
215.902043
20
0.000000
30
0.0
11
213.925047
21
0.000000
31
0.0
0
ARC
8
0
10
213.925047
20
0.500000
30
0.0
40
0.500000
50
180.000000
51
270.000000
0
LINE
8
0
10
213.425047
20
0.500000
30
0.0
11
213.425047
21
0.900000
31
0.0
0
ARC
8
0
10
213.925047
20
0.900000
30
0.0
40
0.500000
50
90.000000
51
180.000000
0
LINE
8
0
10
213.925047
20
1.400000
30
0.0
11
215.902043
21
1.400000
31
0.0
0
ARC
8
0
10
215.902043
20
5.000000
30
0.0
40
3.600000
50
270.000000
51
346.818585
0
ARC
8
0
10
157.482868
20
18.682103
30
0.0
40
63.600000
50
346.818585
51
347.489025
0
ARC
8
0
10
219.084528
20
5.012963
30
0.0
40
0.500000
50
347.489025
51
90.000000
0
LINE
8
0
10
219.084528
20
5.512963
30
0.0
11
199.261607
21
5.512963
31
0.0
0
ARC
8
0
10
199.261607
20
5.012963
30
0.0
40
0.500000
50
90.000000
51
180.000000
0
LINE
8
0
10
198.761607
20
5.012963
30
0.0
11
198.761607
21
0.000000
31
0.0
0
LINE
8
0
10
198.761607
20
0.000000
30
0.0
11
197.361607
21
0.000000
31
0.0
0
LINE
8
0
10
197.361607
20
0.000000
30
0.0
11
197.361607
21
4.912963
31
0.0
0
ARC
8
0
10
199.361607
20
4.912963
30
0.0
40
2.000000
50
90.000000
51
180.000000
0
LINE
8
0
10
199.361607
20
6.912963
30
0.0
11
219.568425
21
6.912963
31
0.0
0
ARC
8
0
10
219.568425
20
7.412963
30
0.0
40
0.500000
50
270.000000
51
349.712255
0
ARC
8
0
10
157.482868
20
18.682103
30
0.0
40
63.600000
50
349.712255
51
0.196242
0
LINE
8
0
10
221.082495
20
18.899938
30
0.0
11
221.082495
21
73.462963
31
0.0
0
ARC
8
0
10
219.582495
20
73.462963
30
0.0
40
1.500000
50
0.000000
51
90.000000
0
LINE
8
0
10
219.582495
20
74.962963
30
0.0
11
208.656637
21
74.962963
31
0.0
0
ARC
8
0
10
208.656637
20
73.962963
30
0.0
40
1.000000
50
90.000000
51
164.237094
0
ARC
8
0
10
206.731849
20
74.506278
30
0.0
40
1.000000
50
154.619709
51
344.237094
0
ARC
8
0
10
207.892044
20
73.982226
30
0.0
40
2.272962
50
90.319755
51
155.220067
0
LINE
8
0
10
214.361607
20
92.495999
30
0.0
11
214.361607
21
91.072115
31
0.0
0
ARC
8
0
10
212.561607
20
87.500000
30
0.0
40
4.000000
50
182.865984
51
63.256316
0
LINE
8
0
10
208.566611
20
87.300000
30
0.0
11
203.461607
21
87.300000
31
0.0
0
LINE
8
0
10
203.461607
20
87.300000
30
0.0
11
203.461607
21
88.300000
31
0.0
0
LINE
8
0
10
203.461607
20
88.300000
30
0.0
11
200.561607
21
88.300000
31
0.0
0
LINE
8
0
10
200.561607
20
88.300000
30
0.0
11
200.561607
21
91.328312
31
0.0
0
ARC
8
0
10
201.061607
20
91.328312
30
0.0
40
0.500000
50
120.000000
51
180.000000
0
LINE
8
0
10
200.811607
20
91.761325
30
0.0
11
201.311607
21
92.050000
31
0.0
0
ARC
8
0
10
201.061607
20
92.483013
30
0.0
40
0.500000
50
300.000000
51
30.000000
0
LINE
8
0
10
201.494620
20
92.733013
30
0.0
11
200.095101
21
95.157051
31
0.0
0
ARC
8
0
10
199.847506
20
95.014102
30
0.0
40
0.285898
50
30.000000
51
180.000000
0
LINE
8
0
10
199.561607
20
95.014102
30
0.0
11
199.561607
21
88.300000
31
0.0
0
LINE
8
0
10
199.561607
20
88.300000
30
0.0
11
194.561607
21
88.300000
31
0.0
0
LINE
8
0
10
194.561607
20
88.300000
30
0.0
11
194.561607
21
70.800000
31
0.0
0
LINE
8
0
10
194.561607
20
70.800000
30
0.0
11
208.261607
21
70.800000
31
0.0
0
ARC
8
0
10
208.261607
20
71.800000
30
0.0
40
1.000000
50
270.000000
51
152.181861
0
ARC
8
0
10
206.934958
20
72.500000
30
0.0
40
0.500000
50
270.000000
51
332.181861
0
LINE
8
0
10
206.934958
20
72.000000
30
0.0
11
196.461607
21
72.000000
31
0.0
0
ARC
8
0
10
196.461607
20
72.500000
30
0.0
40
0.500000
50
180.000000
51
270.000000
0
LINE
8
0
10
195.961607
20
72.500000
30
0.0
11
195.961607
21
76.800000
31
0.0
0
LINE
8
0
10
195.961607
20
76.800000
30
0.0
11
196.461607
21
77.300000
31
0.0
0
LINE
8
0
10
196.461607
20
77.300000
30
0.0
11
195.961607
21
77.800000
31
0.0
0
LINE
8
0
10
195.961607
20
77.800000
30
0.0
11
195.961607
21
78.800000
31
0.0
0
LINE
8
0
10
195.961607
20
78.800000
30
0.0
11
196.461607
21
79.300000
31
0.0
0
LINE
8
0
10
196.461607
20
79.300000
30
0.0
11
195.961607
21
79.800000
31
0.0
0
LINE
8
0
10
195.961607
20
79.800000
30
0.0
11
195.961607
21
85.400000
31
0.0
0
ARC
8
0
10
197.461607
20
85.400000
30
0.0
40
1.500000
50
90.000000
51
180.000000
0
LINE
8
0
10
197.461607
20
86.900000
30
0.0
11
201.561607
21
86.900000
31
0.0
0
ARC
8
0
10
201.561607
20
86.400000
30
0.0
40
0.500000
50
0.000000
51
90.000000
0
LINE
8
0
10
202.061607
20
86.400000
30
0.0
11
202.061607
21
86.000000
31
0.0
0
ARC
8
0
10
202.561607
20
86.000000
30
0.0
40
0.500000
50
180.000000
51
270.000000
0
LINE
8
0
10
202.561607
20
85.500000
30
0.0
11
206.237052
21
85.500000
31
0.0
0
ARC
8
0
10
206.237052
20
84.500000
30
0.0
40
1.000000
50
25.376934
51
90.000000
0
ARC
8
0
10
212.561607
20
87.500000
30
0.0
40
6.000000
50
205.376934
51
65.280149
0
ARC
8
0
10
214.861607
20
92.495999
30
0.0
40
0.500000
50
65.280149
51
180.000000
0
LINE
8
0
10
6.431466
20
75.614040
30
0.0
11
6.431466
21
73.882492
31
0.0
0
ARC
8
0
10
7.173558
20
73.882492
30
0.0
40
0.742092
50
180.000000
51
0.000000
0
LINE
8
0
10
7.915650
20
73.882492
30
0.0
11
7.915650
21
77.840317
31
0.0
0
ARC
8
0
10
7.173558
20
77.840317
30
0.0
40
0.742092
50
0.000000
51
180.000000
0
LINE
8
0
10
6.431466
20
77.840317
30
0.0
11
6.431466
21
77.098225
31
0.0
0
LINE
8
0
10
6.431466
20
77.098225
30
0.0
11
4.947282
21
77.098225
31
0.0
0
LINE
8
0
10
4.947282
20
77.098225
30
0.0
11
4.947282
21
84.519147
31
0.0
0
LINE
8
0
10
4.947282
20
84.519147
30
0.0
11
6.431466
21
84.519147
31
0.0
0
LINE
8
0
10
6.431466
20
84.519147
30
0.0
11
6.431466
21
83.777055
31
0.0
0
ARC
8
0
10
7.173558
20
83.777055
30
0.0
40
0.742092
50
180.000000
51
0.000000
0
LINE
8
0
10
7.915650
20
83.777055
30
0.0
11
7.915650
21
86.003331
31
0.0
0
LINE
8
0
10
7.915650
20
86.003331
30
0.0
11
0.000000
21
86.003331
31
0.0
0
LINE
8
0
10
0.000000
20
86.003331
30
0.0
11
0.000000
21
84.519147
31
0.0
0
LINE
8
0
10
0.000000
20
84.519147
30
0.0
11
2.671532
21
84.519147
31
0.0
0
ARC
8
0
10
2.671532
20
84.024419
30
0.0
40
0.494728
50
0.000000
51
90.000000
0
LINE
8
0
10
3.166260
20
84.024419
30
0.0
11
3.166260
21
64.532130
31
0.0
0
LINE
8
0
10
3.166260
20
64.532130
30
0.0
11
34.433078
21
64.532130
31
0.0
0
LINE
8
0
10
34.433078
20
64.532130
30
0.0
11
34.433078
21
83.528864
31
0.0
0
ARC
8
0
10
35.422534
20
83.528864
30
0.0
40
0.989456
50
90.000000
51
180.000000
0
LINE
8
0
10
35.422534
20
84.518320
30
0.0
11
83.206239
21
84.518320
31
0.0
0
ARC
8
0
10
83.206239
20
84.023592
30
0.0
40
0.494728
50
315.000000
51
90.000000
0
LINE
8
0
10
83.556065
20
83.673766
30
0.0
11
79.414413
21
79.532114
31
0.0
0
ARC
8
0
10
80.463889
20
78.482637
30
0.0
40
1.484184
50
135.000000
51
225.000000
0
LINE
8
0
10
79.414413
20
77.433160
30
0.0
11
82.316582
21
74.530990
31
0.0
0
LINE
8
0
10
82.316582
20
74.530990
30
0.0
11
82.316582
21
73.831339
31
0.0
0
LINE
8
0
10
82.316582
20
73.831339
30
0.0
11
83.016233
21
73.831339
31
0.0
0
LINE
8
0
10
83.016233
20
73.831339
30
0.0
11
83.715884
21
73.131688
31
0.0
0
LINE
8
0
10
83.715884
20
73.131688
30
0.0
11
83.715884
21
72.432037
31
0.0
0
LINE
8
0
10
83.715884
20
72.432037
30
0.0
11
84.415536
21
72.432037
31
0.0
0
LINE
8
0
10
84.415536
20
72.432037
30
0.0
11
85.884803
21
70.962769
31
0.0
0
LINE
8
0
10
85.884803
20
70.962769
30
0.0
11
86.577423
21
70.962769
31
0.0
0
LINE
8
0
10
86.577423
20
70.962769
30
0.0
11
86.577423
21
64.433185
31
0.0
0
ARC
8
0
10
87.072151
20
64.433185
30
0.0
40
0.494728
50
180.000000
51
270.000000
0
LINE
8
0
10
87.072151
20
63.938457
30
0.0
11
90.040519
21
63.938457
31
0.0
0
ARC
8
0
10
90.040519
20
64.433185
30
0.0
40
0.494728
50
270.000000
51
0.000000
0
LINE
8
0
10
90.535248
20
64.433185
30
0.0
11
90.535248
21
65.849923
31
0.0
0
ARC
8
0
10
90.269910
20
65.849923
30
0.0
40
0.265338
50
0.000000
51
150.000000
0
LINE
8
0
10
90.040120
20
65.982591
30
0.0
11
89.545791
21
65.126388
31
0.0
0
LINE
8
0
10
89.545791
20
65.126388
30
0.0
11
88.061607
21
65.126388
31
0.0
0
LINE
8
0
10
88.061607
20
65.126388
30
0.0
11
88.061607
21
72.446954
31
0.0
0
LINE
8
0
10
88.061607
20
72.446954
30
0.0
11
86.499573
21
72.446954
31
0.0
0
LINE
8
0
10
86.499573
20
72.446954
30
0.0
11
80.813715
21
78.132811
31
0.0
0
ARC
8
0
10
81.163541
20
78.482637
30
0.0
40
0.494728
50
135.000000
51
225.000000
0
LINE
8
0
10
80.813715
20
78.832462
30
0.0
11
86.499573
21
84.518320
31
0.0
0
LINE
8
0
10
86.499573
20
84.518320
30
0.0
11
88.061607
21
84.518320
31
0.0
0
LINE
8
0
10
88.061607
20
84.518320
30
0.0
11
88.061607
21
86.003331
31
0.0
0
LINE
8
0
10
88.061607
20
86.003331
30
0.0
11
29.683688
21
86.003331
31
0.0
0
LINE
8
0
10
29.683688
20
86.003331
30
0.0
11
29.683688
21
83.777055
31
0.0
0
ARC
8
0
10
30.425780
20
83.777055
30
0.0
40
0.742092
50
180.000000
51
0.000000
0
LINE
8
0
10
31.167872
20
83.777055
30
0.0
11
31.167872
21
84.519147
31
0.0
0
LINE
8
0
10
31.167872
20
84.519147
30
0.0
11
32.652057
21
84.519147
31
0.0
0
LINE
8
0
10
32.652057
20
84.519147
30
0.0
11
32.652057
21
77.098225
31
0.0
0
LINE
8
0
10
32.652057
20
77.098225
30
0.0
11
31.167872
21
77.098225
31
0.0
0
LINE
8
0
10
31.167872
20
77.098225
30
0.0
11
31.167872
21
77.840317
31
0.0
0
ARC
8
0
10
30.425780
20
77.840317
30
0.0
40
0.742092
50
0.000000
51
180.000000
0
LINE
8
0
10
29.683688
20
77.840317
30
0.0
11
29.683688
21
73.882492
31
0.0
0
ARC
8
0
10
30.425780
20
73.882492
30
0.0
40
0.742092
50
180.000000
51
0.000000
0
LINE
8
0
10
31.167872
20
73.882492
30
0.0
11
31.167872
21
75.614040
31
0.0
0
LINE
8
0
10
31.167872
20
75.614040
30
0.0
11
32.948894
21
75.614040
31
0.0
0
LINE
8
0
10
32.948894
20
75.614040
30
0.0
11
32.948894
21
66.016315
31
0.0
0
LINE
8
0
10
32.948894
20
66.016315
30
0.0
11
31.167872
21
66.016315
31
0.0
0
LINE
8
0
10
31.167872
20
66.016315
30
0.0
11
31.167872
21
67.747863
31
0.0
0
ARC
8
0
10
30.425780
20
67.747863
30
0.0
40
0.742092
50
0.000000
51
180.000000
0
LINE
8
0
10
29.683688
20
67.747863
30
0.0
11
29.683688
21
66.016315
31
0.0
0
LINE
8
0
10
29.683688
20
66.016315
30
0.0
11
7.915650
21
66.016315
31
0.0
0
LINE
8
0
10
7.915650
20
66.016315
30
0.0
11
7.915650
21
67.747863
31
0.0
0
ARC
8
0
10
7.173558
20
67.747863
30
0.0
40
0.742092
50
0.000000
51
180.000000
0
LINE
8
0
10
6.431466
20
67.747863
30
0.0
11
6.431466
21
66.016315
31
0.0
0
LINE
8
0
10
6.431466
20
66.016315
30
0.0
11
4.650445
21
66.016315
31
0.0
0
LINE
8
0
10
4.650445
20
66.016315
30
0.0
11
4.650445
21
75.614040
31
0.0
0
LINE
8
0
10
4.650445
20
75.614040
30
0.0
11
6.431466
21
75.614040
31
0.0
0
LINE
8
0
10
88.061607
20
84.300000
30
0.0
11
88.061607
21
86.003331
31
0.0
0
LINE
8
0
10
88.061607
20
86.003331
30
0.0
11
194.561607
21
86.003331
31
0.0
0
LINE
8
0
10
194.561607
20
86.003331
30
0.0
11
194.561607
21
70.800000
31
0.0
0
LINE
8
0
10
194.561607
20
70.800000
30
0.0
11
99.061607
21
70.800000
31
0.0
0
ARC
8
0
10
99.061607
20
71.300000
30
0.0
40
0.500000
50
180.000000
51
270.000000
0
LINE
8
0
10
98.561607
20
71.300000
30
0.0
11
98.561607
21
71.800000
31
0.0
0
ARC
8
0
10
99.061607
20
71.800000
30
0.0
40
0.500000
50
90.000000
51
180.000000
0
LINE
8
0
10
99.061607
20
72.300000
30
0.0
11
100.061607
21
72.300000
31
0.0
0
ARC
8
0
10
100.061607
20
72.800000
30
0.0
40
0.500000
50
270.000000
51
0.000000
0
LINE
8
0
10
100.561607
20
72.800000
30
0.0
11
100.561607
21
84.003331
31
0.0
0
ARC
8
0
10
100.061607
20
84.003331
30
0.0
40
0.500000
50
0.000000
51
90.000000
0
LINE
8
0
10
100.061607
20
84.503331
30
0.0
11
90.061607
21
84.503331
31
0.0
0
ARC
8
0
10
90.061607
20
84.003331
30
0.0
40
0.500000
50
90.000000
51
180.000000
0
LINE
8
0
10
89.561607
20
84.003331
30
0.0
11
89.561607
21
72.800000
31
0.0
0
ARC
8
0
10
90.061607
20
72.800000
30
0.0
40
0.500000
50
180.000000
51
270.000000
0
LINE
8
0
10
90.061607
20
72.300000
30
0.0
11
91.061607
21
72.300000
31
0.0
0
ARC
8
0
10
91.061607
20
71.800000
30
0.0
40
0.500000
50
0.000000
51
90.000000
0
LINE
8
0
10
91.561607
20
71.800000
30
0.0
11
91.561607
21
71.300000
31
0.0
0
ARC
8
0
10
91.061607
20
71.300000
30
0.0
40
0.500000
50
270.000000
51
0.000000
0
LINE
8
0
10
91.061607
20
70.800000
30
0.0
11
88.061607
21
70.800000
31
0.0
0
LINE
8
0
10
88.061607
20
70.800000
30
0.0
11
88.061607
21
72.550000
31
0.0
0
LINE
8
0
10
88.061607
20
72.550000
30
0.0
11
86.565907
21
72.550000
31
0.0
0
LINE
8
0
10
86.565907
20
72.550000
30
0.0
11
86.565907
21
73.550000
31
0.0
0
LINE
8
0
10
86.565907
20
73.550000
30
0.0
11
88.061607
21
73.550000
31
0.0
0
LINE
8
0
10
88.061607
20
73.550000
30
0.0
11
88.061607
21
77.900000
31
0.0
0
LINE
8
0
10
88.061607
20
77.900000
30
0.0
11
86.565907
21
79.395700
31
0.0
0
LINE
8
0
10
86.565907
20
79.395700
30
0.0
11
88.061607
21
79.395700
31
0.0
0
LINE
8
0
10
88.061607
20
79.395700
30
0.0
11
88.061607
21
83.300000
31
0.0
0
LINE
8
0
10
88.061607
20
83.300000
30
0.0
11
86.565907
21
83.300000
31
0.0
0
LINE
8
0
10
86.565907
20
83.300000
30
0.0
11
86.565907
21
84.300000
31
0.0
0
LINE
8
0
10
86.565907
20
84.300000
30
0.0
11
88.061607
21
84.300000
31
0.0
0
LINE
8
0
10
193.061607
20
84.503331
30
0.0
11
193.061607
21
72.300000
31
0.0
0
LINE
8
0
10
193.061607
20
72.300000
30
0.0
11
102.061607
21
72.300000
31
0.0
0
LINE
8
0
10
102.061607
20
72.300000
30
0.0
11
102.061607
21
84.503331
31
0.0
0
LINE
8
0
10
102.061607
20
84.503331
30
0.0
11
193.061607
21
84.503331
31
0.0
0
ATTDEF
8
0
10
0.000000
20
0.000000
30
0.0
40
3.5
1

3

2
GLASS_MIN:0.000000
70
0
0
ATTDEF
8
0
10
0.000000
20
0.000000
30
0.0
40
3.5
1

3

2
GLASS_MAX:0.000000
70
0
0
ATTDEF
8
0
10
0.000000
20
0.000000
30
0.0
40
3.5
1

3

2
HW_START
70
0
0
ATTDEF
8
0
10
222.482495
20
95.962963
30
0.0
40
3.5
1

3

2
HW_END
70
0
0
ATTDEF
8
0
10
88.061607
20
86.003331
30
0.0
40
3.5
1

3

2
VC_START
70
0
0
ATTDEF
8
0
10
89.561607
20
70.800000
30
0.0
40
3.5
1

3

2
VC_END
70
0
0
ATTDEF
8
0
10
0.000000
20
0.000000
30
0.0
40
3.5
1

3

2
FP_LCS_ORIG
70
0
0
ATTDEF
8
0
10
10.000000
20
0.000000
30
0.0
40
3.5
1

3

2
FP_LCS_HOT
70
0
0
ATTDEF
8
0
10
0.000000
20
10.000000
30
0.0
40
3.5
1

3

2
FP_LCS_INTERN
70
0
0
ATTDEF
8
0
10
0.000000
20
0.000000
30
0.0
40
3.5
1

3

2
BL01:6200.000,,1
70
0
0
ATTDEF
8
0
10
0.000000
20
0.000000
30
0.0
40
3.5
1

3

2
OPTI:1500.000000,1,0,3000.000000,6900.000000,500.000000,0,0.000000,0
70
0
0
ATTDEF
8
0
10
0.000000
20
0.000000
30
0.0
40
3.5
1

3

2
DESC:6254 - 6245 - 6064 - 6079
70
0
0
ATTDEF
8
0
10
0.000000
20
0.000000
30
0.0
40
3.5
1

3

2
DENS:0
70
0
0
ATTDEF
8
0
10
0.000000
20
0.000000
30
0.0
40
3.5
1

3

2
TDEV:0
70
0
0
ATTDEF
8
0
10
0.000000
20
0.000000
30
0.0
40
3.5
1

3

2
TDEV2:0
70
0
0
ATTDEF
8
0
10
0.000000
20
0.000000
30
0.0
40
3.5
1

3

2
TDEV3:0
70
0
0
ATTDEF
8
0
10
0.000000
20
0.000000
30
0.0
40
3.5
1

3

2
TDEV4:0
70
0
0
ATTDEF
8
0
10
0.000000
20
0.000000
30
0.0
40
3.5
1

3

2
TDEV5:0
70
0
0
ATTDEF
8
0
10
0.000000
20
0.000000
30
0.0
40
3.5
1

3

2
PANE_WIDTH:0
70
0
0
ATTDEF
8
0
10
0.000000
20
0.000000
30
0.0
40
3.5
1

3

2
MIN_VETRO:0
70
0
0
ATTDEF
8
0
10
0.000000
20
0.000000
30
0.0
40
3.5
1

3

2
MAX_VETRO:0
70
0
0
ATTDEF
8
0
10
0.000000
20
0.000000
30
0.0
40
3.5
1

3

2
JX:0
70
0
0
ATTDEF
8
0
10
0.000000
20
0.000000
30
0.0
40
3.5
1

3

2
WX:0
70
0
0
ATTDEF
8
0
10
0.000000
20
0.000000
30
0.0
40
3.5
1

3

2
JY:0
70
0
0
ATTDEF
8
0
10
0.000000
20
0.000000
30
0.0
40
3.5
1

3

2
WY:0
70
0
0
ENDSEC
0
EOF
