0
SECTION
2
ENTITIES
0
ARC
8
0
10
1.500000
20
13.800053
30
0.0
40
0.500000
50
180.000000
51
270.000000
0
LINE
8
0
10
1.500000
20
13.300053
30
0.0
11
1.700000
21
13.300053
31
0.0
0
ARC
8
0
10
1.700000
20
13.800053
30
0.0
40
0.500000
50
270.000000
51
0.000000
0
LINE
8
0
10
2.200000
20
13.800053
30
0.0
11
2.200000
21
20.300053
31
0.0
0
ARC
8
0
10
2.700000
20
20.300053
30
0.0
40
0.500000
50
90.000000
51
180.000000
0
LINE
8
0
10
2.700000
20
20.800053
30
0.0
11
11.640675
21
20.800053
31
0.0
0
ARC
8
0
10
11.640675
20
18.800053
30
0.0
40
2.000000
50
45.000000
51
90.000000
0
LINE
8
0
10
13.054889
20
20.214267
30
0.0
11
20.814214
21
12.454942
31
0.0
0
ARC
8
0
10
19.400000
20
11.040728
30
0.0
40
2.000000
50
0.000000
51
45.000000
0
LINE
8
0
10
21.400000
20
11.040728
30
0.0
11
21.400000
21
3.353622
31
0.0
0
ARC
8
0
10
20.400000
20
3.353622
30
0.0
40
1.000000
50
314.066715
51
0.000000
0
LINE
8
0
10
21.095495
20
2.635092
30
0.0
11
19.799519
21
1.380662
31
0.0
0
ARC
8
0
10
19.549519
20
1.813675
30
0.0
40
0.500000
50
240.000000
51
300.000000
0
LINE
8
0
10
19.299519
20
1.380662
30
0.0
11
17.500000
21
2.419615
31
0.0
0
ARC
8
0
10
17.200000
20
1.900000
30
0.0
40
0.600000
50
60.000000
51
240.000000
0
LINE
8
0
10
16.900000
20
1.380385
30
0.0
11
19.066923
21
0.129311
31
0.0
0
LINE
8
0
10
19.066923
20
0.129311
30
0.0
11
19.104641
21
0.109103
31
0.0
0
ARC
8
0
10
19.558846
20
1.000000
30
0.0
40
1.000000
50
242.986213
51
300.000000
0
LINE
8
0
10
20.058846
20
0.133975
30
0.0
11
21.904257
21
1.721407
31
0.0
0
ARC
8
0
10
20.600000
20
3.237624
30
0.0
40
2.000000
50
310.702284
51
0.000000
0
LINE
8
0
10
22.600000
20
3.237624
30
0.0
11
22.600000
21
11.123571
31
0.0
0
ARC
8
0
10
19.600000
20
11.123571
30
0.0
40
3.000000
50
0.000000
51
45.000000
0
LINE
8
0
10
21.721320
20
13.244891
30
0.0
11
15.019712
21
19.946500
31
0.0
0
ARC
8
0
10
15.373265
20
20.300053
30
0.0
40
0.500000
50
90.000000
51
225.000000
0
LINE
8
0
10
15.373265
20
20.800053
30
0.0
11
34.300000
21
20.800053
31
0.0
0
ARC
8
0
10
34.300000
20
20.300053
30
0.0
40
0.500000
50
0.000000
51
90.000000
0
LINE
8
0
10
34.800000
20
20.300053
30
0.0
11
34.800000
21
7.700000
31
0.0
0
ARC
8
0
10
34.300000
20
7.700000
30
0.0
40
0.500000
50
270.000000
51
0.000000
0
LINE
8
0
10
34.300000
20
7.200000
30
0.0
11
31.400000
21
7.200000
31
0.0
0
LINE
8
0
10
31.400000
20
7.200000
30
0.0
11
31.400000
21
1.000000
31
0.0
0
ARC
8
0
10
31.900000
20
1.000000
30
0.0
40
0.500000
50
180.000000
51
270.000000
0
LINE
8
0
10
31.900000
20
0.500000
30
0.0
11
31.948162
21
0.500000
31
0.0
0
ARC
8
0
10
31.948162
20
1.100000
30
0.0
40
0.600000
50
270.000000
51
329.981633
0
LINE
8
0
10
32.467682
20
0.799833
30
0.0
11
33.450000
21
2.500000
31
0.0
0
LINE
8
0
10
33.450000
20
2.500000
30
0.0
11
32.600000
21
3.000000
31
0.0
0
LINE
8
0
10
32.600000
20
3.000000
30
0.0
11
32.600000
21
6.000000
31
0.0
0
LINE
8
0
10
32.600000
20
6.000000
30
0.0
11
34.100000
21
6.000000
31
0.0
0
LINE
8
0
10
34.100000
20
6.000000
30
0.0
11
34.100000
21
5.200000
31
0.0
0
ARC
8
0
10
34.300000
20
5.200000
30
0.0
40
0.200000
50
180.000000
51
270.000000
0
LINE
8
0
10
34.300000
20
5.000000
30
0.0
11
34.900000
21
5.000000
31
0.0
0
ARC
8
0
10
34.900000
20
5.200000
30
0.0
40
0.200000
50
270.000000
51
0.000000
0
LINE
8
0
10
35.100000
20
5.200000
30
0.0
11
35.100000
21
6.000000
31
0.0
0
LINE
8
0
10
35.100000
20
6.000000
30
0.0
11
36.000000
21
6.000000
31
0.0
0
LINE
8
0
10
36.000000
20
6.000000
30
0.0
11
36.000000
21
22.000053
31
0.0
0
LINE
8
0
10
36.000000
20
22.000053
30
0.0
11
0.000000
21
22.000053
31
0.0
0
LINE
8
0
10
0.000000
20
22.000053
30
0.0
11
0.000000
21
21.000053
31
0.0
0
ARC
8
0
10
0.500000
20
21.000053
30
0.0
40
0.500000
50
180.000000
51
270.000000
0
LINE
8
0
10
0.500000
20
20.500053
30
0.0
11
1.000000
21
20.500053
31
0.0
0
LINE
8
0
10
1.000000
20
20.500053
30
0.0
11
1.000000
21
13.800053
31
0.0
0
ATTDEF
8
0
10
0.000000
20
0.000000
30
0.0
40
3.5
1

3

2
FRONT_VIEW
70
0
0
ATTDEF
8
0
10
0.000000
20
0.000000
30
0.0
40
3.5
1

3

2
BL01:6500.000000,,1
70
0
0
ATTDEF
8
0
10
0.000000
20
0.000000
30
0.0
40
3.5
1

3

2
OPTI:500.000000,1,0,3000.000000,6500.000000,500.000000,0,0.000000,0
70
0
0
ATTDEF
8
0
10
0.000000
20
0.000000
30
0.0
40
3.5
1

3

2
GLASS_MIN:0.000000
70
0
0
ATTDEF
8
0
10
0.000000
20
0.000000
30
0.0
40
3.5
1

3

2
GLASS_MAX:0.000000
70
0
0
ATTDEF
8
0
10
0.000000
20
0.000000
30
0.0
40
3.5
1

3

2
WX:0.000000
70
0
0
ATTDEF
8
0
10
0.000000
20
0.000000
30
0.0
40
3.5
1

3

2
JY:0.000000
70
0
0
ATTDEF
8
0
10
0.000000
20
0.000000
30
0.0
40
3.5
1

3

2
WY:0.000000
70
0
0
ATTDEF
8
0
10
36.000000
20
22.000053
30
0.0
40
3.5
1

3

2
VC_START
70
0
0
ATTDEF
8
0
10
34.600000
20
5.000000
30
0.0
40
3.5
1

3

2
VC_END
70
0
0
ATTDEF
8
0
10
0.000000
20
0.000000
30
0.0
40
3.5
1

3

2
FP_LCS_ORIG
70
0
0
ATTDEF
8
0
10
10.000000
20
0.000000
30
0.0
40
3.5
1

3

2
FP_LCS_HOT
70
0
0
ATTDEF
8
0
10
0.000000
20
10.000000
30
0.0
40
3.5
1

3

2
FP_LCS_INTERN
70
0
0
ATTDEF
8
0
10
0.000000
20
0.000000
30
0.0
40
3.5
1

3

2
DESC:Junquillo
70
0
0
ATTDEF
8
0
10
0.000000
20
0.000000
30
0.0
40
3.5
1

3

2
DENS:0.316
70
0
0
ATTDEF
8
0
10
0.000000
20
0.000000
30
0.0
40
3.5
1

3

2
TDEV:0
70
0
0
ATTDEF
8
0
10
0.000000
20
0.000000
30
0.0
40
3.5
1

3

2
TDEV2:0
70
0
0
ATTDEF
8
0
10
0.000000
20
0.000000
30
0.0
40
3.5
1

3

2
TDEV3:0
70
0
0
ATTDEF
8
0
10
0.000000
20
0.000000
30
0.0
40
3.5
1

3

2
TDEV4:0
70
0
0
ATTDEF
8
0
10
0.000000
20
0.000000
30
0.0
40
3.5
1

3

2
TDEV5:0
70
0
0
ATTDEF
8
0
10
0.000000
20
0.000000
30
0.0
40
3.5
1

3

2
PANE_WIDTH:0
70
0
0
ATTDEF
8
0
10
0.000000
20
0.000000
30
0.0
40
3.5
1

3

2
MIN_VETRO:0
70
0
0
ATTDEF
8
0
10
0.000000
20
0.000000
30
0.0
40
3.5
1

3

2
MAX_VETRO:0
70
0
0
ATTDEF
8
0
10
0.000000
20
0.000000
30
0.0
40
3.5
1

3

2
JX:0
70
0
0
ATTDEF
8
0
10
0.000000
20
0.000000
30
0.0
40
3.5
1

3

2
WX:0
70
0
0
ATTDEF
8
0
10
0.000000
20
0.000000
30
0.0
40
3.5
1

3

2
JY:0
70
0
0
ATTDEF
8
0
10
0.000000
20
0.000000
30
0.0
40
3.5
1

3

2
WY:0
70
0
0
ENDSEC
0
EOF
