0
SECTION
2
ENTITIES
0
LINE
8
0
10
1113.545526
20
489.904864
30
0.0
11
1108.355422
21
489.904864
31
0.0
0
LINE
8
0
10
1108.355422
20
489.904864
30
0.0
11
1108.355422
21
488.147685
31
0.0
0
LINE
8
0
10
1108.355422
20
488.147685
30
0.0
11
1109.555422
21
487.454864
31
0.0
0
LINE
8
0
10
1109.555422
20
487.454864
30
0.0
11
1109.555422
21
488.704864
31
0.0
0
LINE
8
0
10
1109.555422
20
488.704864
30
0.0
11
1112.145526
21
488.704864
31
0.0
0
LINE
8
0
10
1112.145526
20
488.704864
30
0.0
11
1112.145526
21
482.204864
31
0.0
0
LINE
8
0
10
1112.145526
20
482.204864
30
0.0
11
1109.555422
21
482.204864
31
0.0
0
LINE
8
0
10
1109.555422
20
482.204864
30
0.0
11
1109.555422
21
483.454864
31
0.0
0
LINE
8
0
10
1109.555422
20
483.454864
30
0.0
11
1108.355422
21
482.762044
31
0.0
0
LINE
8
0
10
1108.355422
20
482.762044
30
0.0
11
1108.355422
21
481.004864
31
0.0
0
LINE
8
0
10
1108.355422
20
481.004864
30
0.0
11
1111.845526
21
481.004864
31
0.0
0
ARC
8
0
10
1111.845526
20
480.504864
30
0.0
40
0.500000
50
0.000000
51
90.000000
0
LINE
8
0
10
1112.345526
20
480.504864
30
0.0
11
1112.345526
21
475.604811
31
0.0
0
ARC
8
0
10
1111.845526
20
475.604811
30
0.0
40
0.500000
50
270.000000
51
0.000000
0
LINE
8
0
10
1111.845526
20
475.104811
30
0.0
11
1108.945526
21
475.104811
31
0.0
0
LINE
8
0
10
1108.945526
20
475.104811
30
0.0
11
1108.945526
21
472.905756
31
0.0
0
LINE
8
0
10
1108.945526
20
472.905756
30
0.0
11
1099.945526
21
472.905756
31
0.0
0
ARC
8
0
10
1099.945526
20
471.905756
30
0.0
40
1.000000
50
90.000000
51
180.000000
0
LINE
8
0
10
1098.945526
20
471.905756
30
0.0
11
1098.945526
21
471.258434
31
0.0
0
ARC
8
0
10
1097.945526
20
471.258434
30
0.0
40
1.000000
50
314.066715
51
0.000000
0
LINE
8
0
10
1098.641022
20
470.539903
30
0.0
11
1097.345045
21
469.285474
31
0.0
0
ARC
8
0
10
1097.095045
20
469.718486
30
0.0
40
0.500000
50
240.000000
51
300.000000
0
LINE
8
0
10
1096.845045
20
469.285474
30
0.0
11
1095.045526
21
470.324427
31
0.0
0
ARC
8
0
10
1094.745526
20
469.804811
30
0.0
40
0.600000
50
60.000000
51
239.990620
0
LINE
8
0
10
1094.445526
20
469.285196
30
0.0
11
1096.604372
21
468.038786
31
0.0
0
ARC
8
0
10
1097.104372
20
468.904811
30
0.0
40
1.000000
50
240.000000
51
300.000000
0
LINE
8
0
10
1097.604372
20
468.038786
30
0.0
11
1099.449784
21
469.626218
31
0.0
0
ARC
8
0
10
1098.145526
20
471.142435
30
0.0
40
2.000000
50
310.702284
51
0.000000
0
LINE
8
0
10
1100.145526
20
471.142435
30
0.0
11
1100.145526
21
471.705756
31
0.0
0
LINE
8
0
10
1100.145526
20
471.705756
30
0.0
11
1108.945526
21
471.705756
31
0.0
0
LINE
8
0
10
1108.945526
20
471.705756
30
0.0
11
1108.945526
21
468.904811
31
0.0
0
ARC
8
0
10
1109.445526
20
468.904811
30
0.0
40
0.500000
50
180.000000
51
276.077648
0
ARC
8
0
10
1109.551403
20
468.904811
30
0.0
40
0.500000
50
263.922352
51
329.981633
0
LINE
8
0
10
1109.984335
20
468.654672
30
0.0
11
1110.995526
21
470.404811
31
0.0
0
LINE
8
0
10
1110.995526
20
470.404811
30
0.0
11
1110.145526
21
470.904811
31
0.0
0
LINE
8
0
10
1110.145526
20
470.904811
30
0.0
11
1110.145526
21
472.905756
31
0.0
0
LINE
8
0
10
1110.145526
20
472.905756
30
0.0
11
1110.145526
21
473.904811
31
0.0
0
LINE
8
0
10
1110.145526
20
473.904811
30
0.0
11
1111.645526
21
473.904811
31
0.0
0
LINE
8
0
10
1111.645526
20
473.904811
30
0.0
11
1111.645526
21
473.104811
31
0.0
0
ARC
8
0
10
1111.845526
20
473.104811
30
0.0
40
0.200000
50
180.000000
51
270.000000
0
LINE
8
0
10
1111.845526
20
472.904811
30
0.0
11
1112.445526
21
472.904811
31
0.0
0
ARC
8
0
10
1112.445526
20
473.104811
30
0.0
40
0.200000
50
270.000000
51
0.000000
0
LINE
8
0
10
1112.645526
20
473.104811
30
0.0
11
1112.645526
21
473.904811
31
0.0
0
LINE
8
0
10
1112.645526
20
473.904811
30
0.0
11
1113.545526
21
473.904811
31
0.0
0
LINE
8
0
10
1113.545526
20
473.904811
30
0.0
11
1113.545526
21
489.904864
31
0.0
0
ATTDEF
8
0
10
1113.545526
20
489.904864
30
0.0
40
3.5
1

3

2
VC_START
70
0
0
ATTDEF
8
0
10
1112.445526
20
472.904811
30
0.0
40
3.5
1

3

2
VC_END
70
0
0
ATTDEF
8
0
10
1113.545526
20
472.904811
30
0.0
40
3.5
1

3

2
PTO_ANTA
70
0
0
ATTDEF
8
0
10
1094.145526
20
467.904811
30
0.0
40
3.5
1

3

2
REAR_VIEW
70
0
0
ATTDEF
8
0
10
1094.145526
20
467.904811
30
0.0
40
3.5
1

3

2
OPTI:500.000000,1,0,3000.000000,6900.000000,500.000000,0,0.000000,0
70
0
0
ATTDEF
8
0
10
1094.145526
20
467.904811
30
0.0
40
3.5
1

3

2
GLASS_MIN:0.000000
70
0
0
ATTDEF
8
0
10
1094.145526
20
467.904811
30
0.0
40
3.5
1

3

2
GLASS_MAX:0.000000
70
0
0
ATTDEF
8
0
10
1094.145526
20
467.904811
30
0.0
40
3.5
1

3

2
JX:0.000000
70
0
0
ATTDEF
8
0
10
1094.145526
20
467.904811
30
0.0
40
3.5
1

3

2
WX:0.000000
70
0
0
ATTDEF
8
0
10
1094.145526
20
467.904811
30
0.0
40
3.5
1

3

2
JY:0.000000
70
0
0
ATTDEF
8
0
10
1094.145526
20
467.904811
30
0.0
40
3.5
1

3

2
WY:0.000000
70
0
0
ATTDEF
8
0
10
1094.145526
20
467.904811
30
0.0
40
3.5
1

3

2
FP_LCS_ORIG
70
0
0
ATTDEF
8
0
10
1104.145526
20
467.904811
30
0.0
40
3.5
1

3

2
FP_LCS_HOT
70
0
0
ATTDEF
8
0
10
1094.145526
20
477.904811
30
0.0
40
3.5
1

3

2
FP_LCS_INTERN
70
0
0
ATTDEF
8
0
10
0.000000
20
0.000000
30
0.0
40
3.5
1

3

2
BL01:6200.000,,1
70
0
0
ATTDEF
8
0
10
0.000000
20
0.000000
30
0.0
40
3.5
1

3

2
DESC:Contravidrio recto 5 mm
70
0
0
ATTDEF
8
0
10
0.000000
20
0.000000
30
0.0
40
3.5
1

3

2
DENS:0.176
70
0
0
ATTDEF
8
0
10
0.000000
20
0.000000
30
0.0
40
3.5
1

3

2
TDEV:0
70
0
0
ATTDEF
8
0
10
0.000000
20
0.000000
30
0.0
40
3.5
1

3

2
TDEV2:0
70
0
0
ATTDEF
8
0
10
0.000000
20
0.000000
30
0.0
40
3.5
1

3

2
TDEV3:0
70
0
0
ATTDEF
8
0
10
0.000000
20
0.000000
30
0.0
40
3.5
1

3

2
TDEV4:0
70
0
0
ATTDEF
8
0
10
0.000000
20
0.000000
30
0.0
40
3.5
1

3

2
TDEV5:0
70
0
0
ATTDEF
8
0
10
0.000000
20
0.000000
30
0.0
40
3.5
1

3

2
PANE_WIDTH:0
70
0
0
ATTDEF
8
0
10
0.000000
20
0.000000
30
0.0
40
3.5
1

3

2
MIN_VETRO:0
70
0
0
ATTDEF
8
0
10
0.000000
20
0.000000
30
0.0
40
3.5
1

3

2
MAX_VETRO:0
70
0
0
ATTDEF
8
0
10
0.000000
20
0.000000
30
0.0
40
3.5
1

3

2
JX:0
70
0
0
ATTDEF
8
0
10
0.000000
20
0.000000
30
0.0
40
3.5
1

3

2
WX:0
70
0
0
ATTDEF
8
0
10
0.000000
20
0.000000
30
0.0
40
3.5
1

3

2
JY:0
70
0
0
ATTDEF
8
0
10
0.000000
20
0.000000
30
0.0
40
3.5
1

3

2
WY:0
70
0
0
ENDSEC
0
EOF
