0
SECTION
2
ENTITIES
0
LINE
8
0
10
1066.776834
20
402.067940
30
0.0
11
1051.776834
21
402.067940
31
0.0
0
LINE
8
0
10
1051.776834
20
402.067940
30
0.0
11
1051.776834
21
401.067940
31
0.0
0
ARC
8
0
10
1052.276834
20
401.067940
30
0.0
40
0.500000
50
180.000000
51
270.000000
0
LINE
8
0
10
1052.276834
20
400.567940
30
0.0
11
1052.776834
21
400.567940
31
0.0
0
LINE
8
0
10
1052.776834
20
400.567940
30
0.0
11
1052.776834
21
394.597478
31
0.0
0
LINE
8
0
10
1052.776834
20
394.597478
30
0.0
11
1052.216575
21
383.224068
31
0.0
0
ARC
8
0
10
1051.717180
20
383.248669
30
0.0
40
0.500000
50
314.066715
51
357.179866
0
LINE
8
0
10
1052.064928
20
382.889403
30
0.0
11
1050.576353
21
381.448549
31
0.0
0
ARC
8
0
10
1050.326353
20
381.881562
30
0.0
40
0.500000
50
240.000000
51
300.000000
0
LINE
8
0
10
1050.076353
20
381.448549
30
0.0
11
1048.276834
21
382.487502
31
0.0
0
ARC
8
0
10
1047.976834
20
381.967887
30
0.0
40
0.600000
50
60.000000
51
239.999315
0
LINE
8
0
10
1047.676834
20
381.448272
30
0.0
11
1049.835679
21
380.201862
31
0.0
0
LINE
8
0
10
1049.845548
20
380.196238
30
0.0
11
1049.881475
21
380.176990
31
0.0
0
ARC
8
0
10
1050.335679
20
381.067887
30
0.0
40
1.000000
50
242.986213
51
300.000000
0
LINE
8
0
10
1050.835679
20
380.201862
30
0.0
11
1052.725767
21
381.827724
31
0.0
0
ARC
8
0
10
1051.421510
20
383.343941
30
0.0
40
2.000000
50
310.702284
51
357.179866
0
LINE
8
0
10
1053.419088
20
383.245540
30
0.0
11
1053.976834
21
394.567940
31
0.0
0
LINE
8
0
10
1053.976834
20
394.567940
30
0.0
11
1053.976834
21
400.367940
31
0.0
0
ARC
8
0
10
1054.476834
20
400.367940
30
0.0
40
0.500000
50
90.000000
51
180.000000
0
LINE
8
0
10
1054.476834
20
400.867940
30
0.0
11
1065.076834
21
400.867940
31
0.0
0
ARC
8
0
10
1065.076834
20
400.367940
30
0.0
40
0.500000
50
0.000000
51
90.000000
0
LINE
8
0
10
1065.576834
20
400.367940
30
0.0
11
1065.576834
21
387.767887
31
0.0
0
ARC
8
0
10
1065.076834
20
387.767887
30
0.0
40
0.500000
50
270.000000
51
0.000000
0
LINE
8
0
10
1065.076834
20
387.267887
30
0.0
11
1062.176834
21
387.267887
31
0.0
0
LINE
8
0
10
1062.176834
20
387.267887
30
0.0
11
1062.176834
21
381.067887
31
0.0
0
ARC
8
0
10
1062.676834
20
381.067887
30
0.0
40
0.500000
50
180.000000
51
272.634683
0
ARC
8
0
10
1062.724996
20
381.167887
30
0.0
40
0.600000
50
267.594910
51
329.981633
0
LINE
8
0
10
1063.244515
20
380.867720
30
0.0
11
1064.226834
21
382.567887
31
0.0
0
LINE
8
0
10
1064.226834
20
382.567887
30
0.0
11
1063.376834
21
383.067887
31
0.0
0
LINE
8
0
10
1063.376834
20
383.067887
30
0.0
11
1063.376834
21
386.067887
31
0.0
0
LINE
8
0
10
1063.376834
20
386.067887
30
0.0
11
1064.876834
21
386.067887
31
0.0
0
LINE
8
0
10
1064.876834
20
386.067887
30
0.0
11
1064.876834
21
385.267887
31
0.0
0
ARC
8
0
10
1065.076834
20
385.267887
30
0.0
40
0.200000
50
180.000000
51
270.000000
0
LINE
8
0
10
1065.076834
20
385.067887
30
0.0
11
1065.676834
21
385.067887
31
0.0
0
ARC
8
0
10
1065.676834
20
385.267887
30
0.0
40
0.200000
50
270.000000
51
0.000000
0
LINE
8
0
10
1065.876834
20
385.267887
30
0.0
11
1065.876834
21
386.067887
31
0.0
0
LINE
8
0
10
1065.876834
20
386.067887
30
0.0
11
1066.776834
21
386.067887
31
0.0
0
LINE
8
0
10
1066.776834
20
386.067887
30
0.0
11
1066.776834
21
402.067940
31
0.0
0
ATTDEF
8
0
10
1066.776834
20
402.067940
30
0.0
40
3.5
1

3

2
VC_START
70
0
0
ATTDEF
8
0
10
1065.376834
20
385.067887
30
0.0
40
3.5
1

3

2
VC_END
70
0
0
ATTDEF
8
0
10
1066.776834
20
385.067887
30
0.0
40
3.5
1

3

2
PTO_ANTA
70
0
0
ATTDEF
8
0
10
1047.376834
20
380.067887
30
0.0
40
3.5
1

3

2
REAR_VIEW
70
0
0
ATTDEF
8
0
10
1047.376834
20
380.067887
30
0.0
40
3.5
1

3

2
OPTI:500.000000,1,0,3000.000000,6900.000000,500.000000,0,0.000000,0
70
0
0
ATTDEF
8
0
10
1047.376834
20
380.067887
30
0.0
40
3.5
1

3

2
GLASS_MIN:0.000000
70
0
0
ATTDEF
8
0
10
1047.376834
20
380.067887
30
0.0
40
3.5
1

3

2
GLASS_MAX:0.000000
70
0
0
ATTDEF
8
0
10
1047.376834
20
380.067887
30
0.0
40
3.5
1

3

2
JX:0.000000
70
0
0
ATTDEF
8
0
10
1047.376834
20
380.067887
30
0.0
40
3.5
1

3

2
WX:0.000000
70
0
0
ATTDEF
8
0
10
1047.376834
20
380.067887
30
0.0
40
3.5
1

3

2
JY:0.000000
70
0
0
ATTDEF
8
0
10
1047.376834
20
380.067887
30
0.0
40
3.5
1

3

2
WY:0.000000
70
0
0
ATTDEF
8
0
10
1047.376834
20
380.067887
30
0.0
40
3.5
1

3

2
FP_LCS_ORIG
70
0
0
ATTDEF
8
0
10
1057.376834
20
380.067887
30
0.0
40
3.5
1

3

2
FP_LCS_HOT
70
0
0
ATTDEF
8
0
10
1047.376834
20
390.067887
30
0.0
40
3.5
1

3

2
FP_LCS_INTERN
70
0
0
ATTDEF
8
0
10
0.000000
20
0.000000
30
0.0
40
3.5
1

3

2
BL01:6200.000,,1
70
0
0
ATTDEF
8
0
10
0.000000
20
0.000000
30
0.0
40
3.5
1

3

2
DESC:Contravidrio recto 15 mm
70
0
0
ATTDEF
8
0
10
0.000000
20
0.000000
30
0.0
40
3.5
1

3

2
DENS:0.211
70
0
0
ATTDEF
8
0
10
0.000000
20
0.000000
30
0.0
40
3.5
1

3

2
TDEV:0
70
0
0
ATTDEF
8
0
10
0.000000
20
0.000000
30
0.0
40
3.5
1

3

2
TDEV2:0
70
0
0
ATTDEF
8
0
10
0.000000
20
0.000000
30
0.0
40
3.5
1

3

2
TDEV3:0
70
0
0
ATTDEF
8
0
10
0.000000
20
0.000000
30
0.0
40
3.5
1

3

2
TDEV4:0
70
0
0
ATTDEF
8
0
10
0.000000
20
0.000000
30
0.0
40
3.5
1

3

2
TDEV5:0
70
0
0
ATTDEF
8
0
10
0.000000
20
0.000000
30
0.0
40
3.5
1

3

2
PANE_WIDTH:0
70
0
0
ATTDEF
8
0
10
0.000000
20
0.000000
30
0.0
40
3.5
1

3

2
MIN_VETRO:0
70
0
0
ATTDEF
8
0
10
0.000000
20
0.000000
30
0.0
40
3.5
1

3

2
MAX_VETRO:0
70
0
0
ATTDEF
8
0
10
0.000000
20
0.000000
30
0.0
40
3.5
1

3

2
JX:0
70
0
0
ATTDEF
8
0
10
0.000000
20
0.000000
30
0.0
40
3.5
1

3

2
WX:0
70
0
0
ATTDEF
8
0
10
0.000000
20
0.000000
30
0.0
40
3.5
1

3

2
JY:0
70
0
0
ATTDEF
8
0
10
0.000000
20
0.000000
30
0.0
40
3.5
1

3

2
WY:0
70
0
0
ENDSEC
0
EOF
