0
SECTION
2
ENTITIES
0
ARC
8
0
10
1195.934854
20
553.441623
30
0.0
40
10.800000
50
0.000000
51
49.421788
0
LINE
8
0
10
1206.734854
20
553.441623
30
0.0
11
1206.734854
21
548.941623
31
0.0
0
ARC
8
0
10
1206.234854
20
548.941623
30
0.0
40
0.500000
50
270.000000
51
0.000000
0
LINE
8
0
10
1206.234854
20
548.441623
30
0.0
11
1197.834854
21
548.441623
31
0.0
0
LINE
8
0
10
1197.834854
20
548.441623
30
0.0
11
1197.543677
21
549.241623
31
0.0
0
LINE
8
0
10
1197.543677
20
549.241623
30
0.0
11
1195.098733
21
547.941623
31
0.0
0
LINE
8
0
10
1195.098733
20
547.941623
30
0.0
11
1193.334854
21
547.941623
31
0.0
0
ARC
8
0
10
1193.334854
20
547.441623
30
0.0
40
0.500000
50
90.000000
51
180.000000
0
ARC
8
0
10
1193.334854
20
547.441623
30
0.0
40
0.500000
50
180.000000
51
270.000000
0
LINE
8
0
10
1193.334854
20
546.941623
30
0.0
11
1207.934854
21
546.941623
31
0.0
0
LINE
8
0
10
1207.934854
20
546.941623
30
0.0
11
1207.934854
21
553.441623
31
0.0
0
ARC
8
0
10
1195.934854
20
553.441623
30
0.0
40
12.000000
50
0.000000
51
51.786789
0
ARC
8
0
10
1200.264981
20
558.941623
30
0.0
40
5.000000
50
51.786789
51
90.000000
0
LINE
8
0
10
1200.264981
20
563.941623
30
0.0
11
1199.934854
21
563.941623
31
0.0
0
LINE
8
0
10
1199.934854
20
563.941623
30
0.0
11
1199.934854
21
562.941623
31
0.0
0
ARC
8
0
10
1200.434854
20
562.941623
30
0.0
40
0.500000
50
180.000000
51
270.000000
0
LINE
8
0
10
1200.434854
20
562.441623
30
0.0
11
1200.934854
21
562.441623
31
0.0
0
LINE
8
0
10
1200.934854
20
562.441623
30
0.0
11
1200.934854
21
558.541623
31
0.0
0
ARC
8
0
10
1201.534854
20
558.541623
30
0.0
40
0.600000
50
180.000000
51
0.000000
0
LINE
8
0
10
1202.134854
20
558.541623
30
0.0
11
1202.134854
21
561.264666
31
0.0
0
ARC
8
0
10
1202.634854
20
561.264666
30
0.0
40
0.500000
50
49.421788
51
180.000000
0
ATTDEF
8
0
10
1207.934854
20
546.941623
30
0.0
40
3.5
1

3

2
PTO_ANTA
70
0
0
ATTDEF
8
0
10
1199.934854
20
563.941623
30
0.0
40
3.5
1

3

2
PTO_GLASS
70
0
0
ATTDEF
8
0
10
1192.834854
20
546.941623
30
0.0
40
3.5
1

3

2
REAR_VIEW
70
0
0
ATTDEF
8
0
10
1192.834854
20
546.941623
30
0.0
40
3.5
1

3

2
OPTI:500.000000,1,0,3000.000000,6900.000000,500.000000,0,0.000000,0
70
0
0
ATTDEF
8
0
10
1192.834854
20
546.941623
30
0.0
40
3.5
1

3

2
GLASS_MIN:0.000000
70
0
0
ATTDEF
8
0
10
1192.834854
20
546.941623
30
0.0
40
3.5
1

3

2
GLASS_MAX:0.000000
70
0
0
ATTDEF
8
0
10
1192.834854
20
546.941623
30
0.0
40
3.5
1

3

2
JX:0.000000
70
0
0
ATTDEF
8
0
10
1192.834854
20
546.941623
30
0.0
40
3.5
1

3

2
WX:0.000000
70
0
0
ATTDEF
8
0
10
1192.834854
20
546.941623
30
0.0
40
3.5
1

3

2
JY:0.000000
70
0
0
ATTDEF
8
0
10
1192.834854
20
546.941623
30
0.0
40
3.5
1

3

2
WY:0.000000
70
0
0
ATTDEF
8
0
10
1199.934854
20
563.941623
30
0.0
40
3.5
1

3

2
VC_START
70
0
0
ATTDEF
8
0
10
1207.934854
20
546.941623
30
0.0
40
3.5
1

3

2
VC_END
70
0
0
ATTDEF
8
0
10
1192.834854
20
546.941623
30
0.0
40
3.5
1

3

2
FP_LCS_ORIG
70
0
0
ATTDEF
8
0
10
1202.834854
20
546.941623
30
0.0
40
3.5
1

3

2
FP_LCS_HOT
70
0
0
ATTDEF
8
0
10
1192.834854
20
556.941623
30
0.0
40
3.5
1

3

2
FP_LCS_INTERN
70
0
0
ATTDEF
8
0
10
0.000000
20
0.000000
30
0.0
40
3.5
1

3

2
BL01:6200.000,,1
70
0
0
ATTDEF
8
0
10
0.000000
20
0.000000
30
0.0
40
3.5
1

3

2
DESC:Contravidrio curvo 8 mm
70
0
0
ATTDEF
8
0
10
0.000000
20
0.000000
30
0.0
40
3.5
1

3

2
DENS:0.135
70
0
0
ATTDEF
8
0
10
0.000000
20
0.000000
30
0.0
40
3.5
1

3

2
TDEV:0
70
0
0
ATTDEF
8
0
10
0.000000
20
0.000000
30
0.0
40
3.5
1

3

2
TDEV2:0
70
0
0
ATTDEF
8
0
10
0.000000
20
0.000000
30
0.0
40
3.5
1

3

2
TDEV3:0
70
0
0
ATTDEF
8
0
10
0.000000
20
0.000000
30
0.0
40
3.5
1

3

2
TDEV4:0
70
0
0
ATTDEF
8
0
10
0.000000
20
0.000000
30
0.0
40
3.5
1

3

2
TDEV5:0
70
0
0
ATTDEF
8
0
10
0.000000
20
0.000000
30
0.0
40
3.5
1

3

2
PANE_WIDTH:0
70
0
0
ATTDEF
8
0
10
0.000000
20
0.000000
30
0.0
40
3.5
1

3

2
MIN_VETRO:0
70
0
0
ATTDEF
8
0
10
0.000000
20
0.000000
30
0.0
40
3.5
1

3

2
MAX_VETRO:0
70
0
0
ATTDEF
8
0
10
0.000000
20
0.000000
30
0.0
40
3.5
1

3

2
JX:0
70
0
0
ATTDEF
8
0
10
0.000000
20
0.000000
30
0.0
40
3.5
1

3

2
WX:0
70
0
0
ATTDEF
8
0
10
0.000000
20
0.000000
30
0.0
40
3.5
1

3

2
JY:0
70
0
0
ATTDEF
8
0
10
0.000000
20
0.000000
30
0.0
40
3.5
1

3

2
WY:0
70
0
0
ENDSEC
0
EOF
