0
SECTION
2
ENTITIES
0
LINE
8
0
10
1230.968926
20
338.242453
30
0.0
11
1230.961116
21
349.944090
31
0.0
0
ARC
8
0
10
1229.461116
20
349.944090
30
0.0
40
1.500000
50
0.000000
51
90.444811
0
ARC
8
0
10
1229.943219
20
287.845962
30
0.0
40
63.600000
50
90.444811
51
103.181415
0
ARC
8
0
10
1216.261116
20
346.265137
30
0.0
40
3.600000
50
103.181415
51
180.000000
0
LINE
8
0
10
1212.661116
20
346.265137
30
0.0
11
1212.661116
21
344.921794
31
0.0
0
ARC
8
0
10
1213.161116
20
344.921794
30
0.0
40
0.500000
50
180.000000
51
270.000000
0
LINE
8
0
10
1213.161116
20
344.421794
30
0.0
11
1215.535371
21
344.421794
31
0.0
0
ARC
8
0
10
1218.960280
20
343.021794
30
0.0
40
3.700000
50
27.166572
51
157.766728
0
ARC
8
0
10
1221.629329
20
344.391531
30
0.0
40
0.700000
50
207.166572
51
27.166572
0
ARC
8
0
10
1218.960280
20
343.021794
30
0.0
40
2.300000
50
27.166572
51
292.833428
0
ARC
8
0
10
1220.124440
20
340.256883
30
0.0
40
0.700000
50
292.833428
51
112.833428
0
ARC
8
0
10
1218.960280
20
343.021794
30
0.0
40
3.700000
50
180.000000
51
292.833428
0
LINE
8
0
10
1215.260280
20
343.021794
30
0.0
11
1213.261116
21
343.021794
31
0.0
0
ARC
8
0
10
1213.261116
20
345.021794
30
0.0
40
2.000000
50
180.000000
51
270.000000
0
LINE
8
0
10
1211.261116
20
345.021794
30
0.0
11
1211.261116
21
346.265137
31
0.0
0
ARC
8
0
10
1216.261116
20
346.265137
30
0.0
40
5.000000
50
103.181415
51
180.000000
0
ARC
8
0
10
1229.943219
20
287.845962
30
0.0
40
65.000000
50
89.805883
51
103.181415
0
LINE
8
0
10
1230.163438
20
352.845589
30
0.0
11
1288.321757
21
352.845589
31
0.0
0
ARC
8
0
10
1288.541976
20
287.845962
30
0.0
40
65.000000
50
76.818585
51
90.194117
0
ARC
8
0
10
1302.224079
20
346.265137
30
0.0
40
5.000000
50
0.000000
51
76.818585
0
LINE
8
0
10
1307.224079
20
346.265137
30
0.0
11
1307.224079
21
344.288141
31
0.0
0
ARC
8
0
10
1306.724079
20
344.288141
30
0.0
40
0.500000
50
270.000000
51
0.000000
0
LINE
8
0
10
1306.724079
20
343.788141
30
0.0
11
1306.324079
21
343.788141
31
0.0
0
ARC
8
0
10
1306.324079
20
344.288141
30
0.0
40
0.500000
50
180.000000
51
270.000000
0
LINE
8
0
10
1305.824079
20
344.288141
30
0.0
11
1305.824079
21
346.265137
31
0.0
0
ARC
8
0
10
1302.224079
20
346.265137
30
0.0
40
3.600000
50
0.000000
51
76.818585
0
ARC
8
0
10
1288.541976
20
287.845962
30
0.0
40
63.600000
50
76.818585
51
77.489025
0
ARC
8
0
10
1302.211116
20
349.447622
30
0.0
40
0.500000
50
77.489025
51
180.000000
0
LINE
8
0
10
1301.711116
20
349.447622
30
0.0
11
1301.711116
21
329.624701
31
0.0
0
ARC
8
0
10
1302.211116
20
329.624701
30
0.0
40
0.500000
50
180.000000
51
270.000000
0
LINE
8
0
10
1302.211116
20
329.124701
30
0.0
11
1307.224079
21
329.124701
31
0.0
0
LINE
8
0
10
1307.224079
20
329.124701
30
0.0
11
1307.224079
21
327.724701
31
0.0
0
LINE
8
0
10
1307.224079
20
327.724701
30
0.0
11
1302.311116
21
327.724701
31
0.0
0
ARC
8
0
10
1302.311116
20
329.724701
30
0.0
40
2.000000
50
180.000000
51
270.000000
0
LINE
8
0
10
1300.311116
20
329.724701
30
0.0
11
1300.311116
21
349.931519
31
0.0
0
ARC
8
0
10
1299.811116
20
349.931519
30
0.0
40
0.500000
50
0.000000
51
79.712255
0
ARC
8
0
10
1288.541976
20
287.845962
30
0.0
40
63.600000
50
79.712255
51
90.196242
0
LINE
8
0
10
1288.324141
20
351.445589
30
0.0
11
1233.761116
21
351.445589
31
0.0
0
ARC
8
0
10
1233.761116
20
349.945589
30
0.0
40
1.500000
50
90.000000
51
180.000000
0
LINE
8
0
10
1232.261116
20
349.945589
30
0.0
11
1232.261116
21
339.019731
31
0.0
0
ARC
8
0
10
1233.261116
20
339.019731
30
0.0
40
1.000000
50
180.000000
51
254.237094
0
ARC
8
0
10
1232.717801
20
337.094943
30
0.0
40
1.000000
50
244.619709
51
74.237094
0
ARC
8
0
10
1233.241853
20
338.255138
30
0.0
40
2.272962
50
180.319755
51
245.220067
0
ATTDEF
8
0
10
1211.261116
20
346.265137
30
0.0
40
3.5
1

3

2
HC_START
70
0
0
ATTDEF
8
0
10
1307.224079
20
327.724701
30
0.0
40
3.5
1

3

2
HC_END
70
0
0
ATTDEF
8
0
10
1307.224079
20
327.724701
30
0.0
40
3.5
1

3

2
REAR_VIEW
70
0
0
ATTDEF
8
0
10
1307.224079
20
327.724701
30
0.0
40
3.5
1

3

2
OPTI:500.000000,1,0,3000.000000,6900.000000,500.000000,0,0.000000,0
70
0
0
ATTDEF
8
0
10
1307.224079
20
327.724701
30
0.0
40
3.5
1

3

2
GLASS_MIN:0.000000
70
0
0
ATTDEF
8
0
10
1307.224079
20
327.724701
30
0.0
40
3.5
1

3

2
GLASS_MAX:0.000000
70
0
0
ATTDEF
8
0
10
1307.224079
20
327.724701
30
0.0
40
3.5
1

3

2
JX:0.000000
70
0
0
ATTDEF
8
0
10
1307.224079
20
327.724701
30
0.0
40
3.5
1

3

2
WX:0.000000
70
0
0
ATTDEF
8
0
10
1307.224079
20
327.724701
30
0.0
40
3.5
1

3

2
JY:0.000000
70
0
0
ATTDEF
8
0
10
1307.224079
20
327.724701
30
0.0
40
3.5
1

3

2
WY:0.000000
70
0
0
ATTDEF
8
0
10
1307.224079
20
327.724701
30
0.0
40
3.5
1

3

2
FP_LCS_ORIG
70
0
0
ATTDEF
8
0
10
1307.224079
20
337.724701
30
0.0
40
3.5
1

3

2
FP_LCS_HOT
70
0
0
ATTDEF
8
0
10
1297.224079
20
327.724701
30
0.0
40
3.5
1

3

2
FP_LCS_INTERN
70
0
0
ATTDEF
8
0
10
0.000000
20
0.000000
30
0.0
40
3.5
1

3

2
BL01:6200.000,,1
70
0
0
ATTDEF
8
0
10
0.000000
20
0.000000
30
0.0
40
3.5
1

3

2
DESC:Tapa cinta
70
0
0
ATTDEF
8
0
10
0.000000
20
0.000000
30
0.0
40
3.5
1

3

2
DENS:0.629
70
0
0
ATTDEF
8
0
10
0.000000
20
0.000000
30
0.0
40
3.5
1

3

2
TDEV:0
70
0
0
ATTDEF
8
0
10
0.000000
20
0.000000
30
0.0
40
3.5
1

3

2
TDEV2:0
70
0
0
ATTDEF
8
0
10
0.000000
20
0.000000
30
0.0
40
3.5
1

3

2
TDEV3:0
70
0
0
ATTDEF
8
0
10
0.000000
20
0.000000
30
0.0
40
3.5
1

3

2
TDEV4:0
70
0
0
ATTDEF
8
0
10
0.000000
20
0.000000
30
0.0
40
3.5
1

3

2
TDEV5:0
70
0
0
ATTDEF
8
0
10
0.000000
20
0.000000
30
0.0
40
3.5
1

3

2
PANE_WIDTH:0
70
0
0
ATTDEF
8
0
10
0.000000
20
0.000000
30
0.0
40
3.5
1

3

2
MIN_VETRO:0
70
0
0
ATTDEF
8
0
10
0.000000
20
0.000000
30
0.0
40
3.5
1

3

2
MAX_VETRO:0
70
0
0
ATTDEF
8
0
10
0.000000
20
0.000000
30
0.0
40
3.5
1

3

2
JX:0
70
0
0
ATTDEF
8
0
10
0.000000
20
0.000000
30
0.0
40
3.5
1

3

2
WX:0
70
0
0
ATTDEF
8
0
10
0.000000
20
0.000000
30
0.0
40
3.5
1

3

2
JY:0
70
0
0
ATTDEF
8
0
10
0.000000
20
0.000000
30
0.0
40
3.5
1

3

2
WY:0
70
0
0
ENDSEC
0
EOF
