0
SECTION
2
ENTITIES
0
ARC
8
0
10
16.700000
20
21.500000
30
0.0
40
0.500000
50
0.000000
51
90.000000
0
LINE
8
0
10
17.200000
20
21.500000
30
0.0
11
17.200000
21
17.000000
31
0.0
0
LINE
8
0
10
17.200000
20
17.000000
30
0.0
11
19.600000
21
17.000000
31
0.0
0
LINE
8
0
10
19.600000
20
17.000000
30
0.0
11
20.600000
21
18.000000
31
0.0
0
LINE
8
0
10
20.600000
20
18.000000
30
0.0
11
20.600000
21
19.000000
31
0.0
0
LINE
8
0
10
20.600000
20
19.000000
30
0.0
11
18.600000
21
19.000000
31
0.0
0
LINE
8
0
10
18.600000
20
19.000000
30
0.0
11
18.600000
21
22.000000
31
0.0
0
LINE
8
0
10
18.600000
20
22.000000
30
0.0
11
36.600000
21
22.000000
31
0.0
0
LINE
8
0
10
36.600000
20
22.000000
30
0.0
11
36.600000
21
19.000000
31
0.0
0
LINE
8
0
10
36.600000
20
19.000000
30
0.0
11
34.600000
21
19.000000
31
0.0
0
LINE
8
0
10
34.600000
20
19.000000
30
0.0
11
34.600000
21
18.000000
31
0.0
0
LINE
8
0
10
34.600000
20
18.000000
30
0.0
11
35.600000
21
17.000000
31
0.0
0
LINE
8
0
10
35.600000
20
17.000000
30
0.0
11
38.000000
21
17.000000
31
0.0
0
LINE
8
0
10
38.000000
20
17.000000
30
0.0
11
38.000000
21
22.000000
31
0.0
0
LINE
8
0
10
38.000000
20
22.000000
30
0.0
11
38.000000
21
28.900000
31
0.0
0
LINE
8
0
10
38.000000
20
28.900000
30
0.0
11
38.000000
21
35.800000
31
0.0
0
LINE
8
0
10
38.000000
20
35.800000
30
0.0
11
38.000000
21
40.800000
31
0.0
0
LINE
8
0
10
38.000000
20
40.800000
30
0.0
11
35.600000
21
40.800000
31
0.0
0
LINE
8
0
10
35.600000
20
40.800000
30
0.0
11
34.600000
21
39.800000
31
0.0
0
LINE
8
0
10
34.600000
20
39.800000
30
0.0
11
34.600000
21
38.800000
31
0.0
0
LINE
8
0
10
34.600000
20
38.800000
30
0.0
11
36.600000
21
38.800000
31
0.0
0
LINE
8
0
10
36.600000
20
38.800000
30
0.0
11
36.600000
21
35.800000
31
0.0
0
LINE
8
0
10
36.600000
20
35.800000
30
0.0
11
18.600000
21
35.800000
31
0.0
0
LINE
8
0
10
18.600000
20
35.800000
30
0.0
11
18.600000
21
38.800000
31
0.0
0
LINE
8
0
10
18.600000
20
38.800000
30
0.0
11
20.600000
21
38.800000
31
0.0
0
LINE
8
0
10
20.600000
20
38.800000
30
0.0
11
20.600000
21
39.800000
31
0.0
0
LINE
8
0
10
20.600000
20
39.800000
30
0.0
11
19.600000
21
40.800000
31
0.0
0
LINE
8
0
10
19.600000
20
40.800000
30
0.0
11
17.200000
21
40.800000
31
0.0
0
LINE
8
0
10
17.200000
20
40.800000
30
0.0
11
17.200000
21
36.300000
31
0.0
0
ARC
8
0
10
16.700000
20
36.300000
30
0.0
40
0.500000
50
270.000000
51
0.000000
0
LINE
8
0
10
16.700000
20
35.800000
30
0.0
11
1.900000
21
35.800000
31
0.0
0
ARC
8
0
10
1.900000
20
36.300000
30
0.0
40
0.500000
50
180.000000
51
270.000000
0
LINE
8
0
10
1.400000
20
36.300000
30
0.0
11
1.400000
21
47.900000
31
0.0
0
ARC
8
0
10
2.400000
20
47.900000
30
0.0
40
1.000000
50
90.000000
51
180.000000
0
LINE
8
0
10
2.400000
20
48.900000
30
0.0
11
5.190105
21
48.900000
31
0.0
0
LINE
8
0
10
5.190105
20
48.900000
30
0.0
11
5.190105
21
50.657180
31
0.0
0
LINE
8
0
10
5.190105
20
50.657180
30
0.0
11
3.990105
21
51.350000
31
0.0
0
LINE
8
0
10
3.990105
20
51.350000
30
0.0
11
3.990105
21
50.100000
31
0.0
0
LINE
8
0
10
3.990105
20
50.100000
30
0.0
11
1.400000
21
50.100000
31
0.0
0
LINE
8
0
10
1.400000
20
50.100000
30
0.0
11
1.400000
21
56.600000
31
0.0
0
LINE
8
0
10
1.400000
20
56.600000
30
0.0
11
3.990105
21
56.600000
31
0.0
0
LINE
8
0
10
3.990105
20
56.600000
30
0.0
11
3.990105
21
55.350000
31
0.0
0
LINE
8
0
10
3.990105
20
55.350000
30
0.0
11
5.190105
21
56.042820
31
0.0
0
LINE
8
0
10
5.190105
20
56.042820
30
0.0
11
5.190105
21
57.800000
31
0.0
0
LINE
8
0
10
5.190105
20
57.800000
30
0.0
11
0.000000
21
57.800000
31
0.0
0
LINE
8
0
10
0.000000
20
57.800000
30
0.0
11
0.000000
21
35.800000
31
0.0
0
LINE
8
0
10
0.000000
20
35.800000
30
0.0
11
0.000000
21
28.900000
31
0.0
0
LINE
8
0
10
0.000000
20
28.900000
30
0.0
11
0.000000
21
22.000000
31
0.0
0
LINE
8
0
10
0.000000
20
22.000000
30
0.0
11
0.000000
21
0.000000
31
0.0
0
LINE
8
0
10
0.000000
20
0.000000
30
0.0
11
5.190105
21
0.000000
31
0.0
0
LINE
8
0
10
5.190105
20
0.000000
30
0.0
11
5.190105
21
1.757180
31
0.0
0
LINE
8
0
10
5.190105
20
1.757180
30
0.0
11
3.990105
21
2.450000
31
0.0
0
LINE
8
0
10
3.990105
20
2.450000
30
0.0
11
3.990105
21
1.200000
31
0.0
0
LINE
8
0
10
3.990105
20
1.200000
30
0.0
11
1.400000
21
1.200000
31
0.0
0
LINE
8
0
10
1.400000
20
1.200000
30
0.0
11
1.400000
21
7.700000
31
0.0
0
LINE
8
0
10
1.400000
20
7.700000
30
0.0
11
3.990105
21
7.700000
31
0.0
0
LINE
8
0
10
3.990105
20
7.700000
30
0.0
11
3.990105
21
6.450000
31
0.0
0
LINE
8
0
10
3.990105
20
6.450000
30
0.0
11
5.190105
21
7.142820
31
0.0
0
LINE
8
0
10
5.190105
20
7.142820
30
0.0
11
5.190105
21
8.900000
31
0.0
0
LINE
8
0
10
5.190105
20
8.900000
30
0.0
11
2.400000
21
8.900000
31
0.0
0
ARC
8
0
10
2.400000
20
9.900000
30
0.0
40
1.000000
50
180.000000
51
270.000000
0
LINE
8
0
10
1.400000
20
9.900000
30
0.0
11
1.400000
21
21.500000
31
0.0
0
ARC
8
0
10
1.900000
20
21.500000
30
0.0
40
0.500000
50
90.000000
51
180.000000
0
LINE
8
0
10
1.900000
20
22.000000
30
0.0
11
16.700000
21
22.000000
31
0.0
0
LINE
8
0
10
36.600000
20
23.400000
30
0.0
11
36.600000
21
28.900000
31
0.0
0
LINE
8
0
10
36.600000
20
28.900000
30
0.0
11
36.600000
21
34.400000
31
0.0
0
LINE
8
0
10
36.600000
20
34.400000
30
0.0
11
1.400000
21
34.400000
31
0.0
0
LINE
8
0
10
1.400000
20
34.400000
30
0.0
11
1.400000
21
28.900000
31
0.0
0
LINE
8
0
10
1.400000
20
28.900000
30
0.0
11
1.400000
21
23.400000
31
0.0
0
LINE
8
0
10
1.400000
20
23.400000
30
0.0
11
36.600000
21
23.400000
31
0.0
0
ATTDEF
8
0
10
17.200000
20
40.800000
30
0.0
40
3.5
1

3

2
VC_START
70
0
0
ATTDEF
8
0
10
17.200000
20
17.000000
30
0.0
40
3.5
1

3

2
VC_END
70
0
0
ATTDEF
8
0
10
0.000000
20
0.000000
30
0.0
40
3.5
1

3

2
JY:0.000000
70
0
0
ATTDEF
8
0
10
0.000000
20
0.000000
30
0.0
40
3.5
1

3

2
WY:0.000000
70
0
0
ATTDEF
8
0
10
0.000000
20
0.000000
30
0.0
40
3.5
1

3

2
MIN_VETRO:0
70
0
0
ATTDEF
8
0
10
0.000000
20
0.000000
30
0.0
40
3.5
1

3

2
MAX_VETRO:0
70
0
0
ATTDEF
8
0
10
0.000000
20
0.000000
30
0.0
40
3.5
1

3

2
JY:0
70
0
0
ATTDEF
8
0
10
0.000000
20
0.000000
30
0.0
40
3.5
1

3

2
WY:0
70
0
0
ATTDEF
8
0
10
0.000000
20
0.000000
30
0.0
40
3.5
1

3

2
DESC:
70
0
0
ATTDEF
8
0
10
0.000000
20
0.000000
30
0.0
40
3.5
1

3

2
DENS:0.000000
70
0
0
ATTDEF
8
0
10
0.000000
20
0.000000
30
0.0
40
3.5
1

3

2
TDEV:0.000000
70
0
0
ATTDEF
8
0
10
0.000000
20
0.000000
30
0.0
40
3.5
1

3

2
TDEV2:0.000000
70
0
0
ATTDEF
8
0
10
0.000000
20
0.000000
30
0.0
40
3.5
1

3

2
TDEV3:0.000000
70
0
0
ATTDEF
8
0
10
0.000000
20
0.000000
30
0.0
40
3.5
1

3

2
TDEV4:0.000000
70
0
0
ATTDEF
8
0
10
0.000000
20
0.000000
30
0.0
40
3.5
1

3

2
TDEV5:0.000000
70
0
0
ATTDEF
8
0
10
0.000000
20
0.000000
30
0.0
40
3.5
1

3

2
REAR_VIEW
70
0
0
ATTDEF
8
0
10
0.000000
20
0.000000
30
0.0
40
3.5
1

3

2
BL01:6200.000000,,1
70
0
0
ATTDEF
8
0
10
0.000000
20
0.000000
30
0.0
40
3.5
1

3

2
OPTI:1500.000000,1,0,3000.000000,6200.000000,500.000000,0,0.000000,0
70
0
0
ATTDEF
8
0
10
0.000000
20
0.000000
30
0.0
40
3.5
1

3

2
GLASS_MIN:0.000000
70
0
0
ATTDEF
8
0
10
0.000000
20
0.000000
30
0.0
40
3.5
1

3

2
GLASS_MAX:0.000000
70
0
0
ATTDEF
8
0
10
0.000000
20
0.000000
30
0.0
40
3.5
1

3

2
JX:0.000000
70
0
0
ATTDEF
8
0
10
0.000000
20
0.000000
30
0.0
40
3.5
1

3

2
WX:0.000000
70
0
0
ATTDEF
8
0
10
0.000000
20
0.000000
30
0.0
40
3.5
1

3

2
JY:0.000000
70
0
0
ATTDEF
8
0
10
0.000000
20
0.000000
30
0.0
40
3.5
1

3

2
WY:0.000000
70
0
0
ATTDEF
8
0
10
0.000000
20
0.000000
30
0.0
40
3.5
1

3

2
FP_LCS_ORIG
70
0
0
ATTDEF
8
0
10
10.000000
20
0.000000
30
0.0
40
3.5
1

3

2
FP_LCS_HOT
70
0
0
ATTDEF
8
0
10
0.000000
20
10.000000
30
0.0
40
3.5
1

3

2
FP_LCS_INTERN
70
0
0
ATTDEF
8
0
10
0.000000
20
0.000000
30
0.0
40
3.5
1

3

2
PANE_WIDTH:33.000000
70
0
0
ENDSEC
0
EOF
