0
SECTION
2
ENTITIES
0
LINE
8
0
10
26.500000
20
14.100000
30
0.0
11
24.500000
21
14.100000
31
0.0
0
ARC
8
0
10
12.500000
20
14.100000
30
0.0
40
12.000000
50
0.000000
51
51.786789
0
LINE
8
0
10
26.500000
20
8.000000
30
0.0
11
26.500000
21
14.100000
31
0.0
0
ARC
8
0
10
16.830127
20
19.600000
30
0.0
40
5.000000
50
51.786789
51
90.918227
0
LINE
8
0
10
19.000000
20
8.000000
30
0.0
11
26.500000
21
8.000000
31
0.0
0
LINE
8
0
10
16.750000
20
24.599358
30
0.0
11
16.750000
21
23.800000
31
0.0
0
LINE
8
0
10
19.000000
20
1.000000
30
0.0
11
19.000000
21
8.000000
31
0.0
0
ARC
8
0
10
17.250000
20
23.800000
30
0.0
40
0.500000
50
180.000000
51
270.000000
0
ARC
8
0
10
18.000000
20
1.000000
30
0.0
40
1.000000
50
270.000000
51
0.000000
0
LINE
8
0
10
17.250000
20
23.300000
30
0.0
11
17.250000
21
15.100000
31
0.0
0
LINE
8
0
10
17.700000
20
0.000000
30
0.0
11
18.000000
21
0.000000
31
0.0
0
ARC
8
0
10
16.250000
20
15.100000
30
0.0
40
1.000000
50
270.000000
51
0.000000
0
LINE
8
0
10
17.700000
20
7.000000
30
0.0
11
17.700000
21
0.000000
31
0.0
0
LINE
8
0
10
16.250000
20
14.100000
30
0.0
11
10.250000
21
14.100000
31
0.0
0
ARC
8
0
10
16.700000
20
7.000000
30
0.0
40
1.000000
50
0.000000
51
90.000000
0
ARC
8
0
10
10.250000
20
15.100000
30
0.0
40
1.000000
50
180.000000
51
270.000000
0
LINE
8
0
10
9.900000
20
8.000000
30
0.0
11
16.700000
21
8.000000
31
0.0
0
LINE
8
0
10
9.250000
20
15.100000
30
0.0
11
9.250000
21
23.300000
31
0.0
0
ARC
8
0
10
9.900000
20
7.000000
30
0.0
40
1.000000
50
90.000000
51
180.000000
0
ARC
8
0
10
9.250000
20
23.800000
30
0.0
40
0.500000
50
270.000000
51
0.000000
0
LINE
8
0
10
8.900000
20
0.000000
30
0.0
11
8.900000
21
7.000000
31
0.0
0
LINE
8
0
10
9.750000
20
23.800000
30
0.0
11
9.750000
21
24.599358
31
0.0
0
LINE
8
0
10
8.600000
20
0.000000
30
0.0
11
8.900000
21
0.000000
31
0.0
0
ARC
8
0
10
9.669873
20
19.600000
30
0.0
40
5.000000
50
89.081773
51
128.213211
0
ARC
8
0
10
8.600000
20
1.000000
30
0.0
40
1.000000
50
180.000000
51
270.000000
0
ARC
8
0
10
14.000000
20
14.100000
30
0.0
40
12.000000
50
128.213211
51
180.000000
0
LINE
8
0
10
7.600000
20
8.000000
30
0.0
11
7.600000
21
1.000000
31
0.0
0
LINE
8
0
10
2.000000
20
14.100000
30
0.0
11
0.000000
21
14.100000
31
0.0
0
LINE
8
0
10
0.000000
20
8.000000
30
0.0
11
7.600000
21
8.000000
31
0.0
0
LINE
8
0
10
0.000000
20
14.100000
30
0.0
11
0.000000
21
8.000000
31
0.0
0
ARC
8
0
10
16.250000
20
15.100000
30
0.0
40
2.300000
50
270.000000
51
0.000000
0
LINE
8
0
10
18.550000
20
15.100000
30
0.0
11
18.550000
21
22.526446
31
0.0
0
LINE
8
0
10
10.250000
20
12.800000
30
0.0
11
16.250000
21
12.800000
31
0.0
0
ARC
8
0
10
18.750000
20
22.526446
30
0.0
40
0.200000
50
56.733425
51
180.000000
0
ARC
8
0
10
10.250000
20
15.100000
30
0.0
40
2.300000
50
180.000000
51
270.000000
0
ARC
8
0
10
16.830127
20
19.600000
30
0.0
40
3.700000
50
51.786789
51
56.733425
0
LINE
8
0
10
7.950000
20
22.526446
30
0.0
11
7.950000
21
15.100000
31
0.0
0
ARC
8
0
10
12.500000
20
14.100000
30
0.0
40
10.700000
50
358.530716
51
51.786789
0
ARC
8
0
10
7.750000
20
22.526446
30
0.0
40
0.200000
50
0.000000
51
123.266575
0
ARC
8
0
10
24.196153
20
13.800000
30
0.0
40
1.000000
50
178.530716
51
270.000000
0
ARC
8
0
10
9.669873
20
19.600000
30
0.0
40
3.700000
50
123.266575
51
128.213211
0
LINE
8
0
10
24.196153
20
12.800000
30
0.0
11
25.200000
21
12.800000
31
0.0
0
ARC
8
0
10
14.000000
20
14.100000
30
0.0
40
10.700000
50
128.213211
51
181.469284
0
LINE
8
0
10
25.200000
20
12.800000
30
0.0
11
25.200000
21
9.300000
31
0.0
0
ARC
8
0
10
2.303847
20
13.800000
30
0.0
40
1.000000
50
270.000000
51
1.469284
0
LINE
8
0
10
25.200000
20
9.300000
30
0.0
11
1.300000
21
9.300000
31
0.0
0
LINE
8
0
10
1.300000
20
12.800000
30
0.0
11
2.303847
21
12.800000
31
0.0
0
LINE
8
0
10
1.300000
20
9.300000
30
0.0
11
1.300000
21
12.800000
31
0.0
0
ATTDEF
8
0
10
0.000000
20
0.000000
30
0.0
40
3.5
1

3

2
FRONT_VIEW
70
0
0
ATTDEF
8
0
10
0.000000
20
0.000000
30
0.0
40
3.5
1

3

2
OPTI:500.000000,1,0,3000.000000,6900.000000,500.000000,0,0.000000,0
70
0
0
ATTDEF
8
0
10
0.000000
20
0.000000
30
0.0
40
3.5
1

3

2
GLASS_MIN:0.000000
70
0
0
ATTDEF
8
0
10
0.000000
20
0.000000
30
0.0
40
3.5
1

3

2
GLASS_MAX:0.000000
70
0
0
ATTDEF
8
0
10
0.000000
20
0.000000
30
0.0
40
3.5
1

3

2
WX:0.000000
70
0
0
ATTDEF
8
0
10
0.000000
20
0.000000
30
0.0
40
3.5
1

3

2
JY:0.000000
70
0
0
ATTDEF
8
0
10
0.000000
20
0.000000
30
0.0
40
3.5
1

3

2
WY:0.000000
70
0
0
ATTDEF
8
0
10
13.250000
20
14.100000
30
0.0
40
3.5
1

3

2
VC_START
70
0
0
ATTDEF
8
0
10
13.300000
20
8.000000
30
0.0
40
3.5
1

3

2
VC_END
70
0
0
ATTDEF
8
0
10
0.000000
20
0.000000
30
0.0
40
3.5
1

3

2
FP_LCS_ORIG
70
0
0
ATTDEF
8
0
10
10.000000
20
0.000000
30
0.0
40
3.5
1

3

2
FP_LCS_HOT
70
0
0
ATTDEF
8
0
10
0.000000
20
10.000000
30
0.0
40
3.5
1

3

2
FP_LCS_INTERN
70
0
0
ATTDEF
8
0
10
0.000000
20
0.000000
30
0.0
40
3.5
1

3

2
BL01:6200.000,,1
70
0
0
ATTDEF
8
0
10
0.000000
20
0.000000
30
0.0
40
3.5
1

3

2
DESC:Bastidor vidrio repartido vent. y pta. corrediza
70
0
0
ATTDEF
8
0
10
0.000000
20
0.000000
30
0.0
40
3.5
1

3

2
DENS:0.383
70
0
0
ATTDEF
8
0
10
0.000000
20
0.000000
30
0.0
40
3.5
1

3

2
TDEV:0
70
0
0
ATTDEF
8
0
10
0.000000
20
0.000000
30
0.0
40
3.5
1

3

2
TDEV2:0
70
0
0
ATTDEF
8
0
10
0.000000
20
0.000000
30
0.0
40
3.5
1

3

2
TDEV3:0
70
0
0
ATTDEF
8
0
10
0.000000
20
0.000000
30
0.0
40
3.5
1

3

2
TDEV4:0
70
0
0
ATTDEF
8
0
10
0.000000
20
0.000000
30
0.0
40
3.5
1

3

2
TDEV5:0
70
0
0
ATTDEF
8
0
10
0.000000
20
0.000000
30
0.0
40
3.5
1

3

2
PANE_WIDTH:0
70
0
0
ATTDEF
8
0
10
0.000000
20
0.000000
30
0.0
40
3.5
1

3

2
MIN_VETRO:0
70
0
0
ATTDEF
8
0
10
0.000000
20
0.000000
30
0.0
40
3.5
1

3

2
MAX_VETRO:0
70
0
0
ATTDEF
8
0
10
0.000000
20
0.000000
30
0.0
40
3.5
1

3

2
JX:0
70
0
0
ATTDEF
8
0
10
0.000000
20
0.000000
30
0.0
40
3.5
1

3

2
WX:0
70
0
0
ATTDEF
8
0
10
0.000000
20
0.000000
30
0.0
40
3.5
1

3

2
JY:0
70
0
0
ATTDEF
8
0
10
0.000000
20
0.000000
30
0.0
40
3.5
1

3

2
WY:0
70
0
0
ENDSEC
0
EOF
