0
SECTION
2
ENTITIES
0
ARC
8
0
10
81.760260
20
30.399702
30
0.0
40
1.000000
50
0.000000
51
90.000000
0
LINE
8
0
10
81.760260
20
31.399702
30
0.0
11
81.510260
21
31.399702
31
0.0
0
LINE
8
0
10
82.760260
20
15.600000
30
0.0
11
82.760260
21
30.399702
31
0.0
0
LINE
8
0
10
81.510260
20
31.399702
30
0.0
11
81.510260
21
29.199702
31
0.0
0
ARC
8
0
10
42.760260
20
15.600000
30
0.0
40
40.000000
50
342.370709
51
0.000000
0
ARC
8
0
10
81.010260
20
29.199702
30
0.0
40
0.500000
50
270.000000
51
0.000000
0
ARC
8
0
10
76.116519
20
5.000000
30
0.0
40
5.000000
50
270.000000
51
342.370709
0
LINE
8
0
10
81.010260
20
28.699702
30
0.0
11
69.860260
21
28.699702
31
0.0
0
LINE
8
0
10
75.757482
20
0.000000
30
0.0
11
76.116519
21
0.000000
31
0.0
0
ARC
8
0
10
75.757482
20
0.500000
30
0.0
40
0.500000
50
180.000000
51
270.000000
0
LINE
8
0
10
75.257482
20
1.850000
30
0.0
11
75.257482
21
0.500000
31
0.0
0
ARC
8
0
10
75.857482
20
1.850000
30
0.0
40
0.600000
50
0.000000
51
180.000000
0
LINE
8
0
10
76.457482
20
1.700000
30
0.0
11
76.457482
21
1.850000
31
0.0
0
ARC
8
0
10
76.957482
20
1.700000
30
0.0
40
0.500000
50
180.000000
51
270.000000
0
LINE
8
0
10
72.860260
20
27.299702
30
0.0
11
78.460260
21
27.299702
31
0.0
0
LINE
8
0
10
77.157482
20
1.200000
30
0.0
11
76.957482
21
1.200000
31
0.0
0
ARC
8
0
10
78.460260
20
26.799702
30
0.0
40
0.500000
50
0.000000
51
90.000000
0
ARC
8
0
10
77.157482
20
1.700000
30
0.0
40
0.500000
50
270.000000
51
0.000000
0
LINE
8
0
10
78.960260
20
26.799702
30
0.0
11
78.960260
21
25.502595
31
0.0
0
LINE
8
0
10
77.657482
20
8.200000
30
0.0
11
77.657482
21
1.700000
31
0.0
0
ARC
8
0
10
79.460260
20
25.502595
30
0.0
40
0.500000
50
180.000000
51
339.611617
0
ARC
8
0
10
77.157482
20
8.200000
30
0.0
40
0.500000
50
0.000000
51
90.000000
0
LINE
8
0
10
79.928936
20
25.328404
30
0.0
11
80.541240
21
26.980860
31
0.0
0
LINE
8
0
10
76.957482
20
8.700000
30
0.0
11
77.157482
21
8.700000
31
0.0
0
ARC
8
0
10
81.010260
20
26.807595
30
0.0
40
0.500000
50
0.000000
51
159.724822
0
ARC
8
0
10
76.957482
20
8.200000
30
0.0
40
0.500000
50
90.000000
51
180.000000
0
LINE
8
0
10
81.510260
20
26.807595
30
0.0
11
81.510260
21
16.997595
31
0.0
0
LINE
8
0
10
76.457482
20
8.050000
30
0.0
11
76.457482
21
8.200000
31
0.0
0
ARC
8
0
10
81.010260
20
16.997595
30
0.0
40
0.500000
50
200.275177
51
0.000000
0
ARC
8
0
10
75.857482
20
8.050000
30
0.0
40
0.600000
50
180.000000
51
0.000000
0
LINE
8
0
10
80.541240
20
16.824331
30
0.0
11
79.928936
21
18.476786
31
0.0
0
LINE
8
0
10
75.257482
20
9.400000
30
0.0
11
75.257482
21
8.050000
31
0.0
0
ARC
8
0
10
79.460260
20
18.302595
30
0.0
40
0.500000
50
20.388383
51
180.000000
0
ARC
8
0
10
75.757482
20
9.400000
30
0.0
40
0.500000
50
90.000000
51
180.000000
0
LINE
8
0
10
78.960260
20
18.302595
30
0.0
11
78.960260
21
15.599702
31
0.0
0
LINE
8
0
10
78.057482
20
9.900000
30
0.0
11
75.757482
21
9.900000
31
0.0
0
ARC
8
0
10
79.460260
20
15.599702
30
0.0
40
0.500000
50
180.000000
51
270.000000
0
ARC
8
0
10
78.057482
20
8.900000
30
0.0
40
1.000000
50
0.000000
51
90.000000
0
LINE
8
0
10
79.460260
20
15.099702
30
0.0
11
80.844334
21
15.099702
31
0.0
0
LINE
8
0
10
79.057482
20
7.381649
30
0.0
11
79.057482
21
8.900000
31
0.0
0
ARC
8
0
10
80.844334
20
14.599702
30
0.0
40
0.500000
50
358.405242
51
90.000000
0
ARC
8
0
10
79.757482
20
7.381649
30
0.0
40
0.700000
50
180.000000
51
347.473268
0
ARC
8
0
10
42.874557
20
15.576452
30
0.0
40
38.482337
50
347.473268
51
358.524850
0
ARC
8
0
10
69.860260
20
28.199702
30
0.0
40
0.500000
50
90.000000
51
180.000000
0
LINE
8
0
10
69.360260
20
28.199702
30
0.0
11
69.360260
21
27.799702
31
0.0
0
ARC
8
0
10
69.860260
20
27.799702
30
0.0
40
0.500000
50
180.000000
51
270.000000
0
LINE
8
0
10
69.860260
20
27.299702
30
0.0
11
71.860260
21
27.299702
31
0.0
0
ARC
8
0
10
72.360260
20
27.299702
30
0.0
40
0.500000
50
0.000000
51
180.000000
0
LINE
8
0
10
71.595700
20
22.751517
30
0.0
11
71.595700
21
10.548185
31
0.0
0
LINE
8
0
10
71.595700
20
10.548185
30
0.0
11
15.495700
21
10.548185
31
0.0
0
LINE
8
0
10
15.495700
20
10.548185
30
0.0
11
15.495700
21
22.751517
31
0.0
0
LINE
8
0
10
15.495700
20
22.751517
30
0.0
11
71.595700
21
22.751517
31
0.0
0
LINE
8
0
10
1.495700
20
22.548185
30
0.0
11
1.495700
21
24.251517
31
0.0
0
LINE
8
0
10
1.495700
20
24.251517
30
0.0
11
73.095700
21
24.251517
31
0.0
0
LINE
8
0
10
73.095700
20
24.251517
30
0.0
11
73.095700
21
9.048185
31
0.0
0
LINE
8
0
10
73.095700
20
9.048185
30
0.0
11
12.495700
21
9.048185
31
0.0
0
ARC
8
0
10
12.495700
20
9.548185
30
0.0
40
0.500000
50
180.000000
51
270.000000
0
LINE
8
0
10
11.995700
20
9.548185
30
0.0
11
11.995700
21
10.048185
31
0.0
0
ARC
8
0
10
12.495700
20
10.048185
30
0.0
40
0.500000
50
90.000000
51
180.000000
0
LINE
8
0
10
12.495700
20
10.548185
30
0.0
11
13.495700
21
10.548185
31
0.0
0
ARC
8
0
10
13.495700
20
11.048185
30
0.0
40
0.500000
50
270.000000
51
0.000000
0
LINE
8
0
10
13.995700
20
11.048185
30
0.0
11
13.995700
21
22.251517
31
0.0
0
ARC
8
0
10
13.495700
20
22.251517
30
0.0
40
0.500000
50
0.000000
51
90.000000
0
LINE
8
0
10
13.495700
20
22.751517
30
0.0
11
3.495700
21
22.751517
31
0.0
0
ARC
8
0
10
3.495700
20
22.251517
30
0.0
40
0.500000
50
90.000000
51
180.000000
0
LINE
8
0
10
2.995700
20
22.251517
30
0.0
11
2.995700
21
11.048185
31
0.0
0
ARC
8
0
10
3.495700
20
11.048185
30
0.0
40
0.500000
50
180.000000
51
270.000000
0
LINE
8
0
10
3.495700
20
10.548185
30
0.0
11
4.495700
21
10.548185
31
0.0
0
ARC
8
0
10
4.495700
20
10.048185
30
0.0
40
0.500000
50
0.000000
51
90.000000
0
LINE
8
0
10
4.995700
20
10.048185
30
0.0
11
4.995700
21
9.548185
31
0.0
0
ARC
8
0
10
4.495700
20
9.548185
30
0.0
40
0.500000
50
270.000000
51
0.000000
0
LINE
8
0
10
4.495700
20
9.048185
30
0.0
11
1.495700
21
9.048185
31
0.0
0
LINE
8
0
10
1.495700
20
9.048185
30
0.0
11
1.495700
21
10.798185
31
0.0
0
LINE
8
0
10
1.495700
20
10.798185
30
0.0
11
0.000000
21
10.798185
31
0.0
0
LINE
8
0
10
0.000000
20
10.798185
30
0.0
11
0.000000
21
11.798185
31
0.0
0
LINE
8
0
10
0.000000
20
11.798185
30
0.0
11
1.495700
21
11.798185
31
0.0
0
LINE
8
0
10
1.495700
20
11.798185
30
0.0
11
1.495700
21
16.148185
31
0.0
0
LINE
8
0
10
1.495700
20
16.148185
30
0.0
11
0.000000
21
17.643885
31
0.0
0
LINE
8
0
10
0.000000
20
17.643885
30
0.0
11
1.495700
21
17.643885
31
0.0
0
LINE
8
0
10
1.495700
20
17.643885
30
0.0
11
1.495700
21
21.548185
31
0.0
0
LINE
8
0
10
1.495700
20
21.548185
30
0.0
11
0.000000
21
21.548185
31
0.0
0
LINE
8
0
10
0.000000
20
21.548185
30
0.0
11
0.000000
21
22.548185
31
0.0
0
LINE
8
0
10
0.000000
20
22.548185
30
0.0
11
1.495700
21
22.548185
31
0.0
0
ATTDEF
8
0
10
0.000000
20
0.000000
30
0.0
40
3.5
1

3

2
GLASS_MIN:0.000000
70
0
0
ATTDEF
8
0
10
0.000000
20
0.000000
30
0.0
40
3.5
1

3

2
GLASS_MAX:0.000000
70
0
0
ATTDEF
8
0
10
0.000000
20
0.000000
30
0.0
40
3.5
1

3

2
BL01:6500.000000,,1
70
0
0
ATTDEF
8
0
10
0.000000
20
0.000000
30
0.0
40
3.5
1

3

2
HW_START
70
0
0
ATTDEF
8
0
10
82.760260
20
31.399702
30
0.0
40
3.5
1

3

2
HW_END
70
0
0
ATTDEF
8
0
10
37.295700
20
24.251517
30
0.0
40
3.5
1

3

2
VC_START
70
0
0
ATTDEF
8
0
10
73.095700
20
9.048185
30
0.0
40
3.5
1

3

2
VC_END
70
0
0
ATTDEF
8
0
10
0.000000
20
0.000000
30
0.0
40
3.5
1

3

2
FP_LCS_ORIG
70
0
0
ATTDEF
8
0
10
10.000000
20
0.000000
30
0.0
40
3.5
1

3

2
FP_LCS_HOT
70
0
0
ATTDEF
8
0
10
0.000000
20
10.000000
30
0.0
40
3.5
1

3

2
FP_LCS_INTERN
70
0
0
ATTDEF
8
0
10
0.000000
20
0.000000
30
0.0
40
3.5
1

3

2
DESC:6901 - 7711
70
0
0
ATTDEF
8
0
10
0.000000
20
0.000000
30
0.0
40
3.5
1

3

2
DENS:0
70
0
0
ATTDEF
8
0
10
0.000000
20
0.000000
30
0.0
40
3.5
1

3

2
TDEV:0
70
0
0
ATTDEF
8
0
10
0.000000
20
0.000000
30
0.0
40
3.5
1

3

2
TDEV2:0
70
0
0
ATTDEF
8
0
10
0.000000
20
0.000000
30
0.0
40
3.5
1

3

2
TDEV3:0
70
0
0
ATTDEF
8
0
10
0.000000
20
0.000000
30
0.0
40
3.5
1

3

2
TDEV4:0
70
0
0
ATTDEF
8
0
10
0.000000
20
0.000000
30
0.0
40
3.5
1

3

2
TDEV5:0
70
0
0
ATTDEF
8
0
10
0.000000
20
0.000000
30
0.0
40
3.5
1

3

2
PANE_WIDTH:0
70
0
0
ATTDEF
8
0
10
0.000000
20
0.000000
30
0.0
40
3.5
1

3

2
MIN_VETRO:0
70
0
0
ATTDEF
8
0
10
0.000000
20
0.000000
30
0.0
40
3.5
1

3

2
MAX_VETRO:0
70
0
0
ATTDEF
8
0
10
0.000000
20
0.000000
30
0.0
40
3.5
1

3

2
JX:0
70
0
0
ATTDEF
8
0
10
0.000000
20
0.000000
30
0.0
40
3.5
1

3

2
WX:0
70
0
0
ATTDEF
8
0
10
0.000000
20
0.000000
30
0.0
40
3.5
1

3

2
JY:0
70
0
0
ATTDEF
8
0
10
0.000000
20
0.000000
30
0.0
40
3.5
1

3

2
WY:0
70
0
0
ENDSEC
0
EOF
