0
SECTION
2
ENTITIES
0
LINE
8
0
10
40.950000
20
9.350000
30
0.0
11
40.950000
21
9.200000
31
0.0
0
LINE
8
0
10
40.950000
20
9.200000
30
0.0
11
75.600000
21
9.200000
31
0.0
0
ARC
8
0
10
75.600000
20
10.200000
30
0.0
40
1.000000
50
270.000000
51
0.000000
0
LINE
8
0
10
76.600000
20
10.200000
30
0.0
11
76.600000
21
16.500000
31
0.0
0
ARC
8
0
10
76.800000
20
16.500000
30
0.0
40
0.200000
50
30.000000
51
180.000000
0
LINE
8
0
10
76.973205
20
16.600000
30
0.0
11
78.333013
21
14.244744
31
0.0
0
ARC
8
0
10
77.900000
20
13.994744
30
0.0
40
0.500000
50
300.000000
51
30.000000
0
LINE
8
0
10
78.150000
20
13.561731
30
0.0
11
77.850000
21
13.388526
31
0.0
0
ARC
8
0
10
78.100000
20
12.955514
30
0.0
40
0.500000
50
120.000000
51
180.000000
0
LINE
8
0
10
77.600000
20
12.955514
30
0.0
11
77.600000
21
10.200000
31
0.0
0
ARC
8
0
10
78.600000
20
10.200000
30
0.0
40
1.000000
50
180.000000
51
270.000000
0
LINE
8
0
10
78.600000
20
9.200000
30
0.0
11
80.200000
21
9.200000
31
0.0
0
LINE
8
0
10
80.200000
20
9.200000
30
0.0
11
80.200000
21
8.500000
31
0.0
0
ARC
8
0
10
79.200000
20
8.500000
30
0.0
40
1.000000
50
270.000000
51
0.000000
0
LINE
8
0
10
79.200000
20
7.500000
30
0.0
11
43.400000
21
7.500000
31
0.0
0
ARC
8
0
10
43.400000
20
6.500000
30
0.0
40
1.000000
50
90.000000
51
180.000000
0
LINE
8
0
10
42.400000
20
6.500000
30
0.0
11
42.400000
21
3.744486
31
0.0
0
ARC
8
0
10
42.900000
20
3.744486
30
0.0
40
0.500000
50
180.000000
51
240.000000
0
LINE
8
0
10
42.650000
20
3.311474
30
0.0
11
42.950000
21
3.138269
31
0.0
0
ARC
8
0
10
42.700000
20
2.705256
30
0.0
40
0.500000
50
330.000000
51
60.000000
0
LINE
8
0
10
43.133013
20
2.455256
30
0.0
11
41.773205
21
0.100000
31
0.0
0
ARC
8
0
10
41.600000
20
0.200000
30
0.0
40
0.200000
50
180.000000
51
330.000000
0
LINE
8
0
10
41.400000
20
0.200000
30
0.0
11
41.400000
21
6.500000
31
0.0
0
ARC
8
0
10
40.400000
20
6.500000
30
0.0
40
1.000000
50
0.000000
51
90.000000
0
LINE
8
0
10
40.400000
20
7.500000
30
0.0
11
4.600000
21
7.500000
31
0.0
0
ARC
8
0
10
4.600000
20
6.500000
30
0.0
40
1.000000
50
90.000000
51
180.000000
0
LINE
8
0
10
3.600000
20
6.500000
30
0.0
11
3.600000
21
0.200000
31
0.0
0
ARC
8
0
10
3.400000
20
0.200000
30
0.0
40
0.200000
50
210.000000
51
0.000000
0
LINE
8
0
10
3.226795
20
0.100000
30
0.0
11
1.866987
21
2.455256
31
0.0
0
ARC
8
0
10
2.300000
20
2.705256
30
0.0
40
0.500000
50
120.000000
51
210.000000
0
LINE
8
0
10
2.050000
20
3.138269
30
0.0
11
2.350000
21
3.311474
31
0.0
0
ARC
8
0
10
2.100000
20
3.744486
30
0.0
40
0.500000
50
300.000000
51
0.000000
0
LINE
8
0
10
2.600000
20
3.744486
30
0.0
11
2.600000
21
7.000000
31
0.0
0
ARC
8
0
10
2.100000
20
7.000000
30
0.0
40
0.500000
50
0.000000
51
90.000000
0
LINE
8
0
10
2.100000
20
7.500000
30
0.0
11
1.700000
21
7.500000
31
0.0
0
ARC
8
0
10
1.700000
20
7.000000
30
0.0
40
0.500000
50
90.000000
51
180.000000
0
LINE
8
0
10
1.200000
20
7.000000
30
0.0
11
1.200000
21
6.500000
31
0.0
0
LINE
8
0
10
1.200000
20
6.500000
30
0.0
11
0.000000
21
6.500000
31
0.0
0
LINE
8
0
10
0.000000
20
6.500000
30
0.0
11
0.000000
21
10.200000
31
0.0
0
LINE
8
0
10
0.000000
20
10.200000
30
0.0
11
1.200000
21
10.200000
31
0.0
0
LINE
8
0
10
1.200000
20
10.200000
30
0.0
11
1.200000
21
9.700000
31
0.0
0
ARC
8
0
10
1.700000
20
9.700000
30
0.0
40
0.500000
50
180.000000
51
270.000000
0
LINE
8
0
10
1.700000
20
9.200000
30
0.0
11
2.100000
21
9.200000
31
0.0
0
ARC
8
0
10
2.100000
20
9.700000
30
0.0
40
0.500000
50
270.000000
51
0.000000
0
LINE
8
0
10
2.600000
20
9.700000
30
0.0
11
2.600000
21
12.955514
31
0.0
0
ARC
8
0
10
2.100000
20
12.955514
30
0.0
40
0.500000
50
0.000000
51
60.000000
0
LINE
8
0
10
2.350000
20
13.388526
30
0.0
11
2.050000
21
13.561731
31
0.0
0
ARC
8
0
10
2.300000
20
13.994744
30
0.0
40
0.500000
50
150.000000
51
240.000000
0
LINE
8
0
10
1.866987
20
14.244744
30
0.0
11
3.226795
21
16.600000
31
0.0
0
ARC
8
0
10
3.400000
20
16.500000
30
0.0
40
0.200000
50
0.000000
51
150.000000
0
LINE
8
0
10
3.600000
20
16.500000
30
0.0
11
3.600000
21
10.200000
31
0.0
0
ARC
8
0
10
4.600000
20
10.200000
30
0.0
40
1.000000
50
180.000000
51
270.000000
0
LINE
8
0
10
4.600000
20
9.200000
30
0.0
11
39.250000
21
9.200000
31
0.0
0
LINE
8
0
10
39.250000
20
9.200000
30
0.0
11
39.250000
21
9.350000
31
0.0
0
ARC
8
0
10
40.100000
20
9.350000
30
0.0
40
0.850000
50
0.000000
51
180.000000
0
ATTDEF
8
0
10
0.600000
20
10.200000
30
0.0
40
3.5
1

3

2
VC_START
70
0
0
ATTDEF
8
0
10
0.000000
20
6.500000
30
0.0
40
3.5
1

3

2
VC_END
70
0
0
ATTDEF
8
0
10
0.000000
20
0.000000
30
0.0
40
3.5
1

3

2
FRONT_VIEW
70
0
0
ATTDEF
8
0
10
0.000000
20
0.000000
30
0.0
40
3.5
1

3

2
BL01:6500.000000,,1
70
0
0
ATTDEF
8
0
10
0.000000
20
0.000000
30
0.0
40
3.5
1

3

2
OPTI:500.000000,1,0,3000.000000,6500.000000,500.000000,0,0.000000,0
70
0
0
ATTDEF
8
0
10
0.000000
20
0.000000
30
0.0
40
3.5
1

3

2
GLASS_MIN:0.000000
70
0
0
ATTDEF
8
0
10
0.000000
20
0.000000
30
0.0
40
3.5
1

3

2
GLASS_MAX:0.000000
70
0
0
ATTDEF
8
0
10
0.000000
20
0.000000
30
0.0
40
3.5
1

3

2
JX:0.000000
70
0
0
ATTDEF
8
0
10
0.000000
20
0.000000
30
0.0
40
3.5
1

3

2
WX:0.000000
70
0
0
ATTDEF
8
0
10
0.000000
20
0.000000
30
0.0
40
3.5
1

3

2
JY:0.000000
70
0
0
ATTDEF
8
0
10
0.000000
20
0.000000
30
0.0
40
3.5
1

3

2
WY:0.000000
70
0
0
ATTDEF
8
0
10
0.000000
20
0.000000
30
0.0
40
3.5
1

3

2
FP_LCS_ORIG
70
0
0
ATTDEF
8
0
10
10.000000
20
0.000000
30
0.0
40
3.5
1

3

2
FP_LCS_HOT
70
0
0
ATTDEF
8
0
10
0.000000
20
10.000000
30
0.0
40
3.5
1

3

2
FP_LCS_INTERN
70
0
0
ATTDEF
8
0
10
0.000000
20
0.000000
30
0.0
40
3.5
1

3

2
DESC:Acople
70
0
0
ATTDEF
8
0
10
0.000000
20
0.000000
30
0.0
40
3.5
1

3

2
DENS:0.47
70
0
0
ATTDEF
8
0
10
0.000000
20
0.000000
30
0.0
40
3.5
1

3

2
TDEV:0
70
0
0
ATTDEF
8
0
10
0.000000
20
0.000000
30
0.0
40
3.5
1

3

2
TDEV2:0
70
0
0
ATTDEF
8
0
10
0.000000
20
0.000000
30
0.0
40
3.5
1

3

2
TDEV3:0
70
0
0
ATTDEF
8
0
10
0.000000
20
0.000000
30
0.0
40
3.5
1

3

2
TDEV4:0
70
0
0
ATTDEF
8
0
10
0.000000
20
0.000000
30
0.0
40
3.5
1

3

2
TDEV5:0
70
0
0
ATTDEF
8
0
10
0.000000
20
0.000000
30
0.0
40
3.5
1

3

2
PANE_WIDTH:0
70
0
0
ATTDEF
8
0
10
0.000000
20
0.000000
30
0.0
40
3.5
1

3

2
MIN_VETRO:0
70
0
0
ATTDEF
8
0
10
0.000000
20
0.000000
30
0.0
40
3.5
1

3

2
MAX_VETRO:0
70
0
0
ATTDEF
8
0
10
0.000000
20
0.000000
30
0.0
40
3.5
1

3

2
JX:0
70
0
0
ATTDEF
8
0
10
0.000000
20
0.000000
30
0.0
40
3.5
1

3

2
WX:0
70
0
0
ATTDEF
8
0
10
0.000000
20
0.000000
30
0.0
40
3.5
1

3

2
JY:0
70
0
0
ATTDEF
8
0
10
0.000000
20
0.000000
30
0.0
40
3.5
1

3

2
WY:0
70
0
0
ENDSEC
0
EOF
