0
SECTION
2
ENTITIES
0
ARC
8
0
10
0.500000
20
11.000000
30
0.0
40
0.500000
50
180.000000
51
270.000000
0
LINE
8
0
10
0.500000
20
10.500000
30
0.0
11
20.946604
21
10.500000
31
0.0
0
ARC
8
0
10
20.946604
20
11.100000
30
0.0
40
0.600000
50
270.000000
51
90.000000
0
LINE
8
0
10
20.946604
20
11.700000
30
0.0
11
20.796689
21
11.700000
31
0.0
0
ARC
8
0
10
20.796689
20
12.200000
30
0.0
40
0.500000
50
180.000000
51
270.000000
0
LINE
8
0
10
20.296689
20
12.200000
30
0.0
11
20.296689
21
12.400000
31
0.0
0
ARC
8
0
10
20.796689
20
12.400000
30
0.0
40
0.500000
50
90.000000
51
180.000000
0
LINE
8
0
10
20.796689
20
12.900000
30
0.0
11
27.296689
21
12.900000
31
0.0
0
ARC
8
0
10
27.296689
20
12.400000
30
0.0
40
0.500000
50
360.000000
51
90.000000
0
LINE
8
0
10
27.796689
20
12.400000
30
0.0
11
27.796689
21
12.200000
31
0.0
0
ARC
8
0
10
27.296689
20
12.200000
30
0.0
40
0.500000
50
270.000000
51
360.000000
0
LINE
8
0
10
27.296689
20
11.700000
30
0.0
11
27.146774
21
11.700000
31
0.0
0
ARC
8
0
10
27.146774
20
11.100000
30
0.0
40
0.600000
50
90.000000
51
270.000000
0
LINE
8
0
10
27.146774
20
10.500000
30
0.0
11
41.996689
21
10.500000
31
0.0
0
ARC
8
0
10
41.996689
20
9.500000
30
0.0
40
1.000000
50
360.000000
51
90.000000
0
LINE
8
0
10
42.996689
20
9.500000
30
0.0
11
42.996689
21
8.500000
31
0.0
0
ARC
8
0
10
42.496689
20
8.500000
30
0.0
40
0.500000
50
270.000000
51
360.000000
0
LINE
8
0
10
42.496689
20
8.000000
30
0.0
11
41.996689
21
8.000000
31
0.0
0
ARC
8
0
10
41.996689
20
7.500000
30
0.0
40
0.500000
50
90.000000
51
180.000000
0
LINE
8
0
10
41.496689
20
7.500000
30
0.0
11
41.496689
21
6.000000
31
0.0
0
ARC
8
0
10
41.996689
20
6.000000
30
0.0
40
0.500000
50
180.000000
51
360.000000
0
ARC
8
0
10
42.996689
20
6.000000
30
0.0
40
0.500000
50
90.000000
51
180.000000
0
LINE
8
0
10
42.996689
20
6.500000
30
0.0
11
43.296689
21
6.500000
31
0.0
0
ARC
8
0
10
43.296689
20
6.000000
30
0.0
40
0.500000
50
360.000000
51
90.000000
0
LINE
8
0
10
43.796689
20
6.000000
30
0.0
11
43.796689
21
2.000000
31
0.0
0
ARC
8
0
10
43.296689
20
2.000000
30
0.0
40
0.500000
50
270.000000
51
360.000000
0
LINE
8
0
10
43.296689
20
1.500000
30
0.0
11
42.996689
21
1.500000
31
0.0
0
ARC
8
0
10
42.996689
20
2.000000
30
0.0
40
0.500000
50
180.000000
51
270.000000
0
ARC
8
0
10
41.996689
20
2.000000
30
0.0
40
0.500000
50
360.000000
51
180.000000
0
LINE
8
0
10
41.496689
20
2.000000
30
0.0
11
41.496689
21
0.500000
31
0.0
0
ARC
8
0
10
41.996689
20
0.500000
30
0.0
40
0.500000
50
180.000000
51
270.000000
0
LINE
8
0
10
41.996689
20
0.000000
30
0.0
11
42.996689
21
0.000000
31
0.0
0
ARC
8
0
10
42.996689
20
2.000000
30
0.0
40
2.000000
50
270.000000
51
360.000000
0
LINE
8
0
10
44.996689
20
2.000000
30
0.0
11
44.996689
21
32.200000
31
0.0
0
LINE
8
0
10
44.996689
20
32.200000
30
0.0
11
41.696689
21
32.200000
31
0.0
0
ARC
8
0
10
41.696689
20
32.700000
30
0.0
40
0.500000
50
180.000000
51
270.000000
0
LINE
8
0
10
41.196689
20
32.700000
30
0.0
11
41.196689
21
34.200000
31
0.0
0
ARC
8
0
10
41.696689
20
34.200000
30
0.0
40
0.500000
50
90.000000
51
180.000000
0
LINE
8
0
10
41.696689
20
34.700000
30
0.0
11
42.696689
21
34.700000
31
0.0
0
ARC
8
0
10
42.696689
20
35.200000
30
0.0
40
0.500000
50
270.000000
51
360.000000
0
LINE
8
0
10
43.196689
20
35.200000
30
0.0
11
43.196689
21
36.700000
31
0.0
0
ARC
8
0
10
42.696689
20
36.700000
30
0.0
40
0.500000
50
360.000000
51
90.000000
0
LINE
8
0
10
42.696689
20
37.200000
30
0.0
11
40.196689
21
37.200000
31
0.0
0
ARC
8
0
10
40.196689
20
36.700000
30
0.0
40
0.500000
50
90.000000
51
180.000000
0
LINE
8
0
10
39.696689
20
36.700000
30
0.0
11
39.696689
21
31.200000
31
0.0
0
ARC
8
0
10
40.696689
20
31.200000
30
0.0
40
1.000000
50
180.000000
51
270.000000
0
LINE
8
0
10
40.696689
20
30.200000
30
0.0
11
41.996689
21
30.200000
31
0.0
0
ARC
8
0
10
41.996689
20
29.200000
30
0.0
40
1.000000
50
360.000000
51
90.000000
0
LINE
8
0
10
42.996689
20
29.200000
30
0.0
11
42.996689
21
13.500000
31
0.0
0
ARC
8
0
10
41.996689
20
13.500000
30
0.0
40
1.000000
50
270.000000
51
360.000000
0
LINE
8
0
10
41.996689
20
12.500000
30
0.0
11
30.796689
21
12.500000
31
0.0
0
ARC
8
0
10
30.796689
20
13.500000
30
0.0
40
1.000000
50
180.000000
51
270.000000
0
LINE
8
0
10
29.796689
20
13.500000
30
0.0
11
29.796689
21
36.700000
31
0.0
0
ARC
8
0
10
29.296689
20
36.700000
30
0.0
40
0.500000
50
360.000000
51
90.000000
0
LINE
8
0
10
29.296689
20
37.200000
30
0.0
11
26.296689
21
37.200000
31
0.0
0
ARC
8
0
10
26.296689
20
36.700000
30
0.0
40
0.500000
50
90.000000
51
180.000000
0
LINE
8
0
10
25.796689
20
36.700000
30
0.0
11
25.796689
21
35.200000
31
0.0
0
ARC
8
0
10
26.296689
20
35.200000
30
0.0
40
0.500000
50
180.000000
51
270.000000
0
LINE
8
0
10
26.296689
20
34.700000
30
0.0
11
27.296689
21
34.700000
31
0.0
0
ARC
8
0
10
27.296689
20
34.200000
30
0.0
40
0.500000
50
360.000000
51
90.000000
0
LINE
8
0
10
27.796689
20
34.200000
30
0.0
11
27.796689
21
15.900000
31
0.0
0
ARC
8
0
10
26.796689
20
15.900000
30
0.0
40
1.000000
50
270.000000
51
360.000000
0
LINE
8
0
10
26.796689
20
14.900000
30
0.0
11
19.296689
21
14.900000
31
0.0
0
ARC
8
0
10
19.296689
20
13.900000
30
0.0
40
1.000000
50
90.000000
51
180.000000
0
LINE
8
0
10
18.296689
20
13.900000
30
0.0
11
18.296689
21
13.500000
31
0.0
0
ARC
8
0
10
17.296689
20
13.500000
30
0.0
40
1.000000
50
270.000000
51
360.000000
0
LINE
8
0
10
17.296689
20
12.500000
30
0.0
11
3.000000
21
12.500000
31
0.0
0
ARC
8
0
10
3.000000
20
13.500000
30
0.0
40
1.000000
50
180.000000
51
270.000000
0
LINE
8
0
10
2.000000
20
13.500000
30
0.0
11
2.000000
21
18.000000
31
0.0
0
ARC
8
0
10
1.500000
20
18.000000
30
0.0
40
0.500000
50
360.000000
51
90.000000
0
LINE
8
0
10
1.500000
20
18.500000
30
0.0
11
0.500000
21
18.500000
31
0.0
0
ARC
8
0
10
0.500000
20
18.000000
30
0.0
40
0.500000
50
90.000000
51
180.000000
0
LINE
8
0
10
0.000000
20
18.000000
30
0.0
11
0.000000
21
11.000000
31
0.0
0
ATTDEF
8
0
10
43.346689
20
32.200000
30
0.0
40
3.5
1

3

2
VC_START
70
0
0
ATTDEF
8
0
10
0.500000
20
10.500000
30
0.0
40
3.5
1

3

2
VC_END
70
0
0
ATTDEF
8
0
10
0.000000
20
0.000000
30
0.0
40
3.5
1

3

2
FP_LCS_ORIG
70
0
0
ATTDEF
8
0
10
10.000000
20
0.000000
30
0.0
40
3.5
1

3

2
FP_LCS_HOT
70
0
0
ATTDEF
8
0
10
0.000000
20
10.000000
30
0.0
40
3.5
1

3

2
FP_LCS_INTERN
70
0
0
ENDSEC
0
EOF
