0
SECTION
2
ENTITIES
0
ARC
8
0
10
25.526570
20
8.999606
30
0.0
40
1.000000
50
335.915544
51
90.000000
0
ARC
8
0
10
30.000000
20
7.000000
30
0.0
40
3.900000
50
155.915544
51
223.860322
0
ARC
8
0
10
27.909010
20
4.990582
30
0.0
40
1.000000
50
223.860322
51
360.000000
0
LINE
8
0
10
28.909010
20
4.990582
30
0.0
11
28.909010
21
5.409010
31
0.0
0
ARC
8
0
10
28.409010
20
5.409010
30
0.0
40
0.500000
50
360.000000
51
90.000000
0
LINE
8
0
10
28.409010
20
5.909010
30
0.0
11
28.089312
21
5.909010
31
0.0
0
ARC
8
0
10
28.089312
20
6.409010
30
0.0
40
0.500000
50
197.187230
51
270.000000
0
ARC
8
0
10
30.000000
20
7.000000
30
0.0
40
2.500000
50
162.812770
51
197.187230
0
ARC
8
0
10
28.089312
20
7.590990
30
0.0
40
0.500000
50
90.000000
51
162.812770
0
LINE
8
0
10
28.089312
20
8.090990
30
0.0
11
28.409010
21
8.090990
31
0.0
0
ARC
8
0
10
28.409010
20
8.590990
30
0.0
40
0.500000
50
270.000000
51
360.000000
0
LINE
8
0
10
28.909010
20
8.590990
30
0.0
11
28.909010
21
8.910688
31
0.0
0
ARC
8
0
10
29.409010
20
8.910688
30
0.0
40
0.500000
50
107.187230
51
180.000000
0
ARC
8
0
10
30.000000
20
7.000000
30
0.0
40
2.500000
50
72.812770
51
107.187230
0
ARC
8
0
10
30.590990
20
8.910688
30
0.0
40
0.500000
50
360.000000
51
72.812770
0
LINE
8
0
10
31.090990
20
8.910688
30
0.0
11
31.090990
21
8.590990
31
0.0
0
ARC
8
0
10
31.590990
20
8.590990
30
0.0
40
0.500000
50
180.000000
51
270.000000
0
LINE
8
0
10
31.590990
20
8.090990
30
0.0
11
31.910688
21
8.090990
31
0.0
0
ARC
8
0
10
31.910688
20
7.590990
30
0.0
40
0.500000
50
17.187230
51
90.000000
0
ARC
8
0
10
30.000000
20
7.000000
30
0.0
40
2.500000
50
342.812770
51
17.187230
0
ARC
8
0
10
31.910688
20
6.409010
30
0.0
40
0.500000
50
270.000000
51
342.812770
0
LINE
8
0
10
31.910688
20
5.909010
30
0.0
11
31.590990
21
5.909010
31
0.0
0
ARC
8
0
10
31.590990
20
5.409010
30
0.0
40
0.500000
50
90.000000
51
180.000000
0
LINE
8
0
10
31.090990
20
5.409010
30
0.0
11
31.090990
21
4.990582
31
0.0
0
ARC
8
0
10
32.090990
20
4.990582
30
0.0
40
1.000000
50
180.000000
51
316.139678
0
ARC
8
0
10
30.000000
20
7.000000
30
0.0
40
3.900000
50
316.139678
51
24.089506
0
ARC
8
0
10
34.473254
20
9.000000
30
0.0
40
1.000000
50
90.000000
51
204.089506
0
LINE
8
0
10
34.473254
20
10.000000
30
0.0
11
44.000000
21
10.000000
31
0.0
0
ARC
8
0
10
44.000000
20
9.000000
30
0.0
40
1.000000
50
360.000000
51
90.000000
0
LINE
8
0
10
45.000000
20
9.000000
30
0.0
11
45.000000
21
2.000000
31
0.0
0
ARC
8
0
10
44.500000
20
2.000000
30
0.0
40
0.500000
50
270.000000
51
360.000000
0
LINE
8
0
10
44.500000
20
1.500000
30
0.0
11
44.000000
21
1.500000
31
0.0
0
ARC
8
0
10
44.000000
20
1.000000
30
0.0
40
0.500000
50
90.000000
51
180.000000
0
LINE
8
0
10
43.500000
20
1.000000
30
0.0
11
43.500000
21
0.500000
31
0.0
0
ARC
8
0
10
44.000000
20
0.500000
30
0.0
40
0.500000
50
180.000000
51
270.000000
0
LINE
8
0
10
44.000000
20
0.000000
30
0.0
11
46.500000
21
0.000000
31
0.0
0
ARC
8
0
10
46.500000
20
0.500000
30
0.0
40
0.500000
50
270.000000
51
360.000000
0
LINE
8
0
10
47.000000
20
0.500000
30
0.0
11
47.000000
21
10.000000
31
0.0
0
ARC
8
0
10
45.000000
20
10.000000
30
0.0
40
2.000000
50
360.000000
51
90.000000
0
LINE
8
0
10
45.000000
20
12.000000
30
0.0
11
44.300041
21
12.000000
31
0.0
0
ARC
8
0
10
43.800041
20
12.000000
30
0.0
40
0.500000
50
360.000000
51
180.000000
0
LINE
8
0
10
43.300041
20
12.000000
30
0.0
11
42.300041
21
12.000000
31
0.0
0
ARC
8
0
10
41.800041
20
12.000000
30
0.0
40
0.500000
50
360.000000
51
180.000000
0
LINE
8
0
10
41.300041
20
12.000000
30
0.0
11
40.300041
21
12.000000
31
0.0
0
ARC
8
0
10
39.800041
20
12.000000
30
0.0
40
0.500000
50
360.000000
51
180.000000
0
LINE
8
0
10
39.300041
20
12.000000
30
0.0
11
38.300041
21
12.000000
31
0.0
0
ARC
8
0
10
37.800041
20
12.000000
30
0.0
40
0.500000
50
360.000000
51
180.000000
0
LINE
8
0
10
37.300041
20
12.000000
30
0.0
11
36.300041
21
12.000000
31
0.0
0
ARC
8
0
10
35.800041
20
12.000000
30
0.0
40
0.500000
50
360.000000
51
180.000000
0
LINE
8
0
10
35.300041
20
12.000000
30
0.0
11
34.300041
21
12.000000
31
0.0
0
ARC
8
0
10
33.800041
20
12.000000
30
0.0
40
0.500000
50
360.000000
51
180.000000
0
LINE
8
0
10
33.300041
20
12.000000
30
0.0
11
32.300041
21
12.000000
31
0.0
0
ARC
8
0
10
31.800041
20
12.000000
30
0.0
40
0.500000
50
360.000000
51
180.000000
0
LINE
8
0
10
31.300041
20
12.000000
30
0.0
11
30.300041
21
12.000000
31
0.0
0
ARC
8
0
10
29.800041
20
12.000000
30
0.0
40
0.500000
50
360.000000
51
180.000000
0
LINE
8
0
10
29.300041
20
12.000000
30
0.0
11
28.300041
21
12.000000
31
0.0
0
ARC
8
0
10
27.800041
20
12.000000
30
0.0
40
0.500000
50
360.000000
51
180.000000
0
LINE
8
0
10
27.300041
20
12.000000
30
0.0
11
26.300041
21
12.000000
31
0.0
0
ARC
8
0
10
25.800041
20
12.000000
30
0.0
40
0.500000
50
360.000000
51
180.000000
0
LINE
8
0
10
25.300041
20
12.000000
30
0.0
11
24.300041
21
12.000000
31
0.0
0
ARC
8
0
10
23.800041
20
12.000000
30
0.0
40
0.500000
50
360.000000
51
180.000000
0
LINE
8
0
10
23.300041
20
12.000000
30
0.0
11
22.300000
21
12.000000
31
0.0
0
ARC
8
0
10
21.800000
20
12.000000
30
0.0
40
0.500000
50
360.000000
51
180.000000
0
ARC
8
0
10
21.800000
20
-88.000000
30
0.0
40
100.000000
50
90.286479
51
90.963521
0
ARC
8
0
10
19.618511
20
11.976203
30
0.0
40
0.500000
50
360.000000
51
181.393240
0
ARC
8
0
10
21.800000
20
-88.000000
30
0.0
40
100.000000
50
91.536479
51
92.213521
0
ARC
8
0
10
17.438061
20
11.904822
30
0.0
40
0.500000
50
2.356760
51
182.643240
0
ARC
8
0
10
21.800000
20
-88.000000
30
0.0
40
100.000000
50
92.786479
51
93.463521
0
ARC
8
0
10
15.259687
20
11.785892
30
0.0
40
0.500000
50
3.606760
51
183.893240
0
ARC
8
0
10
21.800000
20
-88.000000
30
0.0
40
100.000000
50
94.036479
51
94.713521
0
ARC
8
0
10
13.084426
20
11.619470
30
0.0
40
0.500000
50
4.856760
51
185.143240
0
ARC
8
0
10
21.800000
20
-88.000000
30
0.0
40
100.000000
50
95.286479
51
95.963521
0
ARC
8
0
10
10.913313
20
11.405634
30
0.0
40
0.500000
50
6.106760
51
186.393240
0
ARC
8
0
10
21.800000
20
-88.000000
30
0.0
40
100.000000
50
96.536479
51
97.213521
0
ARC
8
0
10
8.747381
20
11.144486
30
0.0
40
0.500000
50
7.356760
51
187.643240
0
ARC
8
0
10
21.800000
20
-88.000000
30
0.0
40
100.000000
50
97.786479
51
98.463521
0
ARC
8
0
10
6.587661
20
10.836151
30
0.0
40
0.500000
50
8.606760
51
188.893240
0
ARC
8
0
10
21.800000
20
-88.000000
30
0.0
40
100.000000
50
99.036479
51
99.713521
0
ARC
8
0
10
4.435182
20
10.480775
30
0.0
40
0.500000
50
9.856760
51
190.143240
0
ARC
8
0
10
21.800000
20
-88.000000
30
0.0
40
100.000000
50
100.286479
51
101.656326
0
ARC
8
0
10
2.000000
20
7.978956
30
0.0
40
2.000000
50
101.656326
51
180.000000
0
LINE
8
0
10
0.000000
20
7.978956
30
0.0
11
0.000000
21
0.500000
31
0.0
0
ARC
8
0
10
0.500000
20
0.500000
30
0.0
40
0.500000
50
180.000000
51
270.000000
0
LINE
8
0
10
0.500000
20
0.000000
30
0.0
11
1.500000
21
0.000000
31
0.0
0
ARC
8
0
10
1.500000
20
0.500000
30
0.0
40
0.500000
50
270.000000
51
360.000000
0
LINE
8
0
10
2.000000
20
0.500000
30
0.0
11
2.000000
21
2.500000
31
0.0
0
ARC
8
0
10
2.500000
20
2.500000
30
0.0
40
0.500000
50
90.000000
51
180.000000
0
LINE
8
0
10
2.500000
20
3.000000
30
0.0
11
5.500000
21
3.000000
31
0.0
0
ARC
8
0
10
5.500000
20
2.500000
30
0.0
40
0.500000
50
360.000000
51
90.000000
0
LINE
8
0
10
6.000000
20
2.500000
30
0.0
11
6.000000
21
0.500000
31
0.0
0
ARC
8
0
10
6.500000
20
0.500000
30
0.0
40
0.500000
50
180.000000
51
270.000000
0
LINE
8
0
10
6.500000
20
0.000000
30
0.0
11
7.000000
21
0.000000
31
0.0
0
ARC
8
0
10
7.000000
20
0.500000
30
0.0
40
0.500000
50
270.000000
51
360.000000
0
LINE
8
0
10
7.500000
20
0.500000
30
0.0
11
7.500000
21
3.500000
31
0.0
0
ARC
8
0
10
6.500000
20
3.500000
30
0.0
40
1.000000
50
360.000000
51
90.000000
0
LINE
8
0
10
6.500000
20
4.500000
30
0.0
11
2.500000
21
4.500000
31
0.0
0
ARC
8
0
10
2.500000
20
5.000000
30
0.0
40
0.500000
50
180.000000
51
270.000000
0
LINE
8
0
10
2.000000
20
5.000000
30
0.0
11
2.000000
21
7.160706
31
0.0
0
ARC
8
0
10
3.000000
20
7.160706
30
0.0
40
1.000000
50
101.175474
51
180.000000
0
ARC
8
0
10
21.800000
20
-88.000000
30
0.0
40
98.000000
50
94.521036
51
101.175474
0
ARC
8
0
10
14.094845
20
9.445847
30
0.0
40
0.250000
50
309.539510
51
94.521036
0
ARC
8
0
10
15.527218
20
7.710679
30
0.0
40
2.000000
50
129.539510
51
183.750000
0
ARC
8
0
10
14.030430
20
7.612574
30
0.0
40
0.500000
50
183.750000
51
3.750000
0
ARC
8
0
10
15.527218
20
7.710679
30
0.0
40
1.000000
50
3.750000
51
183.750000
0
ARC
8
0
10
17.024007
20
7.808784
30
0.0
40
0.500000
50
183.750000
51
3.750000
0
ARC
8
0
10
15.527218
20
7.710679
30
0.0
40
2.000000
50
3.750000
51
57.959980
0
ARC
8
0
10
16.720869
20
9.617954
30
0.0
40
0.250000
50
92.978454
51
237.959980
0
ARC
8
0
10
21.800000
20
-88.000000
30
0.0
40
98.000000
50
89.836636
51
92.978454
0
LINE
8
0
10
22.079421
20
9.999602
30
0.0
11
25.250000
21
10.000000
31
0.0
0
LINE
8
0
10
25.250000
20
10.000000
30
0.0
11
25.526746
21
10.000000
31
0.0
0
ATTDEF
8
0
10
28.300041
20
12.000000
30
0.0
40
3.5
1

3

2
VC_START
70
0
0
ATTDEF
8
0
10
0.500000
20
0.000000
30
0.0
40
3.5
1

3

2
VC_END
70
0
0
ATTDEF
8
0
10
0.000000
20
0.000000
30
0.0
40
3.5
1

3

2
FP_LCS_ORIG
70
0
0
ATTDEF
8
0
10
10.000000
20
0.000000
30
0.0
40
3.5
1

3

2
FP_LCS_HOT
70
0
0
ATTDEF
8
0
10
0.000000
20
10.000000
30
0.0
40
3.5
1

3

2
FP_LCS_INTERN
70
0
0
ENDSEC
0
EOF
