0
SECTION
2
ENTITIES
0
ARC
8
0
10
12.400000
20
30.399702
30
0.0
40
1.000000
50
0.000000
51
90.000000
0
LINE
8
0
10
12.400000
20
31.399702
30
0.0
11
12.150000
21
31.399702
31
0.0
0
LINE
8
0
10
12.150000
20
31.399702
30
0.0
11
12.150000
21
29.199702
31
0.0
0
ARC
8
0
10
11.650000
20
29.199702
30
0.0
40
0.500000
50
270.000000
51
0.000000
0
LINE
8
0
10
11.650000
20
28.699702
30
0.0
11
0.500000
21
28.699702
31
0.0
0
ARC
8
0
10
0.500000
20
28.199702
30
0.0
40
0.500000
50
90.000000
51
180.000000
0
LINE
8
0
10
0.000000
20
28.199702
30
0.0
11
0.000000
21
27.799702
31
0.0
0
ARC
8
0
10
0.500000
20
27.799702
30
0.0
40
0.500000
50
180.000000
51
270.000000
0
LINE
8
0
10
0.500000
20
27.299702
30
0.0
11
2.500000
21
27.299702
31
0.0
0
ARC
8
0
10
3.000000
20
27.299702
30
0.0
40
0.500000
50
0.000000
51
180.000000
0
LINE
8
0
10
3.500000
20
27.299702
30
0.0
11
9.100000
21
27.299702
31
0.0
0
ARC
8
0
10
9.100000
20
26.799702
30
0.0
40
0.500000
50
0.000000
51
90.000000
0
LINE
8
0
10
9.600000
20
26.799702
30
0.0
11
9.600000
21
25.502595
31
0.0
0
ARC
8
0
10
10.100000
20
25.502595
30
0.0
40
0.500000
50
180.000000
51
339.611617
0
LINE
8
0
10
10.568676
20
25.328404
30
0.0
11
11.180980
21
26.980860
31
0.0
0
ARC
8
0
10
11.650000
20
26.807595
30
0.0
40
0.500000
50
0.000000
51
159.724822
0
LINE
8
0
10
12.150000
20
26.807595
30
0.0
11
12.150000
21
16.997595
31
0.0
0
ARC
8
0
10
11.650000
20
16.997595
30
0.0
40
0.500000
50
200.275177
51
0.000000
0
LINE
8
0
10
11.180980
20
16.824331
30
0.0
11
10.568676
21
18.476786
31
0.0
0
ARC
8
0
10
10.100000
20
18.302595
30
0.0
40
0.500000
50
20.388383
51
180.000000
0
LINE
8
0
10
9.600000
20
18.302595
30
0.0
11
9.600000
21
15.599702
31
0.0
0
ARC
8
0
10
10.100000
20
15.599702
30
0.0
40
0.500000
50
180.000000
51
270.000000
0
LINE
8
0
10
10.100000
20
15.099702
30
0.0
11
11.484074
21
15.099702
31
0.0
0
ARC
8
0
10
11.484074
20
14.599702
30
0.0
40
0.500000
50
358.405242
51
90.000000
0
ARC
8
0
10
-26.485703
20
15.576452
30
0.0
40
38.482337
50
347.473268
51
358.524850
0
ARC
8
0
10
10.397222
20
7.381649
30
0.0
40
0.700000
50
180.000000
51
347.473268
0
LINE
8
0
10
9.697222
20
7.381649
30
0.0
11
9.697222
21
8.900000
31
0.0
0
ARC
8
0
10
8.697222
20
8.900000
30
0.0
40
1.000000
50
0.000000
51
90.000000
0
LINE
8
0
10
8.697222
20
9.900000
30
0.0
11
6.397222
21
9.900000
31
0.0
0
ARC
8
0
10
6.397222
20
9.400000
30
0.0
40
0.500000
50
90.000000
51
180.000000
0
LINE
8
0
10
5.897222
20
9.400000
30
0.0
11
5.897222
21
8.050000
31
0.0
0
ARC
8
0
10
6.497222
20
8.050000
30
0.0
40
0.600000
50
180.000000
51
0.000000
0
LINE
8
0
10
7.097222
20
8.050000
30
0.0
11
7.097222
21
8.200000
31
0.0
0
ARC
8
0
10
7.597222
20
8.200000
30
0.0
40
0.500000
50
90.000000
51
180.000000
0
LINE
8
0
10
7.597222
20
8.700000
30
0.0
11
7.797222
21
8.700000
31
0.0
0
ARC
8
0
10
7.797222
20
8.200000
30
0.0
40
0.500000
50
0.000000
51
90.000000
0
LINE
8
0
10
8.297222
20
8.200000
30
0.0
11
8.297222
21
1.700000
31
0.0
0
ARC
8
0
10
7.797222
20
1.700000
30
0.0
40
0.500000
50
270.000000
51
0.000000
0
LINE
8
0
10
7.797222
20
1.200000
30
0.0
11
7.597222
21
1.200000
31
0.0
0
ARC
8
0
10
7.597222
20
1.700000
30
0.0
40
0.500000
50
180.000000
51
270.000000
0
LINE
8
0
10
7.097222
20
1.700000
30
0.0
11
7.097222
21
1.850000
31
0.0
0
ARC
8
0
10
6.497222
20
1.850000
30
0.0
40
0.600000
50
0.000000
51
180.000000
0
LINE
8
0
10
5.897222
20
1.850000
30
0.0
11
5.897222
21
0.500000
31
0.0
0
ARC
8
0
10
6.397222
20
0.500000
30
0.0
40
0.500000
50
180.000000
51
270.000000
0
LINE
8
0
10
6.397222
20
0.000000
30
0.0
11
6.756259
21
0.000000
31
0.0
0
ARC
8
0
10
6.756259
20
5.000000
30
0.0
40
5.000000
50
270.000000
51
342.370709
0
ARC
8
0
10
-26.600000
20
15.600000
30
0.0
40
40.000000
50
342.370709
51
0.000000
0
LINE
8
0
10
13.400000
20
15.600000
30
0.0
11
13.400000
21
30.399702
31
0.0
0
ATTDEF
8
0
10
12.150000
20
31.399702
30
0.0
40
3.5
1

3

2
VC_START
70
0
0
ATTDEF
8
0
10
6.397222
20
0.000000
30
0.0
40
3.5
1

3

2
VC_END
70
0
0
ATTDEF
8
0
10
13.400000
20
0.000000
30
0.0
40
3.5
1

3

2
FP_LCS_ORIG
70
0
0
ATTDEF
8
0
10
3.400000
20
0.000000
30
0.0
40
3.5
1

3

2
FP_LCS_HOT
70
0
0
ATTDEF
8
0
10
13.400000
20
10.000000
30
0.0
40
3.5
1

3

2
FP_LCS_INTERN
70
0
0
ATTDEF
8
0
10
0.000000
20
0.000000
30
0.0
40
3.5
1

3

2
DESC:Tapa premarco borde curvo para colocar con tornillo
70
0
0
ATTDEF
8
0
10
0.000000
20
0.000000
30
0.0
40
3.5
1

3

2
DENS:0.243
70
0
0
ATTDEF
8
0
10
0.000000
20
0.000000
30
0.0
40
3.5
1

3

2
TDEV:0
70
0
0
ATTDEF
8
0
10
0.000000
20
0.000000
30
0.0
40
3.5
1

3

2
TDEV2:0
70
0
0
ATTDEF
8
0
10
0.000000
20
0.000000
30
0.0
40
3.5
1

3

2
TDEV3:0
70
0
0
ATTDEF
8
0
10
0.000000
20
0.000000
30
0.0
40
3.5
1

3

2
TDEV4:0
70
0
0
ATTDEF
8
0
10
0.000000
20
0.000000
30
0.0
40
3.5
1

3

2
TDEV5:0
70
0
0
ATTDEF
8
0
10
0.000000
20
0.000000
30
0.0
40
3.5
1

3

2
PANE_WIDTH:0
70
0
0
ATTDEF
8
0
10
0.000000
20
0.000000
30
0.0
40
3.5
1

3

2
MIN_VETRO:0
70
0
0
ATTDEF
8
0
10
0.000000
20
0.000000
30
0.0
40
3.5
1

3

2
MAX_VETRO:0
70
0
0
ATTDEF
8
0
10
0.000000
20
0.000000
30
0.0
40
3.5
1

3

2
JX:0
70
0
0
ATTDEF
8
0
10
0.000000
20
0.000000
30
0.0
40
3.5
1

3

2
WX:0
70
0
0
ATTDEF
8
0
10
0.000000
20
0.000000
30
0.0
40
3.5
1

3

2
JY:0
70
0
0
ATTDEF
8
0
10
0.000000
20
0.000000
30
0.0
40
3.5
1

3

2
WY:0
70
0
0
ENDSEC
0
EOF
