0
SECTION
2
ENTITIES
0
LINE
8
0
10
29.500000
20
27.004604
30
0.0
11
0.500000
21
27.004604
31
0.0
0
ARC
8
0
10
29.500000
20
26.504604
30
0.0
40
0.500000
50
0.000000
51
90.000000
0
LINE
8
0
10
30.000000
20
6.504604
30
0.0
11
30.000000
21
26.504604
31
0.0
0
ARC
8
0
10
29.500000
20
6.504604
30
0.0
40
0.500000
50
270.000000
51
0.000000
0
ARC
8
0
10
29.500000
20
5.504604
30
0.0
40
0.500000
50
90.000000
51
180.000000
0
ARC
8
0
10
28.500000
20
5.504604
30
0.0
40
0.500000
50
270.000000
51
0.000000
0
ARC
8
0
10
28.500000
20
5.504604
30
0.0
40
0.500000
50
180.000000
51
270.000000
0
ARC
8
0
10
27.500000
20
5.504604
30
0.0
40
0.500000
50
0.000000
51
90.000000
0
LINE
8
0
10
27.100000
20
6.004604
30
0.0
11
27.500000
21
6.004604
31
0.0
0
ARC
8
0
10
27.100000
20
5.504604
30
0.0
40
0.500000
50
90.000000
51
180.000000
0
ARC
8
0
10
5.771573
20
23.804604
30
0.0
40
2.000000
50
45.000000
51
90.000000
0
LINE
8
0
10
26.600000
20
3.336198
30
0.0
11
26.600000
21
5.504604
31
0.0
0
LINE
8
0
10
7.185786
20
25.218817
30
0.0
11
14.814214
21
17.590390
31
0.0
0
ARC
8
0
10
27.100000
20
3.336198
30
0.0
40
0.500000
50
180.000000
51
240.000000
0
ARC
8
0
10
13.400000
20
16.176177
30
0.0
40
2.000000
50
0.000000
51
45.000000
0
LINE
8
0
10
26.966987
20
2.835643
30
0.0
11
26.850000
21
2.903186
31
0.0
0
LINE
8
0
10
15.400000
20
16.176177
30
0.0
11
15.400000
21
3.387786
31
0.0
0
ARC
8
0
10
26.716987
20
2.402630
30
0.0
40
0.500000
50
330.000000
51
60.000000
0
ARC
8
0
10
14.400000
20
3.387786
30
0.0
40
1.000000
50
311.000000
51
0.000000
0
LINE
8
0
10
26.333013
20
0.737567
30
0.0
11
27.150000
21
2.152630
31
0.0
0
LINE
8
0
10
15.056059
20
2.633076
30
0.0
11
13.727889
21
1.478516
31
0.0
0
ARC
8
0
10
25.900000
20
0.987567
30
0.0
40
0.500000
50
180.000000
51
330.000000
0
ARC
8
0
10
13.399859
20
1.855870
30
0.0
40
0.500000
50
240.000000
51
311.000000
0
LINE
8
0
10
25.400000
20
6.704604
30
0.0
11
25.400000
21
0.987567
31
0.0
0
LINE
8
0
10
13.149859
20
1.422858
30
0.0
11
11.500000
21
2.375404
31
0.0
0
ARC
8
0
10
25.900000
20
6.704604
30
0.0
40
0.500000
50
90.000000
51
180.000000
0
ARC
8
0
10
11.200000
20
1.855789
30
0.0
40
0.600000
50
60.000000
51
240.000000
0
LINE
8
0
10
28.300000
20
7.204604
30
0.0
11
25.900000
21
7.204604
31
0.0
0
LINE
8
0
10
10.900000
20
1.336174
30
0.0
11
12.982270
21
0.133975
31
0.0
0
ARC
8
0
10
28.300000
20
7.704604
30
0.0
40
0.500000
50
270.000000
51
0.000000
0
ARC
8
0
10
13.482270
20
1.000000
30
0.0
40
1.000000
50
240.000000
51
311.000000
0
LINE
8
0
10
28.800000
20
25.304604
30
0.0
11
28.800000
21
7.704604
31
0.0
0
LINE
8
0
10
14.138329
20
0.245290
30
0.0
11
15.912118
21
1.787222
31
0.0
0
ARC
8
0
10
28.300000
20
25.304604
30
0.0
40
0.500000
50
0.000000
51
90.000000
0
ARC
8
0
10
14.600000
20
3.296641
30
0.0
40
2.000000
50
311.000000
51
0.000000
0
LINE
8
0
10
9.504163
20
25.804604
30
0.0
11
28.300000
21
25.804604
31
0.0
0
LINE
8
0
10
16.600000
20
3.296641
30
0.0
11
16.600000
21
16.259019
31
0.0
0
ARC
8
0
10
9.504163
20
25.304604
30
0.0
40
0.500000
50
90.000000
51
225.000000
0
ARC
8
0
10
13.600000
20
16.259019
30
0.0
40
3.000000
50
0.000000
51
45.000000
0
LINE
8
0
10
15.721320
20
18.380340
30
0.0
11
9.150610
21
24.951050
31
0.0
0
ARC
8
0
10
0.500000
20
26.504604
30
0.0
40
0.500000
50
90.000000
51
180.000000
0
LINE
8
0
10
0.000000
20
26.504604
30
0.0
11
0.000000
21
26.004604
31
0.0
0
ARC
8
0
10
0.500000
20
26.004604
30
0.0
40
0.500000
50
180.000000
51
270.000000
0
ARC
8
0
10
0.500000
20
25.004604
30
0.0
40
0.500000
50
0.000000
51
90.000000
0
LINE
8
0
10
1.000000
20
25.004604
30
0.0
11
1.000000
21
18.904604
31
0.0
0
ARC
8
0
10
1.600000
20
18.904604
30
0.0
40
0.600000
50
180.000000
51
0.000000
0
LINE
8
0
10
2.200000
20
18.904604
30
0.0
11
2.200000
21
25.304604
31
0.0
0
ARC
8
0
10
2.700000
20
25.304604
30
0.0
40
0.500000
50
90.000000
51
180.000000
0
LINE
8
0
10
2.700000
20
25.804604
30
0.0
11
5.771573
21
25.804604
31
0.0
0
ATTDEF
8
0
10
0.000000
20
0.000000
30
0.0
40
3.5
1

3

2
FRONT_VIEW
70
0
0
ATTDEF
8
0
10
0.000000
20
0.000000
30
0.0
40
3.5
1

3

2
OPTI:1500.000000,1,0,3000.000000,6900.000000,500.000000,0,0.000000,0
70
0
0
ATTDEF
8
0
10
0.000000
20
0.000000
30
0.0
40
3.5
1

3

2
GLASS_MIN:0.000000
70
0
0
ATTDEF
8
0
10
0.000000
20
0.000000
30
0.0
40
3.5
1

3

2
GLASS_MAX:0.000000
70
0
0
ATTDEF
8
0
10
0.000000
20
0.000000
30
0.0
40
3.5
1

3

2
JY:0.000000
70
0
0
ATTDEF
8
0
10
0.000000
20
0.000000
30
0.0
40
3.5
1

3

2
WY:0.000000
70
0
0
ATTDEF
8
0
10
15.000000
20
27.004604
30
0.0
40
3.5
1

3

2
VC_START
70
0
0
ATTDEF
8
0
10
28.500000
20
5.004604
30
0.0
40
3.5
1

3

2
VC_END
70
0
0
ATTDEF
8
0
10
28.500000
20
5.004604
30
0.0
40
3.5
1

3

2
PTO_ANTA
70
0
0
ATTDEF
8
0
10
0.000000
20
0.000000
30
0.0
40
3.5
1

3

2
FP_LCS_ORIG
70
0
0
ATTDEF
8
0
10
10.000000
20
0.000000
30
0.0
40
3.5
1

3

2
FP_LCS_HOT
70
0
0
ATTDEF
8
0
10
0.000000
20
10.000000
30
0.0
40
3.5
1

3

2
FP_LCS_INTERN
70
0
0
ATTDEF
8
0
10
0.000000
20
0.000000
30
0.0
40
3.5
1

3

2
BL01:6200.000,,1
70
0
0
ATTDEF
8
0
10
0.000000
20
0.000000
30
0.0
40
3.5
1

3

2
DESC:Contravidrio para vidrio 16 mm
70
0
0
ATTDEF
8
0
10
0.000000
20
0.000000
30
0.0
40
3.5
1

3

2
DENS:0.327
70
0
0
ATTDEF
8
0
10
0.000000
20
0.000000
30
0.0
40
3.5
1

3

2
TDEV:0
70
0
0
ATTDEF
8
0
10
0.000000
20
0.000000
30
0.0
40
3.5
1

3

2
TDEV2:0
70
0
0
ATTDEF
8
0
10
0.000000
20
0.000000
30
0.0
40
3.5
1

3

2
TDEV3:0
70
0
0
ATTDEF
8
0
10
0.000000
20
0.000000
30
0.0
40
3.5
1

3

2
TDEV4:0
70
0
0
ATTDEF
8
0
10
0.000000
20
0.000000
30
0.0
40
3.5
1

3

2
TDEV5:0
70
0
0
ATTDEF
8
0
10
0.000000
20
0.000000
30
0.0
40
3.5
1

3

2
PANE_WIDTH:0
70
0
0
ATTDEF
8
0
10
0.000000
20
0.000000
30
0.0
40
3.5
1

3

2
MIN_VETRO:0
70
0
0
ATTDEF
8
0
10
0.000000
20
0.000000
30
0.0
40
3.5
1

3

2
MAX_VETRO:0
70
0
0
ATTDEF
8
0
10
0.000000
20
0.000000
30
0.0
40
3.5
1

3

2
JX:0
70
0
0
ATTDEF
8
0
10
0.000000
20
0.000000
30
0.0
40
3.5
1

3

2
WX:0
70
0
0
ATTDEF
8
0
10
0.000000
20
0.000000
30
0.0
40
3.5
1

3

2
JY:0
70
0
0
ATTDEF
8
0
10
0.000000
20
0.000000
30
0.0
40
3.5
1

3

2
WY:0
70
0
0
ENDSEC
0
EOF
