0
SECTION
2
ENTITIES
0
LINE
8
0
10
4.967526
20
19.168882
30
0.0
11
5.631119
21
20.919156
31
0.0
0
ARC
8
0
10
6.050000
20
20.646139
30
0.0
40
0.500000
50
0.000000
51
146.904541
0
ARC
8
0
10
4.500000
20
19.346139
30
0.0
40
0.500000
50
232.000000
51
339.236437
0
LINE
8
0
10
6.550000
20
20.646139
30
0.0
11
6.550000
21
10.846139
31
0.0
0
LINE
8
0
10
0.918743
20
21.509614
30
0.0
11
4.192169
21
18.952133
31
0.0
0
ARC
8
0
10
6.050000
20
10.846139
30
0.0
40
0.500000
50
200.388383
51
0.000000
0
ARC
8
0
10
1.103441
20
21.746018
30
0.0
40
0.300000
50
70.000000
51
232.000000
0
LINE
8
0
10
5.581324
20
10.671948
30
0.0
11
4.968676
21
12.320330
31
0.0
0
LINE
8
0
10
4.144276
20
20.958498
30
0.0
11
1.206047
21
22.027926
31
0.0
0
ARC
8
0
10
4.500000
20
12.146139
30
0.0
40
0.500000
50
20.388383
51
196.513767
0
ARC
8
0
10
4.315286
20
21.428344
30
0.0
40
0.500000
50
250.000000
51
330.000000
0
LINE
8
0
10
4.020624
20
12.004016
30
0.0
11
4.811366
21
9.895061
31
0.0
0
LINE
8
0
10
6.416025
20
24.066932
30
0.0
11
4.748298
21
21.178344
31
0.0
0
ARC
8
0
10
5.747712
20
10.246139
30
0.0
40
1.000000
50
200.553271
51
270.000000
0
ARC
8
0
10
5.550000
20
24.566932
30
0.0
40
1.000000
50
330.000000
51
0.000000
0
LINE
8
0
10
5.747712
20
9.246139
30
0.0
11
6.000000
21
9.246139
31
0.0
0
LINE
8
0
10
6.550000
20
24.673845
30
0.0
11
6.550000
21
24.566932
31
0.0
0
ARC
8
0
10
6.000000
20
8.746139
30
0.0
40
0.500000
50
0.000000
51
90.000000
0
ARC
8
0
10
5.550000
20
24.673845
30
0.0
40
1.000000
50
0.000000
51
65.000000
0
LINE
8
0
10
6.500000
20
8.746139
30
0.0
11
6.500000
21
1.800000
31
0.0
0
LINE
8
0
10
4.288691
20
26.365381
30
0.0
11
5.972618
21
25.580153
31
0.0
0
ARC
8
0
10
6.000000
20
1.800000
30
0.0
40
0.500000
50
270.000000
51
0.000000
0
ARC
8
0
10
4.500000
20
26.818535
30
0.0
40
0.500000
50
180.000000
51
245.000000
0
LINE
8
0
10
6.000000
20
1.300000
30
0.0
11
1.800000
21
1.300000
31
0.0
0
LINE
8
0
10
4.000000
20
27.500000
30
0.0
11
4.000000
21
26.818535
31
0.0
0
ARC
8
0
10
1.800000
20
1.800000
30
0.0
40
0.500000
50
180.000000
51
270.000000
0
ARC
8
0
10
4.500000
20
27.500000
30
0.0
40
0.500000
50
90.000000
51
180.000000
0
LINE
8
0
10
1.300000
20
1.800000
30
0.0
11
1.300000
21
2.500000
31
0.0
0
LINE
8
0
10
5.555662
20
28.000000
30
0.0
11
4.500000
21
28.000000
31
0.0
0
ARC
8
0
10
0.800000
20
2.500000
30
0.0
40
0.500000
50
0.000000
51
90.000000
0
ARC
8
0
10
5.555662
20
27.750000
30
0.0
40
0.250000
50
30.000000
51
90.000000
0
LINE
8
0
10
0.800000
20
3.000000
30
0.0
11
0.500000
21
3.000000
31
0.0
0
LINE
8
0
10
6.421688
20
26.750000
30
0.0
11
5.772169
21
27.875000
31
0.0
0
ARC
8
0
10
0.500000
20
2.500000
30
0.0
40
0.500000
50
90.000000
51
180.000000
0
ARC
8
0
10
6.854701
20
27.000000
30
0.0
40
0.500000
50
210.000000
51
270.000000
0
LINE
8
0
10
0.000000
20
2.500000
30
0.0
11
0.000000
21
1.000000
31
0.0
0
LINE
8
0
10
7.550000
20
26.500000
30
0.0
11
6.854701
21
26.500000
31
0.0
0
ARC
8
0
10
1.000000
20
1.000000
30
0.0
40
1.000000
50
180.000000
51
270.000000
0
ARC
8
0
10
7.550000
20
26.250000
30
0.0
40
0.250000
50
0.000000
51
90.000000
0
LINE
8
0
10
1.000000
20
0.000000
30
0.0
11
6.800000
21
0.000000
31
0.0
0
LINE
8
0
10
7.800000
20
1.000000
30
0.0
11
7.800000
21
26.250000
31
0.0
0
ARC
8
0
10
6.800000
20
1.000000
30
0.0
40
1.000000
50
270.000000
51
0.000000
0
ATTDEF
8
0
10
0.000000
20
0.000000
30
0.0
40
3.5
1

3

2
FRONT_VIEW
70
0
0
ATTDEF
8
0
10
0.000000
20
0.000000
30
0.0
40
3.5
1

3

2
OPTI:1500.000000,1,0,3000.000000,6900.000000,500.000000,0,0.000000,0
70
0
0
ATTDEF
8
0
10
0.000000
20
0.000000
30
0.0
40
3.5
1

3

2
GLASS_MIN:0.000000
70
0
0
ATTDEF
8
0
10
0.000000
20
0.000000
30
0.0
40
3.5
1

3

2
GLASS_MAX:0.000000
70
0
0
ATTDEF
8
0
10
0.000000
20
0.000000
30
0.0
40
3.5
1

3

2
WX:0.000000
70
0
0
ATTDEF
8
0
10
0.000000
20
0.000000
30
0.0
40
3.5
1

3

2
JY:0.000000
70
0
0
ATTDEF
8
0
10
0.000000
20
0.000000
30
0.0
40
3.5
1

3

2
WY:0.000000
70
0
0
ATTDEF
8
0
10
7.202350
20
26.500000
30
0.0
40
3.5
1

3

2
VC_START
70
0
0
ATTDEF
8
0
10
6.800000
20
0.000000
30
0.0
40
3.5
1

3

2
VC_END
70
0
0
ATTDEF
8
0
10
0.000000
20
0.000000
30
0.0
40
3.5
1

3

2
FP_LCS_ORIG
70
0
0
ATTDEF
8
0
10
10.000000
20
0.000000
30
0.0
40
3.5
1

3

2
FP_LCS_HOT
70
0
0
ATTDEF
8
0
10
0.000000
20
10.000000
30
0.0
40
3.5
1

3

2
FP_LCS_INTERN
70
0
0
ATTDEF
8
0
10
0.000000
20
0.000000
30
0.0
40
3.5
1

3

2
BL01:6200.000,,1
70
0
0
ATTDEF
8
0
10
0.000000
20
0.000000
30
0.0
40
3.5
1

3

2
DESC:Tapa premarco recto para clip
70
0
0
ATTDEF
8
0
10
0.000000
20
0.000000
30
0.0
40
3.5
1

3

2
DENS:0.167
70
0
0
ATTDEF
8
0
10
0.000000
20
0.000000
30
0.0
40
3.5
1

3

2
TDEV:0
70
0
0
ATTDEF
8
0
10
0.000000
20
0.000000
30
0.0
40
3.5
1

3

2
TDEV2:0
70
0
0
ATTDEF
8
0
10
0.000000
20
0.000000
30
0.0
40
3.5
1

3

2
TDEV3:0
70
0
0
ATTDEF
8
0
10
0.000000
20
0.000000
30
0.0
40
3.5
1

3

2
TDEV4:0
70
0
0
ATTDEF
8
0
10
0.000000
20
0.000000
30
0.0
40
3.5
1

3

2
TDEV5:0
70
0
0
ATTDEF
8
0
10
0.000000
20
0.000000
30
0.0
40
3.5
1

3

2
PANE_WIDTH:0
70
0
0
ATTDEF
8
0
10
0.000000
20
0.000000
30
0.0
40
3.5
1

3

2
MIN_VETRO:0
70
0
0
ATTDEF
8
0
10
0.000000
20
0.000000
30
0.0
40
3.5
1

3

2
MAX_VETRO:0
70
0
0
ATTDEF
8
0
10
0.000000
20
0.000000
30
0.0
40
3.5
1

3

2
JX:0
70
0
0
ATTDEF
8
0
10
0.000000
20
0.000000
30
0.0
40
3.5
1

3

2
WX:0
70
0
0
ATTDEF
8
0
10
0.000000
20
0.000000
30
0.0
40
3.5
1

3

2
JY:0
70
0
0
ATTDEF
8
0
10
0.000000
20
0.000000
30
0.0
40
3.5
1

3

2
WY:0
70
0
0
ENDSEC
0
EOF
