0
SECTION
2
ENTITIES
0
ARC
8
0
10
2627.501290
20
-555.326778
30
0.0
40
0.500000
50
180.000000
51
270.000000
0
LINE
8
0
10
2627.001290
20
-555.326778
30
0.0
11
2627.001290
21
-554.326778
31
0.0
0
ARC
8
0
10
2626.501290
20
-554.326778
30
0.0
40
0.500000
50
0.000000
51
90.000000
0
LINE
8
0
10
2626.501290
20
-553.826778
30
0.0
11
2626.301290
21
-553.826778
31
0.0
0
ARC
8
0
10
2626.301290
20
-554.326778
30
0.0
40
0.500000
50
90.000000
51
180.000000
0
LINE
8
0
10
2625.801290
20
-554.326778
30
0.0
11
2625.801290
21
-555.326778
31
0.0
0
ARC
8
0
10
2625.301290
20
-555.326778
30
0.0
40
0.500000
50
270.000000
51
0.000000
0
LINE
8
0
10
2625.301290
20
-555.826778
30
0.0
11
2621.201290
21
-555.826778
31
0.0
0
ARC
8
0
10
2621.201290
20
-556.826778
30
0.0
40
1.000000
50
90.000000
51
180.000000
0
LINE
8
0
10
2620.201290
20
-556.826778
30
0.0
11
2620.201290
21
-560.826778
31
0.0
0
ARC
8
0
10
2619.201290
20
-560.826778
30
0.0
40
1.000000
50
270.000000
51
0.000000
0
LINE
8
0
10
2619.201290
20
-561.826778
30
0.0
11
2613.001290
21
-561.826778
31
0.0
0
ARC
8
0
10
2613.001290
20
-560.826778
30
0.0
40
1.000000
50
180.000000
51
270.000000
0
LINE
8
0
10
2612.001290
20
-560.826778
30
0.0
11
2612.001290
21
-529.326778
31
0.0
0
ARC
8
0
10
2613.001290
20
-529.326778
30
0.0
40
1.000000
50
90.000000
51
180.000000
0
LINE
8
0
10
2613.001290
20
-528.326778
30
0.0
11
2625.301290
21
-528.326778
31
0.0
0
ARC
8
0
10
2625.301290
20
-528.826778
30
0.0
40
0.500000
50
0.000000
51
90.000000
0
LINE
8
0
10
2625.801290
20
-528.826778
30
0.0
11
2625.801290
21
-529.826778
31
0.0
0
ARC
8
0
10
2626.301290
20
-529.826778
30
0.0
40
0.500000
50
180.000000
51
270.000000
0
LINE
8
0
10
2626.301290
20
-530.326778
30
0.0
11
2626.501290
21
-530.326778
31
0.0
0
ARC
8
0
10
2626.501290
20
-529.826778
30
0.0
40
0.500000
50
270.000000
51
0.000000
0
LINE
8
0
10
2627.001290
20
-529.826778
30
0.0
11
2627.001290
21
-528.826778
31
0.0
0
ARC
8
0
10
2627.501290
20
-528.826778
30
0.0
40
0.500000
50
90.000000
51
180.000000
0
LINE
8
0
10
2627.501290
20
-528.326778
30
0.0
11
2663.001290
21
-528.326778
31
0.0
0
ARC
8
0
10
2663.001290
20
-528.826778
30
0.0
40
0.500000
50
0.000000
51
90.000000
0
LINE
8
0
10
2663.501290
20
-528.826778
30
0.0
11
2663.501290
21
-529.826778
31
0.0
0
ARC
8
0
10
2664.001290
20
-529.826778
30
0.0
40
0.500000
50
180.000000
51
270.000000
0
LINE
8
0
10
2664.001290
20
-530.326778
30
0.0
11
2664.201290
21
-530.326778
31
0.0
0
ARC
8
0
10
2664.201290
20
-529.826778
30
0.0
40
0.500000
50
270.000000
51
0.000000
0
LINE
8
0
10
2664.701290
20
-529.826778
30
0.0
11
2664.701290
21
-528.826778
31
0.0
0
ARC
8
0
10
2665.201290
20
-528.826778
30
0.0
40
0.500000
50
90.000000
51
180.000000
0
LINE
8
0
10
2665.201290
20
-528.326778
30
0.0
11
2667.501290
21
-528.326778
31
0.0
0
ARC
8
0
10
2667.501290
20
-529.326778
30
0.0
40
1.000000
50
0.000000
51
90.000000
0
LINE
8
0
10
2668.501290
20
-529.326778
30
0.0
11
2668.501290
21
-551.026778
31
0.0
0
ARC
8
0
10
2667.501290
20
-551.026778
30
0.0
40
1.000000
50
270.000000
51
0.000000
0
LINE
8
0
10
2667.501290
20
-552.026778
30
0.0
11
2664.001290
21
-552.026778
31
0.0
0
ARC
8
0
10
2664.001290
20
-552.526778
30
0.0
40
0.500000
50
90.000000
51
180.000000
0
LINE
8
0
10
2663.501290
20
-552.526778
30
0.0
11
2663.501290
21
-555.326778
31
0.0
0
ARC
8
0
10
2663.001290
20
-555.326778
30
0.0
40
0.500000
50
270.000000
51
0.000000
0
LINE
8
0
10
2663.001290
20
-555.826778
30
0.0
11
2661.701290
21
-555.826778
31
0.0
0
ARC
8
0
10
2661.701290
20
-556.326778
30
0.0
40
0.500000
50
90.000000
51
180.000000
0
LINE
8
0
10
2661.201290
20
-556.326778
30
0.0
11
2661.201290
21
-560.826778
31
0.0
0
ARC
8
0
10
2660.201290
20
-560.826778
30
0.0
40
1.000000
50
270.000000
51
0.000000
0
LINE
8
0
10
2660.201290
20
-561.826778
30
0.0
11
2657.501290
21
-561.826778
31
0.0
0
ARC
8
0
10
2657.501290
20
-560.826778
30
0.0
40
1.000000
50
180.000000
51
270.000000
0
LINE
8
0
10
2656.501290
20
-560.826778
30
0.0
11
2656.501290
21
-557.826778
31
0.0
0
ARC
8
0
10
2656.001290
20
-557.826778
30
0.0
40
0.500000
50
0.000000
51
90.000000
0
LINE
8
0
10
2656.001290
20
-557.326778
30
0.0
11
2654.501290
21
-557.326778
31
0.0
0
ARC
8
0
10
2654.501290
20
-556.826778
30
0.0
40
0.500000
50
180.000000
51
270.000000
0
LINE
8
0
10
2654.001290
20
-556.826778
30
0.0
11
2654.001290
21
-556.326778
31
0.0
0
ARC
8
0
10
2653.501290
20
-556.326778
30
0.0
40
0.500000
50
0.000000
51
90.000000
0
LINE
8
0
10
2653.501290
20
-555.826778
30
0.0
11
2636.501290
21
-555.826778
31
0.0
0
ARC
8
0
10
2636.501290
20
-556.326778
30
0.0
40
0.500000
50
90.000000
51
180.000000
0
LINE
8
0
10
2636.001290
20
-556.326778
30
0.0
11
2636.001290
21
-556.826778
31
0.0
0
ARC
8
0
10
2635.501290
20
-556.826778
30
0.0
40
0.500000
50
270.000000
51
0.000000
0
LINE
8
0
10
2635.501290
20
-557.326778
30
0.0
11
2634.001290
21
-557.326778
31
0.0
0
ARC
8
0
10
2634.001290
20
-557.826778
30
0.0
40
0.500000
50
90.000000
51
180.000000
0
LINE
8
0
10
2633.501290
20
-557.826778
30
0.0
11
2633.501290
21
-560.926778
31
0.0
0
ARC
8
0
10
2632.501290
20
-560.926778
30
0.0
40
1.000000
50
270.000000
51
0.000000
0
LINE
8
0
10
2632.501290
20
-561.926778
30
0.0
11
2631.201290
21
-561.926778
31
0.0
0
ARC
8
0
10
2631.201290
20
-560.926778
30
0.0
40
1.000000
50
180.000000
51
270.000000
0
LINE
8
0
10
2630.201290
20
-560.926778
30
0.0
11
2630.201290
21
-556.826778
31
0.0
0
ARC
8
0
10
2629.201290
20
-556.826778
30
0.0
40
1.000000
50
0.000000
51
90.000000
0
LINE
8
0
10
2629.201290
20
-555.826778
30
0.0
11
2627.501290
21
-555.826778
31
0.0
0
ARC
8
0
10
2668.208396
20
-522.326778
30
0.0
40
0.500000
50
90.000000
51
135.000000
0
LINE
8
0
10
2667.854843
20
-521.973225
30
0.0
11
2667.147736
21
-522.680332
31
0.0
0
ARC
8
0
10
2667.501290
20
-523.033885
30
0.0
40
0.500000
50
135.000000
51
180.000000
0
LINE
8
0
10
2667.001290
20
-523.033885
30
0.0
11
2667.001290
21
-523.326778
31
0.0
0
ARC
8
0
10
2667.501290
20
-523.326778
30
0.0
40
0.500000
50
180.000000
51
270.000000
0
LINE
8
0
10
2667.501290
20
-523.826778
30
0.0
11
2668.501290
21
-523.826778
31
0.0
0
ARC
8
0
10
2668.501290
20
-524.326778
30
0.0
40
0.500000
50
0.000000
51
90.000000
0
LINE
8
0
10
2669.001290
20
-524.326778
30
0.0
11
2669.001290
21
-526.326778
31
0.0
0
ARC
8
0
10
2668.501290
20
-526.326778
30
0.0
40
0.500000
50
270.000000
51
0.000000
0
LINE
8
0
10
2668.501290
20
-526.826778
30
0.0
11
2651.501290
21
-526.826778
31
0.0
0
ARC
8
0
10
2651.501290
20
-526.326778
30
0.0
40
0.500000
50
180.000000
51
270.000000
0
LINE
8
0
10
2651.001290
20
-526.326778
30
0.0
11
2651.001290
21
-524.326778
31
0.0
0
ARC
8
0
10
2651.501290
20
-524.326778
30
0.0
40
0.500000
50
90.000000
51
180.000000
0
LINE
8
0
10
2651.501290
20
-523.826778
30
0.0
11
2652.501290
21
-523.826778
31
0.0
0
ARC
8
0
10
2652.501290
20
-523.326778
30
0.0
40
0.500000
50
270.000000
51
0.000000
0
LINE
8
0
10
2653.001290
20
-523.326778
30
0.0
11
2653.001290
21
-523.033885
31
0.0
0
ARC
8
0
10
2652.501290
20
-523.033885
30
0.0
40
0.500000
50
0.000000
51
45.000000
0
LINE
8
0
10
2652.854843
20
-522.680332
30
0.0
11
2652.147736
21
-521.973225
31
0.0
0
ARC
8
0
10
2651.794183
20
-522.326778
30
0.0
40
0.500000
50
45.000000
51
90.000000
0
LINE
8
0
10
2651.794183
20
-521.826778
30
0.0
11
2650.001290
21
-521.826778
31
0.0
0
ARC
8
0
10
2650.001290
20
-522.326778
30
0.0
40
0.500000
50
90.000000
51
180.000000
0
LINE
8
0
10
2649.501290
20
-522.326778
30
0.0
11
2649.501290
21
-526.326778
31
0.0
0
ARC
8
0
10
2649.001290
20
-526.326778
30
0.0
40
0.500000
50
270.000000
51
0.000000
0
LINE
8
0
10
2649.001290
20
-526.826778
30
0.0
11
2614.101290
21
-526.826778
31
0.0
0
ARC
8
0
10
2614.101290
20
-524.826778
30
0.0
40
2.000000
50
180.000000
51
270.000000
0
LINE
8
0
10
2612.101290
20
-524.826778
30
0.0
11
2612.101290
21
-513.826778
31
0.0
0
ARC
8
0
10
2612.601290
20
-513.826778
30
0.0
40
0.500000
50
90.000000
51
180.000000
0
LINE
8
0
10
2612.601290
20
-513.326778
30
0.0
11
2612.903577
21
-513.326778
31
0.0
0
ARC
8
0
10
2612.903577
20
-512.326778
30
0.0
40
1.000000
50
270.000000
51
339.446729
0
LINE
8
0
10
2613.839924
20
-512.677857
30
0.0
11
2614.630665
21
-510.568901
31
0.0
0
ARC
8
0
10
2614.151290
20
-510.426778
30
0.0
40
0.500000
50
343.486233
51
159.611617
0
LINE
8
0
10
2613.682613
20
-510.252587
30
0.0
11
2613.069966
21
-511.900969
31
0.0
0
ARC
8
0
10
2612.601290
20
-511.726778
30
0.0
40
0.500000
50
180.000000
51
339.611617
0
LINE
8
0
10
2612.101290
20
-511.726778
30
0.0
11
2612.101290
21
-501.926778
31
0.0
0
ARC
8
0
10
2612.601290
20
-501.926778
30
0.0
40
0.500000
50
18.834373
51
180.000000
0
LINE
8
0
10
2613.074517
20
-501.765362
30
0.0
11
2613.628062
21
-503.388195
31
0.0
0
ARC
8
0
10
2614.101290
20
-503.226778
30
0.0
40
0.500000
50
198.834373
51
0.000000
0
LINE
8
0
10
2614.601290
20
-503.226778
30
0.0
11
2614.601290
21
-502.426778
31
0.0
0
ARC
8
0
10
2615.601290
20
-502.426778
30
0.0
40
1.000000
50
90.000000
51
180.000000
0
LINE
8
0
10
2615.601290
20
-501.426778
30
0.0
11
2616.601290
21
-501.426778
31
0.0
0
ARC
8
0
10
2616.601290
20
-502.426778
30
0.0
40
1.000000
50
0.000000
51
90.000000
0
LINE
8
0
10
2617.601290
20
-502.426778
30
0.0
11
2617.601290
21
-507.226778
31
0.0
0
ARC
8
0
10
2619.101290
20
-507.226778
30
0.0
40
1.500000
50
180.000000
51
270.000000
0
LINE
8
0
10
2619.101290
20
-508.726778
30
0.0
11
2622.001290
21
-508.726778
31
0.0
0
ARC
8
0
10
2622.001290
20
-508.226778
30
0.0
40
0.500000
50
270.000000
51
0.000000
0
LINE
8
0
10
2622.501290
20
-508.226778
30
0.0
11
2622.501290
21
-507.111864
31
0.0
0
ARC
8
0
10
2622.001290
20
-507.111864
30
0.0
40
0.500000
50
0.000000
51
60.000000
0
LINE
8
0
10
2622.251290
20
-506.678851
30
0.0
11
2621.601290
21
-506.303573
31
0.0
0
ARC
8
0
10
2621.501290
20
-506.476778
30
0.0
40
0.200000
50
60.000000
51
180.000000
0
LINE
8
0
10
2621.301290
20
-506.476778
30
0.0
11
2621.301290
21
-507.026778
31
0.0
0
ARC
8
0
10
2620.801290
20
-507.026778
30
0.0
40
0.500000
50
270.000000
51
0.000000
0
LINE
8
0
10
2620.801290
20
-507.526778
30
0.0
11
2619.301290
21
-507.526778
31
0.0
0
ARC
8
0
10
2619.301290
20
-507.026778
30
0.0
40
0.500000
50
180.000000
51
270.000000
0
LINE
8
0
10
2618.801290
20
-507.026778
30
0.0
11
2618.801290
21
-501.526778
31
0.0
0
ARC
8
0
10
2619.301290
20
-501.526778
30
0.0
40
0.500000
50
90.000000
51
180.000000
0
LINE
8
0
10
2619.301290
20
-501.026778
30
0.0
11
2620.801290
21
-501.026778
31
0.0
0
ARC
8
0
10
2620.801290
20
-501.526778
30
0.0
40
0.500000
50
0.000000
51
90.000000
0
LINE
8
0
10
2621.301290
20
-501.526778
30
0.0
11
2621.301290
21
-502.076778
31
0.0
0
ARC
8
0
10
2621.501290
20
-502.076778
30
0.0
40
0.200000
50
180.000000
51
300.000000
0
LINE
8
0
10
2621.601290
20
-502.249984
30
0.0
11
2622.251290
21
-501.874706
31
0.0
0
ARC
8
0
10
2622.001290
20
-501.441693
30
0.0
40
0.500000
50
300.000000
51
0.000000
0
LINE
8
0
10
2622.501290
20
-501.441693
30
0.0
11
2622.501290
21
-500.326778
31
0.0
0
ARC
8
0
10
2622.001290
20
-500.326778
30
0.0
40
0.500000
50
0.000000
51
90.000000
0
LINE
8
0
10
2622.001290
20
-499.826778
30
0.0
11
2611.001290
21
-499.826778
31
0.0
0
ARC
8
0
10
2611.001290
20
-500.326778
30
0.0
40
0.500000
50
90.000000
51
180.000000
0
LINE
8
0
10
2610.501290
20
-500.326778
30
0.0
11
2610.501290
21
-580.826778
31
0.0
0
ARC
8
0
10
2611.001290
20
-580.826778
30
0.0
40
0.500000
50
180.000000
51
270.000000
0
LINE
8
0
10
2611.001290
20
-581.326778
30
0.0
11
2613.001290
21
-581.326778
31
0.0
0
ARC
8
0
10
2613.001290
20
-580.826778
30
0.0
40
0.500000
50
270.000000
51
0.000000
0
LINE
8
0
10
2613.501290
20
-580.826778
30
0.0
11
2613.501290
21
-580.326778
31
0.0
0
ARC
8
0
10
2613.001290
20
-580.326778
30
0.0
40
0.500000
50
0.000000
51
90.000000
0
LINE
8
0
10
2613.001290
20
-579.826778
30
0.0
11
2612.501290
21
-579.826778
31
0.0
0
ARC
8
0
10
2612.501290
20
-579.326778
30
0.0
40
0.500000
50
180.000000
51
270.000000
0
LINE
8
0
10
2612.001290
20
-579.326778
30
0.0
11
2612.001290
21
-564.326778
31
0.0
0
ARC
8
0
10
2613.001290
20
-564.326778
30
0.0
40
1.000000
50
90.000000
51
180.000000
0
LINE
8
0
10
2613.001290
20
-563.326778
30
0.0
11
2621.979602
21
-563.326778
31
0.0
0
ARC
8
0
10
2621.979602
20
-562.826778
30
0.0
40
0.500000
50
270.000000
51
330.000000
0
LINE
8
0
10
2622.412614
20
-563.076778
30
0.0
11
2622.917796
21
-562.201778
31
0.0
0
ARC
8
0
10
2622.701290
20
-562.076778
30
0.0
40
0.250000
50
330.000000
51
90.000000
0
LINE
8
0
10
2622.701290
20
-561.826778
30
0.0
11
2622.201290
21
-561.826778
31
0.0
0
ARC
8
0
10
2622.201290
20
-561.326778
30
0.0
40
0.500000
50
180.000000
51
270.000000
0
LINE
8
0
10
2621.701290
20
-561.326778
30
0.0
11
2621.701290
21
-557.826778
31
0.0
0
ARC
8
0
10
2622.201290
20
-557.826778
30
0.0
40
0.500000
50
90.000000
51
180.000000
0
LINE
8
0
10
2622.201290
20
-557.326778
30
0.0
11
2628.201290
21
-557.326778
31
0.0
0
ARC
8
0
10
2628.201290
20
-557.826778
30
0.0
40
0.500000
50
0.000000
51
90.000000
0
LINE
8
0
10
2628.701290
20
-557.826778
30
0.0
11
2628.701290
21
-561.326778
31
0.0
0
ARC
8
0
10
2628.201290
20
-561.326778
30
0.0
40
0.500000
50
270.000000
51
0.000000
0
LINE
8
0
10
2628.201290
20
-561.826778
30
0.0
11
2627.701290
21
-561.826778
31
0.0
0
ARC
8
0
10
2627.701290
20
-562.076778
30
0.0
40
0.250000
50
90.000000
51
210.000000
0
LINE
8
0
10
2627.484783
20
-562.201778
30
0.0
11
2627.989965
21
-563.076778
31
0.0
0
ARC
8
0
10
2628.422977
20
-562.826778
30
0.0
40
0.500000
50
210.000000
51
270.000000
0
LINE
8
0
10
2628.422977
20
-563.326778
30
0.0
11
2637.001290
21
-563.326778
31
0.0
0
ARC
8
0
10
2637.001290
20
-562.826778
30
0.0
40
0.500000
50
270.000000
51
0.000000
0
LINE
8
0
10
2637.501290
20
-562.826778
30
0.0
11
2637.501290
21
-562.326778
31
0.0
0
ARC
8
0
10
2637.001290
20
-562.326778
30
0.0
40
0.500000
50
0.000000
51
90.000000
0
LINE
8
0
10
2637.001290
20
-561.826778
30
0.0
11
2635.501290
21
-561.826778
31
0.0
0
ARC
8
0
10
2635.501290
20
-561.326778
30
0.0
40
0.500000
50
180.000000
51
270.000000
0
LINE
8
0
10
2635.001290
20
-561.326778
30
0.0
11
2635.001290
21
-559.326778
31
0.0
0
ARC
8
0
10
2635.501290
20
-559.326778
30
0.0
40
0.500000
50
90.000000
51
180.000000
0
LINE
8
0
10
2635.501290
20
-558.826778
30
0.0
11
2637.001290
21
-558.826778
31
0.0
0
ARC
8
0
10
2637.001290
20
-558.326778
30
0.0
40
0.500000
50
270.000000
51
0.000000
0
LINE
8
0
10
2637.501290
20
-558.326778
30
0.0
11
2637.501290
21
-557.826778
31
0.0
0
ARC
8
0
10
2638.001290
20
-557.826778
30
0.0
40
0.500000
50
90.000000
51
180.000000
0
LINE
8
0
10
2638.001290
20
-557.326778
30
0.0
11
2652.001290
21
-557.326778
31
0.0
0
ARC
8
0
10
2652.001290
20
-557.826778
30
0.0
40
0.500000
50
0.000000
51
90.000000
0
LINE
8
0
10
2652.501290
20
-557.826778
30
0.0
11
2652.501290
21
-558.326778
31
0.0
0
ARC
8
0
10
2653.001290
20
-558.326778
30
0.0
40
0.500000
50
180.000000
51
270.000000
0
LINE
8
0
10
2653.001290
20
-558.826778
30
0.0
11
2654.501290
21
-558.826778
31
0.0
0
ARC
8
0
10
2654.501290
20
-559.326778
30
0.0
40
0.500000
50
0.000000
51
90.000000
0
LINE
8
0
10
2655.001290
20
-559.326778
30
0.0
11
2655.001290
21
-561.326778
31
0.0
0
ARC
8
0
10
2654.501290
20
-561.326778
30
0.0
40
0.500000
50
270.000000
51
0.000000
0
LINE
8
0
10
2654.501290
20
-561.826778
30
0.0
11
2653.001290
21
-561.826778
31
0.0
0
ARC
8
0
10
2653.001290
20
-562.326778
30
0.0
40
0.500000
50
90.000000
51
180.000000
0
LINE
8
0
10
2652.501290
20
-562.326778
30
0.0
11
2652.501290
21
-562.826778
31
0.0
0
ARC
8
0
10
2653.001290
20
-562.826778
30
0.0
40
0.500000
50
180.000000
51
270.000000
0
LINE
8
0
10
2653.001290
20
-563.326778
30
0.0
11
2664.501290
21
-563.326778
31
0.0
0
ARC
8
0
10
2664.501290
20
-562.826778
30
0.0
40
0.500000
50
270.000000
51
0.000000
0
LINE
8
0
10
2665.001290
20
-562.826778
30
0.0
11
2665.001290
21
-561.826778
31
0.0
0
ARC
8
0
10
2664.501290
20
-561.826778
30
0.0
40
0.500000
50
0.000000
51
180.000000
0
ARC
8
0
10
2663.501290
20
-561.826778
30
0.0
40
0.500000
50
270.000000
51
0.000000
0
LINE
8
0
10
2663.501290
20
-562.326778
30
0.0
11
2663.201290
21
-562.326778
31
0.0
0
ARC
8
0
10
2663.201290
20
-561.826778
30
0.0
40
0.500000
50
180.000000
51
270.000000
0
LINE
8
0
10
2662.701290
20
-561.826778
30
0.0
11
2662.701290
21
-557.826778
31
0.0
0
ARC
8
0
10
2663.201290
20
-557.826778
30
0.0
40
0.500000
50
90.000000
51
180.000000
0
LINE
8
0
10
2663.201290
20
-557.326778
30
0.0
11
2663.501290
21
-557.326778
31
0.0
0
ARC
8
0
10
2663.501290
20
-557.826778
30
0.0
40
0.500000
50
0.000000
51
90.000000
0
ARC
8
0
10
2664.501290
20
-557.826778
30
0.0
40
0.500000
50
180.000000
51
0.000000
0
LINE
8
0
10
2665.001290
20
-557.826778
30
0.0
11
2665.001290
21
-554.026778
31
0.0
0
ARC
8
0
10
2665.501290
20
-554.026778
30
0.0
40
0.500000
50
90.000000
51
180.000000
0
LINE
8
0
10
2665.501290
20
-553.526778
30
0.0
11
2670.001290
21
-553.526778
31
0.0
0
ARC
8
0
10
2670.001290
20
-553.026778
30
0.0
40
0.500000
50
270.000000
51
0.000000
0
LINE
8
0
10
2670.501290
20
-553.026778
30
0.0
11
2670.501290
21
-522.326778
31
0.0
0
ARC
8
0
10
2670.001290
20
-522.326778
30
0.0
40
0.500000
50
0.000000
51
90.000000
0
LINE
8
0
10
2670.001290
20
-521.826778
30
0.0
11
2668.208396
21
-521.826778
31
0.0
0
ATTDEF
8
0
10
2651.794183
20
-521.826778
30
0.0
40
3.5
1

3

2
VC_START
70
0
0
ATTDEF
8
0
10
2658.751290
20
-563.326778
30
0.0
40
3.5
1

3

2
VC_END
70
0
0
ATTDEF
8
0
10
2610.501290
20
-581.326778
30
0.0
40
3.5
1

3

2
JY:0.000000
70
0
0
ATTDEF
8
0
10
2610.501290
20
-581.326778
30
0.0
40
3.5
1

3

2
WY:0.000000
70
0
0
ATTDEF
8
0
10
2610.501290
20
-581.326778
30
0.0
40
3.5
1

3

2
DESC:
70
0
0
ATTDEF
8
0
10
2610.501290
20
-581.326778
30
0.0
40
3.5
1

3

2
DENS:0.000000
70
0
0
ATTDEF
8
0
10
2610.501290
20
-581.326778
30
0.0
40
3.5
1

3

2
TDEV:0.000000
70
0
0
ATTDEF
8
0
10
2610.501290
20
-581.326778
30
0.0
40
3.5
1

3

2
TDEV2:0.000000
70
0
0
ATTDEF
8
0
10
2610.501290
20
-581.326778
30
0.0
40
3.5
1

3

2
TDEV3:0.000000
70
0
0
ATTDEF
8
0
10
2610.501290
20
-581.326778
30
0.0
40
3.5
1

3

2
TDEV4:0.000000
70
0
0
ATTDEF
8
0
10
2610.501290
20
-581.326778
30
0.0
40
3.5
1

3

2
TDEV5:0.000000
70
0
0
ATTDEF
8
0
10
2610.501290
20
-581.326778
30
0.0
40
3.5
1

3

2
REAR_VIEW
70
0
0
ATTDEF
8
0
10
2610.501290
20
-581.326778
30
0.0
40
3.5
1

3

2
BL01:6500.000000,,1
70
0
0
ATTDEF
8
0
10
2610.501290
20
-581.326778
30
0.0
40
3.5
1

3

2
OPTI:500.000000,1,0,3000.000000,6500.000000,500.000000,0,0.000000,0
70
0
0
ATTDEF
8
0
10
2610.501290
20
-581.326778
30
0.0
40
3.5
1

3

2
PANE_WIDTH:48.000000
70
0
0
ATTDEF
8
0
10
2610.501290
20
-581.326778
30
0.0
40
3.5
1

3

2
GLASS_MIN:0.000000
70
0
0
ATTDEF
8
0
10
2610.501290
20
-581.326778
30
0.0
40
3.5
1

3

2
GLASS_MAX:0.000000
70
0
0
ATTDEF
8
0
10
2610.501290
20
-581.326778
30
0.0
40
3.5
1

3

2
JX:0.000000
70
0
0
ATTDEF
8
0
10
2610.501290
20
-581.326778
30
0.0
40
3.5
1

3

2
WX:0.000000
70
0
0
ATTDEF
8
0
10
2610.501290
20
-581.326778
30
0.0
40
3.5
1

3

2
JY:0.000000
70
0
0
ATTDEF
8
0
10
2610.501290
20
-581.326778
30
0.0
40
3.5
1

3

2
WY:0.000000
70
0
0
ATTDEF
8
0
10
2610.501290
20
-581.326778
30
0.0
40
3.5
1

3

2
FP_LCS_ORIG
70
0
0
ATTDEF
8
0
10
2620.501290
20
-581.326778
30
0.0
40
3.5
1

3

2
FP_LCS_HOT
70
0
0
ATTDEF
8
0
10
2610.501290
20
-571.326778
30
0.0
40
3.5
1

3

2
FP_LCS_INTERN
70
0
0
ENDSEC
0
EOF
