<<<<<<< HEAD
0
SECTION
2
ENTITIES
0
ARC
8
0
10
1895.280913
20
-442.602359
30
0.0
40
0.250000
50
90.000000
51
160.528779
0
LINE
8
0
10
1895.280913
20
-442.352359
30
0.0
11
1917.866699
21
-442.352359
31
0.0
0
ARC
8
0
10
1917.866699
20
-442.602359
30
0.0
40
0.250000
50
19.471221
51
90.000000
0
ARC
8
0
10
1918.573806
20
-442.352359
30
0.0
40
0.500000
50
199.471221
51
340.528779
0
ARC
8
0
10
1919.280913
20
-442.602359
30
0.0
40
0.250000
50
90.000000
51
160.528779
0
LINE
8
0
10
1919.280913
20
-442.352359
30
0.0
11
1919.866699
21
-442.352359
31
0.0
0
ARC
8
0
10
1919.866699
20
-442.602359
30
0.0
40
0.250000
50
19.471221
51
90.000000
0
ARC
8
0
10
1920.573806
20
-442.352359
30
0.0
40
0.500000
50
199.471221
51
340.528779
0
ARC
8
0
10
1921.280913
20
-442.602359
30
0.0
40
0.250000
50
90.000000
51
160.528779
0
LINE
8
0
10
1921.280913
20
-442.352359
30
0.0
11
1926.373806
21
-442.352359
31
0.0
0
ARC
8
0
10
1926.373806
20
-442.852359
30
0.0
40
0.500000
50
360.000000
51
90.000000
0
LINE
8
0
10
1926.873806
20
-442.852359
30
0.0
11
1926.873806
21
-443.852359
31
0.0
0
ARC
8
0
10
1927.373806
20
-443.852359
30
0.0
40
0.500000
50
180.000000
51
270.000000
0
LINE
8
0
10
1927.373806
20
-444.352359
30
0.0
11
1927.773806
21
-444.352359
31
0.0
0
ARC
8
0
10
1927.773806
20
-443.852359
30
0.0
40
0.500000
50
270.000000
51
360.000000
0
LINE
8
0
10
1928.273806
20
-443.852359
30
0.0
11
1928.273806
21
-442.852359
31
0.0
0
ARC
8
0
10
1928.773806
20
-442.852359
30
0.0
40
0.500000
50
90.000000
51
180.000000
0
LINE
8
0
10
1928.773806
20
-442.352359
30
0.0
11
1934.373806
21
-442.352359
31
0.0
0
ARC
8
0
10
1934.373806
20
-442.852359
30
0.0
40
0.500000
50
360.000000
51
90.000000
0
LINE
8
0
10
1934.873806
20
-442.852359
30
0.0
11
1934.873806
21
-477.452359
31
0.0
0
ARC
8
0
10
1934.373806
20
-477.452359
30
0.0
40
0.500000
50
270.000000
51
360.000000
0
LINE
8
0
10
1934.373806
20
-477.952359
30
0.0
11
1928.773806
21
-477.952359
31
0.0
0
ARC
8
0
10
1928.773806
20
-477.452359
30
0.0
40
0.500000
50
180.000000
51
270.000000
0
LINE
8
0
10
1928.273806
20
-477.452359
30
0.0
11
1928.273806
21
-476.352359
31
0.0
0
ARC
8
0
10
1927.773806
20
-476.352359
30
0.0
40
0.500000
50
360.000000
51
90.000000
0
LINE
8
0
10
1927.773806
20
-475.852359
30
0.0
11
1927.373806
21
-475.852359
31
0.0
0
ARC
8
0
10
1927.373806
20
-476.352359
30
0.0
40
0.500000
50
90.000000
51
180.000000
0
LINE
8
0
10
1926.873806
20
-476.352359
30
0.0
11
1926.873806
21
-486.952359
31
0.0
0
ARC
8
0
10
1926.373806
20
-486.952359
30
0.0
40
0.500000
50
270.000000
51
360.000000
0
LINE
8
0
10
1926.373806
20
-487.452359
30
0.0
11
1916.473806
21
-487.452359
31
0.0
0
ARC
8
0
10
1916.473806
20
-486.952359
30
0.0
40
0.500000
50
180.000000
51
270.000000
0
LINE
8
0
10
1915.973806
20
-486.952359
30
0.0
11
1915.973806
21
-486.252359
31
0.0
0
ARC
8
0
10
1915.473806
20
-486.252359
30
0.0
40
0.500000
50
360.000000
51
90.000000
0
LINE
8
0
10
1915.473806
20
-485.752359
30
0.0
11
1915.273806
21
-485.752359
31
0.0
0
ARC
8
0
10
1915.273806
20
-486.252359
30
0.0
40
0.500000
50
90.000000
51
180.000000
0
LINE
8
0
10
1914.773806
20
-486.252359
30
0.0
11
1914.773806
21
-486.952359
31
0.0
0
ARC
8
0
10
1914.273806
20
-486.952359
30
0.0
40
0.500000
50
270.000000
51
360.000000
0
LINE
8
0
10
1914.273806
20
-487.452359
30
0.0
11
1884.873806
21
-487.452359
31
0.0
0
ARC
8
0
10
1884.873806
20
-487.952359
30
0.0
40
0.500000
50
90.000000
51
180.000000
0
LINE
8
0
10
1884.373806
20
-487.952359
30
0.0
11
1884.373806
21
-488.452359
31
0.0
0
ARC
8
0
10
1883.873806
20
-488.452359
30
0.0
40
0.500000
50
270.000000
51
360.000000
0
LINE
8
0
10
1883.873806
20
-488.952359
30
0.0
11
1879.273806
21
-488.952359
31
0.0
0
ARC
8
0
10
1879.273806
20
-487.952359
30
0.0
40
1.000000
50
180.000000
51
270.000000
0
LINE
8
0
10
1878.273806
20
-487.952359
30
0.0
11
1878.273806
21
-442.852359
31
0.0
0
ARC
8
0
10
1878.773806
20
-442.852359
30
0.0
40
0.500000
50
90.000000
51
180.000000
0
LINE
8
0
10
1878.773806
20
-442.352359
30
0.0
11
1891.866699
21
-442.352359
31
0.0
0
ARC
8
0
10
1891.866699
20
-442.602359
30
0.0
40
0.250000
50
19.471221
51
90.000000
0
ARC
8
0
10
1892.573806
20
-442.352359
30
0.0
40
0.500000
50
199.471221
51
340.528779
0
ARC
8
0
10
1893.280913
20
-442.602359
30
0.0
40
0.250000
50
90.000000
51
160.528779
0
LINE
8
0
10
1893.280913
20
-442.352359
30
0.0
11
1893.866699
21
-442.352359
31
0.0
0
ARC
8
0
10
1893.866699
20
-442.602359
30
0.0
40
0.250000
50
19.471221
51
90.000000
0
ARC
8
0
10
1894.573806
20
-442.352359
30
0.0
40
0.500000
50
199.471221
51
340.528779
0
ARC
8
0
10
1881.773806
20
-416.352359
30
0.0
40
1.000000
50
90.000000
51
180.000000
0
LINE
8
0
10
1882.673806
20
-415.352359
30
0.0
11
1881.773806
21
-415.352359
31
0.0
0
ARC
8
0
10
1882.673806
20
-416.352359
30
0.0
40
1.000000
50
360.000000
51
90.000000
0
LINE
8
0
10
1883.673806
20
-421.052359
30
0.0
11
1883.673806
21
-416.352359
31
0.0
0
ARC
8
0
10
1885.173806
20
-421.052359
30
0.0
40
1.500000
50
180.000000
51
270.000000
0
LINE
8
0
10
1888.073806
20
-422.552359
30
0.0
11
1885.173806
21
-422.552359
31
0.0
0
ARC
8
0
10
1888.073806
20
-422.052359
30
0.0
40
0.500000
50
270.000000
51
360.000000
0
LINE
8
0
10
1888.573806
20
-420.937445
30
0.0
11
1888.573806
21
-422.052359
31
0.0
0
ARC
8
0
10
1888.073806
20
-420.937445
30
0.0
40
0.500000
50
360.000000
51
60.000000
0
LINE
8
0
10
1887.673806
20
-420.129154
30
0.0
11
1888.323806
21
-420.504432
31
0.0
0
ARC
8
0
10
1887.573806
20
-420.302359
30
0.0
40
0.200000
50
60.000000
51
180.000000
0
LINE
8
0
10
1887.373806
20
-420.852359
30
0.0
11
1887.373806
21
-420.302359
31
0.0
0
ARC
8
0
10
1886.873806
20
-420.852359
30
0.0
40
0.500000
50
270.000000
51
360.000000
0
LINE
8
0
10
1885.373806
20
-421.352359
30
0.0
11
1886.873806
21
-421.352359
31
0.0
0
ARC
8
0
10
1885.373806
20
-420.852359
30
0.0
40
0.500000
50
180.000000
51
270.000000
0
LINE
8
0
10
1884.873806
20
-415.352359
30
0.0
11
1884.873806
21
-420.852359
31
0.0
0
ARC
8
0
10
1885.373806
20
-415.352359
30
0.0
40
0.500000
50
90.000000
51
180.000000
0
LINE
8
0
10
1886.873806
20
-414.852359
30
0.0
11
1885.373806
21
-414.852359
31
0.0
0
ARC
8
0
10
1886.873806
20
-415.352359
30
0.0
40
0.500000
50
360.000000
51
90.000000
0
LINE
8
0
10
1887.373806
20
-415.902359
30
0.0
11
1887.373806
21
-415.352359
31
0.0
0
ARC
8
0
10
1887.573806
20
-415.902359
30
0.0
40
0.200000
50
180.000000
51
300.000000
0
LINE
8
0
10
1888.323806
20
-415.700287
30
0.0
11
1887.673806
21
-416.075565
31
0.0
0
ARC
8
0
10
1888.073806
20
-415.267274
30
0.0
40
0.500000
50
300.000000
51
360.000000
0
LINE
8
0
10
1888.573806
20
-414.152359
30
0.0
11
1888.573806
21
-415.267274
31
0.0
0
ARC
8
0
10
1888.073806
20
-414.152359
30
0.0
40
0.500000
50
360.000000
51
90.000000
0
LINE
8
0
10
1877.073806
20
-413.652359
30
0.0
11
1888.073806
21
-413.652359
31
0.0
0
ARC
8
0
10
1877.073806
20
-414.152359
30
0.0
40
0.500000
50
90.000000
51
180.000000
0
LINE
8
0
10
1876.573806
20
-511.152359
30
0.0
11
1876.573806
21
-414.152359
31
0.0
0
ARC
8
0
10
1878.073806
20
-511.152359
30
0.0
40
1.500000
50
180.000000
51
270.000000
0
LINE
8
0
10
1879.573806
20
-512.652359
30
0.0
11
1878.073806
21
-512.652359
31
0.0
0
ARC
8
0
10
1879.573806
20
-512.152359
30
0.0
40
0.500000
50
270.000000
51
360.000000
0
LINE
8
0
10
1880.073806
20
-510.652359
30
0.0
11
1880.073806
21
-512.152359
31
0.0
0
ARC
8
0
10
1879.573806
20
-510.652359
30
0.0
40
0.500000
50
360.000000
51
180.000000
0
ARC
8
0
10
1878.573806
20
-510.652359
30
0.0
40
0.500000
50
270.000000
51
360.000000
0
LINE
8
0
10
1878.273806
20
-511.152359
30
0.0
11
1878.573806
21
-511.152359
31
0.0
0
ARC
8
0
10
1878.273806
20
-510.652359
30
0.0
40
0.500000
50
180.000000
51
270.000000
0
LINE
8
0
10
1877.773806
20
-506.652359
30
0.0
11
1877.773806
21
-510.652359
31
0.0
0
ARC
8
0
10
1878.273806
20
-506.652359
30
0.0
40
0.500000
50
90.000000
51
180.000000
0
LINE
8
0
10
1878.573806
20
-506.152359
30
0.0
11
1878.273806
21
-506.152359
31
0.0
0
ARC
8
0
10
1878.573806
20
-506.652359
30
0.0
40
0.500000
50
360.000000
51
90.000000
0
ARC
8
0
10
1879.573806
20
-506.652359
30
0.0
40
0.500000
50
180.000000
51
360.000000
0
LINE
8
0
10
1880.073806
20
-505.152359
30
0.0
11
1880.073806
21
-506.652359
31
0.0
0
ARC
8
0
10
1879.573806
20
-505.152359
30
0.0
40
0.500000
50
360.000000
51
90.000000
0
LINE
8
0
10
1878.573806
20
-504.652359
30
0.0
11
1879.573806
21
-504.652359
31
0.0
0
ARC
8
0
10
1878.573806
20
-504.152359
30
0.0
40
0.500000
50
180.000000
51
270.000000
0
LINE
8
0
10
1878.073806
20
-491.152359
30
0.0
11
1878.073806
21
-504.152359
31
0.0
0
ARC
8
0
10
1878.573806
20
-491.152359
30
0.0
40
0.500000
50
90.000000
51
180.000000
0
LINE
8
0
10
1881.573806
20
-490.652359
30
0.0
11
1878.573806
21
-490.652359
31
0.0
0
ARC
8
0
10
1881.573806
20
-491.152359
30
0.0
40
0.500000
50
360.000000
51
90.000000
0
LINE
8
0
10
1882.073806
20
-493.652359
30
0.0
11
1882.073806
21
-491.152359
31
0.0
0
LINE
8
0
10
1881.773806
20
-493.652359
30
0.0
11
1882.073806
21
-493.652359
31
0.0
0
LINE
8
0
10
1881.773806
20
-494.652359
30
0.0
11
1881.773806
21
-493.652359
31
0.0
0
ARC
8
0
10
1882.273806
20
-494.652359
30
0.0
40
0.500000
50
180.000000
51
270.000000
0
LINE
8
0
10
1885.573806
20
-495.152359
30
0.0
11
1882.273806
21
-495.152359
31
0.0
0
ARC
8
0
10
1885.573806
20
-494.652359
30
0.0
40
0.500000
50
270.000000
51
360.000000
0
LINE
8
0
10
1886.073806
20
-494.152359
30
0.0
11
1886.073806
21
-494.652359
31
0.0
0
ARC
8
0
10
1885.573806
20
-494.152359
30
0.0
40
0.500000
50
360.000000
51
90.000000
0
LINE
8
0
10
1884.073806
20
-493.652359
30
0.0
11
1885.573806
21
-493.652359
31
0.0
0
ARC
8
0
10
1884.073806
20
-493.152359
30
0.0
40
0.500000
50
180.000000
51
270.000000
0
LINE
8
0
10
1883.573806
20
-491.152359
30
0.0
11
1883.573806
21
-493.152359
31
0.0
0
ARC
8
0
10
1884.073806
20
-491.152359
30
0.0
40
0.500000
50
90.000000
51
180.000000
0
LINE
8
0
10
1885.573806
20
-490.652359
30
0.0
11
1884.073806
21
-490.652359
31
0.0
0
ARC
8
0
10
1885.573806
20
-490.152359
30
0.0
40
0.500000
50
270.000000
51
360.000000
0
LINE
8
0
10
1886.073806
20
-489.652359
30
0.0
11
1886.073806
21
-490.152359
31
0.0
0
ARC
8
0
10
1886.573806
20
-489.652359
30
0.0
40
0.500000
50
90.000000
51
180.000000
0
LINE
8
0
10
1891.866699
20
-489.152359
30
0.0
11
1886.573806
21
-489.152359
31
0.0
0
ARC
8
0
10
1891.866699
20
-489.402359
30
0.0
40
0.250000
50
19.471221
51
90.000000
0
ARC
8
0
10
1892.573806
20
-489.152359
30
0.0
40
0.500000
50
199.471221
51
340.528779
0
ARC
8
0
10
1893.280913
20
-489.402359
30
0.0
40
0.250000
50
90.000000
51
160.528779
0
LINE
8
0
10
1893.280913
20
-489.152359
30
0.0
11
1893.866699
21
-489.152359
31
0.0
0
ARC
8
0
10
1893.866699
20
-489.402359
30
0.0
40
0.250000
50
19.471221
51
90.000000
0
ARC
8
0
10
1894.573806
20
-489.152359
30
0.0
40
0.500000
50
199.471221
51
340.528779
0
ARC
8
0
10
1895.280913
20
-489.402359
30
0.0
40
0.250000
50
90.000000
51
160.528779
0
LINE
8
0
10
1900.573806
20
-489.152359
30
0.0
11
1895.280913
21
-489.152359
31
0.0
0
ARC
8
0
10
1900.573806
20
-489.652359
30
0.0
40
0.500000
50
360.000000
51
90.000000
0
LINE
8
0
10
1901.073806
20
-490.152359
30
0.0
11
1901.073806
21
-489.652359
31
0.0
0
ARC
8
0
10
1901.573806
20
-490.152359
30
0.0
40
0.500000
50
180.000000
51
270.000000
0
LINE
8
0
10
1903.073806
20
-490.652359
30
0.0
11
1901.573806
21
-490.652359
31
0.0
0
ARC
8
0
10
1903.073806
20
-491.152359
30
0.0
40
0.500000
50
360.000000
51
90.000000
0
LINE
8
0
10
1903.573806
20
-493.152359
30
0.0
11
1903.573806
21
-491.152359
31
0.0
0
ARC
8
0
10
1903.073806
20
-493.152359
30
0.0
40
0.500000
50
270.000000
51
360.000000
0
LINE
8
0
10
1901.573806
20
-493.652359
30
0.0
11
1903.073806
21
-493.652359
31
0.0
0
ARC
8
0
10
1901.573806
20
-494.152359
30
0.0
40
0.500000
50
90.000000
51
180.000000
0
LINE
8
0
10
1901.073806
20
-494.652359
30
0.0
11
1901.073806
21
-494.152359
31
0.0
0
ARC
8
0
10
1901.573806
20
-494.652359
30
0.0
40
0.500000
50
180.000000
51
270.000000
0
LINE
8
0
10
1904.573806
20
-495.152359
30
0.0
11
1901.573806
21
-495.152359
31
0.0
0
ARC
8
0
10
1904.573806
20
-494.652359
30
0.0
40
0.500000
50
270.000000
51
360.000000
0
LINE
8
0
10
1905.073806
20
-489.652359
30
0.0
11
1905.073806
21
-494.652359
31
0.0
0
ARC
8
0
10
1905.573806
20
-489.652359
30
0.0
40
0.500000
50
90.000000
51
180.000000
0
LINE
8
0
10
1917.866699
20
-489.152359
30
0.0
11
1905.573806
21
-489.152359
31
0.0
0
ARC
8
0
10
1917.866699
20
-489.402359
30
0.0
40
0.250000
50
19.471221
51
90.000000
0
ARC
8
0
10
1918.573806
20
-489.152359
30
0.0
40
0.500000
50
199.471221
51
340.528779
0
ARC
8
0
10
1919.280913
20
-489.402359
30
0.0
40
0.250000
50
90.000000
51
160.528779
0
LINE
8
0
10
1919.280913
20
-489.152359
30
0.0
11
1919.866699
21
-489.152359
31
0.0
0
ARC
8
0
10
1919.866699
20
-489.402359
30
0.0
40
0.250000
50
19.471221
51
90.000000
0
ARC
8
0
10
1920.573806
20
-489.152359
30
0.0
40
0.500000
50
199.471221
51
340.528779
0
ARC
8
0
10
1921.280913
20
-489.402359
30
0.0
40
0.250000
50
90.000000
51
160.528779
0
LINE
8
0
10
1926.373806
20
-489.152359
30
0.0
11
1921.280913
21
-489.152359
31
0.0
0
ARC
8
0
10
1926.373806
20
-489.652359
30
0.0
40
0.500000
50
360.000000
51
90.000000
0
LINE
8
0
10
1926.873806
20
-494.652359
30
0.0
11
1926.873806
21
-489.652359
31
0.0
0
ARC
8
0
10
1927.373806
20
-494.652359
30
0.0
40
0.500000
50
180.000000
51
270.000000
0
LINE
8
0
10
1928.073806
20
-495.152359
30
0.0
11
1927.373806
21
-495.152359
31
0.0
0
ARC
8
0
10
1928.073806
20
-494.652359
30
0.0
40
0.500000
50
270.000000
51
360.000000
0
LINE
8
0
10
1928.573806
20
-480.152359
30
0.0
11
1928.573806
21
-494.652359
31
0.0
0
ARC
8
0
10
1929.073806
20
-480.152359
30
0.0
40
0.500000
50
90.000000
51
180.000000
0
LINE
8
0
10
1936.073806
20
-479.652359
30
0.0
11
1929.073806
21
-479.652359
31
0.0
0
ARC
8
0
10
1936.073806
20
-479.152359
30
0.0
40
0.500000
50
270.000000
51
360.000000
0
LINE
8
0
10
1936.573806
20
-436.152359
30
0.0
11
1936.573806
21
-479.152359
31
0.0
0
ARC
8
0
10
1936.073806
20
-436.152359
30
0.0
40
0.500000
50
360.000000
51
90.000000
0
LINE
8
0
10
1934.280913
20
-435.652359
30
0.0
11
1936.073806
21
-435.652359
31
0.0
0
ARC
8
0
10
1934.280913
20
-436.152359
30
0.0
40
0.500000
50
90.000000
51
135.000000
0
LINE
8
0
10
1933.220253
20
-436.505913
30
0.0
11
1933.927360
21
-435.798806
31
0.0
0
ARC
8
0
10
1933.573806
20
-436.859466
30
0.0
40
0.500000
50
135.000000
51
180.000000
0
LINE
8
0
10
1933.073806
20
-437.152359
30
0.0
11
1933.073806
21
-436.859466
31
0.0
0
ARC
8
0
10
1933.573806
20
-437.152359
30
0.0
40
0.500000
50
180.000000
51
270.000000
0
LINE
8
0
10
1934.573806
20
-437.652359
30
0.0
11
1933.573806
21
-437.652359
31
0.0
0
ARC
8
0
10
1934.573806
20
-438.152359
30
0.0
40
0.500000
50
360.000000
51
90.000000
0
LINE
8
0
10
1935.073806
20
-440.152359
30
0.0
11
1935.073806
21
-438.152359
31
0.0
0
ARC
8
0
10
1934.573806
20
-440.152359
30
0.0
40
0.500000
50
270.000000
51
360.000000
0
LINE
8
0
10
1917.573806
20
-440.652359
30
0.0
11
1934.573806
21
-440.652359
31
0.0
0
ARC
8
0
10
1917.573806
20
-440.152359
30
0.0
40
0.500000
50
180.000000
51
270.000000
0
LINE
8
0
10
1917.073806
20
-438.152359
30
0.0
11
1917.073806
21
-440.152359
31
0.0
0
ARC
8
0
10
1917.573806
20
-438.152359
30
0.0
40
0.500000
50
90.000000
51
180.000000
0
LINE
8
0
10
1918.573806
20
-437.652359
30
0.0
11
1917.573806
21
-437.652359
31
0.0
0
ARC
8
0
10
1918.573806
20
-437.152359
30
0.0
40
0.500000
50
270.000000
51
360.000000
0
LINE
8
0
10
1919.073806
20
-436.859466
30
0.0
11
1919.073806
21
-437.152359
31
0.0
0
ARC
8
0
10
1918.573806
20
-436.859466
30
0.0
40
0.500000
50
360.000000
51
45.000000
0
LINE
8
0
10
1918.220253
20
-435.798806
30
0.0
11
1918.927360
21
-436.505913
31
0.0
0
ARC
8
0
10
1917.866699
20
-436.152359
30
0.0
40
0.500000
50
45.000000
51
90.000000
0
LINE
8
0
10
1916.073806
20
-435.652359
30
0.0
11
1917.866699
21
-435.652359
31
0.0
0
ARC
8
0
10
1916.073806
20
-436.152359
30
0.0
40
0.500000
50
90.000000
51
180.000000
0
LINE
8
0
10
1915.573806
20
-440.152359
30
0.0
11
1915.573806
21
-436.152359
31
0.0
0
ARC
8
0
10
1915.073806
20
-440.152359
30
0.0
40
0.500000
50
270.000000
51
360.000000
0
LINE
8
0
10
1880.273806
20
-440.652359
30
0.0
11
1915.073806
21
-440.652359
31
0.0
0
ARC
8
0
10
1880.273806
20
-438.652359
30
0.0
40
2.000000
50
180.000000
51
270.000000
0
LINE
8
0
10
1878.273806
20
-427.752359
30
0.0
11
1878.273806
21
-438.652359
31
0.0
0
ARC
8
0
10
1878.773806
20
-427.752359
30
0.0
40
0.500000
50
90.000000
51
180.000000
0
LINE
8
0
10
1879.076094
20
-427.252359
30
0.0
11
1878.773806
21
-427.252359
31
0.0
0
ARC
8
0
10
1879.076094
20
-426.252359
30
0.0
40
1.000000
50
270.000000
51
339.446729
0
LINE
8
0
10
1880.803182
20
-424.494482
30
0.0
11
1880.012440
21
-426.603438
31
0.0
0
ARC
8
0
10
1880.323806
20
-424.352359
30
0.0
40
0.500000
50
343.486233
51
159.611617
0
LINE
8
0
10
1879.242482
20
-425.826550
30
0.0
11
1879.855130
21
-424.178168
31
0.0
0
ARC
8
0
10
1878.773806
20
-425.652359
30
0.0
40
0.500000
50
180.000000
51
339.611617
0
LINE
8
0
10
1878.273806
20
-415.852359
30
0.0
11
1878.273806
21
-425.652359
31
0.0
0
ARC
8
0
10
1878.773806
20
-415.852359
30
0.0
40
0.500000
50
18.834373
51
180.000000
0
LINE
8
0
10
1879.247034
20
-415.690943
30
0.0
11
1879.800578
21
-417.313776
31
0.0
0
ARC
8
0
10
1880.273806
20
-417.152359
30
0.0
40
0.500000
50
198.834373
51
360.000000
0
LINE
8
0
10
1880.773806
20
-416.352359
30
0.0
11
1880.773806
21
-417.152359
31
0.0
0
ATTDEF
8
0
10
1916.073806
20
-435.652359
30
0.0
40
3.5
1

3

2
VC_START
70
0
0
ATTDEF
8
0
10
1904.573806
20
-495.152359
30
0.0
40
3.5
1

3

2
VC_END
70
0
0
ATTDEF
8
0
10
1876.573806
20
-512.652359
30
0.0
40
3.5
1

3

2
JY:0.000000
70
0
0
ATTDEF
8
0
10
1876.573806
20
-512.652359
30
0.0
40
3.5
1

3

2
WY:0.000000
70
0
0
ATTDEF
8
0
10
1876.573806
20
-512.652359
30
0.0
40
3.5
1

3

2
DESC:Hoja puerta de rebatir hacia el exterior
70
0
0
ATTDEF
8
0
10
1876.573806
20
-512.652359
30
0.0
40
3.5
1

3

2
DENS:1.507000
70
0
0
ATTDEF
8
0
10
1876.573806
20
-512.652359
30
0.0
40
3.5
1

3

2
TDEV:0.000000
70
0
0
ATTDEF
8
0
10
1876.573806
20
-512.652359
30
0.0
40
3.5
1

3

2
TDEV2:0.000000
70
0
0
ATTDEF
8
0
10
1876.573806
20
-512.652359
30
0.0
40
3.5
1

3

2
TDEV3:0.000000
70
0
0
ATTDEF
8
0
10
1876.573806
20
-512.652359
30
0.0
40
3.5
1

3

2
TDEV4:0.000000
70
0
0
ATTDEF
8
0
10
1876.573806
20
-512.652359
30
0.0
40
3.5
1

3

2
TDEV5:0.000000
70
0
0
ATTDEF
8
0
10
1876.573806
20
-512.652359
30
0.0
40
3.5
1

3

2
REAR_VIEW
70
0
0
ATTDEF
8
0
10
1876.573806
20
-512.652359
30
0.0
40
3.5
1

3

2
BL01:6500.000000,,1
70
0
0
ATTDEF
8
0
10
1876.573806
20
-512.652359
30
0.0
40
3.5
1

3

2
OPTI:500.000000,1,0,3000.000000,6500.000000,500.000000,0,0.000000,0
70
0
0
ATTDEF
8
0
10
1876.573806
20
-512.652359
30
0.0
40
3.5
1

3

2
PANE_WIDTH:48.000000
70
0
0
ATTDEF
8
0
10
1876.573806
20
-512.652359
30
0.0
40
3.5
1

3

2
GLASS_MIN:0.000000
70
0
0
ATTDEF
8
0
10
1876.573806
20
-512.652359
30
0.0
40
3.5
1

3

2
GLASS_MAX:0.000000
70
0
0
ATTDEF
8
0
10
1876.573806
20
-512.652359
30
0.0
40
3.5
1

3

2
JX:0.000000
70
0
0
ATTDEF
8
0
10
1876.573806
20
-512.652359
30
0.0
40
3.5
1

3

2
WX:0.000000
70
0
0
ATTDEF
8
0
10
1876.573806
20
-512.652359
30
0.0
40
3.5
1

3

2
JY:0.000000
70
0
0
ATTDEF
8
0
10
1876.573806
20
-512.652359
30
0.0
40
3.5
1

3

2
WY:0.000000
70
0
0
ATTDEF
8
0
10
1876.573806
20
-512.652359
30
0.0
40
3.5
1

3

2
FP_LCS_ORIG
70
0
0
ATTDEF
8
0
10
1886.573806
20
-512.652359
30
0.0
40
3.5
1

3

2
FP_LCS_HOT
70
0
0
ATTDEF
8
0
10
1876.573806
20
-502.652359
30
0.0
40
3.5
1

3

2
FP_LCS_INTERN
70
0
0
ENDSEC
0
EOF
=======
0
SECTION
2
ENTITIES
0
ARC
8
0
10
1895.280913
20
-442.602359
30
0.0
40
0.250000
50
90.000000
51
160.528779
0
LINE
8
0
10
1895.280913
20
-442.352359
30
0.0
11
1917.866699
21
-442.352359
31
0.0
0
ARC
8
0
10
1917.866699
20
-442.602359
30
0.0
40
0.250000
50
19.471221
51
90.000000
0
ARC
8
0
10
1918.573806
20
-442.352359
30
0.0
40
0.500000
50
199.471221
51
340.528779
0
ARC
8
0
10
1919.280913
20
-442.602359
30
0.0
40
0.250000
50
90.000000
51
160.528779
0
LINE
8
0
10
1919.280913
20
-442.352359
30
0.0
11
1919.866699
21
-442.352359
31
0.0
0
ARC
8
0
10
1919.866699
20
-442.602359
30
0.0
40
0.250000
50
19.471221
51
90.000000
0
ARC
8
0
10
1920.573806
20
-442.352359
30
0.0
40
0.500000
50
199.471221
51
340.528779
0
ARC
8
0
10
1921.280913
20
-442.602359
30
0.0
40
0.250000
50
90.000000
51
160.528779
0
LINE
8
0
10
1921.280913
20
-442.352359
30
0.0
11
1926.373806
21
-442.352359
31
0.0
0
ARC
8
0
10
1926.373806
20
-442.852359
30
0.0
40
0.500000
50
0.000000
51
90.000000
0
LINE
8
0
10
1926.873806
20
-442.852359
30
0.0
11
1926.873806
21
-443.852359
31
0.0
0
ARC
8
0
10
1927.373806
20
-443.852359
30
0.0
40
0.500000
50
180.000000
51
270.000000
0
LINE
8
0
10
1927.373806
20
-444.352359
30
0.0
11
1927.773806
21
-444.352359
31
0.0
0
ARC
8
0
10
1927.773806
20
-443.852359
30
0.0
40
0.500000
50
270.000000
51
0.000000
0
LINE
8
0
10
1928.273806
20
-443.852359
30
0.0
11
1928.273806
21
-442.852359
31
0.0
0
ARC
8
0
10
1928.773806
20
-442.852359
30
0.0
40
0.500000
50
90.000000
51
180.000000
0
LINE
8
0
10
1928.773806
20
-442.352359
30
0.0
11
1934.373806
21
-442.352359
31
0.0
0
ARC
8
0
10
1934.373806
20
-442.852359
30
0.0
40
0.500000
50
0.000000
51
90.000000
0
LINE
8
0
10
1934.873806
20
-442.852359
30
0.0
11
1934.873806
21
-477.452359
31
0.0
0
ARC
8
0
10
1934.373806
20
-477.452359
30
0.0
40
0.500000
50
270.000000
51
0.000000
0
LINE
8
0
10
1934.373806
20
-477.952359
30
0.0
11
1928.773806
21
-477.952359
31
0.0
0
ARC
8
0
10
1928.773806
20
-477.452359
30
0.0
40
0.500000
50
180.000000
51
270.000000
0
LINE
8
0
10
1928.273806
20
-477.452359
30
0.0
11
1928.273806
21
-476.352359
31
0.0
0
ARC
8
0
10
1927.773806
20
-476.352359
30
0.0
40
0.500000
50
0.000000
51
90.000000
0
LINE
8
0
10
1927.773806
20
-475.852359
30
0.0
11
1927.373806
21
-475.852359
31
0.0
0
ARC
8
0
10
1927.373806
20
-476.352359
30
0.0
40
0.500000
50
90.000000
51
180.000000
0
LINE
8
0
10
1926.873806
20
-476.352359
30
0.0
11
1926.873806
21
-486.952359
31
0.0
0
ARC
8
0
10
1926.373806
20
-486.952359
30
0.0
40
0.500000
50
270.000000
51
0.000000
0
LINE
8
0
10
1926.373806
20
-487.452359
30
0.0
11
1916.473806
21
-487.452359
31
0.0
0
ARC
8
0
10
1916.473806
20
-486.952359
30
0.0
40
0.500000
50
180.000000
51
270.000000
0
LINE
8
0
10
1915.973806
20
-486.952359
30
0.0
11
1915.973806
21
-486.252359
31
0.0
0
ARC
8
0
10
1915.473806
20
-486.252359
30
0.0
40
0.500000
50
0.000000
51
90.000000
0
LINE
8
0
10
1915.473806
20
-485.752359
30
0.0
11
1915.273806
21
-485.752359
31
0.0
0
ARC
8
0
10
1915.273806
20
-486.252359
30
0.0
40
0.500000
50
90.000000
51
180.000000
0
LINE
8
0
10
1914.773806
20
-486.252359
30
0.0
11
1914.773806
21
-486.952359
31
0.0
0
ARC
8
0
10
1914.273806
20
-486.952359
30
0.0
40
0.500000
50
270.000000
51
0.000000
0
LINE
8
0
10
1914.273806
20
-487.452359
30
0.0
11
1884.873806
21
-487.452359
31
0.0
0
ARC
8
0
10
1884.873806
20
-487.952359
30
0.0
40
0.500000
50
90.000000
51
180.000000
0
LINE
8
0
10
1884.373806
20
-487.952359
30
0.0
11
1884.373806
21
-488.452359
31
0.0
0
ARC
8
0
10
1883.873806
20
-488.452359
30
0.0
40
0.500000
50
270.000000
51
0.000000
0
LINE
8
0
10
1883.873806
20
-488.952359
30
0.0
11
1879.273806
21
-488.952359
31
0.0
0
ARC
8
0
10
1879.273806
20
-487.952359
30
0.0
40
1.000000
50
180.000000
51
270.000000
0
LINE
8
0
10
1878.273806
20
-487.952359
30
0.0
11
1878.273806
21
-442.852359
31
0.0
0
ARC
8
0
10
1878.773806
20
-442.852359
30
0.0
40
0.500000
50
90.000000
51
180.000000
0
LINE
8
0
10
1878.773806
20
-442.352359
30
0.0
11
1891.866699
21
-442.352359
31
0.0
0
ARC
8
0
10
1891.866699
20
-442.602359
30
0.0
40
0.250000
50
19.471221
51
90.000000
0
ARC
8
0
10
1892.573806
20
-442.352359
30
0.0
40
0.500000
50
199.471221
51
340.528779
0
ARC
8
0
10
1893.280913
20
-442.602359
30
0.0
40
0.250000
50
90.000000
51
160.528779
0
LINE
8
0
10
1893.280913
20
-442.352359
30
0.0
11
1893.866699
21
-442.352359
31
0.0
0
ARC
8
0
10
1893.866699
20
-442.602359
30
0.0
40
0.250000
50
19.471221
51
90.000000
0
ARC
8
0
10
1894.573806
20
-442.352359
30
0.0
40
0.500000
50
199.471221
51
340.528779
0
ARC
8
0
10
1881.773806
20
-416.352359
30
0.0
40
1.000000
50
90.000000
51
180.000000
0
LINE
8
0
10
1882.673806
20
-415.352359
30
0.0
11
1881.773806
21
-415.352359
31
0.0
0
ARC
8
0
10
1882.673806
20
-416.352359
30
0.0
40
1.000000
50
0.000000
51
90.000000
0
LINE
8
0
10
1883.673806
20
-421.052359
30
0.0
11
1883.673806
21
-416.352359
31
0.0
0
ARC
8
0
10
1885.173806
20
-421.052359
30
0.0
40
1.500000
50
180.000000
51
270.000000
0
LINE
8
0
10
1888.073806
20
-422.552359
30
0.0
11
1885.173806
21
-422.552359
31
0.0
0
ARC
8
0
10
1888.073806
20
-422.052359
30
0.0
40
0.500000
50
270.000000
51
0.000000
0
LINE
8
0
10
1888.573806
20
-420.937445
30
0.0
11
1888.573806
21
-422.052359
31
0.0
0
ARC
8
0
10
1888.073806
20
-420.937445
30
0.0
40
0.500000
50
0.000000
51
60.000000
0
LINE
8
0
10
1887.673806
20
-420.129154
30
0.0
11
1888.323806
21
-420.504432
31
0.0
0
ARC
8
0
10
1887.573806
20
-420.302359
30
0.0
40
0.200000
50
60.000000
51
180.000000
0
LINE
8
0
10
1887.373806
20
-420.852359
30
0.0
11
1887.373806
21
-420.302359
31
0.0
0
ARC
8
0
10
1886.873806
20
-420.852359
30
0.0
40
0.500000
50
270.000000
51
0.000000
0
LINE
8
0
10
1885.373806
20
-421.352359
30
0.0
11
1886.873806
21
-421.352359
31
0.0
0
ARC
8
0
10
1885.373806
20
-420.852359
30
0.0
40
0.500000
50
180.000000
51
270.000000
0
LINE
8
0
10
1884.873806
20
-415.352359
30
0.0
11
1884.873806
21
-420.852359
31
0.0
0
ARC
8
0
10
1885.373806
20
-415.352359
30
0.0
40
0.500000
50
90.000000
51
180.000000
0
LINE
8
0
10
1886.873806
20
-414.852359
30
0.0
11
1885.373806
21
-414.852359
31
0.0
0
ARC
8
0
10
1886.873806
20
-415.352359
30
0.0
40
0.500000
50
0.000000
51
90.000000
0
LINE
8
0
10
1887.373806
20
-415.902359
30
0.0
11
1887.373806
21
-415.352359
31
0.0
0
ARC
8
0
10
1887.573806
20
-415.902359
30
0.0
40
0.200000
50
180.000000
51
300.000000
0
LINE
8
0
10
1888.323806
20
-415.700287
30
0.0
11
1887.673806
21
-416.075565
31
0.0
0
ARC
8
0
10
1888.073806
20
-415.267274
30
0.0
40
0.500000
50
300.000000
51
0.000000
0
LINE
8
0
10
1888.573806
20
-414.152359
30
0.0
11
1888.573806
21
-415.267274
31
0.0
0
ARC
8
0
10
1888.073806
20
-414.152359
30
0.0
40
0.500000
50
0.000000
51
90.000000
0
LINE
8
0
10
1877.073806
20
-413.652359
30
0.0
11
1888.073806
21
-413.652359
31
0.0
0
ARC
8
0
10
1877.073806
20
-414.152359
30
0.0
40
0.500000
50
90.000000
51
180.000000
0
LINE
8
0
10
1876.573806
20
-511.152359
30
0.0
11
1876.573806
21
-414.152359
31
0.0
0
ARC
8
0
10
1878.073806
20
-511.152359
30
0.0
40
1.500000
50
180.000000
51
270.000000
0
LINE
8
0
10
1879.573806
20
-512.652359
30
0.0
11
1878.073806
21
-512.652359
31
0.0
0
ARC
8
0
10
1879.573806
20
-512.152359
30
0.0
40
0.500000
50
270.000000
51
0.000000
0
LINE
8
0
10
1880.073806
20
-510.652359
30
0.0
11
1880.073806
21
-512.152359
31
0.0
0
ARC
8
0
10
1879.573806
20
-510.652359
30
0.0
40
0.500000
50
0.000000
51
180.000000
0
ARC
8
0
10
1878.573806
20
-510.652359
30
0.0
40
0.500000
50
270.000000
51
0.000000
0
LINE
8
0
10
1878.273806
20
-511.152359
30
0.0
11
1878.573806
21
-511.152359
31
0.0
0
ARC
8
0
10
1878.273806
20
-510.652359
30
0.0
40
0.500000
50
180.000000
51
270.000000
0
LINE
8
0
10
1877.773806
20
-506.652359
30
0.0
11
1877.773806
21
-510.652359
31
0.0
0
ARC
8
0
10
1878.273806
20
-506.652359
30
0.0
40
0.500000
50
90.000000
51
180.000000
0
LINE
8
0
10
1878.573806
20
-506.152359
30
0.0
11
1878.273806
21
-506.152359
31
0.0
0
ARC
8
0
10
1878.573806
20
-506.652359
30
0.0
40
0.500000
50
0.000000
51
90.000000
0
ARC
8
0
10
1879.573806
20
-506.652359
30
0.0
40
0.500000
50
180.000000
51
0.000000
0
LINE
8
0
10
1880.073806
20
-505.152359
30
0.0
11
1880.073806
21
-506.652359
31
0.0
0
ARC
8
0
10
1879.573806
20
-505.152359
30
0.0
40
0.500000
50
0.000000
51
90.000000
0
LINE
8
0
10
1878.573806
20
-504.652359
30
0.0
11
1879.573806
21
-504.652359
31
0.0
0
ARC
8
0
10
1878.573806
20
-504.152359
30
0.0
40
0.500000
50
180.000000
51
270.000000
0
LINE
8
0
10
1878.073806
20
-491.152359
30
0.0
11
1878.073806
21
-504.152359
31
0.0
0
ARC
8
0
10
1878.573806
20
-491.152359
30
0.0
40
0.500000
50
90.000000
51
180.000000
0
LINE
8
0
10
1881.573806
20
-490.652359
30
0.0
11
1878.573806
21
-490.652359
31
0.0
0
ARC
8
0
10
1881.573806
20
-491.152359
30
0.0
40
0.500000
50
0.000000
51
90.000000
0
LINE
8
0
10
1882.073806
20
-493.652359
30
0.0
11
1882.073806
21
-491.152359
31
0.0
0
LINE
8
0
10
1881.773806
20
-493.652359
30
0.0
11
1882.073806
21
-493.652359
31
0.0
0
LINE
8
0
10
1881.773806
20
-494.652359
30
0.0
11
1881.773806
21
-493.652359
31
0.0
0
ARC
8
0
10
1882.273806
20
-494.652359
30
0.0
40
0.500000
50
180.000000
51
270.000000
0
LINE
8
0
10
1885.573806
20
-495.152359
30
0.0
11
1882.273806
21
-495.152359
31
0.0
0
ARC
8
0
10
1885.573806
20
-494.652359
30
0.0
40
0.500000
50
270.000000
51
0.000000
0
LINE
8
0
10
1886.073806
20
-494.152359
30
0.0
11
1886.073806
21
-494.652359
31
0.0
0
ARC
8
0
10
1885.573806
20
-494.152359
30
0.0
40
0.500000
50
0.000000
51
90.000000
0
LINE
8
0
10
1884.073806
20
-493.652359
30
0.0
11
1885.573806
21
-493.652359
31
0.0
0
ARC
8
0
10
1884.073806
20
-493.152359
30
0.0
40
0.500000
50
180.000000
51
270.000000
0
LINE
8
0
10
1883.573806
20
-491.152359
30
0.0
11
1883.573806
21
-493.152359
31
0.0
0
ARC
8
0
10
1884.073806
20
-491.152359
30
0.0
40
0.500000
50
90.000000
51
180.000000
0
LINE
8
0
10
1885.573806
20
-490.652359
30
0.0
11
1884.073806
21
-490.652359
31
0.0
0
ARC
8
0
10
1885.573806
20
-490.152359
30
0.0
40
0.500000
50
270.000000
51
0.000000
0
LINE
8
0
10
1886.073806
20
-489.652359
30
0.0
11
1886.073806
21
-490.152359
31
0.0
0
ARC
8
0
10
1886.573806
20
-489.652359
30
0.0
40
0.500000
50
90.000000
51
180.000000
0
LINE
8
0
10
1891.866699
20
-489.152359
30
0.0
11
1886.573806
21
-489.152359
31
0.0
0
ARC
8
0
10
1891.866699
20
-489.402359
30
0.0
40
0.250000
50
19.471221
51
90.000000
0
ARC
8
0
10
1892.573806
20
-489.152359
30
0.0
40
0.500000
50
199.471221
51
340.528779
0
ARC
8
0
10
1893.280913
20
-489.402359
30
0.0
40
0.250000
50
90.000000
51
160.528779
0
LINE
8
0
10
1893.280913
20
-489.152359
30
0.0
11
1893.866699
21
-489.152359
31
0.0
0
ARC
8
0
10
1893.866699
20
-489.402359
30
0.0
40
0.250000
50
19.471221
51
90.000000
0
ARC
8
0
10
1894.573806
20
-489.152359
30
0.0
40
0.500000
50
199.471221
51
340.528779
0
ARC
8
0
10
1895.280913
20
-489.402359
30
0.0
40
0.250000
50
90.000000
51
160.528779
0
LINE
8
0
10
1900.573806
20
-489.152359
30
0.0
11
1895.280913
21
-489.152359
31
0.0
0
ARC
8
0
10
1900.573806
20
-489.652359
30
0.0
40
0.500000
50
0.000000
51
90.000000
0
LINE
8
0
10
1901.073806
20
-490.152359
30
0.0
11
1901.073806
21
-489.652359
31
0.0
0
ARC
8
0
10
1901.573806
20
-490.152359
30
0.0
40
0.500000
50
180.000000
51
270.000000
0
LINE
8
0
10
1903.073806
20
-490.652359
30
0.0
11
1901.573806
21
-490.652359
31
0.0
0
ARC
8
0
10
1903.073806
20
-491.152359
30
0.0
40
0.500000
50
0.000000
51
90.000000
0
LINE
8
0
10
1903.573806
20
-493.152359
30
0.0
11
1903.573806
21
-491.152359
31
0.0
0
ARC
8
0
10
1903.073806
20
-493.152359
30
0.0
40
0.500000
50
270.000000
51
0.000000
0
LINE
8
0
10
1901.573806
20
-493.652359
30
0.0
11
1903.073806
21
-493.652359
31
0.0
0
ARC
8
0
10
1901.573806
20
-494.152359
30
0.0
40
0.500000
50
90.000000
51
180.000000
0
LINE
8
0
10
1901.073806
20
-494.652359
30
0.0
11
1901.073806
21
-494.152359
31
0.0
0
ARC
8
0
10
1901.573806
20
-494.652359
30
0.0
40
0.500000
50
180.000000
51
270.000000
0
LINE
8
0
10
1904.573806
20
-495.152359
30
0.0
11
1901.573806
21
-495.152359
31
0.0
0
ARC
8
0
10
1904.573806
20
-494.652359
30
0.0
40
0.500000
50
270.000000
51
0.000000
0
LINE
8
0
10
1905.073806
20
-489.652359
30
0.0
11
1905.073806
21
-494.652359
31
0.0
0
ARC
8
0
10
1905.573806
20
-489.652359
30
0.0
40
0.500000
50
90.000000
51
180.000000
0
LINE
8
0
10
1917.866699
20
-489.152359
30
0.0
11
1905.573806
21
-489.152359
31
0.0
0
ARC
8
0
10
1917.866699
20
-489.402359
30
0.0
40
0.250000
50
19.471221
51
90.000000
0
ARC
8
0
10
1918.573806
20
-489.152359
30
0.0
40
0.500000
50
199.471221
51
340.528779
0
ARC
8
0
10
1919.280913
20
-489.402359
30
0.0
40
0.250000
50
90.000000
51
160.528779
0
LINE
8
0
10
1919.280913
20
-489.152359
30
0.0
11
1919.866699
21
-489.152359
31
0.0
0
ARC
8
0
10
1919.866699
20
-489.402359
30
0.0
40
0.250000
50
19.471221
51
90.000000
0
ARC
8
0
10
1920.573806
20
-489.152359
30
0.0
40
0.500000
50
199.471221
51
340.528779
0
ARC
8
0
10
1921.280913
20
-489.402359
30
0.0
40
0.250000
50
90.000000
51
160.528779
0
LINE
8
0
10
1926.373806
20
-489.152359
30
0.0
11
1921.280913
21
-489.152359
31
0.0
0
ARC
8
0
10
1926.373806
20
-489.652359
30
0.0
40
0.500000
50
0.000000
51
90.000000
0
LINE
8
0
10
1926.873806
20
-494.652359
30
0.0
11
1926.873806
21
-489.652359
31
0.0
0
ARC
8
0
10
1927.373806
20
-494.652359
30
0.0
40
0.500000
50
180.000000
51
270.000000
0
LINE
8
0
10
1928.073806
20
-495.152359
30
0.0
11
1927.373806
21
-495.152359
31
0.0
0
ARC
8
0
10
1928.073806
20
-494.652359
30
0.0
40
0.500000
50
270.000000
51
0.000000
0
LINE
8
0
10
1928.573806
20
-480.152359
30
0.0
11
1928.573806
21
-494.652359
31
0.0
0
ARC
8
0
10
1929.073806
20
-480.152359
30
0.0
40
0.500000
50
90.000000
51
180.000000
0
LINE
8
0
10
1936.073806
20
-479.652359
30
0.0
11
1929.073806
21
-479.652359
31
0.0
0
ARC
8
0
10
1936.073806
20
-479.152359
30
0.0
40
0.500000
50
270.000000
51
0.000000
0
LINE
8
0
10
1936.573806
20
-436.152359
30
0.0
11
1936.573806
21
-479.152359
31
0.0
0
ARC
8
0
10
1936.073806
20
-436.152359
30
0.0
40
0.500000
50
0.000000
51
90.000000
0
LINE
8
0
10
1934.280913
20
-435.652359
30
0.0
11
1936.073806
21
-435.652359
31
0.0
0
ARC
8
0
10
1934.280913
20
-436.152359
30
0.0
40
0.500000
50
90.000000
51
135.000000
0
LINE
8
0
10
1933.220253
20
-436.505913
30
0.0
11
1933.927360
21
-435.798806
31
0.0
0
ARC
8
0
10
1933.573806
20
-436.859466
30
0.0
40
0.500000
50
135.000000
51
180.000000
0
LINE
8
0
10
1933.073806
20
-437.152359
30
0.0
11
1933.073806
21
-436.859466
31
0.0
0
ARC
8
0
10
1933.573806
20
-437.152359
30
0.0
40
0.500000
50
180.000000
51
270.000000
0
LINE
8
0
10
1934.573806
20
-437.652359
30
0.0
11
1933.573806
21
-437.652359
31
0.0
0
ARC
8
0
10
1934.573806
20
-438.152359
30
0.0
40
0.500000
50
0.000000
51
90.000000
0
LINE
8
0
10
1935.073806
20
-440.152359
30
0.0
11
1935.073806
21
-438.152359
31
0.0
0
ARC
8
0
10
1934.573806
20
-440.152359
30
0.0
40
0.500000
50
270.000000
51
0.000000
0
LINE
8
0
10
1917.573806
20
-440.652359
30
0.0
11
1934.573806
21
-440.652359
31
0.0
0
ARC
8
0
10
1917.573806
20
-440.152359
30
0.0
40
0.500000
50
180.000000
51
270.000000
0
LINE
8
0
10
1917.073806
20
-438.152359
30
0.0
11
1917.073806
21
-440.152359
31
0.0
0
ARC
8
0
10
1917.573806
20
-438.152359
30
0.0
40
0.500000
50
90.000000
51
180.000000
0
LINE
8
0
10
1918.573806
20
-437.652359
30
0.0
11
1917.573806
21
-437.652359
31
0.0
0
ARC
8
0
10
1918.573806
20
-437.152359
30
0.0
40
0.500000
50
270.000000
51
0.000000
0
LINE
8
0
10
1919.073806
20
-436.859466
30
0.0
11
1919.073806
21
-437.152359
31
0.0
0
ARC
8
0
10
1918.573806
20
-436.859466
30
0.0
40
0.500000
50
0.000000
51
45.000000
0
LINE
8
0
10
1918.220253
20
-435.798806
30
0.0
11
1918.927360
21
-436.505913
31
0.0
0
ARC
8
0
10
1917.866699
20
-436.152359
30
0.0
40
0.500000
50
45.000000
51
90.000000
0
LINE
8
0
10
1916.073806
20
-435.652359
30
0.0
11
1917.866699
21
-435.652359
31
0.0
0
ARC
8
0
10
1916.073806
20
-436.152359
30
0.0
40
0.500000
50
90.000000
51
180.000000
0
LINE
8
0
10
1915.573806
20
-440.152359
30
0.0
11
1915.573806
21
-436.152359
31
0.0
0
ARC
8
0
10
1915.073806
20
-440.152359
30
0.0
40
0.500000
50
270.000000
51
0.000000
0
LINE
8
0
10
1880.273806
20
-440.652359
30
0.0
11
1915.073806
21
-440.652359
31
0.0
0
ARC
8
0
10
1880.273806
20
-438.652359
30
0.0
40
2.000000
50
180.000000
51
270.000000
0
LINE
8
0
10
1878.273806
20
-427.752359
30
0.0
11
1878.273806
21
-438.652359
31
0.0
0
ARC
8
0
10
1878.773806
20
-427.752359
30
0.0
40
0.500000
50
90.000000
51
180.000000
0
LINE
8
0
10
1879.076094
20
-427.252359
30
0.0
11
1878.773806
21
-427.252359
31
0.0
0
ARC
8
0
10
1879.076094
20
-426.252359
30
0.0
40
1.000000
50
270.000000
51
339.446729
0
LINE
8
0
10
1880.803182
20
-424.494482
30
0.0
11
1880.012440
21
-426.603438
31
0.0
0
ARC
8
0
10
1880.323806
20
-424.352359
30
0.0
40
0.500000
50
343.486233
51
159.611617
0
LINE
8
0
10
1879.242482
20
-425.826550
30
0.0
11
1879.855130
21
-424.178168
31
0.0
0
ARC
8
0
10
1878.773806
20
-425.652359
30
0.0
40
0.500000
50
180.000000
51
339.611617
0
LINE
8
0
10
1878.273806
20
-415.852359
30
0.0
11
1878.273806
21
-425.652359
31
0.0
0
ARC
8
0
10
1878.773806
20
-415.852359
30
0.0
40
0.500000
50
18.834373
51
180.000000
0
LINE
8
0
10
1879.247034
20
-415.690943
30
0.0
11
1879.800578
21
-417.313776
31
0.0
0
ARC
8
0
10
1880.273806
20
-417.152359
30
0.0
40
0.500000
50
198.834373
51
0.000000
0
LINE
8
0
10
1880.773806
20
-416.352359
30
0.0
11
1880.773806
21
-417.152359
31
0.0
0
ATTDEF
8
0
10
1916.073806
20
-435.652359
30
0.0
40
3.5
1

3

2
VC_START
70
0
0
ATTDEF
8
0
10
1904.573806
20
-495.152359
30
0.0
40
3.5
1

3

2
VC_END
70
0
0
ATTDEF
8
0
10
1876.573806
20
-512.652359
30
0.0
40
3.5
1

3

2
DESC:Hoja puerta de rebatir hacia el exterior
70
0
0
ATTDEF
8
0
10
1876.573806
20
-512.652359
30
0.0
40
3.5
1

3

2
DENS:1.507000
70
0
0
ATTDEF
8
0
10
1876.573806
20
-512.652359
30
0.0
40
3.5
1

3

2
TDEV:0.000000
70
0
0
ATTDEF
8
0
10
1876.573806
20
-512.652359
30
0.0
40
3.5
1

3

2
TDEV2:0.000000
70
0
0
ATTDEF
8
0
10
1876.573806
20
-512.652359
30
0.0
40
3.5
1

3

2
TDEV3:0.000000
70
0
0
ATTDEF
8
0
10
1876.573806
20
-512.652359
30
0.0
40
3.5
1

3

2
TDEV4:0.000000
70
0
0
ATTDEF
8
0
10
1876.573806
20
-512.652359
30
0.0
40
3.5
1

3

2
TDEV5:0.000000
70
0
0
ATTDEF
8
0
10
1876.573806
20
-512.652359
30
0.0
40
3.5
1

3

2
FRONT_VIEW
70
0
0
ATTDEF
8
0
10
1876.573806
20
-512.652359
30
0.0
40
3.5
1

3

2
BL01:6500.000000,,1
70
0
0
ATTDEF
8
0
10
1876.573806
20
-512.652359
30
0.0
40
3.5
1

3

2
OPTI:500.000000,1,0,3000.000000,6500.000000,500.000000,0,0.000000,0
70
0
0
ATTDEF
8
0
10
1876.573806
20
-512.652359
30
0.0
40
3.5
1

3

2
PANE_WIDTH:0.000000
70
0
0
ATTDEF
8
0
10
1876.573806
20
-512.652359
30
0.0
40
3.5
1

3

2
GLASS_MIN:0.000000
70
0
0
ATTDEF
8
0
10
1876.573806
20
-512.652359
30
0.0
40
3.5
1

3

2
GLASS_MAX:0.000000
70
0
0
ATTDEF
8
0
10
1876.573806
20
-512.652359
30
0.0
40
3.5
1

3

2
JX:0.000000
70
0
0
ATTDEF
8
0
10
1876.573806
20
-512.652359
30
0.0
40
3.5
1

3

2
WX:0.000000
70
0
0
ATTDEF
8
0
10
1876.573806
20
-512.652359
30
0.0
40
3.5
1

3

2
JY:0.000000
70
0
0
ATTDEF
8
0
10
1876.573806
20
-512.652359
30
0.0
40
3.5
1

3

2
WY:0.000000
70
0
0
ATTDEF
8
0
10
1876.573806
20
-512.652359
30
0.0
40
3.5
1

3

2
FP_LCS_ORIG
70
0
0
ATTDEF
8
0
10
1886.573806
20
-512.652359
30
0.0
40
3.5
1

3

2
FP_LCS_HOT
70
0
0
ATTDEF
8
0
10
1876.573806
20
-502.652359
30
0.0
40
3.5
1

3

2
FP_LCS_INTERN
70
0
0
ENDSEC
0
EOF
>>>>>>> def_nod_a40
