  0
SECTION
  2
HEADER
  9
$ACADVER
  1
AC1015
  9
$ACADMAINTVER
 70
     6
  9
$DWGCODEPAGE
  3
ANSI_1252
  9
$INSBASE
 10
0.0
 20
0.0
 30
0.0
  9
$EXTMIN
 10
0.0
 20
-0.0085185434277264
 30
0.0
  9
$EXTMAX
 10
118.4986094388287
 20
94.95012639653055
 30
0.0
  9
$LIMMIN
 10
0.0
 20
0.0
  9
$LIMMAX
 10
12.0
 20
9.0
  9
$ORTHOMODE
 70
     0
  9
$REGENMODE
 70
     1
  9
$FILLMODE
 70
     1
  9
$QTEXTMODE
 70
     0
  9
$MIRRTEXT
 70
     0
  9
$LTSCALE
 40
1.0
  9
$ATTMODE
 70
     1
  9
$TEXTSIZE
 40
0.2
  9
$TRACEWID
 40
0.05
  9
$TEXTSTYLE
  7
Standard
  9
$CLAYER
  8
0
  9
$CELTYPE
  6
ByLayer
  9
$CECOLOR
 62
   256
  9
$CELTSCALE
 40
1.0
  9
$DISPSILH
 70
     0
  9
$DIMSCALE
 40
1.0
  9
$DIMASZ
 40
0.18
  9
$DIMEXO
 40
0.0625
  9
$DIMDLI
 40
0.38
  9
$DIMRND
 40
0.0
  9
$DIMDLE
 40
0.0
  9
$DIMEXE
 40
0.18
  9
$DIMTP
 40
0.0
  9
$DIMTM
 40
0.0
  9
$DIMTXT
 40
0.18
  9
$DIMCEN
 40
0.09
  9
$DIMTSZ
 40
0.0
  9
$DIMTOL
 70
     0
  9
$DIMLIM
 70
     0
  9
$DIMTIH
 70
     1
  9
$DIMTOH
 70
     1
  9
$DIMSE1
 70
     0
  9
$DIMSE2
 70
     0
  9
$DIMTAD
 70
     0
  9
$DIMZIN
 70
     0
  9
$DIMBLK
  1

  9
$DIMASO
 70
     1
  9
$DIMSHO
 70
     1
  9
$DIMPOST
  1

  9
$DIMAPOST
  1

  9
$DIMALT
 70
     0
  9
$DIMALTD
 70
     2
  9
$DIMALTF
 40
25.4
  9
$DIMLFAC
 40
1.0
  9
$DIMTOFL
 70
     0
  9
$DIMTVP
 40
0.0
  9
$DIMTIX
 70
     0
  9
$DIMSOXD
 70
     0
  9
$DIMSAH
 70
     0
  9
$DIMBLK1
  1

  9
$DIMBLK2
  1

  9
$DIMSTYLE
  2
Standard
  9
$DIMCLRD
 70
     0
  9
$DIMCLRE
 70
     0
  9
$DIMCLRT
 70
     0
  9
$DIMTFAC
 40
1.0
  9
$DIMGAP
 40
0.09
  9
$DIMJUST
 70
     0
  9
$DIMSD1
 70
     0
  9
$DIMSD2
 70
     0
  9
$DIMTOLJ
 70
     1
  9
$DIMTZIN
 70
     0
  9
$DIMALTZ
 70
     0
  9
$DIMALTTZ
 70
     0
  9
$DIMUPT
 70
     0
  9
$DIMDEC
 70
     4
  9
$DIMTDEC
 70
     4
  9
$DIMALTU
 70
     2
  9
$DIMALTTD
 70
     2
  9
$DIMTXSTY
  7
Standard
  9
$DIMAUNIT
 70
     0
  9
$DIMADEC
 70
     0
  9
$DIMALTRND
 40
0.0
  9
$DIMAZIN
 70
     0
  9
$DIMDSEP
 70
    46
  9
$DIMATFIT
 70
     3
  9
$DIMFRAC
 70
     0
  9
$DIMLDRBLK
  1

  9
$DIMLUNIT
 70
     2
  9
$DIMLWD
 70
    -2
  9
$DIMLWE
 70
    -2
  9
$DIMTMOVE
 70
     0
  9
$LUNITS
 70
     2
  9
$LUPREC
 70
     4
  9
$SKETCHINC
 40
0.1
  9
$FILLETRAD
 40
0.0
  9
$AUNITS
 70
     0
  9
$AUPREC
 70
     0
  9
$MENU
  1
.
  9
$ELEVATION
 40
0.0
  9
$PELEVATION
 40
0.0
  9
$THICKNESS
 40
0.0
  9
$LIMCHECK
 70
     0
  9
$CHAMFERA
 40
0.0
  9
$CHAMFERB
 40
0.0
  9
$CHAMFERC
 40
0.0
  9
$CHAMFERD
 40
0.0
  9
$SKPOLY
 70
     0
  9
$TDCREATE
 40
2452642.855050937
  9
$TDUCREATE
 40
2452643.063384271
  9
$TDUPDATE
 40
2458669.82420684
  9
$TDUUPDATE
 40
2458670.032540174
  9
$TDINDWG
 40
0.0001228472
  9
$TDUSRTIMER
 40
0.0001228472
  9
$USRTIMER
 70
     1
  9
$ANGBASE
 50
0.0
  9
$ANGDIR
 70
     0
  9
$PDMODE
 70
     0
  9
$PDSIZE
 40
0.0
  9
$PLINEWID
 40
0.0
  9
$SPLFRAME
 70
     0
  9
$SPLINETYPE
 70
     6
  9
$SPLINESEGS
 70
     8
  9
$HANDSEED
  5
18E
  9
$SURFTAB1
 70
     6
  9
$SURFTAB2
 70
     6
  9
$SURFTYPE
 70
     6
  9
$SURFU
 70
     6
  9
$SURFV
 70
     6
  9
$UCSBASE
  2

  9
$UCSNAME
  2

  9
$UCSORG
 10
0.0
 20
0.0
 30
0.0
  9
$UCSXDIR
 10
1.0
 20
0.0
 30
0.0
  9
$UCSYDIR
 10
0.0
 20
1.0
 30
0.0
  9
$UCSORTHOREF
  2

  9
$UCSORTHOVIEW
 70
     0
  9
$UCSORGTOP
 10
0.0
 20
0.0
 30
0.0
  9
$UCSORGBOTTOM
 10
0.0
 20
0.0
 30
0.0
  9
$UCSORGLEFT
 10
0.0
 20
0.0
 30
0.0
  9
$UCSORGRIGHT
 10
0.0
 20
0.0
 30
0.0
  9
$UCSORGFRONT
 10
0.0
 20
0.0
 30
0.0
  9
$UCSORGBACK
 10
0.0
 20
0.0
 30
0.0
  9
$PUCSBASE
  2

  9
$PUCSNAME
  2

  9
$PUCSORG
 10
0.0
 20
0.0
 30
0.0
  9
$PUCSXDIR
 10
1.0
 20
0.0
 30
0.0
  9
$PUCSYDIR
 10
0.0
 20
1.0
 30
0.0
  9
$PUCSORTHOREF
  2

  9
$PUCSORTHOVIEW
 70
     0
  9
$PUCSORGTOP
 10
0.0
 20
0.0
 30
0.0
  9
$PUCSORGBOTTOM
 10
0.0
 20
0.0
 30
0.0
  9
$PUCSORGLEFT
 10
0.0
 20
0.0
 30
0.0
  9
$PUCSORGRIGHT
 10
0.0
 20
0.0
 30
0.0
  9
$PUCSORGFRONT
 10
0.0
 20
0.0
 30
0.0
  9
$PUCSORGBACK
 10
0.0
 20
0.0
 30
0.0
  9
$USERI1
 70
     0
  9
$USERI2
 70
     0
  9
$USERI3
 70
     0
  9
$USERI4
 70
     0
  9
$USERI5
 70
     0
  9
$USERR1
 40
0.0
  9
$USERR2
 40
0.0
  9
$USERR3
 40
0.0
  9
$USERR4
 40
0.0
  9
$USERR5
 40
0.0
  9
$WORLDVIEW
 70
     1
  9
$SHADEDGE
 70
     3
  9
$SHADEDIF
 70
    70
  9
$TILEMODE
 70
     1
  9
$MAXACTVP
 70
    64
  9
$PINSBASE
 10
0.0
 20
0.0
 30
0.0
  9
$PLIMCHECK
 70
     0
  9
$PEXTMIN
 10
0.0
 20
0.0
 30
0.0
  9
$PEXTMAX
 10
0.0
 20
0.0
 30
0.0
  9
$PLIMMIN
 10
0.0
 20
0.0
  9
$PLIMMAX
 10
0.0
 20
0.0
  9
$UNITMODE
 70
     0
  9
$VISRETAIN
 70
     1
  9
$PLINEGEN
 70
     0
  9
$PSLTSCALE
 70
     1
  9
$TREEDEPTH
 70
  3020
  9
$CMLSTYLE
  2
Standard
  9
$CMLJUST
 70
     0
  9
$CMLSCALE
 40
1.0
  9
$PROXYGRAPHICS
 70
     1
  9
$MEASUREMENT
 70
     0
  9
$CELWEIGHT
370
    -1
  9
$ENDCAPS
280
     0
  9
$JOINSTYLE
280
     0
  9
$LWDISPLAY
290
     0
  9
$INSUNITS
 70
     1
  9
$HYPERLINKBASE
  1

  9
$STYLESHEET
  1

  9
$XEDIT
290
     1
  9
$CEPSNTYPE
380
     0
  9
$PSTYLEMODE
290
     1
  9
$FINGERPRINTGUID
  2
{FDEAD576-A652-11D2-9A35-0060089B3A3F}
  9
$VERSIONGUID
  2
{FBC2AE19-5C5C-49EC-81BC-71B1A3362A02}
  9
$EXTNAMES
290
     1
  9
$PSVPSCALE
 40
0.0
  9
$OLESTARTUP
290
     0
  0
ENDSEC
  0
SECTION
  2
CLASSES
  0
CLASS
  1
ACDBDICTIONARYWDFLT
  2
AcDbDictionaryWithDefault
  3
ObjectDBX Classes
 90
        0
280
     0
281
     0
  0
CLASS
  1
ACDBPLACEHOLDER
  2
AcDbPlaceHolder
  3
ObjectDBX Classes
 90
        0
280
     0
281
     0
  0
CLASS
  1
LAYOUT
  2
AcDbLayout
  3
ObjectDBX Classes
 90
        0
280
     0
281
     0
  0
CLASS
  1
DICTIONARYVAR
  2
AcDbDictionaryVar
  3
ObjectDBX Classes
 90
        0
280
     0
281
     0
  0
CLASS
  1
TABLESTYLE
  2
AcDbTableStyle
  3
ObjectDBX Classes
 90
     4095
280
     0
281
     0
  0
CLASS
  1
MATERIAL
  2
AcDbMaterial
  3
ObjectDBX Classes
 90
     1153
280
     0
281
     0
  0
CLASS
  1
VISUALSTYLE
  2
AcDbVisualStyle
  3
ObjectDBX Classes
 90
     4095
280
     0
281
     0
  0
CLASS
  1
SCALE
  2
AcDbScale
  3
ObjectDBX Classes
 90
     1153
280
     0
281
     0
  0
CLASS
  1
CELLSTYLEMAP
  2
AcDbCellStyleMap
  3
ObjectDBX Classes
 90
     1152
280
     0
281
     0
  0
CLASS
  1
RASTERVARIABLES
  2
AcDbRasterVariables
  3
ISM
 90
        0
280
     0
281
     0
  0
CLASS
  1
SUN
  2
AcDbSun
  3
SCENEOE
 90
     1153
280
     0
281
     0
  0
CLASS
  1
MLEADERSTYLE
  2
AcDbMLeaderStyle
  3
ACDB_MLEADERSTYLE_CLASS
 90
     4095
280
     0
281
     0
  0
CLASS
  1
SORTENTSTABLE
  2
AcDbSortentsTable
  3
ObjectDBX Classes
 90
        0
280
     0
281
     0
  0
ENDSEC
  0
SECTION
  2
TABLES
  0
TABLE
  2
VPORT
  5
8
330
0
100
AcDbSymbolTable
 70
     1
  0
VPORT
  5
94
330
8
100
AcDbSymbolTableRecord
100
AcDbViewportTableRecord
  2
*Active
 70
     0
 10
0.0
 20
0.0
 11
1.0
 21
1.0
 12
86.91876490724425
 22
67.00958097752735
 13
0.0
 23
0.0
 14
0.5
 24
0.5
 15
0.5
 25
0.5
 16
0.0
 26
0.0
 36
1.0
 17
-27.66959356597982
 27
-19.53870295786204
 37
0.0
 40
96.85742480585903
 41
2.67037552155772
 42
50.0
 43
0.0
 44
0.0
 50
0.0
 51
0.0
 71
    16
 72
  1000
 73
     1
 74
     3
 75
     0
 76
     0
 77
     0
 78
     0
281
     0
 65
     1
110
0.0
120
0.0
130
0.0
111
1.0
121
0.0
131
0.0
112
0.0
122
1.0
132
0.0
 79
     0
146
0.0
  0
ENDTAB
  0
TABLE
  2
LTYPE
  5
5
330
0
100
AcDbSymbolTable
 70
     1
  0
LTYPE
  5
14
330
5
100
AcDbSymbolTableRecord
100
AcDbLinetypeTableRecord
  2
ByBlock
 70
     0
  3

 72
    65
 73
     0
 40
0.0
  0
LTYPE
  5
15
330
5
100
AcDbSymbolTableRecord
100
AcDbLinetypeTableRecord
  2
ByLayer
 70
     0
  3

 72
    65
 73
     0
 40
0.0
  0
LTYPE
  5
16
330
5
100
AcDbSymbolTableRecord
100
AcDbLinetypeTableRecord
  2
Continuous
 70
     0
  3
Solid line
 72
    65
 73
     0
 40
0.0
  0
ENDTAB
  0
TABLE
  2
LAYER
  5
2
102
{ACAD_XDICTIONARY
360
141
102
}
330
0
100
AcDbSymbolTable
 70
     3
  0
LAYER
  5
10
330
2
100
AcDbSymbolTableRecord
100
AcDbLayerTableRecord
  2
0
 70
     0
 62
     7
  6
Continuous
370
    -3
390
F
  0
LAYER
  5
12B
102
{ACAD_XDICTIONARY
360
12C
102
}
330
2
100
AcDbSymbolTableRecord
100
AcDbLayerTableRecord
  2
PERFIL
 70
     0
 62
     2
  6
Continuous
370
     5
390
F
  0
LAYER
  5
12F
330
2
100
AcDbSymbolTableRecord
100
AcDbLayerTableRecord
  2
COTA
 70
     0
 62
     1
  6
Continuous
370
    13
390
F
  0
ENDTAB
  0
TABLE
  2
STYLE
  5
3
330
0
100
AcDbSymbolTable
 70
     3
  0
STYLE
  5
11
330
3
100
AcDbSymbolTableRecord
100
AcDbTextStyleTableRecord
  2
Standard
 70
     0
 40
0.0
 41
1.0
 50
0.0
 71
     0
 42
0.2
  3
arial.ttf
  4

1001
ACAD
1000
Arial
1071
        0
  0
STYLE
  5
125
330
3
100
AcDbSymbolTableRecord
100
AcDbTextStyleTableRecord
  2
Annotative
 70
     0
 40
0.0
 41
1.0
 50
0.0
 71
     0
 42
0.2
  3
arial.ttf
  4

1001
ACAD
1000
Arial
1071
        0
1001
AcadAnnotative
1000
AnnotativeData
1002
{
1070
     1
1070
     1
1002
}
  0
STYLE
  5
136
330
3
100
AcDbSymbolTableRecord
100
AcDbTextStyleTableRecord
  2
ARIAL
 70
     0
 40
0.0
 41
1.0
 50
0.0
 71
     0
 42
0.2
  3
arial.ttf
  4

1001
ACAD
1000
Arial
1071
       34
  0
ENDTAB
  0
TABLE
  2
VIEW
  5
6
330
0
100
AcDbSymbolTable
 70
     0
  0
ENDTAB
  0
TABLE
  2
UCS
  5
7
330
0
100
AcDbSymbolTable
 70
     0
  0
ENDTAB
  0
TABLE
  2
APPID
  5
9
330
0
100
AcDbSymbolTable
 70
     5
  0
APPID
  5
12
330
9
100
AcDbSymbolTableRecord
100
AcDbRegAppTableRecord
  2
ACAD
 70
     0
  0
APPID
  5
126
330
9
100
AcDbSymbolTableRecord
100
AcDbRegAppTableRecord
  2
AcadAnnotative
 70
     0
  0
APPID
  5
133
330
9
100
AcDbSymbolTableRecord
100
AcDbRegAppTableRecord
  2
ACAD_DSTYLE_DIMJAG
 70
     0
  0
APPID
  5
134
330
9
100
AcDbSymbolTableRecord
100
AcDbRegAppTableRecord
  2
ACAD_DSTYLE_DIMTALN
 70
     0
  0
APPID
  5
135
330
9
100
AcDbSymbolTableRecord
100
AcDbRegAppTableRecord
  2
ACAD_PSEXT
 70
     0
  0
ENDTAB
  0
TABLE
  2
DIMSTYLE
  5
A
330
0
100
AcDbSymbolTable
 70
     3
100
AcDbDimStyleTable
  0
DIMSTYLE
105
27
330
A
100
AcDbSymbolTableRecord
100
AcDbDimStyleTableRecord
  2
Standard
 70
     0
178
     0
340
11
  0
DIMSTYLE
105
127
330
A
100
AcDbSymbolTableRecord
100
AcDbDimStyleTableRecord
  2
Annotative
 70
     0
 40
0.0
178
     0
340
11
1001
AcadAnnotative
1000
AnnotativeData
1002
{
1070
     1
1070
     1
1002
}
  0
DIMSTYLE
105
132
330
A
100
AcDbSymbolTableRecord
100
AcDbDimStyleTableRecord
  2
1EN1
 70
     0
 41
2.5
 42
0.0
 43
0.8
 44
1.25
 73
     0
 74
     0
 77
     1
 78
     8
140
2.5
141
0.0
143
0.0394
147
1.0
171
     4
271
     1
178
     7
271
     1
272
     1
273
     8
274
     4
275
     1
340
11
1001
ACAD_DSTYLE_DIMJAG
1070
   388
1040
1.5
1001
ACAD_DSTYLE_DIMTALN
1070
   392
1070
     0
  0
ENDTAB
  0
TABLE
  2
BLOCK_RECORD
  5
1
330
0
100
AcDbSymbolTable
 70
     2
  0
BLOCK_RECORD
  5
1F
330
1
100
AcDbSymbolTableRecord
100
AcDbBlockTableRecord
  2
*Model_Space
340
22
  0
BLOCK_RECORD
  5
58
330
1
100
AcDbSymbolTableRecord
100
AcDbBlockTableRecord
  2
*Paper_Space
340
59
  0
BLOCK_RECORD
  5
5D
330
1
100
AcDbSymbolTableRecord
100
AcDbBlockTableRecord
  2
*Paper_Space0
340
5E
  0
ENDTAB
  0
ENDSEC
  0
SECTION
  2
BLOCKS
  0
BLOCK
  5
20
330
1F
100
AcDbEntity
  8
0
100
AcDbBlockBegin
  2
*Model_Space
 70
     0
 10
0.0
 20
0.0
 30
0.0
  3
*Model_Space
  1

  0
ENDBLK
  5
21
330
1F
100
AcDbEntity
  8
0
100
AcDbBlockEnd
  0
BLOCK
  5
5A
330
58
100
AcDbEntity
 67
     1
  8
0
100
AcDbBlockBegin
  2
*Paper_Space
 70
     0
 10
0.0
 20
0.0
 30
0.0
  3
*Paper_Space
  1

  0
ENDBLK
  5
5B
330
58
100
AcDbEntity
 67
     1
  8
0
100
AcDbBlockEnd
  0
BLOCK
  5
5F
330
5D
100
AcDbEntity
  8
0
100
AcDbBlockBegin
  2
*Paper_Space0
 70
     0
 10
0.0
 20
0.0
 30
0.0
  3
*Paper_Space0
  1

  0
ENDBLK
  5
60
330
5D
100
AcDbEntity
  8
0
100
AcDbBlockEnd
  0
ENDSEC
  0
SECTION
  2
ENTITIES
  0
ARC
  5
147
330
1F
100
AcDbEntity
  8
PERFIL
100
AcDbCircle
 10
-3.0
 20
39.26397988348049
 30
0.0
 40
1.0
210
0.0
220
0.0
230
-1.0
100
AcDbArc
 50
315.0000000000092
 51
0.0
  0
LINE
  5
148
330
1F
100
AcDbEntity
  8
PERFIL
100
AcDbLine
 10
2.0
 20
39.26397988348049
 30
0.0
 11
2.0
 21
84.40012639653082
 31
0.0
  0
ARC
  5
149
330
1F
100
AcDbEntity
  8
PERFIL
100
AcDbCircle
 10
-3.0
 20
84.40012639653082
 30
0.0
 40
1.0
210
0.0
220
0.0
230
-1.0
100
AcDbArc
 50
0.0
 51
90.0
  0
LINE
  5
14A
330
1F
100
AcDbEntity
  8
PERFIL
100
AcDbLine
 10
3.0
 20
85.40012639653082
 30
0.0
 11
109.5540835026386
 21
85.40012639653082
 31
0.0
  0
ARC
  5
14B
330
1F
100
AcDbEntity
  8
PERFIL
100
AcDbCircle
 10
-109.5540835026386
 20
83.4001263965306
 30
0.0
 40
2.0
210
0.0
220
0.0
230
-1.0
100
AcDbArc
 50
90.0
 51
224.9999999999908
  0
LINE
  5
14C
330
1F
100
AcDbEntity
  8
PERFIL
100
AcDbLine
 10
110.9682970650119
 20
81.98591283415772
 30
0.0
 11
35.62318205721431
 21
6.640797826311427
 31
0.0
  0
ARC
  5
14D
330
1F
100
AcDbEntity
  8
PERFIL
100
AcDbCircle
 10
-34.91607527600718
 20
7.347904607495366
 30
0.0
 40
1.0
210
0.0
220
0.0
230
-1.0
100
AcDbArc
 50
224.9999999999908
 51
314.9999999999724
  0
LINE
  5
14E
330
1F
100
AcDbEntity
  8
PERFIL
100
AcDbLine
 10
34.20896849482142
 20
6.640797826308471
 30
0.0
 11
2.292893218819245
 21
38.55687310229018
 31
0.0
  0
LINE
  5
14F
330
1F
100
AcDbEntity
  8
PERFIL
100
AcDbLine
 10
118.4900908954005
 20
76.17874383918002
 30
0.0
 11
117.834498966663
 21
78.62544622625705
 31
0.0
  0
ARC
  5
150
330
1F
100
AcDbEntity
  8
PERFIL
100
AcDbCircle
 10
117.3515360535184
 20
78.49603670370584
 30
0.0
 40
0.5000000000003597
100
AcDbArc
 50
14.99999999993063
 51
104.999999999981
  0
LINE
  5
151
330
1F
100
AcDbEntity
  8
PERFIL
100
AcDbLine
 10
117.2221265309672
 20
78.97899961685061
 30
0.0
 11
116.8875200094717
 21
78.88934206963427
 31
0.0
  0
ARC
  5
152
330
1F
100
AcDbEntity
  8
PERFIL
100
AcDbCircle
 10
116.7581104869196
 20
79.37230498277881
 30
0.0
 40
0.5000000000000824
100
AcDbArc
 50
225.0000000001474
 51
285.0000000001019
  0
LINE
  5
153
330
1F
100
AcDbEntity
  8
PERFIL
100
AcDbLine
 10
116.4045570963272
 20
79.0187515921848
 30
0.0
 11
113.9706134126486
 21
81.45269527586242
 31
0.0
  0
ARC
  5
154
330
1F
100
AcDbEntity
  8
PERFIL
100
AcDbCircle
 10
114.3241668032415
 20
81.80624866645553
 30
0.0
 40
0.5000000000000021
100
AcDbArc
 50
134.9999999999263
 51
225.0
  0
LINE
  5
155
330
1F
100
AcDbEntity
  8
PERFIL
100
AcDbLine
 10
113.9706134126491
 20
82.15980205704886
 30
0.0
 11
115.1555669710092
 21
83.34475561026466
 31
0.0
  0
ARC
  5
156
330
1F
100
AcDbEntity
  8
PERFIL
100
AcDbCircle
 10
114.8020135804163
 20
83.69830900085799
 30
0.0
 40
0.5
100
AcDbArc
 50
315.0
 51
45.0
  0
LINE
  5
157
330
1F
100
AcDbEntity
  8
PERFIL
100
AcDbLine
 10
115.1555669710096
 20
84.05186239145132
 30
0.0
 11
114.1464466094062
 21
85.06098275819977
 31
0.0
  0
ARC
  5
158
330
1F
100
AcDbEntity
  8
PERFIL
100
AcDbCircle
 10
114.5
 20
85.41453614879288
 30
0.0
 40
0.5
100
AcDbArc
 50
180.0
 51
225.0
  0
LINE
  5
159
330
1F
100
AcDbEntity
  8
PERFIL
100
AcDbLine
 10
114.0
 20
85.4145361487931
 30
0.0
 11
114.0
 21
86.9001263965306
 31
0.0
  0
ARC
  5
15A
330
1F
100
AcDbEntity
  8
PERFIL
100
AcDbCircle
 10
113.5
 20
86.90012639653082
 30
0.0
 40
0.5
100
AcDbArc
 50
0.0
 51
90.0
  0
LINE
  5
15B
330
1F
100
AcDbEntity
  8
PERFIL
100
AcDbLine
 10
113.5
 20
87.40012639653082
 30
0.0
 11
111.8000000000002
 21
87.40012639653082
 31
0.0
  0
ARC
  5
15C
330
1F
100
AcDbEntity
  8
PERFIL
100
AcDbCircle
 10
111.8000000000002
 20
87.90012639653082
 30
0.0
 40
0.4999999999999999
100
AcDbArc
 50
180.0
 51
270.0
  0
LINE
  5
15D
330
1F
100
AcDbEntity
  8
PERFIL
100
AcDbLine
 10
111.3000000000002
 20
87.90012639653082
 30
0.0
 11
111.3000000000002
 21
91.34224256404218
 31
0.0
  0
ARC
  5
15E
330
1F
100
AcDbEntity
  8
PERFIL
100
AcDbCircle
 10
111.8000000000002
 20
91.34224256404173
 30
0.0
 40
0.5000000000000845
100
AcDbArc
 50
119.9999999999973
 51
179.9999999999479
  0
LINE
  5
15F
330
1F
100
AcDbEntity
  8
PERFIL
100
AcDbLine
 10
111.5500000000002
 20
91.77525526593399
 30
0.0
 11
111.8500000000004
 21
91.94846034669149
 31
0.0
  0
ARC
  5
160
330
1F
100
AcDbEntity
  8
PERFIL
100
AcDbCircle
 10
111.6000000000004
 20
92.38147304858398
 30
0.0
 40
0.4999999999999641
100
AcDbArc
 50
299.9999999999973
 51
30.00000000001031
  0
LINE
  5
161
330
1F
100
AcDbEntity
  8
PERFIL
100
AcDbLine
 10
112.0330127018924
 20
92.63147304858398
 30
0.0
 11
110.7665063509467
 21
94.82512639653055
 31
0.0
  0
ARC
  5
162
330
1F
100
AcDbEntity
  8
PERFIL
100
AcDbCircle
 10
110.5500000000002
 20
94.70012639653055
 30
0.0
 40
0.25
100
AcDbArc
 50
30.00000000001031
 51
180.0
  0
LINE
  5
163
330
1F
100
AcDbEntity
  8
PERFIL
100
AcDbLine
 10
110.3000000000002
 20
94.70012639653055
 30
0.0
 11
110.3000000000002
 21
87.9001263965306
 31
0.0
  0
ARC
  5
164
330
1F
100
AcDbEntity
  8
PERFIL
100
AcDbCircle
 10
109.8000000000002
 20
87.90012639653082
 30
0.0
 40
0.4999999999999999
100
AcDbArc
 50
270.0
 51
0.0
  0
LINE
  5
165
330
1F
100
AcDbEntity
  8
PERFIL
100
AcDbLine
 10
109.8000000000002
 20
87.40012639653082
 30
0.0
 11
58.0
 21
87.40012639653082
 31
0.0
  0
ARC
  5
166
330
1F
100
AcDbEntity
  8
PERFIL
100
AcDbCircle
 10
58.0
 20
87.90012639653082
 30
0.0
 40
0.4999999999999999
100
AcDbArc
 50
180.0
 51
270.0
  0
LINE
  5
167
330
1F
100
AcDbEntity
  8
PERFIL
100
AcDbLine
 10
57.50000000000091
 20
87.90012639653082
 30
0.0
 11
57.50000000000091
 21
94.70012639653078
 31
0.0
  0
ARC
  5
168
330
1F
100
AcDbEntity
  8
PERFIL
100
AcDbCircle
 10
57.25
 20
94.70012639653055
 30
0.0
 40
0.25
100
AcDbArc
 50
0.0
 51
149.9999999999897
  0
LINE
  5
169
330
1F
100
AcDbEntity
  8
PERFIL
100
AcDbLine
 10
57.03349364905444
 20
94.82512639653055
 30
0.0
 11
55.76698729810823
 21
92.63147304858285
 31
0.0
  0
ARC
  5
16A
330
1F
100
AcDbEntity
  8
PERFIL
100
AcDbCircle
 10
56.19999999999982
 20
92.38147304858285
 30
0.0
 40
0.5000000000002324
100
AcDbArc
 50
149.9999999999446
 51
240.0000000000157
  0
LINE
  5
16B
330
1F
100
AcDbEntity
  8
PERFIL
100
AcDbLine
 10
55.94999999999982
 20
91.94846034669035
 30
0.0
 11
56.25000000000091
 21
91.77525526593399
 31
0.0
  0
ARC
  5
16C
330
1F
100
AcDbEntity
  8
PERFIL
100
AcDbCircle
 10
56.0
 20
91.34224256404195
 30
0.0
 40
0.4999999999999193
100
AcDbArc
 50
0.0
 51
59.99999999987337
  0
LINE
  5
16D
330
1F
100
AcDbEntity
  8
PERFIL
100
AcDbLine
 10
56.5
 20
91.3422425640415
 30
0.0
 11
56.5
 21
87.90012639653082
 31
0.0
  0
ARC
  5
16E
330
1F
100
AcDbEntity
  8
PERFIL
100
AcDbCircle
 10
56.0
 20
87.90012639653082
 30
0.0
 40
0.4999999999999999
100
AcDbArc
 50
270.0
 51
0.0
  0
LINE
  5
16F
330
1F
100
AcDbEntity
  8
PERFIL
100
AcDbLine
 10
56.0
 20
87.40012639653082
 30
0.0
 11
4.0
 21
87.40012639653082
 31
0.0
  0
ARC
  5
170
330
1F
100
AcDbEntity
  8
PERFIL
100
AcDbCircle
 10
4.0
 20
87.90012639653082
 30
0.0
 40
0.4999999999999999
100
AcDbArc
 50
180.0
 51
270.0
  0
LINE
  5
171
330
1F
100
AcDbEntity
  8
PERFIL
100
AcDbLine
 10
3.5
 20
87.90012639653082
 30
0.0
 11
3.5
 21
94.70012639653078
 31
0.0
  0
ARC
  5
172
330
1F
100
AcDbEntity
  8
PERFIL
100
AcDbCircle
 10
3.25
 20
94.70012639653055
 30
0.0
 40
0.25
100
AcDbArc
 50
0.0
 51
149.9999999999897
  0
LINE
  5
173
330
1F
100
AcDbEntity
  8
PERFIL
100
AcDbLine
 10
3.033493649054435
 20
94.82512639653055
 30
0.0
 11
1.766987298108688
 21
92.63147304858398
 31
0.0
  0
ARC
  5
174
330
1F
100
AcDbEntity
  8
PERFIL
100
AcDbCircle
 10
2.199999999999818
 20
92.38147304858398
 30
0.0
 40
0.5000000000000057
100
AcDbArc
 50
149.9999999999897
 51
240.000000000119
  0
LINE
  5
175
330
1F
100
AcDbEntity
  8
PERFIL
100
AcDbLine
 10
1.950000000000728
 20
91.94846034669149
 30
0.0
 11
2.25
 21
91.77525526593399
 31
0.0
  0
ARC
  5
176
330
1F
100
AcDbEntity
  8
PERFIL
100
AcDbCircle
 10
2.0
 20
91.34224256404264
 30
0.0
 40
0.4999999999995263
100
AcDbArc
 50
0.0
 51
59.99999999996363
  0
LINE
  5
177
330
1F
100
AcDbEntity
  8
PERFIL
100
AcDbLine
 10
2.5
 20
91.34224256404218
 30
0.0
 11
2.5
 21
87.40012639653173
 31
0.0
  0
ARC
  5
178
330
1F
100
AcDbEntity
  8
PERFIL
100
AcDbCircle
 10
2.0
 20
87.40012639653173
 30
0.0
 40
0.4999999999999999
100
AcDbArc
 50
270.0
 51
0.0
  0
LINE
  5
179
330
1F
100
AcDbEntity
  8
PERFIL
100
AcDbLine
 10
2.0
 20
86.90012639653173
 30
0.0
 11
0.5
 21
86.90012639653173
 31
0.0
  0
ARC
  5
17A
330
1F
100
AcDbEntity
  8
PERFIL
100
AcDbCircle
 10
0.5
 20
86.40012639653173
 30
0.0
 40
0.4999999999999999
100
AcDbArc
 50
90.0
 51
180.0
  0
LINE
  5
17B
330
1F
100
AcDbEntity
  8
PERFIL
100
AcDbLine
 10
0.0
 20
86.40012639653173
 30
0.0
 11
0.0
 21
39.05687310229405
 31
0.0
  0
ARC
  5
17C
330
1F
100
AcDbEntity
  8
PERFIL
100
AcDbCircle
 10
2.5
 20
39.05687310229382
 30
0.0
 40
2.5
100
AcDbArc
 50
180.0
 51
225.0000000000184
  0
LINE
  5
17D
330
1F
100
AcDbEntity
  8
PERFIL
100
AcDbLine
 10
0.7322330470342422
 20
37.28910614932693
 30
0.0
 11
34.20896849481642
 21
3.812370701566124
 31
0.0
  0
ARC
  5
17E
330
1F
100
AcDbEntity
  8
PERFIL
100
AcDbCircle
 10
34.56252188541566
 20
4.165924092155137
 30
0.0
 40
0.5000000000000062
100
AcDbArc
 50
225.0
 51
315.0
  0
LINE
  5
17F
330
1F
100
AcDbEntity
  8
PERFIL
100
AcDbLine
 10
34.916075276009
 20
3.812370701561804
 30
0.0
 11
35.97673544778809
 21
4.873030873342032
 31
0.0
  0
ARC
  5
180
330
1F
100
AcDbEntity
  8
PERFIL
100
AcDbCircle
 10
36.33028883838142
 20
4.519477482748925
 30
0.0
 40
0.500000000000006
100
AcDbArc
 50
45.0
 51
135.0
  0
LINE
  5
181
330
1F
100
AcDbEntity
  8
PERFIL
100
AcDbLine
 10
36.68384222897475
 20
4.873030873342259
 30
0.0
 11
39.47133930324662
 21
2.085533799071072
 31
0.0
  0
ARC
  5
182
330
1F
100
AcDbEntity
  8
PERFIL
100
AcDbCircle
 10
39.11778591265374
 20
1.731980408477739
 30
0.0
 40
0.5000000000003361
100
AcDbArc
 50
345.0000000000945
 51
45.00000000003685
  0
LINE
  5
183
330
1F
100
AcDbEntity
  8
PERFIL
100
AcDbLine
 10
39.6007488257992
 20
1.60257088592698
 30
0.0
 11
39.51109127858126
 21
1.267964364431919
 31
0.0
  0
ARC
  5
184
330
1F
100
AcDbEntity
  8
PERFIL
100
AcDbCircle
 10
39.99405419172672
 20
1.13855484188025
 30
0.0
 40
0.5000000000001897
100
AcDbArc
 50
164.9999999999804
 51
255.0000000000123
  0
LINE
  5
185
330
1F
100
AcDbEntity
  8
PERFIL
100
AcDbLine
 10
39.8646446691755
 20
0.6555919287352481
 30
0.0
 11
42.31134705625163
 21
-0.0000000000002274
 31
0.0
  0
ARC
  5
186
330
1F
100
AcDbEntity
  8
PERFIL
100
AcDbCircle
 10
42.3760518175277
 20
0.2414814565722736
 30
0.0
 40
0.25
100
AcDbArc
 50
255.0000000000056
 51
45.0
  0
LINE
  5
187
330
1F
100
AcDbEntity
  8
PERFIL
100
AcDbLine
 10
42.55282851282391
 20
0.4182581518689403
 30
0.0
 11
37.7445024007543
 21
5.226584263937184
 31
0.0
  0
ARC
  5
188
330
1F
100
AcDbEntity
  8
PERFIL
100
AcDbCircle
 10
38.09805579134718
 20
5.58013765453029
 30
0.0
 40
0.5000000000000021
100
AcDbArc
 50
135.0
 51
225.0
  0
LINE
  5
189
330
1F
100
AcDbEntity
  8
PERFIL
100
AcDbLine
 10
37.74450240075384
 20
5.933691045123624
 30
0.0
 11
112.5563998502553
 21
80.74558849467303
 31
0.0
  0
ARC
  5
18A
330
1F
100
AcDbEntity
  8
PERFIL
100
AcDbCircle
 10
112.9099532408691
 20
80.3920351040822
 30
0.0
 40
0.500000000000006
100
AcDbArc
 50
45.0
 51
135.0
  0
LINE
  5
18B
330
1F
100
AcDbEntity
  8
PERFIL
100
AcDbLine
 10
113.2635066314624
 20
80.7455884946753
 30
0.0
 11
118.0718327435316
 21
75.93726238260751
 31
0.0
  0
ARC
  5
18C
330
1F
100
AcDbEntity
  8
PERFIL
100
AcDbCircle
 10
118.2486094388287
 20
76.11403907790441
 30
0.0
 40
0.25
100
AcDbArc
 50
225.0
 51
14.99999999999445
  0
ENDSEC
  0
SECTION
  2
OBJECTS
  0
DICTIONARY
  5
C
330
0
100
AcDbDictionary
281
     1
  3
ACAD_DETAILVIEWSTYLE
350
122
  3
ACAD_GROUP
350
D
  3
ACAD_IMAGE_VARS
350
DC
  3
ACAD_LAYOUT
350
1A
  3
ACAD_MLINESTYLE
350
17
  3
ACAD_PLOTSETTINGS
350
19
  3
ACAD_PLOTSTYLENAME
350
E
  3
ACAD_SCALELIST
350
B6
  3
ACAD_SECTIONVIEWSTYLE
350
123
  3
AcDbVariableDictionary
350
66
  3
APPDATA
350
E1
  3
DWGPROPS
350
18D
  0
DICTIONARY
  5
141
330
2
100
AcDbDictionary
280
     1
281
     1
  3
ACAD_LAYERSTATES
360
142
  0
DICTIONARY
  5
12C
330
12B
100
AcDbDictionary
280
     1
281
     1
  3
ADSK_XREC_LAYER_RECONCILED
360
12D
  0
DICTIONARY
  5
122
102
{ACAD_REACTORS
330
C
102
}
330
C
100
AcDbDictionary
281
     1
  0
DICTIONARY
  5
D
102
{ACAD_REACTORS
330
C
102
}
330
C
100
AcDbDictionary
281
     1
  0
RASTERVARIABLES
  5
DC
102
{ACAD_REACTORS
330
C
102
}
330
C
100
AcDbRasterVariables
 90
        0
 70
     1
 71
     1
 72
     5
  0
DICTIONARY
  5
1A
102
{ACAD_REACTORS
330
C
102
}
330
C
100
AcDbDictionary
281
     1
  3
Model
350
22
  3
Sheet1
350
59
  3
Sheet2
350
5E
  0
DICTIONARY
  5
17
102
{ACAD_REACTORS
330
C
102
}
330
C
100
AcDbDictionary
281
     1
  3
Standard
350
18
  0
DICTIONARY
  5
19
102
{ACAD_REACTORS
330
C
102
}
330
C
100
AcDbDictionary
281
     1
  0
ACDBDICTIONARYWDFLT
  5
E
102
{ACAD_REACTORS
330
C
102
}
330
C
100
AcDbDictionary
281
     1
  3
Normal
350
F
100
AcDbDictionaryWithDefault
340
F
  0
DICTIONARY
  5
B6
102
{ACAD_REACTORS
330
C
102
}
330
C
100
AcDbDictionary
281
     1
  3
A0
350
B7
  3
A1
350
B8
  3
A2
350
B9
  3
A3
350
BA
  3
A4
350
BB
  3
A5
350
BC
  3
A6
350
BD
  3
A7
350
BE
  3
A8
350
BF
  3
A9
350
C0
  3
B0
350
C1
  3
B1
350
C2
  3
B2
350
C3
  3
B3
350
C4
  3
B4
350
C5
  3
B5
350
C6
  3
B6
350
C7
  3
B7
350
C8
  3
B8
350
C9
  3
B9
350
CA
  3
C0
350
CB
  3
C1
350
CC
  3
C2
350
CD
  3
C3
350
CE
  3
C4
350
CF
  3
C5
350
D0
  3
C6
350
D1
  3
C7
350
D2
  3
C8
350
D3
  3
C9
350
D4
  3
D0
350
D5
  3
D1
350
D6
  3
D2
350
D7
  0
DICTIONARY
  5
123
102
{ACAD_REACTORS
330
C
102
}
330
C
100
AcDbDictionary
281
     1
  0
DICTIONARY
  5
66
102
{ACAD_REACTORS
330
C
102
}
330
C
100
AcDbDictionary
281
     1
  3
DIMASSOC
350
67
  3
HIDETEXT
350
6B
  0
DICTIONARY
  5
E1
102
{ACAD_REACTORS
330
C
102
}
330
C
100
AcDbDictionary
281
     1
  0
XRECORD
  5
18D
102
{ACAD_REACTORS
330
C
102
}
330
C
100
AcDbXrecord
280
     1
  1
DWGPROPS COOKIE
  2

  3

  4

  6

  7

  8
perez
  9

300
=
301
=
302
=
303
=
304
=
305
=
306
=
307
=
308
=
309
=
 40
0.0
 41
2452643.063384271
 42
2458670.032540174
  1

 90
        0
  0
DICTIONARY
  5
142
102
{ACAD_REACTORS
330
141
102
}
330
141
100
AcDbDictionary
281
     1
  0
XRECORD
  5
12D
102
{ACAD_REACTORS
330
12C
102
}
330
12C
100
AcDbXrecord
280
     1
290
     1
  0
LAYOUT
  5
22
102
{ACAD_REACTORS
330
1A
102
}
330
1A
100
AcDbPlotSettings
  1

  2
none_device
  4
ANSI_A_(8.50_x_11.00_Inches)
  6

 40
6.35
 41
19.05
 42
6.35
 43
19.05
 44
215.9
 45
279.4
 46
11.11250000000003
 47
0.0000000000000142
 48
0.0
 49
0.0
140
0.0
141
0.0
142
1.0
143
1.263157894736842
 70
 11444
 72
     0
 73
     1
 74
     1
  7
monochrome.ctb
 75
     0
147
0.7916666666666665
148
-702.8076765758875
149
-496.2830551296954
100
AcDbLayout
  1
Model
 70
     1
 71
     0
 10
0.0
 20
0.0
 11
12.0
 21
9.0
 12
0.0
 22
0.0
 32
0.0
 14
0.0
 24
-0.0085185434277264
 34
0.0
 15
118.4986094388287
 25
94.95012639653055
 35
0.0
146
0.0
 13
0.0
 23
0.0
 33
0.0
 16
1.0
 26
0.0
 36
0.0
 17
0.0
 27
1.0
 37
0.0
 76
     0
330
1F
331
94
  0
LAYOUT
  5
59
102
{ACAD_REACTORS
330
1A
102
}
330
1A
100
AcDbPlotSettings
  1

  2
None
  4

  6

 40
0.0
 41
0.0
 42
0.0
 43
0.0
 44
0.0
 45
0.0
 46
0.0
 47
0.0
 48
0.0
 49
0.0
140
0.0
141
0.0
142
1.0
143
1.0
 70
   688
 72
     0
 73
     0
 74
     5
  7

 75
    16
147
1.0
148
0.0
149
0.0
100
AcDbLayout
  1
Sheet1
 70
     1
 71
     1
 10
0.0
 20
0.0
 11
12.0
 21
9.0
 12
0.0
 22
0.0
 32
0.0
 14
0.0
 24
0.0
 34
0.0
 15
0.0
 25
0.0
 35
0.0
146
0.0
 13
0.0
 23
0.0
 33
0.0
 16
1.0
 26
0.0
 36
0.0
 17
0.0
 27
1.0
 37
0.0
 76
     0
330
58
  0
LAYOUT
  5
5E
102
{ACAD_REACTORS
330
1A
102
}
330
1A
100
AcDbPlotSettings
  1

  2
None
  4

  6

 40
0.0
 41
0.0
 42
0.0
 43
0.0
 44
0.0
 45
0.0
 46
0.0
 47
0.0
 48
0.0
 49
0.0
140
0.0
141
0.0
142
1.0
143
1.0
 70
   688
 72
     0
 73
     0
 74
     5
  7

 75
    16
147
1.0
148
0.0
149
0.0
100
AcDbLayout
  1
Sheet2
 70
     1
 71
     2
 10
0.0
 20
0.0
 11
12.0
 21
9.0
 12
0.0
 22
0.0
 32
0.0
 14
0.0
 24
0.0
 34
0.0
 15
0.0
 25
0.0
 35
0.0
146
0.0
 13
0.0
 23
0.0
 33
0.0
 16
1.0
 26
0.0
 36
0.0
 17
0.0
 27
1.0
 37
0.0
 76
     0
330
5D
  0
MLINESTYLE
  5
18
102
{ACAD_REACTORS
330
17
102
}
330
17
100
AcDbMlineStyle
  2
STANDARD
 70
     0
  3

 62
   256
 51
90.0
 52
90.0
 71
     2
 49
0.5
 62
   256
  6
BYLAYER
 49
-0.5
 62
   256
  6
BYLAYER
  0
ACDBPLACEHOLDER
  5
F
102
{ACAD_REACTORS
330
E
102
}
330
E
  0
SCALE
  5
B7
102
{ACAD_REACTORS
330
B6
102
}
330
B6
100
AcDbScale
 70
     0
300
1:1
140
1.0
141
1.0
290
     1
  0
SCALE
  5
B8
102
{ACAD_REACTORS
330
B6
102
}
330
B6
100
AcDbScale
 70
     0
300
1:2
140
1.0
141
2.0
290
     0
  0
SCALE
  5
B9
102
{ACAD_REACTORS
330
B6
102
}
330
B6
100
AcDbScale
 70
     0
300
1:4
140
1.0
141
4.0
290
     0
  0
SCALE
  5
BA
102
{ACAD_REACTORS
330
B6
102
}
330
B6
100
AcDbScale
 70
     0
300
1:5
140
1.0
141
5.0
290
     0
  0
SCALE
  5
BB
102
{ACAD_REACTORS
330
B6
102
}
330
B6
100
AcDbScale
 70
     0
300
1:8
140
1.0
141
8.0
290
     0
  0
SCALE
  5
BC
102
{ACAD_REACTORS
330
B6
102
}
330
B6
100
AcDbScale
 70
     0
300
1:10
140
1.0
141
10.0
290
     0
  0
SCALE
  5
BD
102
{ACAD_REACTORS
330
B6
102
}
330
B6
100
AcDbScale
 70
     0
300
1:16
140
1.0
141
16.0
290
     0
  0
SCALE
  5
BE
102
{ACAD_REACTORS
330
B6
102
}
330
B6
100
AcDbScale
 70
     0
300
1:20
140
1.0
141
20.0
290
     0
  0
SCALE
  5
BF
102
{ACAD_REACTORS
330
B6
102
}
330
B6
100
AcDbScale
 70
     0
300
1:30
140
1.0
141
30.0
290
     0
  0
SCALE
  5
C0
102
{ACAD_REACTORS
330
B6
102
}
330
B6
100
AcDbScale
 70
     0
300
1:40
140
1.0
141
40.0
290
     0
  0
SCALE
  5
C1
102
{ACAD_REACTORS
330
B6
102
}
330
B6
100
AcDbScale
 70
     0
300
1:50
140
1.0
141
50.0
290
     0
  0
SCALE
  5
C2
102
{ACAD_REACTORS
330
B6
102
}
330
B6
100
AcDbScale
 70
     0
300
1:100
140
1.0
141
100.0
290
     0
  0
SCALE
  5
C3
102
{ACAD_REACTORS
330
B6
102
}
330
B6
100
AcDbScale
 70
     0
300
2:1
140
2.0
141
1.0
290
     0
  0
SCALE
  5
C4
102
{ACAD_REACTORS
330
B6
102
}
330
B6
100
AcDbScale
 70
     0
300
4:1
140
4.0
141
1.0
290
     0
  0
SCALE
  5
C5
102
{ACAD_REACTORS
330
B6
102
}
330
B6
100
AcDbScale
 70
     0
300
8:1
140
8.0
141
1.0
290
     0
  0
SCALE
  5
C6
102
{ACAD_REACTORS
330
B6
102
}
330
B6
100
AcDbScale
 70
     0
300
10:1
140
10.0
141
1.0
290
     0
  0
SCALE
  5
C7
102
{ACAD_REACTORS
330
B6
102
}
330
B6
100
AcDbScale
 70
     0
300
100:1
140
100.0
141
1.0
290
     0
  0
SCALE
  5
C8
102
{ACAD_REACTORS
330
B6
102
}
330
B6
100
AcDbScale
 70
     0
300
1/128" = 1'-0"
140
0.0078125
141
12.0
290
     0
  0
SCALE
  5
C9
102
{ACAD_REACTORS
330
B6
102
}
330
B6
100
AcDbScale
 70
     0
300
1/64" = 1'-0"
140
0.015625
141
12.0
290
     0
  0
SCALE
  5
CA
102
{ACAD_REACTORS
330
B6
102
}
330
B6
100
AcDbScale
 70
     0
300
1/32" = 1'-0"
140
0.03125
141
12.0
290
     0
  0
SCALE
  5
CB
102
{ACAD_REACTORS
330
B6
102
}
330
B6
100
AcDbScale
 70
     0
300
1/16" = 1'-0"
140
0.0625
141
12.0
290
     0
  0
SCALE
  5
CC
102
{ACAD_REACTORS
330
B6
102
}
330
B6
100
AcDbScale
 70
     0
300
3/32" = 1'-0"
140
0.09375
141
12.0
290
     0
  0
SCALE
  5
CD
102
{ACAD_REACTORS
330
B6
102
}
330
B6
100
AcDbScale
 70
     0
300
1/8" = 1'-0"
140
0.125
141
12.0
290
     0
  0
SCALE
  5
CE
102
{ACAD_REACTORS
330
B6
102
}
330
B6
100
AcDbScale
 70
     0
300
3/16" = 1'-0"
140
0.1875
141
12.0
290
     0
  0
SCALE
  5
CF
102
{ACAD_REACTORS
330
B6
102
}
330
B6
100
AcDbScale
 70
     0
300
1/4" = 1'-0"
140
0.25
141
12.0
290
     0
  0
SCALE
  5
D0
102
{ACAD_REACTORS
330
B6
102
}
330
B6
100
AcDbScale
 70
     0
300
3/8" = 1'-0"
140
0.375
141
12.0
290
     0
  0
SCALE
  5
D1
102
{ACAD_REACTORS
330
B6
102
}
330
B6
100
AcDbScale
 70
     0
300
1/2" = 1'-0"
140
0.5
141
12.0
290
     0
  0
SCALE
  5
D2
102
{ACAD_REACTORS
330
B6
102
}
330
B6
100
AcDbScale
 70
     0
300
3/4" = 1'-0"
140
0.75
141
12.0
290
     0
  0
SCALE
  5
D3
102
{ACAD_REACTORS
330
B6
102
}
330
B6
100
AcDbScale
 70
     0
300
1" = 1'-0"
140
1.0
141
12.0
290
     0
  0
SCALE
  5
D4
102
{ACAD_REACTORS
330
B6
102
}
330
B6
100
AcDbScale
 70
     0
300
1-1/2" = 1'-0"
140
1.5
141
12.0
290
     0
  0
SCALE
  5
D5
102
{ACAD_REACTORS
330
B6
102
}
330
B6
100
AcDbScale
 70
     0
300
3" = 1'-0"
140
3.0
141
12.0
290
     0
  0
SCALE
  5
D6
102
{ACAD_REACTORS
330
B6
102
}
330
B6
100
AcDbScale
 70
     0
300
6" = 1'-0"
140
6.0
141
12.0
290
     0
  0
SCALE
  5
D7
102
{ACAD_REACTORS
330
B6
102
}
330
B6
100
AcDbScale
 70
     0
300
1'-0" = 1'-0"
140
12.0
141
12.0
290
     0
  0
DICTIONARYVAR
  5
67
102
{ACAD_REACTORS
330
66
102
}
330
66
100
DictionaryVariables
280
     0
  1
2
  0
DICTIONARYVAR
  5
6B
102
{ACAD_REACTORS
330
66
102
}
330
66
100
DictionaryVariables
280
     0
  1
1
  0
ENDSEC
  0
EOF
