  0
SECTION
  2
ENTITIES
  0
POLYLINE
  8
0
 66
     1
 10
0.0
 20
0.0
 30
0.0
 70
     1
  0
VERTEX
  8
0
 10
73.995678
 20
101.943423
 30
0.0
  0
VERTEX
  8
0
 10
73.995678
 20
151.943423
 30
0.0
  0
VERTEX
  8
0
 10
87.995678
 20
151.943423
 30
0.0
  0
VERTEX
  8
0
 10
87.995678
 20
101.943423
 30
0.0
  0
SEQEND
  8
0
  0
ENDSEC
  0
EOF
