  0
SECTION
  2
ENTITIES
  0
POLYLINE
  8
0
 66
     1
 10
0.0
 20
0.0
 30
0.0
 70
     1
  0
VERTEX
  8
0
 10
111.159969
 20
101.521198
 30
0.0
  0
VERTEX
  8
0
 10
111.159969
 20
151.521198
 30
0.0
  0
VERTEX
  8
0
 10
127.159969
 20
151.521198
 30
0.0
  0
VERTEX
  8
0
 10
127.159969
 20
101.521198
 30
0.0
  0
SEQEND
  8
0
  0
ENDSEC
  0
EOF
