  0
SECTION
  2
ENTITIES
  0
POLYLINE
  8
0
 66
     1
 10
0.0
 20
0.0
 30
0.0
 70
     1
  0
VERTEX
  8
0
 10
155.063846
 20
100.906137
 30
0.0
  0
VERTEX
  8
0
 10
155.063846
 20
150.906137
 30
0.0
  0
VERTEX
  8
0
 10
175.063846
 20
150.906137
 30
0.0
  0
VERTEX
  8
0
 10
175.063846
 20
100.906137
 30
0.0
  0
SEQEND
  8
0
  0
ENDSEC
  0
EOF
