0
SECTION
2
ENTITIES
0
LINE
8
0
10
42.040000
20
0.000000
30
0.0
11
42.040000
21
155.752656
31
0.0
0
LINE
8
0
10
41.040000
20
0.000000
30
0.0
11
41.040000
21
155.752656
31
0.0
0
LINE
8
0
10
40.040000
20
0.000000
30
0.0
11
40.040000
21
155.752656
31
0.0
0
LINE
8
0
10
39.040000
20
155.752656
30
0.0
11
39.040000
21
0.000000
31
0.0
0
LINE
8
0
10
39.040000
20
0.000000
30
0.0
11
43.040000
21
0.000000
31
0.0
0
LINE
8
0
10
43.040000
20
0.000000
30
0.0
11
43.040000
21
155.752656
31
0.0
0
LINE
8
0
10
37.280000
20
0.000000
30
0.0
11
37.280000
21
155.752656
31
0.0
0
LINE
8
0
10
36.280000
20
0.000000
30
0.0
11
36.280000
21
155.752656
31
0.0
0
LINE
8
0
10
35.280000
20
0.000000
30
0.0
11
35.280000
21
155.752656
31
0.0
0
LINE
8
0
10
34.280000
20
155.752656
30
0.0
11
34.280000
21
0.000000
31
0.0
0
LINE
8
0
10
34.280000
20
0.000000
30
0.0
11
38.280000
21
0.000000
31
0.0
0
LINE
8
0
10
38.280000
20
0.000000
30
0.0
11
38.280000
21
155.752656
31
0.0
0
LINE
8
0
10
29.520000
20
155.752656
30
0.0
11
29.520000
21
0.000000
31
0.0
0
LINE
8
0
10
29.520000
20
0.000000
30
0.0
11
33.520000
21
0.000000
31
0.0
0
LINE
8
0
10
33.520000
20
0.000000
30
0.0
11
33.520000
21
155.752656
31
0.0
0
LINE
8
0
10
0.000000
20
155.752656
30
0.0
11
0.000000
21
0.000000
31
0.0
0
LINE
8
0
10
0.000000
20
0.000000
30
0.0
11
3.000000
21
0.000000
31
0.0
0
LINE
8
0
10
3.000000
20
0.000000
30
0.0
11
3.000000
21
155.752656
31
0.0
0
LINE
8
0
10
1.000000
20
155.752656
30
0.0
11
1.000000
21
0.000000
31
0.0
0
LINE
8
0
10
2.000000
20
155.752656
30
0.0
11
2.000000
21
0.000000
31
0.0
0
LINE
8
0
10
5.380000
20
155.752656
30
0.0
11
5.380000
21
0.000000
31
0.0
0
LINE
8
0
10
4.380000
20
155.752656
30
0.0
11
4.380000
21
0.000000
31
0.0
0
LINE
8
0
10
3.380000
20
155.752656
30
0.0
11
3.380000
21
0.000000
31
0.0
0
LINE
8
0
10
3.380000
20
0.000000
30
0.0
11
6.380000
21
0.000000
31
0.0
0
LINE
8
0
10
6.380000
20
0.000000
30
0.0
11
6.380000
21
155.752656
31
0.0
0
LINE
8
0
10
6.760000
20
155.752656
30
0.0
11
6.760000
21
0.000000
31
0.0
0
LINE
8
0
10
6.760000
20
0.000000
30
0.0
11
9.760000
21
0.000000
31
0.0
0
LINE
8
0
10
9.760000
20
0.000000
30
0.0
11
9.760000
21
155.752656
31
0.0
0
LINE
8
0
10
24.760000
20
155.752656
30
0.0
11
24.760000
21
0.000000
31
0.0
0
LINE
8
0
10
24.760000
20
0.000000
30
0.0
11
28.760000
21
0.000000
31
0.0
0
LINE
8
0
10
28.760000
20
0.000000
30
0.0
11
28.760000
21
155.752656
31
0.0
0
LINE
8
0
10
27.760000
20
0.000000
30
0.0
11
27.760000
21
155.752656
31
0.0
0
LINE
8
0
10
26.760000
20
0.000000
30
0.0
11
26.760000
21
155.752656
31
0.0
0
LINE
8
0
10
25.760000
20
0.000000
30
0.0
11
25.760000
21
155.752656
31
0.0
0
LINE
8
0
10
7.760000
20
155.752656
30
0.0
11
7.760000
21
0.000000
31
0.0
0
LINE
8
0
10
8.760000
20
155.752656
30
0.0
11
8.760000
21
0.000000
31
0.0
0
LINE
8
0
10
30.520000
20
0.000000
30
0.0
11
30.520000
21
155.752656
31
0.0
0
LINE
8
0
10
31.520000
20
0.000000
30
0.0
11
31.520000
21
155.752656
31
0.0
0
LINE
8
0
10
32.520000
20
0.000000
30
0.0
11
32.520000
21
155.752656
31
0.0
0
LINE
8
0
10
24.760000
20
0.000000
30
0.0
11
9.760000
21
0.000000
31
0.0
0
LINE
8
0
10
24.760000
20
10.000000
30
0.0
11
9.760000
21
10.000000
31
0.0
0
LINE
8
0
10
23.260000
20
6.500000
30
0.0
11
23.260000
21
3.500000
31
0.0
0
ARC
8
0
10
21.260001
20
3.499999
30
0.0
40
1.999999
50
269.999957
51
360.000000
0
LINE
8
0
10
21.260000
20
1.500000
30
0.0
11
13.260000
21
1.500000
31
0.0
0
ARC
8
0
10
13.259999
20
3.499999
30
0.0
40
1.999999
50
180.000000
51
270.000043
0
LINE
8
0
10
11.260000
20
3.500000
30
0.0
11
11.260000
21
6.500000
31
0.0
0
ARC
8
0
10
13.259999
20
6.500001
30
0.0
40
1.999999
50
89.999957
51
180.000000
0
LINE
8
0
10
13.260000
20
8.500000
30
0.0
11
21.260000
21
8.500000
31
0.0
0
ARC
8
0
10
21.260001
20
6.500001
30
0.0
40
1.999999
50
360.000000
51
90.000043
0
ATTDEF
8
0
10
0.000000
20
0.000000
30
0.0
40
3.5
1

3

2
DESC:Safety Glass 43/44 mm.
70
0
0
ATTDEF
8
0
10
0.000000
20
0.000000
30
0.0
40
3.5
1

3

2
DENS:0.000000
70
0
0
ATTDEF
8
0
10
0.000000
20
0.000000
30
0.0
40
3.5
1

3

2
TDEV:0.000000
70
0
0
ATTDEF
8
0
10
0.000000
20
0.000000
30
0.0
40
3.5
1

3

2
FRONT_VIEW
70
0
0
ATTDEF
8
0
10
0.000000
20
0.000000
30
0.0
40
3.5
1

3

2
BL01:6500.000000,,1
70
0
0
ATTDEF
8
0
10
0.000000
20
0.000000
30
0.0
40
3.5
1

3

2
OPTI:1500.000000,1,0,3000.000000,6500.000000,500.000000,0,0.000000
70
0
0
ATTDEF
8
0
10
0.000000
20
0.000000
30
0.0
40
3.5
1

3

2
PANE_WIDTH:0.000000
70
0
0
ATTDEF
8
0
10
0.000000
20
0.000000
30
0.0
40
3.5
1

3

2
FP_LCS_ORIG
70
0
0
ATTDEF
8
0
10
10.000000
20
0.000000
30
0.0
40
3.5
1

3

2
FP_LCS_HOT
70
0
0
ATTDEF
8
0
10
0.000000
20
10.000000
30
0.0
40
3.5
1

3

2
FP_LCS_INTERN
70
0
0
ENDSEC
0
EOF
