  0
SECTION
  2
ENTITIES
  0
LINE
  8
VETRI
 62
     5
 10
162.13089
 20
55.476417
 30
0.0
 11
162.13089
 21
205.476417
 31
0.0
  0
LINE
  8
VETRI
 62
     5
 10
163.13089
 20
55.476417
 30
0.0
 11
163.13089
 21
205.476417
 31
0.0
  0
LINE
  8
VETRI
 62
     5
 10
164.13089
 20
55.476417
 30
0.0
 11
164.13089
 21
205.476417
 31
0.0
  0
POLYLINE
  8
VETRI
 66
     1
 10
0.0
 20
0.0
 30
0.0
  0
VERTEX
  8
VETRI
 10
161.13089
 20
205.476417
 30
0.0
  0
VERTEX
  8
VETRI
 10
161.13089
 20
55.476417
 30
0.0
  0
VERTEX
  8
VETRI
 10
165.13089
 20
55.476417
 30
0.0
  0
VERTEX
  8
VETRI
 10
165.13089
 20
205.476417
 30
0.0
  0
SEQEND
  8
VETRI
  0
LINE
  8
VETRI
 62
     5
 10
166.51089
 20
55.476417
 30
0.0
 11
166.51089
 21
205.476417
 31
0.0
  0
LINE
  8
VETRI
 62
     5
 10
167.51089
 20
55.476417
 30
0.0
 11
167.51089
 21
205.476417
 31
0.0
  0
LINE
  8
VETRI
 62
     5
 10
168.51089
 20
55.476417
 30
0.0
 11
168.51089
 21
205.476417
 31
0.0
  0
POLYLINE
  8
VETRI
 66
     1
 10
0.0
 20
0.0
 30
0.0
  0
VERTEX
  8
VETRI
 10
165.51089
 20
205.476417
 30
0.0
  0
VERTEX
  8
VETRI
 10
165.51089
 20
55.476417
 30
0.0
  0
VERTEX
  8
VETRI
 10
169.51089
 20
55.476417
 30
0.0
  0
VERTEX
  8
VETRI
 10
169.51089
 20
205.476417
 30
0.0
  0
SEQEND
  8
VETRI
  0
LINE
  8
VETRI
 62
     5
 10
143.75089
 20
55.476417
 30
0.0
 11
143.75089
 21
205.476417
 31
0.0
  0
LINE
  8
VETRI
 62
     5
 10
142.75089
 20
55.476417
 30
0.0
 11
142.75089
 21
205.476417
 31
0.0
  0
LINE
  8
VETRI
 62
     5
 10
141.75089
 20
55.476417
 30
0.0
 11
141.75089
 21
205.476417
 31
0.0
  0
POLYLINE
  8
VETRI
 66
     1
 10
0.0
 20
0.0
 30
0.0
  0
VERTEX
  8
VETRI
 10
144.75089
 20
205.476417
 30
0.0
  0
VERTEX
  8
VETRI
 10
144.75089
 20
55.476417
 30
0.0
  0
VERTEX
  8
VETRI
 10
140.75089
 20
55.476417
 30
0.0
  0
VERTEX
  8
VETRI
 10
140.75089
 20
205.476417
 30
0.0
  0
SEQEND
  8
VETRI
  0
POLYLINE
  8
VETRI
 66
     1
 10
0.0
 20
0.0
 30
0.0
  0
VERTEX
  8
VETRI
 10
149.13089
 20
205.476417
 30
0.0
  0
VERTEX
  8
VETRI
 10
149.13089
 20
55.476417
 30
0.0
  0
VERTEX
  8
VETRI
 10
145.13089
 20
55.476417
 30
0.0
  0
VERTEX
  8
VETRI
 10
145.13089
 20
205.476417
 30
0.0
  0
SEQEND
  8
VETRI
  0
LINE
  8
VETRI
 62
     5
 10
146.13089
 20
55.476417
 30
0.0
 11
146.13089
 21
205.476417
 31
0.0
  0
LINE
  8
VETRI
 62
     5
 10
147.13089
 20
55.476417
 30
0.0
 11
147.13089
 21
205.476417
 31
0.0
  0
LINE
  8
VETRI
 62
     5
 10
148.13089
 20
55.476417
 30
0.0
 11
148.13089
 21
205.476417
 31
0.0
  0
LINE
  8
VETRI
 62
     1
 10
161.13089
 20
55.476417
 30
0.0
 11
149.13089
 21
55.476417
 31
0.0
  0
LINE
  8
VETRI
 62
     1
 10
161.13089
 20
65.476417
 30
0.0
 11
149.13089
 21
65.476417
 31
0.0
  0
POLYLINE
  8
VETRI
 62
     1
 66
     1
 10
0.0
 20
0.0
 30
0.0
 70
     1
  0
VERTEX
  8
VETRI
 62
     1
 10
159.63089
 20
61.976417
 30
0.0
  0
VERTEX
  8
VETRI
 62
     1
 10
159.63089
 20
58.976417
 30
0.0
 42
-0.414214
  0
VERTEX
  8
VETRI
 62
     1
 10
157.63089
 20
56.976417
 30
0.0
  0
VERTEX
  8
VETRI
 62
     1
 10
152.63089
 20
56.976417
 30
0.0
 42
-0.414214
  0
VERTEX
  8
VETRI
 62
     1
 10
150.63089
 20
58.976417
 30
0.0
  0
VERTEX
  8
VETRI
 62
     1
 10
150.63089
 20
61.976417
 30
0.0
 42
-0.414214
  0
VERTEX
  8
VETRI
 62
     1
 10
152.63089
 20
63.976417
 30
0.0
  0
VERTEX
  8
VETRI
 62
     1
 10
157.63089
 20
63.976417
 30
0.0
 42
-0.414214
  0
SEQEND
  8
VETRI
 62
     1
  0
ENDSEC
  0
EOF
