0
SECTION
2
ENTITIES
0
LINE
8
0
10
0.000000
20
0.000000
30
0.0
11
0.000000
21
50.000000
31
0.0
0
LINE
8
0
10
1.000000
20
0.000000
30
0.0
11
1.000000
21
50.000000
31
0.0
0
LINE
8
0
10
2.000000
20
0.000000
30
0.0
11
2.000000
21
50.000000
31
0.0
0
LINE
8
0
10
3.000000
20
0.000000
30
0.0
11
3.000000
21
50.000000
31
0.0
0
LINE
8
0
10
4.000000
20
0.000000
30
0.0
11
4.000000
21
50.000000
31
0.0
0
LINE
8
0
10
5.000000
20
0.000000
30
0.0
11
5.000000
21
50.000000
31
0.0
0
LINE
8
0
10
6.000000
20
0.000000
30
0.0
11
6.000000
21
50.000000
31
0.0
0
LINE
8
0
10
7.000000
20
0.000000
30
0.0
11
7.000000
21
50.000000
31
0.0
0
LINE
8
0
10
8.000000
20
0.000000
30
0.0
11
8.000000
21
50.000000
31
0.0
0
LINE
8
0
10
9.000000
20
0.000000
30
0.0
11
9.000000
21
50.000000
31
0.0
0
LINE
8
0
10
10.000000
20
0.000000
30
0.0
11
10.000000
21
50.000000
31
0.0
0
LINE
8
0
10
11.000000
20
0.000000
30
0.0
11
11.000000
21
50.000000
31
0.0
0
LINE
8
0
10
0.000000
20
0.000000
30
0.0
11
11.000000
21
0.000000
31
0.0
0
ENDSEC
0
EOF
