0
SECTION
2
ENTITIES
0
LINE
8
0
10
8.760000
20
50.000000
30
0.0
11
8.760000
21
0.000000
31
0.0
0
LINE
8
0
10
8.760000
20
0.000000
30
0.0
11
4.760000
21
0.000000
31
0.0
0
LINE
8
0
10
4.760000
20
0.000000
30
0.0
11
4.760000
21
50.000000
31
0.0
0
LINE
8
0
10
3.000000
20
0.000000
30
0.0
11
3.000000
21
50.000000
31
0.0
0
LINE
8
0
10
2.000000
20
0.000000
30
0.0
11
2.000000
21
50.000000
31
0.0
0
LINE
8
0
10
1.000000
20
0.000000
30
0.0
11
1.000000
21
50.000000
31
0.0
0
LINE
8
0
10
4.000000
20
50.000000
30
0.0
11
4.000000
21
0.000000
31
0.0
0
LINE
8
0
10
4.000000
20
0.000000
30
0.0
11
0.000000
21
0.000000
31
0.0
0
LINE
8
0
10
0.000000
20
0.000000
30
0.0
11
0.000000
21
50.000000
31
0.0
0
LINE
8
0
10
5.760000
20
0.000000
30
0.0
11
5.760000
21
50.000000
31
0.0
0
LINE
8
0
10
23.760000
20
50.000000
30
0.0
11
23.760000
21
0.000000
31
0.0
0
LINE
8
0
10
6.760000
20
0.000000
30
0.0
11
6.760000
21
50.000000
31
0.0
0
LINE
8
0
10
7.760000
20
0.000000
30
0.0
11
7.760000
21
50.000000
31
0.0
0
LINE
8
0
10
22.760000
20
50.000000
30
0.0
11
22.760000
21
0.000000
31
0.0
0
LINE
8
0
10
21.760000
20
50.000000
30
0.0
11
21.760000
21
0.000000
31
0.0
0
LINE
8
0
10
24.760000
20
50.000000
30
0.0
11
24.760000
21
0.000000
31
0.0
0
LINE
8
0
10
25.760000
20
50.000000
30
0.0
11
25.760000
21
0.000000
31
0.0
0
LINE
8
0
10
25.760000
20
0.000000
30
0.0
11
20.760000
21
0.000000
31
0.0
0
LINE
8
0
10
20.760000
20
0.000000
30
0.0
11
20.760000
21
50.000000
31
0.0
0
LINE
8
0
10
10.260000
20
6.500000
30
0.0
11
10.260000
21
3.500000
31
0.0
0
ARC
8
0
10
12.259999
20
3.499999
30
0.0
40
1.999999
50
180.000000
51
270.000043
0
LINE
8
0
10
12.260000
20
1.500000
30
0.0
11
17.260000
21
1.500000
31
0.0
0
ARC
8
0
10
17.260001
20
3.499999
30
0.0
40
1.999999
50
269.999957
51
360.000000
0
LINE
8
0
10
19.260000
20
3.500000
30
0.0
11
19.260000
21
6.500000
31
0.0
0
ARC
8
0
10
17.260001
20
6.500001
30
0.0
40
1.999999
50
360.000000
51
90.000043
0
LINE
8
0
10
17.260000
20
8.500000
30
0.0
11
12.260000
21
8.500000
31
0.0
0
ARC
8
0
10
12.259999
20
6.500001
30
0.0
40
1.999999
50
89.999957
51
180.000000
0
LINE
8
0
10
8.760000
20
0.000000
30
0.0
11
20.760000
21
0.000000
31
0.0
0
LINE
8
0
10
8.760000
20
10.000000
30
0.0
11
20.760000
21
10.000000
31
0.0
0
ATTDEF
8
0
10
0.000000
20
0.000000
30
0.0
40
3.5
1

3

2
DESC:Thermal Glass 4+4 pvb 0,38/12/5 Totale mm. 25/26
70
0
0
ATTDEF
8
0
10
0.000000
20
0.000000
30
0.0
40
3.5
1

3

2
DENS:0.000000
70
0
0
ATTDEF
8
0
10
0.000000
20
0.000000
30
0.0
40
3.5
1

3

2
TDEV:0.000000
70
0
0
ATTDEF
8
0
10
0.000000
20
0.000000
30
0.0
40
3.5
1

3

2
FRONT_VIEW
70
0
0
ATTDEF
8
0
10
0.000000
20
0.000000
30
0.0
40
3.5
1

3

2
BL01:6500.000000,,1
70
0
0
ATTDEF
8
0
10
0.000000
20
0.000000
30
0.0
40
3.5
1

3

2
OPTI:500.000000,1,0,3000.000000,6500.000000,500.000000,0,0.000000
70
0
0
ATTDEF
8
0
10
0.000000
20
0.000000
30
0.0
40
3.5
1

3

2
PANE_WIDTH:0.000000
70
0
0
ATTDEF
8
0
10
0.000000
20
0.000000
30
0.0
40
3.5
1

3

2
FP_LCS_ORIG
70
0
0
ATTDEF
8
0
10
10.000000
20
0.000000
30
0.0
40
3.5
1

3

2
FP_LCS_HOT
70
0
0
ATTDEF
8
0
10
0.000000
20
10.000000
30
0.0
40
3.5
1

3

2
FP_LCS_INTERN
70
0
0
ENDSEC
0
EOF
