  0
SECTION
  2
ENTITIES
  0
LINE
  8
0
 10
141.239363
 20
243.36
 30
0.0
 11
141.239363
 21
62.44
 31
0.0
  0
LINE
  8
0
 10
140.239363
 20
243.36
 30
0.0
 11
140.239363
 21
62.44
 31
0.0
  0
LINE
  8
0
 10
139.239363
 20
243.36
 30
0.0
 11
139.239363
 21
62.44
 31
0.0
  0
LINE
  8
0
 10
138.239363
 20
243.36
 30
0.0
 11
138.239363
 21
62.44
 31
0.0
  0
LINE
  8
0
 10
119.239363
 20
243.36
 30
0.0
 11
119.239363
 21
34.44
 31
0.0
  0
LINE
  8
0
 10
124.239363
 20
243.36
 30
0.0
 11
124.239363
 21
33.44
 31
0.0
  0
LINE
  8
0
 10
123.239363
 20
243.36
 30
0.0
 11
123.239363
 21
33.44
 31
0.0
  0
LINE
  8
0
 10
122.239363
 20
243.36
 30
0.0
 11
122.239363
 21
33.44
 31
0.0
  0
LINE
  8
0
 10
121.239363
 20
243.36
 30
0.0
 11
121.239363
 21
33.44
 31
0.0
  0
LINE
  8
0
 10
120.239363
 20
243.36
 30
0.0
 11
120.239363
 21
33.44
 31
0.0
  0
LINE
  8
0
 10
142.239363
 20
243.36
 30
0.0
 11
142.239363
 21
62.44
 31
0.0
  0
LINE
  8
0
 10
137.239363
 20
243.36
 30
0.0
 11
137.239363
 21
62.44
 31
0.0
  0
LINE
  8
0
 10
125.239363
 20
243.36
 30
0.0
 11
125.239363
 21
33.44
 31
0.0
  0
LINE
  8
0
 10
120.239363
 20
33.44
 30
0.0
 11
125.239363
 21
33.44
 31
0.0
  0
LINE
  8
0
 10
119.239363
 20
34.44
 30
0.0
 11
120.239363
 21
33.44
 31
0.0
  0
ARC
  8
0
 10
131.239363
 20
60.19
 30
0.0
 40
12.75
 50
61.927513
 51
73.901066
  0
ARC
  8
0
 10
131.239363
 20
58.69
 30
0.0
 40
12.75
 50
61.927513
 51
118.072487
  0
ARC
  8
0
 10
131.239363
 20
57.19
 30
0.0
 40
12.75
 50
61.927513
 51
118.072487
  0
ARC
  8
0
 10
131.239363
 20
55.69
 30
0.0
 40
12.75
 50
61.927513
 51
118.072487
  0
ARC
  8
0
 10
131.239363
 20
54.19
 30
0.0
 40
12.75
 50
61.927513
 51
118.072487
  0
ARC
  8
0
 10
131.239363
 20
52.69
 30
0.0
 40
12.75
 50
61.927513
 51
118.072487
  0
ARC
  8
0
 10
131.239363
 20
51.19
 30
0.0
 40
12.75
 50
61.927513
 51
118.072487
  0
LINE
  8
0
 10
125.239363
 20
82.44
 30
0.0
 11
137.239363
 21
82.44
 31
0.0
  0
LINE
  8
0
 10
125.239363
 20
72.44
 30
0.0
 11
137.239363
 21
72.44
 31
0.0
  0
ARC
  8
0
 10
134.239363
 20
79.44
 30
0.0
 40
2.0
 50
0.0
 51
90.0
  0
ARC
  8
0
 10
134.239363
 20
75.44
 30
0.0
 40
2.0
 50
270.0
 51
0.0
  0
LINE
  8
0
 10
126.239363
 20
79.44
 30
0.0
 11
126.239363
 21
75.44
 31
0.0
  0
LINE
  8
0
 10
128.239363
 20
73.44
 30
0.0
 11
134.239363
 21
73.44
 31
0.0
  0
ARC
  8
0
 10
131.239363
 20
60.19
 30
0.0
 40
12.75
 50
106.098934
 51
118.072487
  0
ARC
  8
0
 10
128.239363
 20
75.44
 30
0.0
 40
2.0
 50
180.0
 51
270.0
  0
LINE
  8
0
 10
128.239363
 20
81.44
 30
0.0
 11
134.239363
 21
81.44
 31
0.0
  0
ARC
  8
0
 10
128.239363
 20
79.44
 30
0.0
 40
2.0
 50
90.0
 51
180.0
  0
LINE
  8
0
 10
136.239363
 20
79.44
 30
0.0
 11
136.239363
 21
75.44
 31
0.0
  0
LINE
  8
0
 10
137.239363
 20
62.44
 30
0.0
 11
142.239363
 21
62.44
 31
0.0
  0
ENDSEC
  0
EOF
