  0
SECTION
  2
ENTITIES
  0
LINE
  8
0
 62
     2
  5
FBCA45EF2264B5FE
 10
242.269652
 20
131.475487
 30
0.0
 11
242.269652
 21
257.123673
 31
0.0
  0
LINE
  8
0
 62
     2
  5
FBCA45EF2264B5FD
 10
241.269652
 20
131.475487
 30
0.0
 11
241.269652
 21
257.123673
 31
0.0
  0
LINE
  8
0
 62
     2
  5
FBCA45EF2264B5FC
 10
240.269652
 20
131.475487
 30
0.0
 11
240.269652
 21
257.123673
 31
0.0
  0
LINE
  8
0
 62
     2
  5
FBCA45EF2264B5FB
 10
239.269652
 20
131.475487
 30
0.0
 11
239.269652
 21
257.123673
 31
0.0
  0
LINE
  8
0
 62
     2
  5
FBCA45EF2264B5FA
 10
238.269652
 20
131.475487
 30
0.0
 11
238.269652
 21
257.123673
 31
0.0
  0
LINE
  8
0
 62
     2
  5
FBCA45EF2264B5F9
 10
237.269652
 20
131.475487
 30
0.0
 11
237.269652
 21
257.123673
 31
0.0
  0
LINE
  8
0
 62
     2
  5
FBCA45EF2264B5F8
 10
236.269652
 20
131.475487
 30
0.0
 11
236.269652
 21
257.123673
 31
0.0
  0
LINE
  8
0
 62
     2
  5
FBCA45EF2264B5F7
 10
235.269652
 20
131.475487
 30
0.0
 11
235.269652
 21
257.123673
 31
0.0
  0
LINE
  8
0
 62
     2
  5
FBCA45EF2264B5F6
 10
239.240286
 20
131.475487
 30
0.0
 11
235.269652
 21
131.475487
 31
0.0
  0
LINE
  8
0
 62
     2
  5
FBCA45EF2264B5F5
 10
243.255784
 20
131.475487
 30
0.0
 11
239.240286
 21
131.475487
 31
0.0
  0
LINE
  8
0
 62
     2
  5
FBCA45EF2264B5F4
 10
243.255784
 20
257.123673
 30
0.0
 11
243.255784
 21
131.475487
 31
0.0
  0
LINE
  8
0
 62
     2
  5
FBCA45EF2264B5ED
 10
261.255784
 20
144.475487
 30
0.0
 11
261.255784
 21
257.172198
 31
0.0
  0
LINE
  8
0
 62
     2
  5
FBCA45EF2264B5EC
 10
260.255784
 20
144.475487
 30
0.0
 11
260.255784
 21
257.172198
 31
0.0
  0
LINE
  8
0
 62
     2
  5
FBCA45EF2264B5EB
 10
259.255784
 20
144.475487
 30
0.0
 11
259.255784
 21
257.172198
 31
0.0
  0
LINE
  8
0
  6
CONTINUOUS
 62
     7
  5
FBCA45EF2264B5EA
 10
258.255784
 20
144.475487
 30
0.0
 11
262.255784
 21
144.475487
 31
0.0
  0
POLYLINE
  8
0
  5
FBCA45EF2264AFDB
 66
     1
 10
0.0
 20
0.0
 30
0.0
 40
0.5
 41
0.5
  0
VERTEX
  8
0
  5
FBCA45EF2264AFDC
 10
258.005784
 20
174.475487
 30
0.0
  0
VERTEX
  8
0
  5
FBCA45EF2264AFDD
 10
258.005784
 20
167.475487
 30
0.0
  0
SEQEND
  8
0
  5
FBCA45EF2264AFDE
  0
POLYLINE
  8
0
  5
FBCA45EF2264AFCE
 66
     1
 10
0.0
 20
0.0
 30
0.0
 40
0.5
 41
0.5
  0
VERTEX
  8
0
  5
FBCA45EF2264AFCF
 10
243.505784
 20
174.475487
 30
0.0
  0
VERTEX
  8
0
  5
FBCA45EF2264AFD0
 10
243.505784
 20
167.475487
 30
0.0
  0
SEQEND
  8
0
  5
FBCA45EF2264AFD1
  0
POLYLINE
  8
0
  5
FBCA45EF2264AFC6
 66
     1
 10
0.0
 20
0.0
 30
0.0
 70
     1
  0
VERTEX
  8
0
  5
FBCA45EF2264AFC7
 10
244.255784
 20
167.682594
 30
0.0
  0
VERTEX
  8
0
  5
FBCA45EF2264AFC8
 10
244.96289
 20
166.975487
 30
0.0
  0
VERTEX
  8
0
  5
FBCA45EF2264AFC9
 10
256.548677
 20
166.975487
 30
0.0
  0
VERTEX
  8
0
  5
FBCA45EF2264AFCA
 10
257.255784
 20
167.682594
 30
0.0
  0
VERTEX
  8
0
  5
FBCA45EF2264AFCB
 10
257.255784
 20
173.975487
 30
0.0
  0
VERTEX
  8
0
  5
FBCA45EF2264AFCC
 10
244.255784
 20
173.975487
 30
0.0
  0
SEQEND
  8
0
  5
FBCA45EF2264AFCD
  0
POLYLINE
  8
0
  5
FBCA45EF2264AFBE
 66
     1
 10
0.0
 20
0.0
 30
0.0
 70
     1
  0
VERTEX
  8
0
  5
FBCA45EF2264AFBF
 10
243.755784
 20
167.475487
 30
0.0
  0
VERTEX
  8
0
  5
FBCA45EF2264AFC0
 10
244.755784
 20
166.475487
 30
0.0
  0
VERTEX
  8
0
  5
FBCA45EF2264AFC1
 10
256.755784
 20
166.475487
 30
0.0
  0
VERTEX
  8
0
  5
FBCA45EF2264AFC2
 10
257.755784
 20
167.475487
 30
0.0
  0
VERTEX
  8
0
  5
FBCA45EF2264AFC3
 10
257.755784
 20
174.475487
 30
0.0
  0
VERTEX
  8
0
  5
FBCA45EF2264AFC4
 10
243.755784
 20
174.475487
 30
0.0
  0
SEQEND
  8
0
  5
FBCA45EF2264AFC5
  0
INSERT
  8
0
  6
CONTINUOUS
 62
     7
  5
FBCA45EF2264AFBD
  2
*X22
 10
124.226723
 20
288.199689
 30
0.0
 50
270.0
1001
ACAD
1000
HATCH
1002
{
1070
    16
1000
HEX
1040
3.0
1040
0.0
1002
}
  0
ARC
  8
0
  5
FBCA45EF2264AFB3
 10
250.755784
 20
107.475487
 30
0.0
 40
56.5
 50
82.37185
 51
97.62815
  0
ARC
  8
0
  5
FBCA45EF2264AFB2
 10
250.755784
 20
107.975487
 30
0.0
 40
56.5
 50
82.37185
 51
97.62815
  0
ARC
  8
0
  5
FBCA45EF2264AFB1
 10
250.755784
 20
108.975487
 30
0.0
 40
56.5
 50
82.37185
 51
97.62815
  0
ARC
  8
0
  5
FBCA45EF2264AFB0
 10
250.755784
 20
108.475487
 30
0.0
 40
56.5
 50
82.37185
 51
97.62815
  0
ARC
  8
0
  5
FBCA45EF2264AFAF
 10
250.755784
 20
109.975487
 30
0.0
 40
56.5
 50
82.37185
 51
97.62815
  0
ARC
  8
0
  5
FBCA45EF2264AFAE
 10
250.755784
 20
109.475487
 30
0.0
 40
56.5
 50
82.37185
 51
97.62815
  0
LINE
  8
0
 62
     2
  5
FBCA45EF2264AFDF
 10
258.255784
 20
144.475487
 30
0.0
 11
258.255784
 21
257.172198
 31
0.0
  0
LINE
  8
0
 62
     2
  5
FBCA45EF2264AFE3
 10
262.255784
 20
144.475487
 30
0.0
 11
262.255784
 21
257.172198
 31
0.0
  0
ENDSEC
  0
EOF
